1.000000000000000000e+01
1.106145251396648099e+01
1.212290502793296199e+01
1.318435754189944120e+01
1.424581005586592219e+01
1.530726256983240319e+01
1.636871508379888240e+01
1.743016759776536162e+01
1.849162011173184439e+01
1.955307262569832716e+01
2.061452513966480637e+01
2.167597765363128559e+01
2.273743016759776481e+01
2.379888268156424758e+01
2.486033519553072679e+01
2.592178770949720956e+01
2.698324022346368878e+01
2.804469273743016799e+01
2.910614525139665076e+01
3.016759776536312998e+01
3.122905027932961275e+01
3.229050279329609197e+01
3.335195530726257118e+01
3.441340782122905750e+01
3.547486033519552961e+01
3.653631284916201594e+01
3.759776536312849515e+01
3.865921787709497437e+01
3.972067039106145359e+01
4.078212290502793280e+01
4.184357541899441912e+01
4.290502793296089834e+01
4.396648044692737756e+01
4.502793296089385677e+01
4.608938547486033599e+01
4.715083798882682231e+01
4.821229050279330153e+01
4.927374301675978074e+01
5.033519553072625996e+01
5.139664804469273918e+01
5.245810055865922550e+01
5.351955307262570471e+01
5.458100558659218393e+01
5.564245810055866315e+01
5.670391061452514236e+01
5.776536312849162158e+01
5.882681564245810790e+01
5.988826815642458712e+01
6.094972067039106634e+01
6.201117318435754555e+01
6.307262569832402477e+01
6.413407821229051820e+01
6.519553072625699031e+01
6.625698324022346242e+01
6.731843575418994874e+01
6.837988826815643506e+01
6.944134078212290717e+01
7.050279329608939349e+01
7.156424581005586560e+01
7.262569832402235193e+01
7.368715083798883825e+01
7.474860335195531036e+01
7.581005586592179668e+01
7.687150837988826879e+01
7.793296089385475511e+01
7.899441340782124144e+01
8.005586592178771355e+01
8.111731843575419987e+01
8.217877094972067198e+01
8.324022346368715830e+01
8.430167597765364462e+01
8.536312849162011673e+01
8.642458100558660306e+01
8.748603351955307517e+01
8.854748603351956149e+01
8.960893854748604781e+01
9.067039106145251992e+01
9.173184357541900624e+01
9.279329608938547835e+01
9.385474860335196468e+01
9.491620111731845100e+01
9.597765363128492311e+01
9.703910614525140943e+01
9.810055865921788154e+01
9.916201117318436786e+01
1.002234636871508400e+02
1.012849162011173263e+02
1.023463687150838126e+02
1.034078212290502847e+02
1.044692737430167710e+02
1.055307262569832432e+02
1.065921787709497295e+02
1.076536312849162158e+02
1.087150837988826879e+02
1.097765363128491742e+02
1.108379888268156463e+02
1.118994413407821327e+02
1.129608938547486190e+02
1.140223463687150911e+02
1.150837988826815774e+02
1.161452513966480495e+02
1.172067039106145359e+02
1.182681564245810222e+02
1.193296089385474943e+02
1.203910614525139806e+02
1.214525139664804527e+02
1.225139664804469390e+02
1.235754189944134254e+02
1.246368715083798975e+02
1.256983240223463838e+02
1.267597765363128559e+02
1.278212290502793422e+02
1.288826815642458143e+02
1.299441340782123007e+02
1.310055865921787870e+02
1.320670391061452733e+02
1.331284916201117312e+02
1.341899441340782175e+02
1.352513966480447039e+02
1.363128491620111902e+02
1.373743016759776765e+02
1.384357541899441344e+02
1.394972067039106207e+02
1.405586592178771070e+02
1.416201117318435934e+02
1.426815642458100797e+02
1.437430167597765376e+02
1.448044692737430239e+02
1.458659217877095102e+02
1.469273743016759965e+02
1.479888268156424829e+02
1.490502793296089408e+02
1.501117318435754271e+02
1.511731843575419134e+02
1.522346368715083997e+02
1.532960893854748861e+02
1.543575418994413440e+02
1.554189944134078303e+02
1.564804469273743166e+02
1.575418994413408029e+02
1.586033519553072892e+02
1.596648044692737471e+02
1.607262569832402335e+02
1.617877094972067198e+02
1.628491620111732061e+02
1.639106145251396924e+02
1.649720670391061503e+02
1.660335195530726367e+02
1.670949720670391230e+02
1.681564245810056093e+02
1.692178770949720956e+02
1.702793296089385535e+02
1.713407821229050398e+02
1.724022346368715262e+02
1.734636871508380125e+02
1.745251396648044988e+02
1.755865921787709567e+02
1.766480446927374430e+02
1.777094972067039294e+02
1.787709497206704157e+02
1.798324022346369020e+02
1.808938547486033599e+02
1.819553072625698462e+02
1.830167597765363325e+02
1.840782122905028189e+02
1.851396648044692768e+02
1.862011173184357631e+02
1.872625698324022494e+02
1.883240223463687357e+02
1.893854748603352220e+02
1.904469273743016799e+02
1.915083798882681663e+02
1.925698324022346526e+02
1.936312849162011389e+02
1.946927374301676252e+02
1.957541899441340831e+02
1.968156424581005695e+02
1.978770949720670558e+02
1.989385474860335421e+02
2.000000000000000000e+02
