1.840712756411795603e-02 1.737859540479859757e-02 1.715400141743869331e-02 1.722953381417789698e-02 1.705127208084598195e-02
1.814939989208913529e-02 1.792770882022017009e-02 1.736216459501797177e-02 1.735688875595966379e-02 1.697772462849776037e-02
1.917375800590827989e-02 1.880251338179257312e-02 1.614841833171924354e-02 1.706164635469535965e-02 1.718342878780988389e-02
1.796646098027976021e-02 1.845145912893446025e-02 1.724279734589443877e-02 1.638752989599941839e-02 1.681729447570588440e-02
1.689147923820870367e-02 1.786933823303186314e-02 1.761141514112302478e-02 1.720301213435488155e-02 1.620150429893485802e-02
1.866098834157994824e-02 1.593944552223736100e-02 1.727196851844181938e-02 1.675235480268185209e-02 1.601909261790562811e-02
1.772648702943546706e-02 1.758468376298803065e-02 1.692661761382360103e-02 1.656890449833164566e-02 1.617897727989802553e-02
1.865330425128497449e-02 1.612452299636055533e-02 1.623547556142092285e-02 1.649920772314727654e-02 1.648941039241340681e-02
1.763195056699424362e-02 1.757763378847837163e-02 1.681646117402252338e-02 1.550014854209503384e-02 1.579378688062050423e-02
1.839389057485120091e-02 1.722980003381063829e-02 1.611602758573635677e-02 1.590386550786955164e-02 1.605071912935973621e-02
1.589731410535182021e-02 1.538072238932110605e-02 1.634771475610359917e-02 1.612766676569977672e-02 1.605170324467676546e-02
1.613906534731073331e-02 1.516805118709608179e-02 1.633039829084156902e-02 1.589368628425142510e-02 1.591838063718232013e-02
1.582709881332163004e-02 1.544767392394077142e-02 1.633104728766186092e-02 1.609756106099536829e-02 1.621240422889559663e-02
1.658340549387085291e-02 1.626014081269614234e-02 1.635164373024062048e-02 1.567939635938646672e-02 1.635073579401464042e-02
1.598634628708923630e-02 1.695793629986102127e-02 1.513525159290171618e-02 1.608681057224407157e-02 1.621718530451968232e-02
1.699722097583366079e-02 1.596846723616699229e-02 1.587543370638971885e-02 1.600898278271144573e-02 1.619664049554716406e-02
1.624141989665617986e-02 1.671176796044836557e-02 1.572350232105707013e-02 1.597629612695754958e-02 1.597600445229756944e-02
1.660883937515602454e-02 1.577552901262022078e-02 1.638638369381801088e-02 1.556579328362958647e-02 1.594112270673500587e-02
1.554344437067137555e-02 1.555977527245061380e-02 1.609344264923192810e-02 1.580862715343193253e-02 1.587013470925108249e-02
1.632922819540700426e-02 1.555363603145049414e-02 1.577457071006469966e-02 1.632752450041438652e-02 1.608801141226093301e-02
1.638205416688090499e-02 1.609443191177446775e-02 1.585463598018611517e-02 1.560982438983182612e-02 1.565657705273429401e-02
1.584230669658292026e-02 1.597319165838956279e-02 1.577258233874896665e-02 1.578318175657782499e-02 1.568673230920507658e-02
1.575372727111973292e-02 1.595381114604849451e-02 1.584831838418346295e-02 1.577264563341108927e-02 1.575229911952271550e-02
1.603570003371234190e-02 1.567948623840539554e-02 1.606584769645239344e-02 1.580262925637674828e-02 1.569521791542787328e-02
1.593224414912286155e-02 1.577103952287958397e-02 1.614300449612215624e-02 1.577830033820057723e-02 1.552498075957321581e-02
1.615543183386849990e-02 1.602380466452962143e-02 1.575811818318423665e-02 1.598782348298212128e-02 1.571808961058518764e-02
1.565044938191753610e-02 1.583849404566190638e-02 1.563645530840244643e-02 1.572535066941687515e-02 1.575453945149430518e-02
1.568461176690319134e-02 1.571203959447459858e-02 1.565565467799008223e-02 1.565393433256545216e-02 1.575936870438508081e-02
1.545081517581511389e-02 1.554742681877406552e-02 1.568951332453750666e-02 1.550458999817361412e-02 1.566674457690183167e-02
1.595214077171431405e-02 1.576795221043687106e-02 1.565129859170647647e-02 1.573960729123059440e-02 1.565904133828574865e-02
