1.000000000000000000e+01
1.126481692335886109e+01
1.268961003167922108e+01
1.429461338356844635e+01
1.610262027560939302e+01
1.813930693911062164e+01
2.043359717856941771e+01
2.301807313022466417e+01
2.592943797404667094e+01
2.920903717032248537e+01
3.290344562312667875e+01
3.706512910922156578e+01
4.175318936560400118e+01
4.703420341698635099e+01
5.298316906283707084e+01
5.968456995122310360e+01
6.723357536499334230e+01
7.573739175895009623e+01
8.531678524172805567e+01
9.610779662375922783e+01
1.082636733874054045e+02
1.219570460159441438e+02
1.373823795883263870e+02
1.547587354557889228e+02
1.743328822199987371e+02
1.963828001929769869e+02
2.212216291070450325e+02
2.492021151378056913e+02
2.807216203941175650e+02
3.162277660168379612e+02
