1.000000000000000000e+00
2.000000000000000000e+00
3.000000000000000000e+00
5.000000000000000000e+00
8.000000000000000000e+00
9.000000000000000000e+00
1.200000000000000000e+01
1.400000000000000000e+01
1.800000000000000000e+01
2.200000000000000000e+01
2.700000000000000000e+01
3.100000000000000000e+01
3.700000000000000000e+01
4.200000000000000000e+01
4.900000000000000000e+01
5.600000000000000000e+01
6.500000000000000000e+01
8.000000000000000000e+01
9.300000000000000000e+01
1.040000000000000000e+02
1.210000000000000000e+02
1.410000000000000000e+02
1.640000000000000000e+02
1.940000000000000000e+02
2.290000000000000000e+02
2.580000000000000000e+02
2.970000000000000000e+02
3.500000000000000000e+02
4.000000000000000000e+02
4.720000000000000000e+02
5.400000000000000000e+02
6.320000000000000000e+02
7.350000000000000000e+02
8.540000000000000000e+02
9.940000000000000000e+02
1.161000000000000000e+03
1.319000000000000000e+03
1.531000000000000000e+03
1.782000000000000000e+03
2.052000000000000000e+03
2.385000000000000000e+03
2.763000000000000000e+03
3.200000000000000000e+03
3.691000000000000000e+03
