1.000000000000000000e+00
2.000000000000000000e+00
2.000000000000000000e+00
2.000000000000000000e+00
2.000000000000000000e+00
2.000000000000000000e+00
2.000000000000000000e+00
2.000000000000000000e+00
2.000000000000000000e+00
2.000000000000000000e+00
2.000000000000000000e+00
2.000000000000000000e+00
2.000000000000000000e+00
2.000000000000000000e+00
2.000000000000000000e+00
2.000000000000000000e+00
2.000000000000000000e+00
2.000000000000000000e+00
2.000000000000000000e+00
2.000000000000000000e+00
2.000000000000000000e+00
2.000000000000000000e+00
2.000000000000000000e+00
2.000000000000000000e+00
2.000000000000000000e+00
2.000000000000000000e+00
2.000000000000000000e+00
2.000000000000000000e+00
2.000000000000000000e+00
2.000000000000000000e+00
2.000000000000000000e+00
2.000000000000000000e+00
2.000000000000000000e+00
2.000000000000000000e+00
2.000000000000000000e+00
2.000000000000000000e+00
2.000000000000000000e+00
2.000000000000000000e+00
2.000000000000000000e+00
2.000000000000000000e+00
2.000000000000000000e+00
2.000000000000000000e+00
2.000000000000000000e+00
2.000000000000000000e+00
2.000000000000000000e+00
2.000000000000000000e+00
2.000000000000000000e+00
2.000000000000000000e+00
2.000000000000000000e+00
2.000000000000000000e+00
2.000000000000000000e+00
2.000000000000000000e+00
2.000000000000000000e+00
2.000000000000000000e+00
2.000000000000000000e+00
2.000000000000000000e+00
2.000000000000000000e+00
2.000000000000000000e+00
2.000000000000000000e+00
2.000000000000000000e+00
2.000000000000000000e+00
2.000000000000000000e+00
2.000000000000000000e+00
2.000000000000000000e+00
2.000000000000000000e+00
2.000000000000000000e+00
2.000000000000000000e+00
2.000000000000000000e+00
2.000000000000000000e+00
2.000000000000000000e+00
2.000000000000000000e+00
2.000000000000000000e+00
2.000000000000000000e+00
2.000000000000000000e+00
2.000000000000000000e+00
2.000000000000000000e+00
2.000000000000000000e+00
2.000000000000000000e+00
2.000000000000000000e+00
2.000000000000000000e+00
2.000000000000000000e+00
2.000000000000000000e+00
2.000000000000000000e+00
2.000000000000000000e+00
2.000000000000000000e+00
2.000000000000000000e+00
2.000000000000000000e+00
2.000000000000000000e+00
2.000000000000000000e+00
2.000000000000000000e+00
2.000000000000000000e+00
2.000000000000000000e+00
2.000000000000000000e+00
2.000000000000000000e+00
2.000000000000000000e+00
2.000000000000000000e+00
2.000000000000000000e+00
2.000000000000000000e+00
2.000000000000000000e+00
2.000000000000000000e+00
2.000000000000000000e+00
2.000000000000000000e+00
2.000000000000000000e+00
2.000000000000000000e+00
2.000000000000000000e+00
2.000000000000000000e+00
2.000000000000000000e+00
2.000000000000000000e+00
2.000000000000000000e+00
2.000000000000000000e+00
2.000000000000000000e+00
2.000000000000000000e+00
2.000000000000000000e+00
2.000000000000000000e+00
2.000000000000000000e+00
2.000000000000000000e+00
2.000000000000000000e+00
2.000000000000000000e+00
2.000000000000000000e+00
2.000000000000000000e+00
2.000000000000000000e+00
2.000000000000000000e+00
3.000000000000000000e+00
3.000000000000000000e+00
3.000000000000000000e+00
3.000000000000000000e+00
3.000000000000000000e+00
3.000000000000000000e+00
3.000000000000000000e+00
3.000000000000000000e+00
3.000000000000000000e+00
3.000000000000000000e+00
3.000000000000000000e+00
3.000000000000000000e+00
3.000000000000000000e+00
3.000000000000000000e+00
3.000000000000000000e+00
3.000000000000000000e+00
3.000000000000000000e+00
3.000000000000000000e+00
3.000000000000000000e+00
3.000000000000000000e+00
3.000000000000000000e+00
3.000000000000000000e+00
3.000000000000000000e+00
3.000000000000000000e+00
3.000000000000000000e+00
3.000000000000000000e+00
3.000000000000000000e+00
3.000000000000000000e+00
3.000000000000000000e+00
3.000000000000000000e+00
3.000000000000000000e+00
3.000000000000000000e+00
3.000000000000000000e+00
3.000000000000000000e+00
3.000000000000000000e+00
3.000000000000000000e+00
3.000000000000000000e+00
3.000000000000000000e+00
3.000000000000000000e+00
3.000000000000000000e+00
3.000000000000000000e+00
3.000000000000000000e+00
3.000000000000000000e+00
3.000000000000000000e+00
3.000000000000000000e+00
3.000000000000000000e+00
3.000000000000000000e+00
3.000000000000000000e+00
3.000000000000000000e+00
3.000000000000000000e+00
3.000000000000000000e+00
3.000000000000000000e+00
3.000000000000000000e+00
3.000000000000000000e+00
3.000000000000000000e+00
3.000000000000000000e+00
3.000000000000000000e+00
3.000000000000000000e+00
3.000000000000000000e+00
3.000000000000000000e+00
3.000000000000000000e+00
3.000000000000000000e+00
3.000000000000000000e+00
3.000000000000000000e+00
3.000000000000000000e+00
3.000000000000000000e+00
3.000000000000000000e+00
3.000000000000000000e+00
3.000000000000000000e+00
3.000000000000000000e+00
3.000000000000000000e+00
3.000000000000000000e+00
3.000000000000000000e+00
3.000000000000000000e+00
4.000000000000000000e+00
4.000000000000000000e+00
4.000000000000000000e+00
4.000000000000000000e+00
4.000000000000000000e+00
4.000000000000000000e+00
5.000000000000000000e+00
5.000000000000000000e+00
5.000000000000000000e+00
5.000000000000000000e+00
5.000000000000000000e+00
5.000000000000000000e+00
5.000000000000000000e+00
5.000000000000000000e+00
5.000000000000000000e+00
5.000000000000000000e+00
5.000000000000000000e+00
5.000000000000000000e+00
5.000000000000000000e+00
5.000000000000000000e+00
5.000000000000000000e+00
5.000000000000000000e+00
5.000000000000000000e+00
5.000000000000000000e+00
5.000000000000000000e+00
5.000000000000000000e+00
5.000000000000000000e+00
5.000000000000000000e+00
5.000000000000000000e+00
5.000000000000000000e+00
5.000000000000000000e+00
5.000000000000000000e+00
5.000000000000000000e+00
5.000000000000000000e+00
5.000000000000000000e+00
5.000000000000000000e+00
5.000000000000000000e+00
5.000000000000000000e+00
5.000000000000000000e+00
5.000000000000000000e+00
5.000000000000000000e+00
5.000000000000000000e+00
5.000000000000000000e+00
5.000000000000000000e+00
5.000000000000000000e+00
5.000000000000000000e+00
5.000000000000000000e+00
5.000000000000000000e+00
5.000000000000000000e+00
5.000000000000000000e+00
5.000000000000000000e+00
5.000000000000000000e+00
5.000000000000000000e+00
5.000000000000000000e+00
5.000000000000000000e+00
5.000000000000000000e+00
5.000000000000000000e+00
5.000000000000000000e+00
6.000000000000000000e+00
6.000000000000000000e+00
6.000000000000000000e+00
6.000000000000000000e+00
6.000000000000000000e+00
6.000000000000000000e+00
6.000000000000000000e+00
6.000000000000000000e+00
6.000000000000000000e+00
6.000000000000000000e+00
6.000000000000000000e+00
6.000000000000000000e+00
6.000000000000000000e+00
6.000000000000000000e+00
6.000000000000000000e+00
6.000000000000000000e+00
6.000000000000000000e+00
6.000000000000000000e+00
6.000000000000000000e+00
6.000000000000000000e+00
6.000000000000000000e+00
6.000000000000000000e+00
6.000000000000000000e+00
6.000000000000000000e+00
6.000000000000000000e+00
6.000000000000000000e+00
6.000000000000000000e+00
6.000000000000000000e+00
6.000000000000000000e+00
6.000000000000000000e+00
6.000000000000000000e+00
6.000000000000000000e+00
6.000000000000000000e+00
6.000000000000000000e+00
6.000000000000000000e+00
6.000000000000000000e+00
7.000000000000000000e+00
7.000000000000000000e+00
7.000000000000000000e+00
7.000000000000000000e+00
8.000000000000000000e+00
8.000000000000000000e+00
8.000000000000000000e+00
8.000000000000000000e+00
8.000000000000000000e+00
8.000000000000000000e+00
8.000000000000000000e+00
8.000000000000000000e+00
8.000000000000000000e+00
8.000000000000000000e+00
8.000000000000000000e+00
8.000000000000000000e+00
8.000000000000000000e+00
8.000000000000000000e+00
8.000000000000000000e+00
8.000000000000000000e+00
8.000000000000000000e+00
8.000000000000000000e+00
8.000000000000000000e+00
8.000000000000000000e+00
8.000000000000000000e+00
8.000000000000000000e+00
8.000000000000000000e+00
8.000000000000000000e+00
8.000000000000000000e+00
8.000000000000000000e+00
9.000000000000000000e+00
9.000000000000000000e+00
9.000000000000000000e+00
9.000000000000000000e+00
9.000000000000000000e+00
9.000000000000000000e+00
9.000000000000000000e+00
9.000000000000000000e+00
9.000000000000000000e+00
9.000000000000000000e+00
9.000000000000000000e+00
9.000000000000000000e+00
9.000000000000000000e+00
9.000000000000000000e+00
9.000000000000000000e+00
9.000000000000000000e+00
9.000000000000000000e+00
9.000000000000000000e+00
9.000000000000000000e+00
9.000000000000000000e+00
9.000000000000000000e+00
9.000000000000000000e+00
9.000000000000000000e+00
9.000000000000000000e+00
9.000000000000000000e+00
9.000000000000000000e+00
9.000000000000000000e+00
1.000000000000000000e+01
1.000000000000000000e+01
1.000000000000000000e+01
1.000000000000000000e+01
1.000000000000000000e+01
1.000000000000000000e+01
1.000000000000000000e+01
1.000000000000000000e+01
1.000000000000000000e+01
1.000000000000000000e+01
1.100000000000000000e+01
1.100000000000000000e+01
1.100000000000000000e+01
1.100000000000000000e+01
1.100000000000000000e+01
1.100000000000000000e+01
1.100000000000000000e+01
1.100000000000000000e+01
1.100000000000000000e+01
1.100000000000000000e+01
1.100000000000000000e+01
1.100000000000000000e+01
1.100000000000000000e+01
1.100000000000000000e+01
1.100000000000000000e+01
1.100000000000000000e+01
1.100000000000000000e+01
1.100000000000000000e+01
1.100000000000000000e+01
1.100000000000000000e+01
1.100000000000000000e+01
1.100000000000000000e+01
1.100000000000000000e+01
1.200000000000000000e+01
1.200000000000000000e+01
1.200000000000000000e+01
1.200000000000000000e+01
1.300000000000000000e+01
1.300000000000000000e+01
1.300000000000000000e+01
1.300000000000000000e+01
1.300000000000000000e+01
1.300000000000000000e+01
1.400000000000000000e+01
1.400000000000000000e+01
1.400000000000000000e+01
1.400000000000000000e+01
1.400000000000000000e+01
1.400000000000000000e+01
1.400000000000000000e+01
1.400000000000000000e+01
1.400000000000000000e+01
1.400000000000000000e+01
1.400000000000000000e+01
1.400000000000000000e+01
1.400000000000000000e+01
1.400000000000000000e+01
1.400000000000000000e+01
1.400000000000000000e+01
1.400000000000000000e+01
1.400000000000000000e+01
1.400000000000000000e+01
1.400000000000000000e+01
1.500000000000000000e+01
1.500000000000000000e+01
1.500000000000000000e+01
1.500000000000000000e+01
1.500000000000000000e+01
1.500000000000000000e+01
1.500000000000000000e+01
1.500000000000000000e+01
1.600000000000000000e+01
1.600000000000000000e+01
1.600000000000000000e+01
1.600000000000000000e+01
1.600000000000000000e+01
1.600000000000000000e+01
1.600000000000000000e+01
1.600000000000000000e+01
1.700000000000000000e+01
1.700000000000000000e+01
1.700000000000000000e+01
1.700000000000000000e+01
1.700000000000000000e+01
1.700000000000000000e+01
1.700000000000000000e+01
1.700000000000000000e+01
1.700000000000000000e+01
1.700000000000000000e+01
1.700000000000000000e+01
1.700000000000000000e+01
1.700000000000000000e+01
1.800000000000000000e+01
1.800000000000000000e+01
1.800000000000000000e+01
1.800000000000000000e+01
1.800000000000000000e+01
1.800000000000000000e+01
1.900000000000000000e+01
1.900000000000000000e+01
1.900000000000000000e+01
1.900000000000000000e+01
1.900000000000000000e+01
1.900000000000000000e+01
1.900000000000000000e+01
1.900000000000000000e+01
1.900000000000000000e+01
1.900000000000000000e+01
1.900000000000000000e+01
1.900000000000000000e+01
1.900000000000000000e+01
1.900000000000000000e+01
2.000000000000000000e+01
2.100000000000000000e+01
2.100000000000000000e+01
2.200000000000000000e+01
2.300000000000000000e+01
2.400000000000000000e+01
2.400000000000000000e+01
2.400000000000000000e+01
2.400000000000000000e+01
2.400000000000000000e+01
2.400000000000000000e+01
2.400000000000000000e+01
2.400000000000000000e+01
2.500000000000000000e+01
2.500000000000000000e+01
2.600000000000000000e+01
2.600000000000000000e+01
2.600000000000000000e+01
2.600000000000000000e+01
2.600000000000000000e+01
2.700000000000000000e+01
2.700000000000000000e+01
2.700000000000000000e+01
2.800000000000000000e+01
2.800000000000000000e+01
2.900000000000000000e+01
2.900000000000000000e+01
2.900000000000000000e+01
2.900000000000000000e+01
2.900000000000000000e+01
2.900000000000000000e+01
2.900000000000000000e+01
2.900000000000000000e+01
2.900000000000000000e+01
2.900000000000000000e+01
2.900000000000000000e+01
2.900000000000000000e+01
2.900000000000000000e+01
2.900000000000000000e+01
2.900000000000000000e+01
2.900000000000000000e+01
2.900000000000000000e+01
3.000000000000000000e+01
3.000000000000000000e+01
3.000000000000000000e+01
3.000000000000000000e+01
3.000000000000000000e+01
3.000000000000000000e+01
3.000000000000000000e+01
3.000000000000000000e+01
3.000000000000000000e+01
3.000000000000000000e+01
3.000000000000000000e+01
3.000000000000000000e+01
3.100000000000000000e+01
3.100000000000000000e+01
3.100000000000000000e+01
3.100000000000000000e+01
3.200000000000000000e+01
3.200000000000000000e+01
3.200000000000000000e+01
3.200000000000000000e+01
3.200000000000000000e+01
3.200000000000000000e+01
3.200000000000000000e+01
3.200000000000000000e+01
3.400000000000000000e+01
3.400000000000000000e+01
3.400000000000000000e+01
3.400000000000000000e+01
3.400000000000000000e+01
3.400000000000000000e+01
3.400000000000000000e+01
3.400000000000000000e+01
3.500000000000000000e+01
3.500000000000000000e+01
3.600000000000000000e+01
3.600000000000000000e+01
3.600000000000000000e+01
3.700000000000000000e+01
3.800000000000000000e+01
3.900000000000000000e+01
4.000000000000000000e+01
4.000000000000000000e+01
4.000000000000000000e+01
4.100000000000000000e+01
4.100000000000000000e+01
4.100000000000000000e+01
4.100000000000000000e+01
4.100000000000000000e+01
4.100000000000000000e+01
4.100000000000000000e+01
4.100000000000000000e+01
4.100000000000000000e+01
4.100000000000000000e+01
4.200000000000000000e+01
4.300000000000000000e+01
4.300000000000000000e+01
4.300000000000000000e+01
4.300000000000000000e+01
4.500000000000000000e+01
4.500000000000000000e+01
4.500000000000000000e+01
4.500000000000000000e+01
4.500000000000000000e+01
4.600000000000000000e+01
4.600000000000000000e+01
4.600000000000000000e+01
4.700000000000000000e+01
4.800000000000000000e+01
4.800000000000000000e+01
4.800000000000000000e+01
4.800000000000000000e+01
4.800000000000000000e+01
4.800000000000000000e+01
4.800000000000000000e+01
4.800000000000000000e+01
4.900000000000000000e+01
4.900000000000000000e+01
5.000000000000000000e+01
5.100000000000000000e+01
5.100000000000000000e+01
5.100000000000000000e+01
5.100000000000000000e+01
5.300000000000000000e+01
5.300000000000000000e+01
5.400000000000000000e+01
5.500000000000000000e+01
5.500000000000000000e+01
5.500000000000000000e+01
5.500000000000000000e+01
5.500000000000000000e+01
5.500000000000000000e+01
5.500000000000000000e+01
5.500000000000000000e+01
5.500000000000000000e+01
5.500000000000000000e+01
5.500000000000000000e+01
5.500000000000000000e+01
5.500000000000000000e+01
5.500000000000000000e+01
5.500000000000000000e+01
5.500000000000000000e+01
5.600000000000000000e+01
5.600000000000000000e+01
5.600000000000000000e+01
5.800000000000000000e+01
5.900000000000000000e+01
5.900000000000000000e+01
5.900000000000000000e+01
5.900000000000000000e+01
5.900000000000000000e+01
6.200000000000000000e+01
6.200000000000000000e+01
6.200000000000000000e+01
6.300000000000000000e+01
6.300000000000000000e+01
6.300000000000000000e+01
6.300000000000000000e+01
6.300000000000000000e+01
6.300000000000000000e+01
6.300000000000000000e+01
6.400000000000000000e+01
6.500000000000000000e+01
6.600000000000000000e+01
6.600000000000000000e+01
6.700000000000000000e+01
6.700000000000000000e+01
6.700000000000000000e+01
6.700000000000000000e+01
6.700000000000000000e+01
6.700000000000000000e+01
6.700000000000000000e+01
6.800000000000000000e+01
6.800000000000000000e+01
6.900000000000000000e+01
6.900000000000000000e+01
7.000000000000000000e+01
7.100000000000000000e+01
7.100000000000000000e+01
7.200000000000000000e+01
7.200000000000000000e+01
7.500000000000000000e+01
7.600000000000000000e+01
7.600000000000000000e+01
7.800000000000000000e+01
7.800000000000000000e+01
7.800000000000000000e+01
8.000000000000000000e+01
8.000000000000000000e+01
8.000000000000000000e+01
8.000000000000000000e+01
8.100000000000000000e+01
8.200000000000000000e+01
8.200000000000000000e+01
8.300000000000000000e+01
8.400000000000000000e+01
8.400000000000000000e+01
8.500000000000000000e+01
8.700000000000000000e+01
8.800000000000000000e+01
8.800000000000000000e+01
8.900000000000000000e+01
9.000000000000000000e+01
9.100000000000000000e+01
9.100000000000000000e+01
9.100000000000000000e+01
9.100000000000000000e+01
9.100000000000000000e+01
9.100000000000000000e+01
9.100000000000000000e+01
9.400000000000000000e+01
9.500000000000000000e+01
9.600000000000000000e+01
9.600000000000000000e+01
9.700000000000000000e+01
1.000000000000000000e+02
1.000000000000000000e+02
1.010000000000000000e+02
1.010000000000000000e+02
1.010000000000000000e+02
1.010000000000000000e+02
1.030000000000000000e+02
1.040000000000000000e+02
1.050000000000000000e+02
1.060000000000000000e+02
1.060000000000000000e+02
1.060000000000000000e+02
1.070000000000000000e+02
1.070000000000000000e+02
1.070000000000000000e+02
1.070000000000000000e+02
1.090000000000000000e+02
1.090000000000000000e+02
1.100000000000000000e+02
1.100000000000000000e+02
1.110000000000000000e+02
1.120000000000000000e+02
1.120000000000000000e+02
1.120000000000000000e+02
1.150000000000000000e+02
1.150000000000000000e+02
1.160000000000000000e+02
1.170000000000000000e+02
1.180000000000000000e+02
1.180000000000000000e+02
1.190000000000000000e+02
1.200000000000000000e+02
1.210000000000000000e+02
1.220000000000000000e+02
1.260000000000000000e+02
1.260000000000000000e+02
1.270000000000000000e+02
1.290000000000000000e+02
1.300000000000000000e+02
1.300000000000000000e+02
1.310000000000000000e+02
1.320000000000000000e+02
1.330000000000000000e+02
1.330000000000000000e+02
1.340000000000000000e+02
1.340000000000000000e+02
1.340000000000000000e+02
1.340000000000000000e+02
1.340000000000000000e+02
1.350000000000000000e+02
1.350000000000000000e+02
1.350000000000000000e+02
1.380000000000000000e+02
1.390000000000000000e+02
1.410000000000000000e+02
1.410000000000000000e+02
1.430000000000000000e+02
1.450000000000000000e+02
1.450000000000000000e+02
1.460000000000000000e+02
1.480000000000000000e+02
1.500000000000000000e+02
1.540000000000000000e+02
1.560000000000000000e+02
1.590000000000000000e+02
1.600000000000000000e+02
1.610000000000000000e+02
1.620000000000000000e+02
1.640000000000000000e+02
1.640000000000000000e+02
1.680000000000000000e+02
1.690000000000000000e+02
1.690000000000000000e+02
1.700000000000000000e+02
1.710000000000000000e+02
1.710000000000000000e+02
1.720000000000000000e+02
1.750000000000000000e+02
1.750000000000000000e+02
1.760000000000000000e+02
1.760000000000000000e+02
1.770000000000000000e+02
1.770000000000000000e+02
1.770000000000000000e+02
1.780000000000000000e+02
1.790000000000000000e+02
1.790000000000000000e+02
1.810000000000000000e+02
1.820000000000000000e+02
1.840000000000000000e+02
1.840000000000000000e+02
1.840000000000000000e+02
1.850000000000000000e+02
1.860000000000000000e+02
1.860000000000000000e+02
1.870000000000000000e+02
1.910000000000000000e+02
1.930000000000000000e+02
1.940000000000000000e+02
1.960000000000000000e+02
1.980000000000000000e+02
1.990000000000000000e+02
2.010000000000000000e+02
2.040000000000000000e+02
2.070000000000000000e+02
2.090000000000000000e+02
2.110000000000000000e+02
2.110000000000000000e+02
2.120000000000000000e+02
2.150000000000000000e+02
2.160000000000000000e+02
2.200000000000000000e+02
2.220000000000000000e+02
2.230000000000000000e+02
2.240000000000000000e+02
2.250000000000000000e+02
2.260000000000000000e+02
2.280000000000000000e+02
2.310000000000000000e+02
2.320000000000000000e+02
2.340000000000000000e+02
2.350000000000000000e+02
2.350000000000000000e+02
2.380000000000000000e+02
2.400000000000000000e+02
2.450000000000000000e+02
2.450000000000000000e+02
2.460000000000000000e+02
2.470000000000000000e+02
2.510000000000000000e+02
2.550000000000000000e+02
2.570000000000000000e+02
2.570000000000000000e+02
2.570000000000000000e+02
2.590000000000000000e+02
2.620000000000000000e+02
2.640000000000000000e+02
2.660000000000000000e+02
2.710000000000000000e+02
2.720000000000000000e+02
2.750000000000000000e+02
2.790000000000000000e+02
2.790000000000000000e+02
2.820000000000000000e+02
2.840000000000000000e+02
2.860000000000000000e+02
2.890000000000000000e+02
2.920000000000000000e+02
2.930000000000000000e+02
2.940000000000000000e+02
2.950000000000000000e+02
2.950000000000000000e+02
2.950000000000000000e+02
2.960000000000000000e+02
2.970000000000000000e+02
2.970000000000000000e+02
2.980000000000000000e+02
2.990000000000000000e+02
3.010000000000000000e+02
3.030000000000000000e+02
3.080000000000000000e+02
3.110000000000000000e+02
3.150000000000000000e+02
3.180000000000000000e+02
3.190000000000000000e+02
3.200000000000000000e+02
3.210000000000000000e+02
3.220000000000000000e+02
3.230000000000000000e+02
3.250000000000000000e+02
3.290000000000000000e+02
3.290000000000000000e+02
3.300000000000000000e+02
3.320000000000000000e+02
3.370000000000000000e+02
3.420000000000000000e+02
3.460000000000000000e+02
3.480000000000000000e+02
3.500000000000000000e+02
3.520000000000000000e+02
3.560000000000000000e+02
3.570000000000000000e+02
3.610000000000000000e+02
3.650000000000000000e+02
3.680000000000000000e+02
3.700000000000000000e+02
3.700000000000000000e+02
3.720000000000000000e+02
3.730000000000000000e+02
3.780000000000000000e+02
3.790000000000000000e+02
3.810000000000000000e+02
3.840000000000000000e+02
3.860000000000000000e+02
3.910000000000000000e+02
3.940000000000000000e+02
3.980000000000000000e+02
4.020000000000000000e+02
4.030000000000000000e+02
4.040000000000000000e+02
4.100000000000000000e+02
4.140000000000000000e+02
4.180000000000000000e+02
4.230000000000000000e+02
4.250000000000000000e+02
4.270000000000000000e+02
4.320000000000000000e+02
4.340000000000000000e+02
4.380000000000000000e+02
4.400000000000000000e+02
4.420000000000000000e+02
4.480000000000000000e+02
4.560000000000000000e+02
4.600000000000000000e+02
4.630000000000000000e+02
4.690000000000000000e+02
4.740000000000000000e+02
4.750000000000000000e+02
4.830000000000000000e+02
4.870000000000000000e+02
4.900000000000000000e+02
4.930000000000000000e+02
4.960000000000000000e+02
4.990000000000000000e+02
5.010000000000000000e+02
5.060000000000000000e+02
5.130000000000000000e+02
5.180000000000000000e+02
5.200000000000000000e+02
5.210000000000000000e+02
5.220000000000000000e+02
5.240000000000000000e+02
5.280000000000000000e+02
5.300000000000000000e+02
5.340000000000000000e+02
5.370000000000000000e+02
5.400000000000000000e+02
5.420000000000000000e+02
5.440000000000000000e+02
5.480000000000000000e+02
5.510000000000000000e+02
5.520000000000000000e+02
5.560000000000000000e+02
5.600000000000000000e+02
5.670000000000000000e+02
5.710000000000000000e+02
5.760000000000000000e+02
5.820000000000000000e+02
5.840000000000000000e+02
5.900000000000000000e+02
5.900000000000000000e+02
6.010000000000000000e+02
6.050000000000000000e+02
6.100000000000000000e+02
6.180000000000000000e+02
6.210000000000000000e+02
6.220000000000000000e+02
6.250000000000000000e+02
6.290000000000000000e+02
6.330000000000000000e+02
6.360000000000000000e+02
6.410000000000000000e+02
6.440000000000000000e+02
6.470000000000000000e+02
6.520000000000000000e+02
6.600000000000000000e+02
6.620000000000000000e+02
6.650000000000000000e+02
6.700000000000000000e+02
6.750000000000000000e+02
6.790000000000000000e+02
6.830000000000000000e+02
6.930000000000000000e+02
7.010000000000000000e+02
7.060000000000000000e+02
7.110000000000000000e+02
7.130000000000000000e+02
7.180000000000000000e+02
7.230000000000000000e+02
7.290000000000000000e+02
7.340000000000000000e+02
7.440000000000000000e+02
7.510000000000000000e+02
7.570000000000000000e+02
7.630000000000000000e+02
7.680000000000000000e+02
7.750000000000000000e+02
7.790000000000000000e+02
7.830000000000000000e+02
7.860000000000000000e+02
7.910000000000000000e+02
7.960000000000000000e+02
8.040000000000000000e+02
8.150000000000000000e+02
8.230000000000000000e+02
8.300000000000000000e+02
8.330000000000000000e+02
8.430000000000000000e+02
8.570000000000000000e+02
8.580000000000000000e+02
8.700000000000000000e+02
8.800000000000000000e+02
8.830000000000000000e+02
8.890000000000000000e+02
8.930000000000000000e+02
8.980000000000000000e+02
9.100000000000000000e+02
9.180000000000000000e+02
9.200000000000000000e+02
9.250000000000000000e+02
9.330000000000000000e+02
9.420000000000000000e+02
9.450000000000000000e+02
9.500000000000000000e+02
9.570000000000000000e+02
9.650000000000000000e+02
9.700000000000000000e+02
9.740000000000000000e+02
9.820000000000000000e+02
9.900000000000000000e+02
9.970000000000000000e+02
1.004000000000000000e+03
1.011000000000000000e+03
1.016000000000000000e+03
1.024000000000000000e+03
1.035000000000000000e+03
1.042000000000000000e+03
1.050000000000000000e+03
1.058000000000000000e+03
1.072000000000000000e+03
1.082000000000000000e+03
1.089000000000000000e+03
1.099000000000000000e+03
1.107000000000000000e+03
1.115000000000000000e+03
1.119000000000000000e+03
1.129000000000000000e+03
1.134000000000000000e+03
1.142000000000000000e+03
1.153000000000000000e+03
1.160000000000000000e+03
1.167000000000000000e+03
1.180000000000000000e+03
1.194000000000000000e+03
1.200000000000000000e+03
1.206000000000000000e+03
1.214000000000000000e+03
1.222000000000000000e+03
1.226000000000000000e+03
1.229000000000000000e+03
1.234000000000000000e+03
1.243000000000000000e+03
1.256000000000000000e+03
1.268000000000000000e+03
1.275000000000000000e+03
1.280000000000000000e+03
1.292000000000000000e+03
1.296000000000000000e+03
1.309000000000000000e+03
1.316000000000000000e+03
1.322000000000000000e+03
1.330000000000000000e+03
1.342000000000000000e+03
1.354000000000000000e+03
1.364000000000000000e+03
1.376000000000000000e+03
1.389000000000000000e+03
1.397000000000000000e+03
1.413000000000000000e+03
1.425000000000000000e+03
1.436000000000000000e+03
1.445000000000000000e+03
1.452000000000000000e+03
1.462000000000000000e+03
1.473000000000000000e+03
1.483000000000000000e+03
1.495000000000000000e+03
1.503000000000000000e+03
1.512000000000000000e+03
1.524000000000000000e+03
1.538000000000000000e+03
1.547000000000000000e+03
1.555000000000000000e+03
1.567000000000000000e+03
1.579000000000000000e+03
1.587000000000000000e+03
1.599000000000000000e+03
1.612000000000000000e+03
1.624000000000000000e+03
1.639000000000000000e+03
1.651000000000000000e+03
1.670000000000000000e+03
1.680000000000000000e+03
1.698000000000000000e+03
1.714000000000000000e+03
1.728000000000000000e+03
1.736000000000000000e+03
1.750000000000000000e+03
1.763000000000000000e+03
1.774000000000000000e+03
1.788000000000000000e+03
1.802000000000000000e+03
1.815000000000000000e+03
1.828000000000000000e+03
1.836000000000000000e+03
1.852000000000000000e+03
1.868000000000000000e+03
1.879000000000000000e+03
1.888000000000000000e+03
1.900000000000000000e+03
1.915000000000000000e+03
1.928000000000000000e+03
1.939000000000000000e+03
1.953000000000000000e+03
1.970000000000000000e+03
1.980000000000000000e+03
1.991000000000000000e+03
2.018000000000000000e+03
2.040000000000000000e+03
2.053000000000000000e+03
2.070000000000000000e+03
2.081000000000000000e+03
2.094000000000000000e+03
2.109000000000000000e+03
2.122000000000000000e+03
2.134000000000000000e+03
2.147000000000000000e+03
2.158000000000000000e+03
2.174000000000000000e+03
2.193000000000000000e+03
2.213000000000000000e+03
2.231000000000000000e+03
2.244000000000000000e+03
2.254000000000000000e+03
2.270000000000000000e+03
2.296000000000000000e+03
2.317000000000000000e+03
2.343000000000000000e+03
2.360000000000000000e+03
2.382000000000000000e+03
2.408000000000000000e+03
2.424000000000000000e+03
2.441000000000000000e+03
2.458000000000000000e+03
2.483000000000000000e+03
2.500000000000000000e+03
2.512000000000000000e+03
2.523000000000000000e+03
2.535000000000000000e+03
2.546000000000000000e+03
2.566000000000000000e+03
2.582000000000000000e+03
2.599000000000000000e+03
2.625000000000000000e+03
2.645000000000000000e+03
2.666000000000000000e+03
2.677000000000000000e+03
2.692000000000000000e+03
2.715000000000000000e+03
2.732000000000000000e+03
2.753000000000000000e+03
2.771000000000000000e+03
2.794000000000000000e+03
2.816000000000000000e+03
2.837000000000000000e+03
2.854000000000000000e+03
2.871000000000000000e+03
2.903000000000000000e+03
2.915000000000000000e+03
2.936000000000000000e+03
2.957000000000000000e+03
2.979000000000000000e+03
2.998000000000000000e+03
3.026000000000000000e+03
3.050000000000000000e+03
3.075000000000000000e+03
3.098000000000000000e+03
3.115000000000000000e+03
3.129000000000000000e+03
3.158000000000000000e+03
3.178000000000000000e+03
3.210000000000000000e+03
3.237000000000000000e+03
3.262000000000000000e+03
3.288000000000000000e+03
3.311000000000000000e+03
3.332000000000000000e+03
3.362000000000000000e+03
3.384000000000000000e+03
3.414000000000000000e+03
3.443000000000000000e+03
3.467000000000000000e+03
3.497000000000000000e+03
3.526000000000000000e+03
3.549000000000000000e+03
3.583000000000000000e+03
3.612000000000000000e+03
3.636000000000000000e+03
3.654000000000000000e+03
3.676000000000000000e+03
3.706000000000000000e+03
3.728000000000000000e+03
3.757000000000000000e+03
3.784000000000000000e+03
3.808000000000000000e+03
3.828000000000000000e+03
3.856000000000000000e+03
3.888000000000000000e+03
3.904000000000000000e+03
3.926000000000000000e+03
3.953000000000000000e+03
3.987000000000000000e+03
4.022000000000000000e+03
4.051000000000000000e+03
4.082000000000000000e+03
4.109000000000000000e+03
4.146000000000000000e+03
4.178000000000000000e+03
4.223000000000000000e+03
4.253000000000000000e+03
4.283000000000000000e+03
4.320000000000000000e+03
4.349000000000000000e+03
4.369000000000000000e+03
4.402000000000000000e+03
4.431000000000000000e+03
4.464000000000000000e+03
4.502000000000000000e+03
4.539000000000000000e+03
4.570000000000000000e+03
4.602000000000000000e+03
4.628000000000000000e+03
4.670000000000000000e+03
4.708000000000000000e+03
4.746000000000000000e+03
4.773000000000000000e+03
4.805000000000000000e+03
4.832000000000000000e+03
4.860000000000000000e+03
4.904000000000000000e+03
4.939000000000000000e+03
4.979000000000000000e+03
5.017000000000000000e+03
5.052000000000000000e+03
5.092000000000000000e+03
5.128000000000000000e+03
5.167000000000000000e+03
5.207000000000000000e+03
5.246000000000000000e+03
5.281000000000000000e+03
5.318000000000000000e+03
5.362000000000000000e+03
5.405000000000000000e+03
5.452000000000000000e+03
5.492000000000000000e+03
5.536000000000000000e+03
5.568000000000000000e+03
5.608000000000000000e+03
5.653000000000000000e+03
5.688000000000000000e+03
5.731000000000000000e+03
5.767000000000000000e+03
5.820000000000000000e+03
5.869000000000000000e+03
5.908000000000000000e+03
5.956000000000000000e+03
5.998000000000000000e+03
6.034000000000000000e+03
6.073000000000000000e+03
6.111000000000000000e+03
6.152000000000000000e+03
6.194000000000000000e+03
6.244000000000000000e+03
6.289000000000000000e+03
6.330000000000000000e+03
6.369000000000000000e+03
6.415000000000000000e+03
6.462000000000000000e+03
6.515000000000000000e+03
6.548000000000000000e+03
6.611000000000000000e+03
6.660000000000000000e+03
6.719000000000000000e+03
6.772000000000000000e+03
6.806000000000000000e+03
6.865000000000000000e+03
6.922000000000000000e+03
6.965000000000000000e+03
7.016000000000000000e+03
7.074000000000000000e+03
7.114000000000000000e+03
7.164000000000000000e+03
7.222000000000000000e+03
7.257000000000000000e+03
7.306000000000000000e+03
7.349000000000000000e+03
7.407000000000000000e+03
7.469000000000000000e+03
7.535000000000000000e+03
7.596000000000000000e+03
7.653000000000000000e+03
7.707000000000000000e+03
7.758000000000000000e+03
7.809000000000000000e+03
7.867000000000000000e+03
7.925000000000000000e+03
7.999000000000000000e+03
8.054000000000000000e+03
8.116000000000000000e+03
8.180000000000000000e+03
8.229000000000000000e+03
8.287000000000000000e+03
8.347000000000000000e+03
8.393000000000000000e+03
8.452000000000000000e+03
8.526000000000000000e+03
8.606000000000000000e+03
8.673000000000000000e+03
8.732000000000000000e+03
8.800000000000000000e+03
8.855000000000000000e+03
8.933000000000000000e+03
8.998000000000000000e+03
9.066000000000000000e+03
9.127000000000000000e+03
9.194000000000000000e+03
9.263000000000000000e+03
9.325000000000000000e+03
9.402000000000000000e+03
9.469000000000000000e+03
9.552000000000000000e+03
9.621000000000000000e+03
9.695000000000000000e+03
9.789000000000000000e+03
9.873000000000000000e+03
9.932000000000000000e+03
1.000200000000000000e+04
1.007500000000000000e+04
1.015200000000000000e+04
1.022600000000000000e+04
1.031000000000000000e+04
1.037400000000000000e+04
1.045300000000000000e+04
1.053900000000000000e+04
1.062200000000000000e+04
1.070400000000000000e+04
1.077100000000000000e+04
1.083900000000000000e+04
1.091800000000000000e+04
1.099900000000000000e+04
1.108000000000000000e+04
1.114600000000000000e+04
1.125000000000000000e+04
1.134300000000000000e+04
1.143600000000000000e+04
1.153500000000000000e+04
1.160900000000000000e+04
1.169800000000000000e+04
1.178400000000000000e+04
1.185600000000000000e+04
1.192600000000000000e+04
1.200900000000000000e+04
1.210400000000000000e+04
1.219900000000000000e+04
1.229100000000000000e+04
1.237900000000000000e+04
1.246600000000000000e+04
1.256500000000000000e+04
1.265400000000000000e+04
1.274700000000000000e+04
1.282100000000000000e+04
1.290100000000000000e+04
1.300500000000000000e+04
1.309400000000000000e+04
1.320600000000000000e+04
1.328600000000000000e+04
1.339500000000000000e+04
1.349100000000000000e+04
1.358000000000000000e+04
1.365900000000000000e+04
1.376100000000000000e+04
1.387000000000000000e+04
1.396300000000000000e+04
1.406500000000000000e+04
1.416100000000000000e+04
1.426100000000000000e+04
1.437300000000000000e+04
1.447600000000000000e+04
1.458300000000000000e+04
1.469700000000000000e+04
1.481700000000000000e+04
1.493900000000000000e+04
1.503700000000000000e+04
1.514300000000000000e+04
1.523600000000000000e+04
1.535400000000000000e+04
1.547200000000000000e+04
1.557400000000000000e+04
1.567800000000000000e+04
1.579500000000000000e+04
1.591900000000000000e+04
1.604200000000000000e+04
1.616800000000000000e+04
1.629100000000000000e+04
1.642700000000000000e+04
1.653200000000000000e+04
1.666600000000000000e+04
1.678700000000000000e+04
1.692800000000000000e+04
1.705600000000000000e+04
1.717400000000000000e+04
1.729900000000000000e+04
1.743400000000000000e+04
1.756700000000000000e+04
1.771000000000000000e+04
1.783700000000000000e+04
1.797500000000000000e+04
1.810800000000000000e+04
1.824700000000000000e+04
1.837900000000000000e+04
1.851300000000000000e+04
1.865200000000000000e+04
1.878100000000000000e+04
1.891100000000000000e+04
1.904800000000000000e+04
1.918900000000000000e+04
