1.000000000000000000e+00
2.000000000000000000e+00
2.000000000000000000e+00
2.000000000000000000e+00
2.000000000000000000e+00
2.000000000000000000e+00
2.000000000000000000e+00
2.000000000000000000e+00
2.000000000000000000e+00
2.000000000000000000e+00
2.000000000000000000e+00
2.000000000000000000e+00
2.000000000000000000e+00
2.000000000000000000e+00
2.000000000000000000e+00
2.000000000000000000e+00
2.000000000000000000e+00
2.000000000000000000e+00
2.000000000000000000e+00
2.000000000000000000e+00
2.000000000000000000e+00
2.000000000000000000e+00
2.000000000000000000e+00
2.000000000000000000e+00
2.000000000000000000e+00
2.000000000000000000e+00
2.000000000000000000e+00
2.000000000000000000e+00
2.000000000000000000e+00
2.000000000000000000e+00
2.000000000000000000e+00
2.000000000000000000e+00
2.000000000000000000e+00
2.000000000000000000e+00
2.000000000000000000e+00
2.000000000000000000e+00
2.000000000000000000e+00
2.000000000000000000e+00
2.000000000000000000e+00
2.000000000000000000e+00
2.000000000000000000e+00
2.000000000000000000e+00
2.000000000000000000e+00
2.000000000000000000e+00
2.000000000000000000e+00
2.000000000000000000e+00
2.000000000000000000e+00
2.000000000000000000e+00
2.000000000000000000e+00
2.000000000000000000e+00
2.000000000000000000e+00
2.000000000000000000e+00
2.000000000000000000e+00
2.000000000000000000e+00
2.000000000000000000e+00
2.000000000000000000e+00
2.000000000000000000e+00
2.000000000000000000e+00
2.000000000000000000e+00
2.000000000000000000e+00
2.000000000000000000e+00
2.000000000000000000e+00
2.000000000000000000e+00
2.000000000000000000e+00
2.000000000000000000e+00
2.000000000000000000e+00
2.000000000000000000e+00
2.000000000000000000e+00
2.000000000000000000e+00
2.000000000000000000e+00
2.000000000000000000e+00
2.000000000000000000e+00
2.000000000000000000e+00
2.000000000000000000e+00
2.000000000000000000e+00
2.000000000000000000e+00
3.000000000000000000e+00
3.000000000000000000e+00
3.000000000000000000e+00
3.000000000000000000e+00
3.000000000000000000e+00
3.000000000000000000e+00
3.000000000000000000e+00
3.000000000000000000e+00
3.000000000000000000e+00
3.000000000000000000e+00
3.000000000000000000e+00
3.000000000000000000e+00
3.000000000000000000e+00
3.000000000000000000e+00
3.000000000000000000e+00
3.000000000000000000e+00
3.000000000000000000e+00
3.000000000000000000e+00
3.000000000000000000e+00
3.000000000000000000e+00
3.000000000000000000e+00
3.000000000000000000e+00
3.000000000000000000e+00
3.000000000000000000e+00
3.000000000000000000e+00
3.000000000000000000e+00
3.000000000000000000e+00
3.000000000000000000e+00
3.000000000000000000e+00
3.000000000000000000e+00
3.000000000000000000e+00
3.000000000000000000e+00
3.000000000000000000e+00
3.000000000000000000e+00
3.000000000000000000e+00
3.000000000000000000e+00
3.000000000000000000e+00
3.000000000000000000e+00
3.000000000000000000e+00
3.000000000000000000e+00
3.000000000000000000e+00
3.000000000000000000e+00
3.000000000000000000e+00
3.000000000000000000e+00
3.000000000000000000e+00
3.000000000000000000e+00
3.000000000000000000e+00
3.000000000000000000e+00
3.000000000000000000e+00
3.000000000000000000e+00
3.000000000000000000e+00
3.000000000000000000e+00
3.000000000000000000e+00
3.000000000000000000e+00
3.000000000000000000e+00
3.000000000000000000e+00
3.000000000000000000e+00
3.000000000000000000e+00
3.000000000000000000e+00
3.000000000000000000e+00
3.000000000000000000e+00
3.000000000000000000e+00
3.000000000000000000e+00
3.000000000000000000e+00
3.000000000000000000e+00
3.000000000000000000e+00
3.000000000000000000e+00
3.000000000000000000e+00
3.000000000000000000e+00
3.000000000000000000e+00
3.000000000000000000e+00
3.000000000000000000e+00
3.000000000000000000e+00
3.000000000000000000e+00
3.000000000000000000e+00
4.000000000000000000e+00
4.000000000000000000e+00
4.000000000000000000e+00
4.000000000000000000e+00
4.000000000000000000e+00
4.000000000000000000e+00
4.000000000000000000e+00
4.000000000000000000e+00
4.000000000000000000e+00
4.000000000000000000e+00
4.000000000000000000e+00
4.000000000000000000e+00
4.000000000000000000e+00
4.000000000000000000e+00
4.000000000000000000e+00
4.000000000000000000e+00
4.000000000000000000e+00
4.000000000000000000e+00
4.000000000000000000e+00
4.000000000000000000e+00
4.000000000000000000e+00
4.000000000000000000e+00
4.000000000000000000e+00
4.000000000000000000e+00
4.000000000000000000e+00
4.000000000000000000e+00
4.000000000000000000e+00
4.000000000000000000e+00
4.000000000000000000e+00
4.000000000000000000e+00
4.000000000000000000e+00
4.000000000000000000e+00
4.000000000000000000e+00
4.000000000000000000e+00
4.000000000000000000e+00
4.000000000000000000e+00
4.000000000000000000e+00
4.000000000000000000e+00
4.000000000000000000e+00
4.000000000000000000e+00
5.000000000000000000e+00
5.000000000000000000e+00
5.000000000000000000e+00
5.000000000000000000e+00
5.000000000000000000e+00
5.000000000000000000e+00
5.000000000000000000e+00
5.000000000000000000e+00
5.000000000000000000e+00
5.000000000000000000e+00
5.000000000000000000e+00
5.000000000000000000e+00
5.000000000000000000e+00
5.000000000000000000e+00
5.000000000000000000e+00
5.000000000000000000e+00
5.000000000000000000e+00
5.000000000000000000e+00
5.000000000000000000e+00
5.000000000000000000e+00
5.000000000000000000e+00
5.000000000000000000e+00
5.000000000000000000e+00
5.000000000000000000e+00
5.000000000000000000e+00
5.000000000000000000e+00
5.000000000000000000e+00
5.000000000000000000e+00
5.000000000000000000e+00
5.000000000000000000e+00
5.000000000000000000e+00
5.000000000000000000e+00
5.000000000000000000e+00
5.000000000000000000e+00
5.000000000000000000e+00
5.000000000000000000e+00
5.000000000000000000e+00
5.000000000000000000e+00
5.000000000000000000e+00
5.000000000000000000e+00
5.000000000000000000e+00
5.000000000000000000e+00
5.000000000000000000e+00
5.000000000000000000e+00
5.000000000000000000e+00
5.000000000000000000e+00
5.000000000000000000e+00
5.000000000000000000e+00
5.000000000000000000e+00
5.000000000000000000e+00
5.000000000000000000e+00
5.000000000000000000e+00
5.000000000000000000e+00
5.000000000000000000e+00
6.000000000000000000e+00
6.000000000000000000e+00
6.000000000000000000e+00
6.000000000000000000e+00
6.000000000000000000e+00
6.000000000000000000e+00
6.000000000000000000e+00
6.000000000000000000e+00
6.000000000000000000e+00
6.000000000000000000e+00
6.000000000000000000e+00
6.000000000000000000e+00
6.000000000000000000e+00
6.000000000000000000e+00
6.000000000000000000e+00
6.000000000000000000e+00
6.000000000000000000e+00
6.000000000000000000e+00
6.000000000000000000e+00
6.000000000000000000e+00
6.000000000000000000e+00
6.000000000000000000e+00
6.000000000000000000e+00
6.000000000000000000e+00
6.000000000000000000e+00
6.000000000000000000e+00
6.000000000000000000e+00
6.000000000000000000e+00
6.000000000000000000e+00
6.000000000000000000e+00
6.000000000000000000e+00
6.000000000000000000e+00
6.000000000000000000e+00
7.000000000000000000e+00
7.000000000000000000e+00
7.000000000000000000e+00
7.000000000000000000e+00
7.000000000000000000e+00
8.000000000000000000e+00
8.000000000000000000e+00
8.000000000000000000e+00
8.000000000000000000e+00
8.000000000000000000e+00
8.000000000000000000e+00
8.000000000000000000e+00
8.000000000000000000e+00
8.000000000000000000e+00
8.000000000000000000e+00
8.000000000000000000e+00
8.000000000000000000e+00
8.000000000000000000e+00
8.000000000000000000e+00
8.000000000000000000e+00
8.000000000000000000e+00
8.000000000000000000e+00
8.000000000000000000e+00
8.000000000000000000e+00
8.000000000000000000e+00
8.000000000000000000e+00
8.000000000000000000e+00
8.000000000000000000e+00
8.000000000000000000e+00
8.000000000000000000e+00
8.000000000000000000e+00
8.000000000000000000e+00
8.000000000000000000e+00
8.000000000000000000e+00
8.000000000000000000e+00
8.000000000000000000e+00
8.000000000000000000e+00
8.000000000000000000e+00
8.000000000000000000e+00
8.000000000000000000e+00
8.000000000000000000e+00
8.000000000000000000e+00
8.000000000000000000e+00
8.000000000000000000e+00
8.000000000000000000e+00
8.000000000000000000e+00
8.000000000000000000e+00
8.000000000000000000e+00
8.000000000000000000e+00
8.000000000000000000e+00
8.000000000000000000e+00
8.000000000000000000e+00
9.000000000000000000e+00
9.000000000000000000e+00
9.000000000000000000e+00
9.000000000000000000e+00
9.000000000000000000e+00
9.000000000000000000e+00
1.000000000000000000e+01
1.000000000000000000e+01
1.000000000000000000e+01
1.000000000000000000e+01
1.000000000000000000e+01
1.000000000000000000e+01
1.000000000000000000e+01
1.000000000000000000e+01
1.000000000000000000e+01
1.000000000000000000e+01
1.000000000000000000e+01
1.000000000000000000e+01
1.100000000000000000e+01
1.100000000000000000e+01
1.100000000000000000e+01
1.100000000000000000e+01
1.100000000000000000e+01
1.100000000000000000e+01
1.100000000000000000e+01
1.100000000000000000e+01
1.100000000000000000e+01
1.100000000000000000e+01
1.100000000000000000e+01
1.100000000000000000e+01
1.100000000000000000e+01
1.100000000000000000e+01
1.100000000000000000e+01
1.100000000000000000e+01
1.100000000000000000e+01
1.100000000000000000e+01
1.100000000000000000e+01
1.100000000000000000e+01
1.100000000000000000e+01
1.100000000000000000e+01
1.100000000000000000e+01
1.100000000000000000e+01
1.100000000000000000e+01
1.100000000000000000e+01
1.100000000000000000e+01
1.100000000000000000e+01
1.100000000000000000e+01
1.100000000000000000e+01
1.100000000000000000e+01
1.100000000000000000e+01
1.100000000000000000e+01
1.100000000000000000e+01
1.100000000000000000e+01
1.100000000000000000e+01
1.100000000000000000e+01
1.200000000000000000e+01
1.300000000000000000e+01
1.300000000000000000e+01
1.300000000000000000e+01
1.300000000000000000e+01
1.300000000000000000e+01
1.300000000000000000e+01
1.300000000000000000e+01
1.300000000000000000e+01
1.300000000000000000e+01
1.300000000000000000e+01
1.300000000000000000e+01
1.300000000000000000e+01
1.400000000000000000e+01
1.400000000000000000e+01
1.400000000000000000e+01
1.400000000000000000e+01
1.400000000000000000e+01
1.400000000000000000e+01
1.400000000000000000e+01
1.500000000000000000e+01
1.500000000000000000e+01
1.500000000000000000e+01
1.500000000000000000e+01
1.500000000000000000e+01
1.500000000000000000e+01
1.500000000000000000e+01
1.600000000000000000e+01
1.600000000000000000e+01
1.600000000000000000e+01
1.600000000000000000e+01
1.600000000000000000e+01
1.600000000000000000e+01
1.600000000000000000e+01
1.600000000000000000e+01
1.600000000000000000e+01
1.600000000000000000e+01
1.600000000000000000e+01
1.600000000000000000e+01
1.600000000000000000e+01
1.600000000000000000e+01
1.600000000000000000e+01
1.600000000000000000e+01
1.600000000000000000e+01
1.600000000000000000e+01
1.600000000000000000e+01
1.600000000000000000e+01
1.600000000000000000e+01
1.600000000000000000e+01
1.600000000000000000e+01
1.600000000000000000e+01
1.600000000000000000e+01
1.600000000000000000e+01
1.600000000000000000e+01
1.700000000000000000e+01
1.700000000000000000e+01
1.700000000000000000e+01
1.700000000000000000e+01
1.700000000000000000e+01
1.700000000000000000e+01
1.700000000000000000e+01
1.700000000000000000e+01
1.800000000000000000e+01
1.800000000000000000e+01
1.800000000000000000e+01
1.800000000000000000e+01
1.800000000000000000e+01
1.800000000000000000e+01
1.800000000000000000e+01
1.800000000000000000e+01
1.800000000000000000e+01
1.800000000000000000e+01
1.800000000000000000e+01
1.800000000000000000e+01
1.800000000000000000e+01
1.800000000000000000e+01
1.800000000000000000e+01
1.800000000000000000e+01
1.900000000000000000e+01
1.900000000000000000e+01
1.900000000000000000e+01
1.900000000000000000e+01
2.000000000000000000e+01
2.000000000000000000e+01
2.000000000000000000e+01
2.000000000000000000e+01
2.000000000000000000e+01
2.000000000000000000e+01
2.000000000000000000e+01
2.000000000000000000e+01
2.000000000000000000e+01
2.100000000000000000e+01
2.200000000000000000e+01
2.200000000000000000e+01
2.200000000000000000e+01
2.200000000000000000e+01
2.200000000000000000e+01
2.200000000000000000e+01
2.200000000000000000e+01
2.200000000000000000e+01
2.200000000000000000e+01
2.300000000000000000e+01
2.300000000000000000e+01
2.300000000000000000e+01
2.300000000000000000e+01
2.400000000000000000e+01
2.600000000000000000e+01
2.600000000000000000e+01
2.700000000000000000e+01
2.700000000000000000e+01
2.700000000000000000e+01
2.700000000000000000e+01
2.700000000000000000e+01
2.700000000000000000e+01
2.700000000000000000e+01
2.700000000000000000e+01
2.700000000000000000e+01
2.700000000000000000e+01
2.700000000000000000e+01
2.800000000000000000e+01
2.800000000000000000e+01
2.900000000000000000e+01
2.900000000000000000e+01
2.900000000000000000e+01
2.900000000000000000e+01
2.900000000000000000e+01
2.900000000000000000e+01
2.900000000000000000e+01
2.900000000000000000e+01
2.900000000000000000e+01
2.900000000000000000e+01
3.000000000000000000e+01
3.100000000000000000e+01
3.100000000000000000e+01
3.100000000000000000e+01
3.100000000000000000e+01
3.100000000000000000e+01
3.100000000000000000e+01
3.100000000000000000e+01
3.100000000000000000e+01
3.100000000000000000e+01
3.100000000000000000e+01
3.100000000000000000e+01
3.100000000000000000e+01
3.200000000000000000e+01
3.200000000000000000e+01
3.300000000000000000e+01
3.300000000000000000e+01
3.300000000000000000e+01
3.300000000000000000e+01
3.300000000000000000e+01
3.300000000000000000e+01
3.300000000000000000e+01
3.300000000000000000e+01
3.300000000000000000e+01
3.300000000000000000e+01
3.500000000000000000e+01
3.500000000000000000e+01
3.500000000000000000e+01
3.500000000000000000e+01
3.500000000000000000e+01
3.500000000000000000e+01
3.500000000000000000e+01
3.500000000000000000e+01
3.500000000000000000e+01
3.500000000000000000e+01
3.600000000000000000e+01
3.600000000000000000e+01
3.600000000000000000e+01
3.600000000000000000e+01
3.600000000000000000e+01
3.600000000000000000e+01
3.700000000000000000e+01
3.700000000000000000e+01
3.700000000000000000e+01
3.700000000000000000e+01
3.800000000000000000e+01
3.800000000000000000e+01
3.800000000000000000e+01
3.900000000000000000e+01
3.900000000000000000e+01
3.900000000000000000e+01
4.100000000000000000e+01
4.100000000000000000e+01
4.100000000000000000e+01
4.200000000000000000e+01
4.200000000000000000e+01
4.200000000000000000e+01
4.200000000000000000e+01
4.200000000000000000e+01
4.300000000000000000e+01
4.400000000000000000e+01
4.400000000000000000e+01
4.400000000000000000e+01
4.400000000000000000e+01
4.400000000000000000e+01
4.400000000000000000e+01
4.400000000000000000e+01
4.400000000000000000e+01
4.500000000000000000e+01
4.700000000000000000e+01
4.700000000000000000e+01
4.700000000000000000e+01
4.800000000000000000e+01
4.900000000000000000e+01
4.900000000000000000e+01
4.900000000000000000e+01
4.900000000000000000e+01
4.900000000000000000e+01
5.000000000000000000e+01
5.200000000000000000e+01
5.200000000000000000e+01
5.200000000000000000e+01
5.200000000000000000e+01
5.200000000000000000e+01
5.300000000000000000e+01
5.400000000000000000e+01
5.400000000000000000e+01
5.500000000000000000e+01
5.500000000000000000e+01
5.500000000000000000e+01
5.600000000000000000e+01
5.600000000000000000e+01
5.700000000000000000e+01
5.700000000000000000e+01
5.700000000000000000e+01
5.900000000000000000e+01
6.000000000000000000e+01
6.000000000000000000e+01
6.100000000000000000e+01
6.100000000000000000e+01
6.200000000000000000e+01
6.300000000000000000e+01
6.300000000000000000e+01
6.300000000000000000e+01
6.300000000000000000e+01
6.300000000000000000e+01
6.300000000000000000e+01
6.300000000000000000e+01
6.300000000000000000e+01
6.400000000000000000e+01
6.400000000000000000e+01
6.500000000000000000e+01
6.500000000000000000e+01
6.500000000000000000e+01
6.500000000000000000e+01
6.500000000000000000e+01
6.500000000000000000e+01
6.600000000000000000e+01
6.600000000000000000e+01
6.700000000000000000e+01
6.700000000000000000e+01
6.700000000000000000e+01
6.700000000000000000e+01
6.700000000000000000e+01
6.700000000000000000e+01
6.700000000000000000e+01
6.700000000000000000e+01
6.800000000000000000e+01
7.000000000000000000e+01
7.000000000000000000e+01
7.000000000000000000e+01
7.000000000000000000e+01
7.000000000000000000e+01
7.000000000000000000e+01
7.000000000000000000e+01
7.100000000000000000e+01
7.300000000000000000e+01
7.300000000000000000e+01
7.300000000000000000e+01
7.300000000000000000e+01
7.500000000000000000e+01
7.500000000000000000e+01
7.500000000000000000e+01
7.600000000000000000e+01
7.600000000000000000e+01
7.600000000000000000e+01
7.700000000000000000e+01
7.700000000000000000e+01
7.800000000000000000e+01
7.800000000000000000e+01
8.000000000000000000e+01
8.000000000000000000e+01
8.000000000000000000e+01
8.200000000000000000e+01
8.300000000000000000e+01
8.400000000000000000e+01
8.400000000000000000e+01
8.600000000000000000e+01
8.600000000000000000e+01
8.900000000000000000e+01
8.900000000000000000e+01
9.000000000000000000e+01
9.000000000000000000e+01
9.200000000000000000e+01
9.200000000000000000e+01
9.200000000000000000e+01
9.300000000000000000e+01
9.300000000000000000e+01
9.300000000000000000e+01
9.400000000000000000e+01
9.400000000000000000e+01
9.600000000000000000e+01
9.600000000000000000e+01
9.700000000000000000e+01
9.800000000000000000e+01
9.800000000000000000e+01
9.800000000000000000e+01
9.800000000000000000e+01
9.800000000000000000e+01
1.000000000000000000e+02
1.000000000000000000e+02
1.010000000000000000e+02
1.020000000000000000e+02
1.020000000000000000e+02
1.020000000000000000e+02
1.030000000000000000e+02
1.030000000000000000e+02
1.050000000000000000e+02
1.050000000000000000e+02
1.050000000000000000e+02
1.070000000000000000e+02
1.080000000000000000e+02
1.080000000000000000e+02
1.090000000000000000e+02
1.090000000000000000e+02
1.090000000000000000e+02
1.090000000000000000e+02
1.120000000000000000e+02
1.120000000000000000e+02
1.130000000000000000e+02
1.130000000000000000e+02
1.130000000000000000e+02
1.130000000000000000e+02
1.140000000000000000e+02
1.140000000000000000e+02
1.160000000000000000e+02
1.170000000000000000e+02
1.180000000000000000e+02
1.190000000000000000e+02
1.210000000000000000e+02
1.230000000000000000e+02
1.260000000000000000e+02
1.280000000000000000e+02
1.300000000000000000e+02
1.320000000000000000e+02
1.330000000000000000e+02
1.330000000000000000e+02
1.340000000000000000e+02
1.350000000000000000e+02
1.350000000000000000e+02
1.360000000000000000e+02
1.360000000000000000e+02
1.360000000000000000e+02
1.370000000000000000e+02
1.390000000000000000e+02
1.390000000000000000e+02
1.390000000000000000e+02
1.410000000000000000e+02
1.430000000000000000e+02
1.440000000000000000e+02
1.450000000000000000e+02
1.450000000000000000e+02
1.470000000000000000e+02
1.470000000000000000e+02
1.470000000000000000e+02
1.480000000000000000e+02
1.490000000000000000e+02
1.520000000000000000e+02
1.530000000000000000e+02
1.540000000000000000e+02
1.540000000000000000e+02
1.550000000000000000e+02
1.560000000000000000e+02
1.570000000000000000e+02
1.580000000000000000e+02
1.590000000000000000e+02
1.610000000000000000e+02
1.620000000000000000e+02
1.620000000000000000e+02
1.650000000000000000e+02
1.680000000000000000e+02
1.680000000000000000e+02
1.710000000000000000e+02
1.740000000000000000e+02
1.750000000000000000e+02
1.770000000000000000e+02
1.780000000000000000e+02
1.780000000000000000e+02
1.780000000000000000e+02
1.790000000000000000e+02
1.800000000000000000e+02
1.810000000000000000e+02
1.810000000000000000e+02
1.810000000000000000e+02
1.820000000000000000e+02
1.830000000000000000e+02
1.860000000000000000e+02
1.880000000000000000e+02
1.890000000000000000e+02
1.910000000000000000e+02
1.920000000000000000e+02
1.940000000000000000e+02
1.940000000000000000e+02
1.950000000000000000e+02
1.960000000000000000e+02
1.970000000000000000e+02
2.000000000000000000e+02
2.020000000000000000e+02
2.060000000000000000e+02
2.060000000000000000e+02
2.080000000000000000e+02
2.090000000000000000e+02
2.090000000000000000e+02
2.110000000000000000e+02
2.120000000000000000e+02
2.170000000000000000e+02
2.180000000000000000e+02
2.190000000000000000e+02
2.220000000000000000e+02
2.220000000000000000e+02
2.230000000000000000e+02
2.250000000000000000e+02
2.270000000000000000e+02
2.290000000000000000e+02
2.320000000000000000e+02
2.340000000000000000e+02
2.350000000000000000e+02
2.350000000000000000e+02
2.360000000000000000e+02
2.370000000000000000e+02
2.390000000000000000e+02
2.390000000000000000e+02
2.430000000000000000e+02
2.450000000000000000e+02
2.450000000000000000e+02
2.460000000000000000e+02
2.500000000000000000e+02
2.520000000000000000e+02
2.540000000000000000e+02
2.550000000000000000e+02
2.560000000000000000e+02
2.560000000000000000e+02
2.580000000000000000e+02
2.590000000000000000e+02
2.630000000000000000e+02
2.650000000000000000e+02
2.670000000000000000e+02
2.720000000000000000e+02
2.760000000000000000e+02
2.760000000000000000e+02
2.790000000000000000e+02
2.800000000000000000e+02
2.820000000000000000e+02
2.840000000000000000e+02
2.850000000000000000e+02
2.890000000000000000e+02
2.900000000000000000e+02
2.950000000000000000e+02
2.990000000000000000e+02
3.010000000000000000e+02
3.020000000000000000e+02
3.040000000000000000e+02
3.050000000000000000e+02
3.060000000000000000e+02
3.090000000000000000e+02
3.090000000000000000e+02
3.100000000000000000e+02
3.130000000000000000e+02
3.170000000000000000e+02
3.180000000000000000e+02
3.190000000000000000e+02
3.190000000000000000e+02
3.190000000000000000e+02
3.200000000000000000e+02
3.220000000000000000e+02
3.260000000000000000e+02
3.310000000000000000e+02
3.330000000000000000e+02
3.370000000000000000e+02
3.400000000000000000e+02
3.420000000000000000e+02
3.450000000000000000e+02
3.490000000000000000e+02
3.530000000000000000e+02
3.560000000000000000e+02
3.570000000000000000e+02
3.600000000000000000e+02
3.630000000000000000e+02
3.640000000000000000e+02
3.660000000000000000e+02
3.730000000000000000e+02
3.740000000000000000e+02
3.750000000000000000e+02
3.760000000000000000e+02
3.790000000000000000e+02
3.790000000000000000e+02
3.840000000000000000e+02
3.870000000000000000e+02
3.900000000000000000e+02
3.930000000000000000e+02
3.930000000000000000e+02
3.930000000000000000e+02
3.960000000000000000e+02
4.000000000000000000e+02
4.030000000000000000e+02
4.080000000000000000e+02
4.100000000000000000e+02
4.140000000000000000e+02
4.190000000000000000e+02
4.210000000000000000e+02
4.240000000000000000e+02
4.280000000000000000e+02
4.290000000000000000e+02
4.320000000000000000e+02
4.360000000000000000e+02
4.380000000000000000e+02
4.430000000000000000e+02
4.460000000000000000e+02
4.500000000000000000e+02
4.520000000000000000e+02
4.590000000000000000e+02
4.630000000000000000e+02
4.650000000000000000e+02
4.690000000000000000e+02
4.720000000000000000e+02
4.790000000000000000e+02
4.820000000000000000e+02
4.840000000000000000e+02
4.870000000000000000e+02
4.900000000000000000e+02
4.930000000000000000e+02
5.000000000000000000e+02
5.030000000000000000e+02
5.050000000000000000e+02
5.110000000000000000e+02
5.130000000000000000e+02
5.160000000000000000e+02
5.200000000000000000e+02
5.220000000000000000e+02
5.270000000000000000e+02
5.310000000000000000e+02
5.350000000000000000e+02
5.380000000000000000e+02
5.420000000000000000e+02
5.440000000000000000e+02
5.460000000000000000e+02
5.500000000000000000e+02
5.560000000000000000e+02
5.590000000000000000e+02
5.660000000000000000e+02
5.720000000000000000e+02
5.760000000000000000e+02
5.830000000000000000e+02
5.860000000000000000e+02
5.890000000000000000e+02
5.940000000000000000e+02
5.990000000000000000e+02
6.020000000000000000e+02
6.040000000000000000e+02
6.100000000000000000e+02
6.150000000000000000e+02
6.180000000000000000e+02
6.200000000000000000e+02
6.230000000000000000e+02
6.250000000000000000e+02
6.340000000000000000e+02
6.400000000000000000e+02
6.400000000000000000e+02
6.440000000000000000e+02
6.480000000000000000e+02
6.540000000000000000e+02
6.570000000000000000e+02
6.660000000000000000e+02
6.720000000000000000e+02
6.780000000000000000e+02
6.830000000000000000e+02
6.850000000000000000e+02
6.910000000000000000e+02
6.960000000000000000e+02
7.020000000000000000e+02
7.120000000000000000e+02
7.180000000000000000e+02
7.280000000000000000e+02
7.310000000000000000e+02
7.360000000000000000e+02
7.470000000000000000e+02
7.560000000000000000e+02
7.570000000000000000e+02
7.650000000000000000e+02
7.710000000000000000e+02
7.750000000000000000e+02
7.800000000000000000e+02
7.830000000000000000e+02
7.920000000000000000e+02
7.960000000000000000e+02
8.010000000000000000e+02
8.080000000000000000e+02
8.110000000000000000e+02
8.180000000000000000e+02
8.220000000000000000e+02
8.240000000000000000e+02
8.300000000000000000e+02
8.370000000000000000e+02
8.450000000000000000e+02
8.480000000000000000e+02
8.560000000000000000e+02
8.640000000000000000e+02
8.740000000000000000e+02
8.800000000000000000e+02
8.880000000000000000e+02
8.970000000000000000e+02
9.060000000000000000e+02
9.110000000000000000e+02
9.140000000000000000e+02
9.220000000000000000e+02
9.280000000000000000e+02
9.330000000000000000e+02
9.360000000000000000e+02
9.400000000000000000e+02
9.460000000000000000e+02
9.530000000000000000e+02
9.570000000000000000e+02
9.600000000000000000e+02
9.660000000000000000e+02
9.710000000000000000e+02
9.790000000000000000e+02
9.880000000000000000e+02
9.960000000000000000e+02
1.004000000000000000e+03
1.012000000000000000e+03
1.017000000000000000e+03
1.022000000000000000e+03
1.029000000000000000e+03
1.036000000000000000e+03
1.041000000000000000e+03
1.048000000000000000e+03
1.059000000000000000e+03
1.068000000000000000e+03
1.074000000000000000e+03
1.083000000000000000e+03
1.091000000000000000e+03
1.095000000000000000e+03
1.101000000000000000e+03
1.106000000000000000e+03
1.116000000000000000e+03
1.118000000000000000e+03
1.123000000000000000e+03
1.136000000000000000e+03
1.147000000000000000e+03
1.161000000000000000e+03
1.168000000000000000e+03
1.179000000000000000e+03
1.186000000000000000e+03
1.195000000000000000e+03
1.209000000000000000e+03
1.217000000000000000e+03
1.230000000000000000e+03
1.239000000000000000e+03
1.247000000000000000e+03
1.260000000000000000e+03
1.269000000000000000e+03
1.282000000000000000e+03
1.291000000000000000e+03
1.304000000000000000e+03
1.317000000000000000e+03
1.332000000000000000e+03
1.341000000000000000e+03
1.351000000000000000e+03
1.360000000000000000e+03
1.366000000000000000e+03
1.377000000000000000e+03
1.388000000000000000e+03
1.405000000000000000e+03
1.417000000000000000e+03
1.425000000000000000e+03
1.433000000000000000e+03
1.440000000000000000e+03
1.452000000000000000e+03
1.459000000000000000e+03
1.477000000000000000e+03
1.493000000000000000e+03
1.501000000000000000e+03
1.508000000000000000e+03
1.521000000000000000e+03
1.532000000000000000e+03
1.542000000000000000e+03
1.553000000000000000e+03
1.566000000000000000e+03
1.578000000000000000e+03
1.591000000000000000e+03
1.600000000000000000e+03
1.610000000000000000e+03
1.626000000000000000e+03
1.640000000000000000e+03
1.660000000000000000e+03
1.670000000000000000e+03
1.679000000000000000e+03
1.693000000000000000e+03
1.706000000000000000e+03
1.714000000000000000e+03
1.732000000000000000e+03
1.744000000000000000e+03
1.760000000000000000e+03
1.771000000000000000e+03
1.788000000000000000e+03
1.800000000000000000e+03
1.811000000000000000e+03
1.825000000000000000e+03
1.842000000000000000e+03
1.853000000000000000e+03
1.867000000000000000e+03
1.877000000000000000e+03
1.894000000000000000e+03
1.904000000000000000e+03
1.917000000000000000e+03
1.926000000000000000e+03
1.941000000000000000e+03
1.957000000000000000e+03
1.972000000000000000e+03
1.990000000000000000e+03
2.003000000000000000e+03
2.014000000000000000e+03
2.026000000000000000e+03
2.039000000000000000e+03
2.054000000000000000e+03
2.069000000000000000e+03
2.077000000000000000e+03
2.094000000000000000e+03
2.106000000000000000e+03
2.123000000000000000e+03
2.138000000000000000e+03
2.164000000000000000e+03
2.183000000000000000e+03
2.193000000000000000e+03
2.205000000000000000e+03
2.211000000000000000e+03
2.227000000000000000e+03
2.243000000000000000e+03
2.256000000000000000e+03
2.268000000000000000e+03
2.281000000000000000e+03
2.296000000000000000e+03
2.307000000000000000e+03
2.335000000000000000e+03
2.358000000000000000e+03
2.383000000000000000e+03
2.403000000000000000e+03
2.418000000000000000e+03
2.433000000000000000e+03
2.448000000000000000e+03
2.471000000000000000e+03
2.489000000000000000e+03
2.499000000000000000e+03
2.518000000000000000e+03
2.538000000000000000e+03
2.569000000000000000e+03
2.590000000000000000e+03
2.606000000000000000e+03
2.616000000000000000e+03
2.632000000000000000e+03
2.652000000000000000e+03
2.667000000000000000e+03
2.689000000000000000e+03
2.711000000000000000e+03
2.729000000000000000e+03
2.741000000000000000e+03
2.759000000000000000e+03
2.781000000000000000e+03
2.808000000000000000e+03
2.832000000000000000e+03
2.848000000000000000e+03
2.868000000000000000e+03
2.891000000000000000e+03
2.925000000000000000e+03
2.946000000000000000e+03
2.967000000000000000e+03
2.990000000000000000e+03
3.008000000000000000e+03
3.027000000000000000e+03
3.048000000000000000e+03
3.061000000000000000e+03
3.086000000000000000e+03
3.107000000000000000e+03
3.126000000000000000e+03
3.151000000000000000e+03
3.168000000000000000e+03
3.203000000000000000e+03
3.238000000000000000e+03
3.258000000000000000e+03
3.285000000000000000e+03
3.314000000000000000e+03
3.339000000000000000e+03
3.368000000000000000e+03
3.387000000000000000e+03
3.416000000000000000e+03
3.437000000000000000e+03
3.463000000000000000e+03
3.485000000000000000e+03
3.521000000000000000e+03
3.553000000000000000e+03
3.577000000000000000e+03
3.607000000000000000e+03
3.635000000000000000e+03
3.666000000000000000e+03
3.690000000000000000e+03
3.723000000000000000e+03
3.745000000000000000e+03
3.770000000000000000e+03
3.797000000000000000e+03
3.826000000000000000e+03
3.853000000000000000e+03
3.880000000000000000e+03
3.903000000000000000e+03
3.932000000000000000e+03
3.956000000000000000e+03
3.988000000000000000e+03
4.031000000000000000e+03
4.054000000000000000e+03
4.083000000000000000e+03
4.111000000000000000e+03
4.151000000000000000e+03
4.176000000000000000e+03
4.206000000000000000e+03
4.234000000000000000e+03
4.260000000000000000e+03
4.281000000000000000e+03
4.313000000000000000e+03
4.347000000000000000e+03
4.381000000000000000e+03
4.407000000000000000e+03
4.429000000000000000e+03
4.466000000000000000e+03
4.501000000000000000e+03
4.539000000000000000e+03
4.567000000000000000e+03
4.601000000000000000e+03
4.637000000000000000e+03
4.686000000000000000e+03
4.716000000000000000e+03
4.746000000000000000e+03
4.783000000000000000e+03
4.815000000000000000e+03
4.846000000000000000e+03
4.876000000000000000e+03
4.902000000000000000e+03
4.946000000000000000e+03
4.981000000000000000e+03
5.015000000000000000e+03
5.048000000000000000e+03
5.090000000000000000e+03
5.125000000000000000e+03
5.161000000000000000e+03
5.189000000000000000e+03
5.236000000000000000e+03
5.277000000000000000e+03
5.316000000000000000e+03
5.352000000000000000e+03
5.390000000000000000e+03
5.436000000000000000e+03
5.481000000000000000e+03
5.526000000000000000e+03
5.566000000000000000e+03
5.613000000000000000e+03
5.662000000000000000e+03
5.711000000000000000e+03
5.747000000000000000e+03
5.794000000000000000e+03
5.841000000000000000e+03
5.874000000000000000e+03
5.907000000000000000e+03
5.944000000000000000e+03
5.980000000000000000e+03
6.029000000000000000e+03
6.073000000000000000e+03
6.113000000000000000e+03
6.165000000000000000e+03
6.215000000000000000e+03
6.269000000000000000e+03
6.323000000000000000e+03
6.365000000000000000e+03
6.420000000000000000e+03
6.468000000000000000e+03
6.514000000000000000e+03
6.567000000000000000e+03
6.614000000000000000e+03
6.663000000000000000e+03
6.706000000000000000e+03
6.754000000000000000e+03
6.801000000000000000e+03
6.833000000000000000e+03
6.896000000000000000e+03
6.955000000000000000e+03
7.012000000000000000e+03
7.064000000000000000e+03
7.107000000000000000e+03
7.153000000000000000e+03
7.196000000000000000e+03
7.248000000000000000e+03
7.307000000000000000e+03
7.358000000000000000e+03
7.424000000000000000e+03
7.476000000000000000e+03
7.532000000000000000e+03
7.594000000000000000e+03
7.645000000000000000e+03
7.709000000000000000e+03
7.761000000000000000e+03
7.811000000000000000e+03
7.875000000000000000e+03
7.944000000000000000e+03
8.018000000000000000e+03
8.080000000000000000e+03
8.146000000000000000e+03
8.207000000000000000e+03
8.258000000000000000e+03
8.308000000000000000e+03
8.378000000000000000e+03
8.421000000000000000e+03
8.483000000000000000e+03
8.537000000000000000e+03
8.593000000000000000e+03
8.646000000000000000e+03
8.709000000000000000e+03
8.778000000000000000e+03
8.841000000000000000e+03
8.915000000000000000e+03
8.980000000000000000e+03
9.041000000000000000e+03
9.120000000000000000e+03
9.176000000000000000e+03
9.240000000000000000e+03
9.310000000000000000e+03
9.369000000000000000e+03
9.438000000000000000e+03
9.510000000000000000e+03
9.571000000000000000e+03
9.639000000000000000e+03
9.710000000000000000e+03
9.785000000000000000e+03
9.880000000000000000e+03
9.952000000000000000e+03
1.002800000000000000e+04
1.011300000000000000e+04
1.018700000000000000e+04
1.025500000000000000e+04
1.034500000000000000e+04
1.040900000000000000e+04
1.048500000000000000e+04
1.055500000000000000e+04
1.061900000000000000e+04
1.068500000000000000e+04
1.075800000000000000e+04
1.082200000000000000e+04
1.090400000000000000e+04
1.099100000000000000e+04
1.107900000000000000e+04
1.117600000000000000e+04
1.125200000000000000e+04
1.131800000000000000e+04
1.140500000000000000e+04
1.150400000000000000e+04
1.158500000000000000e+04
1.166500000000000000e+04
1.174900000000000000e+04
1.184400000000000000e+04
1.194000000000000000e+04
1.203500000000000000e+04
1.214000000000000000e+04
1.221300000000000000e+04
1.230400000000000000e+04
1.238900000000000000e+04
1.246600000000000000e+04
1.255000000000000000e+04
1.265100000000000000e+04
1.274100000000000000e+04
1.282700000000000000e+04
1.291000000000000000e+04
1.300800000000000000e+04
1.311200000000000000e+04
1.321700000000000000e+04
1.332100000000000000e+04
1.340700000000000000e+04
1.352500000000000000e+04
1.363700000000000000e+04
1.372900000000000000e+04
1.381100000000000000e+04
1.392500000000000000e+04
1.401300000000000000e+04
1.412800000000000000e+04
1.423100000000000000e+04
1.432400000000000000e+04
1.442000000000000000e+04
1.451900000000000000e+04
1.463500000000000000e+04
1.473300000000000000e+04
1.482600000000000000e+04
1.495200000000000000e+04
1.507100000000000000e+04
1.520000000000000000e+04
1.529900000000000000e+04
1.538300000000000000e+04
1.550200000000000000e+04
1.562200000000000000e+04
1.573500000000000000e+04
1.583500000000000000e+04
1.595100000000000000e+04
1.606300000000000000e+04
1.618600000000000000e+04
1.630300000000000000e+04
1.641500000000000000e+04
1.651600000000000000e+04
1.662900000000000000e+04
1.677200000000000000e+04
1.688400000000000000e+04
1.699600000000000000e+04
