1.000000000000000000e+00
2.000000000000000000e+00
2.000000000000000000e+00
2.000000000000000000e+00
2.000000000000000000e+00
3.000000000000000000e+00
3.000000000000000000e+00
3.000000000000000000e+00
3.000000000000000000e+00
3.000000000000000000e+00
4.000000000000000000e+00
5.000000000000000000e+00
5.000000000000000000e+00
6.000000000000000000e+00
6.000000000000000000e+00
7.000000000000000000e+00
8.000000000000000000e+00
9.000000000000000000e+00
1.000000000000000000e+01
1.200000000000000000e+01
1.300000000000000000e+01
1.700000000000000000e+01
1.700000000000000000e+01
1.800000000000000000e+01
1.900000000000000000e+01
2.300000000000000000e+01
2.600000000000000000e+01
3.400000000000000000e+01
3.400000000000000000e+01
3.700000000000000000e+01
4.300000000000000000e+01
5.100000000000000000e+01
6.000000000000000000e+01
6.900000000000000000e+01
8.100000000000000000e+01
9.200000000000000000e+01
1.050000000000000000e+02
1.260000000000000000e+02
1.390000000000000000e+02
1.610000000000000000e+02
1.900000000000000000e+02
2.160000000000000000e+02
2.510000000000000000e+02
2.890000000000000000e+02
3.260000000000000000e+02
3.760000000000000000e+02
4.400000000000000000e+02
5.030000000000000000e+02
5.820000000000000000e+02
6.720000000000000000e+02
7.750000000000000000e+02
8.860000000000000000e+02
1.039000000000000000e+03
1.202000000000000000e+03
1.379000000000000000e+03
1.590000000000000000e+03
1.860000000000000000e+03
2.159000000000000000e+03
2.463000000000000000e+03
2.875000000000000000e+03
3.336000000000000000e+03
3.837000000000000000e+03
4.449000000000000000e+03
5.137000000000000000e+03
5.970000000000000000e+03
6.868000000000000000e+03
7.940000000000000000e+03
9.206000000000000000e+03
1.067700000000000000e+04
1.240300000000000000e+04
1.428900000000000000e+04
1.654000000000000000e+04
1.916300000000000000e+04
2.219200000000000000e+04
2.569200000000000000e+04
2.981800000000000000e+04
