1.000000000000000000e+00
2.000000000000000000e+00
2.000000000000000000e+00
2.000000000000000000e+00
2.000000000000000000e+00
2.000000000000000000e+00
2.000000000000000000e+00
2.000000000000000000e+00
2.000000000000000000e+00
2.000000000000000000e+00
2.000000000000000000e+00
2.000000000000000000e+00
2.000000000000000000e+00
2.000000000000000000e+00
2.000000000000000000e+00
2.000000000000000000e+00
2.000000000000000000e+00
2.000000000000000000e+00
2.000000000000000000e+00
2.000000000000000000e+00
2.000000000000000000e+00
2.000000000000000000e+00
2.000000000000000000e+00
2.000000000000000000e+00
2.000000000000000000e+00
2.000000000000000000e+00
2.000000000000000000e+00
2.000000000000000000e+00
2.000000000000000000e+00
2.000000000000000000e+00
2.000000000000000000e+00
2.000000000000000000e+00
2.000000000000000000e+00
2.000000000000000000e+00
2.000000000000000000e+00
2.000000000000000000e+00
2.000000000000000000e+00
2.000000000000000000e+00
2.000000000000000000e+00
2.000000000000000000e+00
2.000000000000000000e+00
2.000000000000000000e+00
2.000000000000000000e+00
2.000000000000000000e+00
2.000000000000000000e+00
2.000000000000000000e+00
2.000000000000000000e+00
2.000000000000000000e+00
2.000000000000000000e+00
2.000000000000000000e+00
2.000000000000000000e+00
2.000000000000000000e+00
2.000000000000000000e+00
2.000000000000000000e+00
3.000000000000000000e+00
3.000000000000000000e+00
3.000000000000000000e+00
3.000000000000000000e+00
3.000000000000000000e+00
3.000000000000000000e+00
3.000000000000000000e+00
3.000000000000000000e+00
3.000000000000000000e+00
3.000000000000000000e+00
3.000000000000000000e+00
3.000000000000000000e+00
3.000000000000000000e+00
3.000000000000000000e+00
3.000000000000000000e+00
3.000000000000000000e+00
3.000000000000000000e+00
3.000000000000000000e+00
3.000000000000000000e+00
3.000000000000000000e+00
3.000000000000000000e+00
3.000000000000000000e+00
3.000000000000000000e+00
3.000000000000000000e+00
3.000000000000000000e+00
3.000000000000000000e+00
3.000000000000000000e+00
3.000000000000000000e+00
3.000000000000000000e+00
3.000000000000000000e+00
3.000000000000000000e+00
3.000000000000000000e+00
3.000000000000000000e+00
3.000000000000000000e+00
3.000000000000000000e+00
4.000000000000000000e+00
4.000000000000000000e+00
4.000000000000000000e+00
4.000000000000000000e+00
4.000000000000000000e+00
4.000000000000000000e+00
4.000000000000000000e+00
4.000000000000000000e+00
4.000000000000000000e+00
4.000000000000000000e+00
4.000000000000000000e+00
4.000000000000000000e+00
4.000000000000000000e+00
4.000000000000000000e+00
4.000000000000000000e+00
4.000000000000000000e+00
4.000000000000000000e+00
4.000000000000000000e+00
4.000000000000000000e+00
4.000000000000000000e+00
4.000000000000000000e+00
4.000000000000000000e+00
4.000000000000000000e+00
4.000000000000000000e+00
4.000000000000000000e+00
4.000000000000000000e+00
4.000000000000000000e+00
4.000000000000000000e+00
4.000000000000000000e+00
4.000000000000000000e+00
4.000000000000000000e+00
4.000000000000000000e+00
4.000000000000000000e+00
4.000000000000000000e+00
4.000000000000000000e+00
4.000000000000000000e+00
4.000000000000000000e+00
4.000000000000000000e+00
4.000000000000000000e+00
4.000000000000000000e+00
4.000000000000000000e+00
4.000000000000000000e+00
4.000000000000000000e+00
4.000000000000000000e+00
4.000000000000000000e+00
4.000000000000000000e+00
4.000000000000000000e+00
4.000000000000000000e+00
4.000000000000000000e+00
4.000000000000000000e+00
4.000000000000000000e+00
4.000000000000000000e+00
4.000000000000000000e+00
4.000000000000000000e+00
4.000000000000000000e+00
4.000000000000000000e+00
4.000000000000000000e+00
4.000000000000000000e+00
4.000000000000000000e+00
4.000000000000000000e+00
4.000000000000000000e+00
4.000000000000000000e+00
4.000000000000000000e+00
4.000000000000000000e+00
4.000000000000000000e+00
4.000000000000000000e+00
4.000000000000000000e+00
4.000000000000000000e+00
4.000000000000000000e+00
4.000000000000000000e+00
5.000000000000000000e+00
5.000000000000000000e+00
5.000000000000000000e+00
5.000000000000000000e+00
5.000000000000000000e+00
6.000000000000000000e+00
6.000000000000000000e+00
6.000000000000000000e+00
6.000000000000000000e+00
6.000000000000000000e+00
6.000000000000000000e+00
6.000000000000000000e+00
6.000000000000000000e+00
6.000000000000000000e+00
6.000000000000000000e+00
6.000000000000000000e+00
6.000000000000000000e+00
6.000000000000000000e+00
6.000000000000000000e+00
6.000000000000000000e+00
6.000000000000000000e+00
6.000000000000000000e+00
6.000000000000000000e+00
6.000000000000000000e+00
7.000000000000000000e+00
7.000000000000000000e+00
7.000000000000000000e+00
7.000000000000000000e+00
7.000000000000000000e+00
7.000000000000000000e+00
7.000000000000000000e+00
7.000000000000000000e+00
7.000000000000000000e+00
7.000000000000000000e+00
7.000000000000000000e+00
7.000000000000000000e+00
7.000000000000000000e+00
7.000000000000000000e+00
7.000000000000000000e+00
7.000000000000000000e+00
7.000000000000000000e+00
7.000000000000000000e+00
7.000000000000000000e+00
7.000000000000000000e+00
7.000000000000000000e+00
7.000000000000000000e+00
7.000000000000000000e+00
7.000000000000000000e+00
7.000000000000000000e+00
7.000000000000000000e+00
7.000000000000000000e+00
7.000000000000000000e+00
7.000000000000000000e+00
7.000000000000000000e+00
7.000000000000000000e+00
7.000000000000000000e+00
7.000000000000000000e+00
7.000000000000000000e+00
7.000000000000000000e+00
7.000000000000000000e+00
7.000000000000000000e+00
7.000000000000000000e+00
7.000000000000000000e+00
7.000000000000000000e+00
7.000000000000000000e+00
7.000000000000000000e+00
7.000000000000000000e+00
7.000000000000000000e+00
7.000000000000000000e+00
7.000000000000000000e+00
7.000000000000000000e+00
7.000000000000000000e+00
7.000000000000000000e+00
7.000000000000000000e+00
7.000000000000000000e+00
7.000000000000000000e+00
7.000000000000000000e+00
7.000000000000000000e+00
7.000000000000000000e+00
7.000000000000000000e+00
7.000000000000000000e+00
7.000000000000000000e+00
7.000000000000000000e+00
7.000000000000000000e+00
7.000000000000000000e+00
7.000000000000000000e+00
7.000000000000000000e+00
7.000000000000000000e+00
7.000000000000000000e+00
7.000000000000000000e+00
7.000000000000000000e+00
7.000000000000000000e+00
7.000000000000000000e+00
7.000000000000000000e+00
7.000000000000000000e+00
7.000000000000000000e+00
7.000000000000000000e+00
7.000000000000000000e+00
7.000000000000000000e+00
7.000000000000000000e+00
7.000000000000000000e+00
7.000000000000000000e+00
7.000000000000000000e+00
7.000000000000000000e+00
7.000000000000000000e+00
7.000000000000000000e+00
7.000000000000000000e+00
7.000000000000000000e+00
7.000000000000000000e+00
7.000000000000000000e+00
7.000000000000000000e+00
7.000000000000000000e+00
7.000000000000000000e+00
7.000000000000000000e+00
7.000000000000000000e+00
7.000000000000000000e+00
7.000000000000000000e+00
7.000000000000000000e+00
7.000000000000000000e+00
8.000000000000000000e+00
8.000000000000000000e+00
8.000000000000000000e+00
8.000000000000000000e+00
8.000000000000000000e+00
9.000000000000000000e+00
1.000000000000000000e+01
1.000000000000000000e+01
1.100000000000000000e+01
1.200000000000000000e+01
1.200000000000000000e+01
1.200000000000000000e+01
1.200000000000000000e+01
1.200000000000000000e+01
1.200000000000000000e+01
1.200000000000000000e+01
1.200000000000000000e+01
1.200000000000000000e+01
1.200000000000000000e+01
1.200000000000000000e+01
1.200000000000000000e+01
1.200000000000000000e+01
1.200000000000000000e+01
1.200000000000000000e+01
1.200000000000000000e+01
1.200000000000000000e+01
1.200000000000000000e+01
1.200000000000000000e+01
1.200000000000000000e+01
1.200000000000000000e+01
1.200000000000000000e+01
1.300000000000000000e+01
1.300000000000000000e+01
1.300000000000000000e+01
1.300000000000000000e+01
1.300000000000000000e+01
1.300000000000000000e+01
1.300000000000000000e+01
1.300000000000000000e+01
1.300000000000000000e+01
1.300000000000000000e+01
1.300000000000000000e+01
1.300000000000000000e+01
1.300000000000000000e+01
1.300000000000000000e+01
1.300000000000000000e+01
1.300000000000000000e+01
1.300000000000000000e+01
1.300000000000000000e+01
1.300000000000000000e+01
1.300000000000000000e+01
1.300000000000000000e+01
1.300000000000000000e+01
1.300000000000000000e+01
1.300000000000000000e+01
1.300000000000000000e+01
1.400000000000000000e+01
1.500000000000000000e+01
1.500000000000000000e+01
1.500000000000000000e+01
1.500000000000000000e+01
1.500000000000000000e+01
1.500000000000000000e+01
1.500000000000000000e+01
1.500000000000000000e+01
1.500000000000000000e+01
1.500000000000000000e+01
1.500000000000000000e+01
1.500000000000000000e+01
1.500000000000000000e+01
1.500000000000000000e+01
1.500000000000000000e+01
1.500000000000000000e+01
1.500000000000000000e+01
1.500000000000000000e+01
1.500000000000000000e+01
1.500000000000000000e+01
1.500000000000000000e+01
1.500000000000000000e+01
1.600000000000000000e+01
1.600000000000000000e+01
1.600000000000000000e+01
1.700000000000000000e+01
1.700000000000000000e+01
1.700000000000000000e+01
1.700000000000000000e+01
1.700000000000000000e+01
1.700000000000000000e+01
1.700000000000000000e+01
1.700000000000000000e+01
1.700000000000000000e+01
1.700000000000000000e+01
1.700000000000000000e+01
1.700000000000000000e+01
1.700000000000000000e+01
1.700000000000000000e+01
1.800000000000000000e+01
1.800000000000000000e+01
1.900000000000000000e+01
1.900000000000000000e+01
1.900000000000000000e+01
2.000000000000000000e+01
2.100000000000000000e+01
2.200000000000000000e+01
2.200000000000000000e+01
2.200000000000000000e+01
2.200000000000000000e+01
2.300000000000000000e+01
2.300000000000000000e+01
2.300000000000000000e+01
2.300000000000000000e+01
2.300000000000000000e+01
2.300000000000000000e+01
2.300000000000000000e+01
2.300000000000000000e+01
2.300000000000000000e+01
2.300000000000000000e+01
2.300000000000000000e+01
2.300000000000000000e+01
2.300000000000000000e+01
2.300000000000000000e+01
2.300000000000000000e+01
2.300000000000000000e+01
2.400000000000000000e+01
2.400000000000000000e+01
2.400000000000000000e+01
2.500000000000000000e+01
2.500000000000000000e+01
2.500000000000000000e+01
2.500000000000000000e+01
2.500000000000000000e+01
2.500000000000000000e+01
2.500000000000000000e+01
2.500000000000000000e+01
2.500000000000000000e+01
2.500000000000000000e+01
2.500000000000000000e+01
2.500000000000000000e+01
2.700000000000000000e+01
2.700000000000000000e+01
2.700000000000000000e+01
2.700000000000000000e+01
2.700000000000000000e+01
2.700000000000000000e+01
2.700000000000000000e+01
2.700000000000000000e+01
2.700000000000000000e+01
2.700000000000000000e+01
2.700000000000000000e+01
2.700000000000000000e+01
2.700000000000000000e+01
2.700000000000000000e+01
2.700000000000000000e+01
2.700000000000000000e+01
2.700000000000000000e+01
2.800000000000000000e+01
2.800000000000000000e+01
2.900000000000000000e+01
2.900000000000000000e+01
2.900000000000000000e+01
2.900000000000000000e+01
2.900000000000000000e+01
2.900000000000000000e+01
2.900000000000000000e+01
2.900000000000000000e+01
2.900000000000000000e+01
2.900000000000000000e+01
2.900000000000000000e+01
2.900000000000000000e+01
2.900000000000000000e+01
2.900000000000000000e+01
2.900000000000000000e+01
3.000000000000000000e+01
3.100000000000000000e+01
3.100000000000000000e+01
3.100000000000000000e+01
3.200000000000000000e+01
3.200000000000000000e+01
3.200000000000000000e+01
3.200000000000000000e+01
3.200000000000000000e+01
3.200000000000000000e+01
3.300000000000000000e+01
3.400000000000000000e+01
3.500000000000000000e+01
3.500000000000000000e+01
3.500000000000000000e+01
3.500000000000000000e+01
3.500000000000000000e+01
3.500000000000000000e+01
3.500000000000000000e+01
3.500000000000000000e+01
3.500000000000000000e+01
3.500000000000000000e+01
3.500000000000000000e+01
3.600000000000000000e+01
3.700000000000000000e+01
3.800000000000000000e+01
4.000000000000000000e+01
4.000000000000000000e+01
4.000000000000000000e+01
4.000000000000000000e+01
4.000000000000000000e+01
4.000000000000000000e+01
4.000000000000000000e+01
4.000000000000000000e+01
4.000000000000000000e+01
4.200000000000000000e+01
4.200000000000000000e+01
4.200000000000000000e+01
4.200000000000000000e+01
4.400000000000000000e+01
4.500000000000000000e+01
4.500000000000000000e+01
4.500000000000000000e+01
4.500000000000000000e+01
4.700000000000000000e+01
4.700000000000000000e+01
4.700000000000000000e+01
4.800000000000000000e+01
4.800000000000000000e+01
4.900000000000000000e+01
4.900000000000000000e+01
4.900000000000000000e+01
5.000000000000000000e+01
5.000000000000000000e+01
5.000000000000000000e+01
5.000000000000000000e+01
5.100000000000000000e+01
5.200000000000000000e+01
5.200000000000000000e+01
5.300000000000000000e+01
5.300000000000000000e+01
5.300000000000000000e+01
5.300000000000000000e+01
5.300000000000000000e+01
5.300000000000000000e+01
5.300000000000000000e+01
5.300000000000000000e+01
5.300000000000000000e+01
5.400000000000000000e+01
5.400000000000000000e+01
5.400000000000000000e+01
5.400000000000000000e+01
5.400000000000000000e+01
5.500000000000000000e+01
5.500000000000000000e+01
5.700000000000000000e+01
5.700000000000000000e+01
5.800000000000000000e+01
5.800000000000000000e+01
5.800000000000000000e+01
5.800000000000000000e+01
5.800000000000000000e+01
5.800000000000000000e+01
5.800000000000000000e+01
5.900000000000000000e+01
6.100000000000000000e+01
6.200000000000000000e+01
6.200000000000000000e+01
6.300000000000000000e+01
6.300000000000000000e+01
6.300000000000000000e+01
6.300000000000000000e+01
6.300000000000000000e+01
6.300000000000000000e+01
6.300000000000000000e+01
6.300000000000000000e+01
6.400000000000000000e+01
6.400000000000000000e+01
6.400000000000000000e+01
6.500000000000000000e+01
6.500000000000000000e+01
6.500000000000000000e+01
6.500000000000000000e+01
6.600000000000000000e+01
6.600000000000000000e+01
6.600000000000000000e+01
6.600000000000000000e+01
6.600000000000000000e+01
6.700000000000000000e+01
6.900000000000000000e+01
6.900000000000000000e+01
6.900000000000000000e+01
6.900000000000000000e+01
7.000000000000000000e+01
7.000000000000000000e+01
7.000000000000000000e+01
7.000000000000000000e+01
7.000000000000000000e+01
7.100000000000000000e+01
7.200000000000000000e+01
7.200000000000000000e+01
7.200000000000000000e+01
7.300000000000000000e+01
7.300000000000000000e+01
7.400000000000000000e+01
7.500000000000000000e+01
7.500000000000000000e+01
7.600000000000000000e+01
8.100000000000000000e+01
8.100000000000000000e+01
8.300000000000000000e+01
8.300000000000000000e+01
8.400000000000000000e+01
8.700000000000000000e+01
8.800000000000000000e+01
8.800000000000000000e+01
8.800000000000000000e+01
9.000000000000000000e+01
9.000000000000000000e+01
9.000000000000000000e+01
9.100000000000000000e+01
9.200000000000000000e+01
9.200000000000000000e+01
9.200000000000000000e+01
9.600000000000000000e+01
9.600000000000000000e+01
9.700000000000000000e+01
9.800000000000000000e+01
9.800000000000000000e+01
9.800000000000000000e+01
9.800000000000000000e+01
9.800000000000000000e+01
9.900000000000000000e+01
9.900000000000000000e+01
9.900000000000000000e+01
1.000000000000000000e+02
1.030000000000000000e+02
1.030000000000000000e+02
1.040000000000000000e+02
1.050000000000000000e+02
1.050000000000000000e+02
1.050000000000000000e+02
1.060000000000000000e+02
1.060000000000000000e+02
1.060000000000000000e+02
1.060000000000000000e+02
1.070000000000000000e+02
1.080000000000000000e+02
1.080000000000000000e+02
1.080000000000000000e+02
1.090000000000000000e+02
1.100000000000000000e+02
1.100000000000000000e+02
1.100000000000000000e+02
1.120000000000000000e+02
1.120000000000000000e+02
1.120000000000000000e+02
1.140000000000000000e+02
1.140000000000000000e+02
1.150000000000000000e+02
1.160000000000000000e+02
1.180000000000000000e+02
1.190000000000000000e+02
1.200000000000000000e+02
1.200000000000000000e+02
1.200000000000000000e+02
1.200000000000000000e+02
1.230000000000000000e+02
1.250000000000000000e+02
1.260000000000000000e+02
1.270000000000000000e+02
1.280000000000000000e+02
1.290000000000000000e+02
1.300000000000000000e+02
1.310000000000000000e+02
1.320000000000000000e+02
1.330000000000000000e+02
1.330000000000000000e+02
1.330000000000000000e+02
1.360000000000000000e+02
1.370000000000000000e+02
1.370000000000000000e+02
1.370000000000000000e+02
1.380000000000000000e+02
1.390000000000000000e+02
1.420000000000000000e+02
1.420000000000000000e+02
1.420000000000000000e+02
1.420000000000000000e+02
1.420000000000000000e+02
1.430000000000000000e+02
1.450000000000000000e+02
1.450000000000000000e+02
1.450000000000000000e+02
1.450000000000000000e+02
1.460000000000000000e+02
1.460000000000000000e+02
1.470000000000000000e+02
1.490000000000000000e+02
1.510000000000000000e+02
1.520000000000000000e+02
1.530000000000000000e+02
1.560000000000000000e+02
1.580000000000000000e+02
1.630000000000000000e+02
1.700000000000000000e+02
1.730000000000000000e+02
1.740000000000000000e+02
1.770000000000000000e+02
1.770000000000000000e+02
1.780000000000000000e+02
1.800000000000000000e+02
1.800000000000000000e+02
1.800000000000000000e+02
1.820000000000000000e+02
1.820000000000000000e+02
1.820000000000000000e+02
1.840000000000000000e+02
1.860000000000000000e+02
1.860000000000000000e+02
1.870000000000000000e+02
1.870000000000000000e+02
1.890000000000000000e+02
1.930000000000000000e+02
1.950000000000000000e+02
1.950000000000000000e+02
1.990000000000000000e+02
1.990000000000000000e+02
2.000000000000000000e+02
2.020000000000000000e+02
2.030000000000000000e+02
2.040000000000000000e+02
2.060000000000000000e+02
2.090000000000000000e+02
2.100000000000000000e+02
2.140000000000000000e+02
2.160000000000000000e+02
2.170000000000000000e+02
2.180000000000000000e+02
2.200000000000000000e+02
2.200000000000000000e+02
2.220000000000000000e+02
2.220000000000000000e+02
2.230000000000000000e+02
2.260000000000000000e+02
2.270000000000000000e+02
2.270000000000000000e+02
2.290000000000000000e+02
2.310000000000000000e+02
2.320000000000000000e+02
2.340000000000000000e+02
2.350000000000000000e+02
2.370000000000000000e+02
2.400000000000000000e+02
2.400000000000000000e+02
2.420000000000000000e+02
2.430000000000000000e+02
2.450000000000000000e+02
2.470000000000000000e+02
2.500000000000000000e+02
2.500000000000000000e+02
2.520000000000000000e+02
2.530000000000000000e+02
2.540000000000000000e+02
2.580000000000000000e+02
2.590000000000000000e+02
2.590000000000000000e+02
2.610000000000000000e+02
2.650000000000000000e+02
2.670000000000000000e+02
2.710000000000000000e+02
2.730000000000000000e+02
2.760000000000000000e+02
2.780000000000000000e+02
2.800000000000000000e+02
2.830000000000000000e+02
2.840000000000000000e+02
2.860000000000000000e+02
2.880000000000000000e+02
2.890000000000000000e+02
2.920000000000000000e+02
2.940000000000000000e+02
2.940000000000000000e+02
2.970000000000000000e+02
2.990000000000000000e+02
2.990000000000000000e+02
2.990000000000000000e+02
3.020000000000000000e+02
3.060000000000000000e+02
3.080000000000000000e+02
3.090000000000000000e+02
3.100000000000000000e+02
3.120000000000000000e+02
3.150000000000000000e+02
3.200000000000000000e+02
3.240000000000000000e+02
3.260000000000000000e+02
3.290000000000000000e+02
3.300000000000000000e+02
3.340000000000000000e+02
3.350000000000000000e+02
3.380000000000000000e+02
3.410000000000000000e+02
3.430000000000000000e+02
3.450000000000000000e+02
3.490000000000000000e+02
3.520000000000000000e+02
3.540000000000000000e+02
3.560000000000000000e+02
3.570000000000000000e+02
3.590000000000000000e+02
3.600000000000000000e+02
3.620000000000000000e+02
3.670000000000000000e+02
3.720000000000000000e+02
3.750000000000000000e+02
3.790000000000000000e+02
3.820000000000000000e+02
3.870000000000000000e+02
3.900000000000000000e+02
3.950000000000000000e+02
3.980000000000000000e+02
4.010000000000000000e+02
4.020000000000000000e+02
4.040000000000000000e+02
4.080000000000000000e+02
4.130000000000000000e+02
4.150000000000000000e+02
4.150000000000000000e+02
4.190000000000000000e+02
4.210000000000000000e+02
4.210000000000000000e+02
4.240000000000000000e+02
4.300000000000000000e+02
4.350000000000000000e+02
4.380000000000000000e+02
4.440000000000000000e+02
4.460000000000000000e+02
4.510000000000000000e+02
4.530000000000000000e+02
4.560000000000000000e+02
4.610000000000000000e+02
4.630000000000000000e+02
4.650000000000000000e+02
4.690000000000000000e+02
4.720000000000000000e+02
4.730000000000000000e+02
4.770000000000000000e+02
4.780000000000000000e+02
4.810000000000000000e+02
4.820000000000000000e+02
4.870000000000000000e+02
4.890000000000000000e+02
4.960000000000000000e+02
5.000000000000000000e+02
5.020000000000000000e+02
5.070000000000000000e+02
5.070000000000000000e+02
5.090000000000000000e+02
5.140000000000000000e+02
5.200000000000000000e+02
5.260000000000000000e+02
5.270000000000000000e+02
5.300000000000000000e+02
5.380000000000000000e+02
5.390000000000000000e+02
5.440000000000000000e+02
5.490000000000000000e+02
5.520000000000000000e+02
5.550000000000000000e+02
5.600000000000000000e+02
5.700000000000000000e+02
5.740000000000000000e+02
5.760000000000000000e+02
5.780000000000000000e+02
5.810000000000000000e+02
5.830000000000000000e+02
5.910000000000000000e+02
5.970000000000000000e+02
6.030000000000000000e+02
6.080000000000000000e+02
6.120000000000000000e+02
6.160000000000000000e+02
6.190000000000000000e+02
6.220000000000000000e+02
6.270000000000000000e+02
6.290000000000000000e+02
6.360000000000000000e+02
6.380000000000000000e+02
6.440000000000000000e+02
6.470000000000000000e+02
6.510000000000000000e+02
6.540000000000000000e+02
6.640000000000000000e+02
6.680000000000000000e+02
6.740000000000000000e+02
6.770000000000000000e+02
6.810000000000000000e+02
6.860000000000000000e+02
6.910000000000000000e+02
6.960000000000000000e+02
6.970000000000000000e+02
7.040000000000000000e+02
7.090000000000000000e+02
7.130000000000000000e+02
7.190000000000000000e+02
7.240000000000000000e+02
7.300000000000000000e+02
7.340000000000000000e+02
7.420000000000000000e+02
7.500000000000000000e+02
7.550000000000000000e+02
7.580000000000000000e+02
7.680000000000000000e+02
7.760000000000000000e+02
7.820000000000000000e+02
7.900000000000000000e+02
7.910000000000000000e+02
7.960000000000000000e+02
8.010000000000000000e+02
8.050000000000000000e+02
8.080000000000000000e+02
8.140000000000000000e+02
8.270000000000000000e+02
8.310000000000000000e+02
8.370000000000000000e+02
8.460000000000000000e+02
8.520000000000000000e+02
8.610000000000000000e+02
8.700000000000000000e+02
8.750000000000000000e+02
8.830000000000000000e+02
8.870000000000000000e+02
8.960000000000000000e+02
9.020000000000000000e+02
9.120000000000000000e+02
9.190000000000000000e+02
9.210000000000000000e+02
9.290000000000000000e+02
9.370000000000000000e+02
9.470000000000000000e+02
9.500000000000000000e+02
9.580000000000000000e+02
9.620000000000000000e+02
9.670000000000000000e+02
9.700000000000000000e+02
9.790000000000000000e+02
9.900000000000000000e+02
9.940000000000000000e+02
1.001000000000000000e+03
1.005000000000000000e+03
1.017000000000000000e+03
1.022000000000000000e+03
1.030000000000000000e+03
1.040000000000000000e+03
1.045000000000000000e+03
1.055000000000000000e+03
1.060000000000000000e+03
1.068000000000000000e+03
1.075000000000000000e+03
1.080000000000000000e+03
1.093000000000000000e+03
1.100000000000000000e+03
1.108000000000000000e+03
1.116000000000000000e+03
1.122000000000000000e+03
1.129000000000000000e+03
1.139000000000000000e+03
1.152000000000000000e+03
1.157000000000000000e+03
1.162000000000000000e+03
1.170000000000000000e+03
1.182000000000000000e+03
1.191000000000000000e+03
1.198000000000000000e+03
1.212000000000000000e+03
1.220000000000000000e+03
1.227000000000000000e+03
1.235000000000000000e+03
1.240000000000000000e+03
1.245000000000000000e+03
1.249000000000000000e+03
1.262000000000000000e+03
1.268000000000000000e+03
1.284000000000000000e+03
1.295000000000000000e+03
1.307000000000000000e+03
1.313000000000000000e+03
1.321000000000000000e+03
1.327000000000000000e+03
1.337000000000000000e+03
1.343000000000000000e+03
1.352000000000000000e+03
1.356000000000000000e+03
1.367000000000000000e+03
1.378000000000000000e+03
1.386000000000000000e+03
1.397000000000000000e+03
1.406000000000000000e+03
1.421000000000000000e+03
1.432000000000000000e+03
1.437000000000000000e+03
1.451000000000000000e+03
1.467000000000000000e+03
1.474000000000000000e+03
1.483000000000000000e+03
1.492000000000000000e+03
1.500000000000000000e+03
1.508000000000000000e+03
1.526000000000000000e+03
1.542000000000000000e+03
1.551000000000000000e+03
1.564000000000000000e+03
1.575000000000000000e+03
1.587000000000000000e+03
1.593000000000000000e+03
1.606000000000000000e+03
1.616000000000000000e+03
1.635000000000000000e+03
1.656000000000000000e+03
1.668000000000000000e+03
1.685000000000000000e+03
1.699000000000000000e+03
1.704000000000000000e+03
1.710000000000000000e+03
1.718000000000000000e+03
1.732000000000000000e+03
1.750000000000000000e+03
1.761000000000000000e+03
1.773000000000000000e+03
1.790000000000000000e+03
1.808000000000000000e+03
1.825000000000000000e+03
1.835000000000000000e+03
1.845000000000000000e+03
1.859000000000000000e+03
1.872000000000000000e+03
1.887000000000000000e+03
1.906000000000000000e+03
1.920000000000000000e+03
1.931000000000000000e+03
1.951000000000000000e+03
1.964000000000000000e+03
1.975000000000000000e+03
1.990000000000000000e+03
2.004000000000000000e+03
2.023000000000000000e+03
2.032000000000000000e+03
2.051000000000000000e+03
2.068000000000000000e+03
2.087000000000000000e+03
2.098000000000000000e+03
2.112000000000000000e+03
2.127000000000000000e+03
2.143000000000000000e+03
2.156000000000000000e+03
2.169000000000000000e+03
2.177000000000000000e+03
2.195000000000000000e+03
2.215000000000000000e+03
2.228000000000000000e+03
2.235000000000000000e+03
2.250000000000000000e+03
2.267000000000000000e+03
2.280000000000000000e+03
2.300000000000000000e+03
2.315000000000000000e+03
2.327000000000000000e+03
2.348000000000000000e+03
2.361000000000000000e+03
2.380000000000000000e+03
2.396000000000000000e+03
2.417000000000000000e+03
2.440000000000000000e+03
2.455000000000000000e+03
2.473000000000000000e+03
2.489000000000000000e+03
2.504000000000000000e+03
2.522000000000000000e+03
2.543000000000000000e+03
2.561000000000000000e+03
2.581000000000000000e+03
2.603000000000000000e+03
2.621000000000000000e+03
2.640000000000000000e+03
2.655000000000000000e+03
2.674000000000000000e+03
2.695000000000000000e+03
2.719000000000000000e+03
2.736000000000000000e+03
2.762000000000000000e+03
2.789000000000000000e+03
2.811000000000000000e+03
2.835000000000000000e+03
2.854000000000000000e+03
2.869000000000000000e+03
2.888000000000000000e+03
2.913000000000000000e+03
2.928000000000000000e+03
2.945000000000000000e+03
2.972000000000000000e+03
2.999000000000000000e+03
3.018000000000000000e+03
3.039000000000000000e+03
3.065000000000000000e+03
3.089000000000000000e+03
3.107000000000000000e+03
3.132000000000000000e+03
3.155000000000000000e+03
3.183000000000000000e+03
3.212000000000000000e+03
3.231000000000000000e+03
3.246000000000000000e+03
3.274000000000000000e+03
3.293000000000000000e+03
3.313000000000000000e+03
3.346000000000000000e+03
3.367000000000000000e+03
3.390000000000000000e+03
3.417000000000000000e+03
3.437000000000000000e+03
3.461000000000000000e+03
3.487000000000000000e+03
3.515000000000000000e+03
3.547000000000000000e+03
3.574000000000000000e+03
3.607000000000000000e+03
3.641000000000000000e+03
3.668000000000000000e+03
3.697000000000000000e+03
3.728000000000000000e+03
3.748000000000000000e+03
3.788000000000000000e+03
3.818000000000000000e+03
3.849000000000000000e+03
3.878000000000000000e+03
3.899000000000000000e+03
3.932000000000000000e+03
3.966000000000000000e+03
3.990000000000000000e+03
4.014000000000000000e+03
4.043000000000000000e+03
4.066000000000000000e+03
4.098000000000000000e+03
4.128000000000000000e+03
4.154000000000000000e+03
4.184000000000000000e+03
4.223000000000000000e+03
4.250000000000000000e+03
4.279000000000000000e+03
4.308000000000000000e+03
4.330000000000000000e+03
4.355000000000000000e+03
4.386000000000000000e+03
4.421000000000000000e+03
4.449000000000000000e+03
4.484000000000000000e+03
4.519000000000000000e+03
4.542000000000000000e+03
4.579000000000000000e+03
4.614000000000000000e+03
4.647000000000000000e+03
4.674000000000000000e+03
4.702000000000000000e+03
4.727000000000000000e+03
4.763000000000000000e+03
4.804000000000000000e+03
4.835000000000000000e+03
4.866000000000000000e+03
4.912000000000000000e+03
4.943000000000000000e+03
4.975000000000000000e+03
5.012000000000000000e+03
5.036000000000000000e+03
5.083000000000000000e+03
5.125000000000000000e+03
5.171000000000000000e+03
5.221000000000000000e+03
5.266000000000000000e+03
5.299000000000000000e+03
5.338000000000000000e+03
5.370000000000000000e+03
5.409000000000000000e+03
5.457000000000000000e+03
5.503000000000000000e+03
5.549000000000000000e+03
5.592000000000000000e+03
5.636000000000000000e+03
5.673000000000000000e+03
5.710000000000000000e+03
5.757000000000000000e+03
5.795000000000000000e+03
5.843000000000000000e+03
5.878000000000000000e+03
5.915000000000000000e+03
5.961000000000000000e+03
6.000000000000000000e+03
6.049000000000000000e+03
6.105000000000000000e+03
6.154000000000000000e+03
6.201000000000000000e+03
6.247000000000000000e+03
6.304000000000000000e+03
6.346000000000000000e+03
6.383000000000000000e+03
6.422000000000000000e+03
6.478000000000000000e+03
6.516000000000000000e+03
6.566000000000000000e+03
6.620000000000000000e+03
6.671000000000000000e+03
6.717000000000000000e+03
6.770000000000000000e+03
6.826000000000000000e+03
6.873000000000000000e+03
6.922000000000000000e+03
6.972000000000000000e+03
7.011000000000000000e+03
7.059000000000000000e+03
7.120000000000000000e+03
7.163000000000000000e+03
7.219000000000000000e+03
7.269000000000000000e+03
7.335000000000000000e+03
7.416000000000000000e+03
7.463000000000000000e+03
7.514000000000000000e+03
7.573000000000000000e+03
7.621000000000000000e+03
7.679000000000000000e+03
7.728000000000000000e+03
7.784000000000000000e+03
7.837000000000000000e+03
7.884000000000000000e+03
7.943000000000000000e+03
8.001000000000000000e+03
8.054000000000000000e+03
8.119000000000000000e+03
8.177000000000000000e+03
8.229000000000000000e+03
8.277000000000000000e+03
8.331000000000000000e+03
8.388000000000000000e+03
8.438000000000000000e+03
8.498000000000000000e+03
8.561000000000000000e+03
8.630000000000000000e+03
8.686000000000000000e+03
8.749000000000000000e+03
8.807000000000000000e+03
8.874000000000000000e+03
8.949000000000000000e+03
9.027000000000000000e+03
9.098000000000000000e+03
9.160000000000000000e+03
9.231000000000000000e+03
9.291000000000000000e+03
9.349000000000000000e+03
9.418000000000000000e+03
9.488000000000000000e+03
9.551000000000000000e+03
9.622000000000000000e+03
9.683000000000000000e+03
9.765000000000000000e+03
9.834000000000000000e+03
9.901000000000000000e+03
9.970000000000000000e+03
1.003900000000000000e+04
1.012100000000000000e+04
1.021300000000000000e+04
1.028000000000000000e+04
1.035000000000000000e+04
1.042900000000000000e+04
1.049800000000000000e+04
1.058200000000000000e+04
1.067600000000000000e+04
1.075500000000000000e+04
1.085200000000000000e+04
1.093500000000000000e+04
1.100500000000000000e+04
1.108100000000000000e+04
1.116600000000000000e+04
1.123100000000000000e+04
1.130400000000000000e+04
1.139300000000000000e+04
1.149600000000000000e+04
1.158000000000000000e+04
1.166800000000000000e+04
1.175600000000000000e+04
1.184800000000000000e+04
1.194100000000000000e+04
1.202600000000000000e+04
1.210700000000000000e+04
1.220800000000000000e+04
1.229800000000000000e+04
1.238900000000000000e+04
1.248100000000000000e+04
1.257800000000000000e+04
1.267500000000000000e+04
1.276600000000000000e+04
1.285700000000000000e+04
1.293800000000000000e+04
1.300700000000000000e+04
1.310300000000000000e+04
1.319800000000000000e+04
1.330100000000000000e+04
1.339600000000000000e+04
1.349400000000000000e+04
1.358700000000000000e+04
1.370000000000000000e+04
1.379400000000000000e+04
1.389600000000000000e+04
1.402100000000000000e+04
1.413400000000000000e+04
1.422900000000000000e+04
1.434400000000000000e+04
1.444600000000000000e+04
1.455100000000000000e+04
1.466900000000000000e+04
1.477500000000000000e+04
1.488400000000000000e+04
1.499600000000000000e+04
1.510000000000000000e+04
1.520000000000000000e+04
1.532000000000000000e+04
1.543100000000000000e+04
1.555400000000000000e+04
1.566800000000000000e+04
1.577400000000000000e+04
1.588600000000000000e+04
1.600300000000000000e+04
1.610900000000000000e+04
1.623200000000000000e+04
1.634600000000000000e+04
1.645300000000000000e+04
1.658500000000000000e+04
1.672100000000000000e+04
1.684700000000000000e+04
1.698500000000000000e+04
1.709900000000000000e+04
1.722700000000000000e+04
1.734800000000000000e+04
1.745500000000000000e+04
1.758000000000000000e+04
1.772000000000000000e+04
1.785600000000000000e+04
1.798100000000000000e+04
1.812000000000000000e+04
1.826000000000000000e+04
1.840200000000000000e+04
1.852400000000000000e+04
1.866700000000000000e+04
1.878800000000000000e+04
1.890900000000000000e+04
1.904700000000000000e+04
1.918200000000000000e+04
1.931200000000000000e+04
1.945000000000000000e+04
1.960900000000000000e+04
1.974000000000000000e+04
1.987800000000000000e+04
2.002000000000000000e+04
2.016100000000000000e+04
2.030900000000000000e+04
2.046700000000000000e+04
2.062300000000000000e+04
2.077800000000000000e+04
2.094100000000000000e+04
2.110200000000000000e+04
2.125100000000000000e+04
2.140000000000000000e+04
2.156300000000000000e+04
2.173600000000000000e+04
2.192000000000000000e+04
2.207600000000000000e+04
2.222100000000000000e+04
2.239800000000000000e+04
2.256700000000000000e+04
2.273300000000000000e+04
2.288400000000000000e+04
2.304800000000000000e+04
2.321100000000000000e+04
2.339400000000000000e+04
2.356000000000000000e+04
2.375000000000000000e+04
2.392700000000000000e+04
2.411000000000000000e+04
2.426200000000000000e+04
2.444200000000000000e+04
2.460500000000000000e+04
2.480100000000000000e+04
2.501000000000000000e+04
2.519400000000000000e+04
2.537700000000000000e+04
2.555900000000000000e+04
2.573500000000000000e+04
2.591800000000000000e+04
2.611200000000000000e+04
2.627200000000000000e+04
2.647000000000000000e+04
2.665800000000000000e+04
2.683000000000000000e+04
2.703500000000000000e+04
2.722300000000000000e+04
2.743400000000000000e+04
2.764800000000000000e+04
2.785700000000000000e+04
2.803400000000000000e+04
2.824800000000000000e+04
2.845600000000000000e+04
2.867400000000000000e+04
2.888500000000000000e+04
2.907700000000000000e+04
2.927900000000000000e+04
2.949900000000000000e+04
2.973500000000000000e+04
2.998400000000000000e+04
3.019100000000000000e+04
3.042100000000000000e+04
3.064600000000000000e+04
3.089700000000000000e+04
3.110500000000000000e+04
3.133300000000000000e+04
3.155500000000000000e+04
3.179900000000000000e+04
3.202400000000000000e+04
3.224900000000000000e+04
3.247100000000000000e+04
3.272400000000000000e+04
3.295300000000000000e+04
3.317300000000000000e+04
