1.000000000000000000e+00
2.000000000000000000e+00
2.000000000000000000e+00
2.000000000000000000e+00
2.000000000000000000e+00
3.000000000000000000e+00
3.000000000000000000e+00
4.000000000000000000e+00
4.000000000000000000e+00
4.000000000000000000e+00
4.000000000000000000e+00
5.000000000000000000e+00
6.000000000000000000e+00
7.000000000000000000e+00
8.000000000000000000e+00
8.000000000000000000e+00
8.000000000000000000e+00
1.000000000000000000e+01
1.300000000000000000e+01
1.500000000000000000e+01
1.600000000000000000e+01
1.600000000000000000e+01
1.800000000000000000e+01
2.400000000000000000e+01
2.700000000000000000e+01
3.200000000000000000e+01
3.800000000000000000e+01
4.200000000000000000e+01
5.200000000000000000e+01
5.500000000000000000e+01
6.500000000000000000e+01
7.700000000000000000e+01
8.700000000000000000e+01
1.040000000000000000e+02
1.240000000000000000e+02
1.420000000000000000e+02
1.580000000000000000e+02
1.830000000000000000e+02
2.150000000000000000e+02
2.500000000000000000e+02
2.900000000000000000e+02
3.260000000000000000e+02
3.870000000000000000e+02
4.530000000000000000e+02
5.240000000000000000e+02
6.080000000000000000e+02
7.040000000000000000e+02
7.990000000000000000e+02
9.390000000000000000e+02
1.096000000000000000e+03
1.272000000000000000e+03
1.445000000000000000e+03
1.679000000000000000e+03
1.942000000000000000e+03
2.294000000000000000e+03
2.647000000000000000e+03
3.030000000000000000e+03
3.469000000000000000e+03
4.080000000000000000e+03
4.689000000000000000e+03
5.416000000000000000e+03
6.257000000000000000e+03
7.235000000000000000e+03
8.330000000000000000e+03
9.702000000000000000e+03
1.120900000000000000e+04
1.289400000000000000e+04
1.490600000000000000e+04
1.722600000000000000e+04
1.992200000000000000e+04
2.307500000000000000e+04
2.673300000000000000e+04
3.096900000000000000e+04
3.583700000000000000e+04
4.139000000000000000e+04
4.786300000000000000e+04
