1.000000000000000000e+00
2.000000000000000000e+00
2.000000000000000000e+00
2.000000000000000000e+00
2.000000000000000000e+00
2.000000000000000000e+00
2.000000000000000000e+00
2.000000000000000000e+00
2.000000000000000000e+00
2.000000000000000000e+00
2.000000000000000000e+00
2.000000000000000000e+00
2.000000000000000000e+00
2.000000000000000000e+00
2.000000000000000000e+00
2.000000000000000000e+00
2.000000000000000000e+00
2.000000000000000000e+00
2.000000000000000000e+00
2.000000000000000000e+00
2.000000000000000000e+00
2.000000000000000000e+00
2.000000000000000000e+00
2.000000000000000000e+00
2.000000000000000000e+00
2.000000000000000000e+00
2.000000000000000000e+00
2.000000000000000000e+00
2.000000000000000000e+00
2.000000000000000000e+00
2.000000000000000000e+00
2.000000000000000000e+00
2.000000000000000000e+00
2.000000000000000000e+00
2.000000000000000000e+00
2.000000000000000000e+00
2.000000000000000000e+00
2.000000000000000000e+00
2.000000000000000000e+00
2.000000000000000000e+00
2.000000000000000000e+00
2.000000000000000000e+00
2.000000000000000000e+00
2.000000000000000000e+00
2.000000000000000000e+00
2.000000000000000000e+00
2.000000000000000000e+00
2.000000000000000000e+00
2.000000000000000000e+00
2.000000000000000000e+00
2.000000000000000000e+00
2.000000000000000000e+00
2.000000000000000000e+00
2.000000000000000000e+00
2.000000000000000000e+00
2.000000000000000000e+00
2.000000000000000000e+00
2.000000000000000000e+00
2.000000000000000000e+00
2.000000000000000000e+00
2.000000000000000000e+00
2.000000000000000000e+00
2.000000000000000000e+00
2.000000000000000000e+00
2.000000000000000000e+00
2.000000000000000000e+00
2.000000000000000000e+00
2.000000000000000000e+00
2.000000000000000000e+00
2.000000000000000000e+00
2.000000000000000000e+00
2.000000000000000000e+00
2.000000000000000000e+00
2.000000000000000000e+00
2.000000000000000000e+00
2.000000000000000000e+00
2.000000000000000000e+00
2.000000000000000000e+00
2.000000000000000000e+00
2.000000000000000000e+00
2.000000000000000000e+00
2.000000000000000000e+00
2.000000000000000000e+00
2.000000000000000000e+00
2.000000000000000000e+00
2.000000000000000000e+00
2.000000000000000000e+00
2.000000000000000000e+00
2.000000000000000000e+00
2.000000000000000000e+00
2.000000000000000000e+00
2.000000000000000000e+00
2.000000000000000000e+00
2.000000000000000000e+00
2.000000000000000000e+00
2.000000000000000000e+00
2.000000000000000000e+00
2.000000000000000000e+00
2.000000000000000000e+00
2.000000000000000000e+00
2.000000000000000000e+00
2.000000000000000000e+00
2.000000000000000000e+00
2.000000000000000000e+00
2.000000000000000000e+00
2.000000000000000000e+00
2.000000000000000000e+00
2.000000000000000000e+00
2.000000000000000000e+00
2.000000000000000000e+00
2.000000000000000000e+00
2.000000000000000000e+00
2.000000000000000000e+00
3.000000000000000000e+00
3.000000000000000000e+00
3.000000000000000000e+00
3.000000000000000000e+00
3.000000000000000000e+00
3.000000000000000000e+00
3.000000000000000000e+00
3.000000000000000000e+00
3.000000000000000000e+00
3.000000000000000000e+00
3.000000000000000000e+00
3.000000000000000000e+00
3.000000000000000000e+00
3.000000000000000000e+00
3.000000000000000000e+00
3.000000000000000000e+00
3.000000000000000000e+00
3.000000000000000000e+00
3.000000000000000000e+00
3.000000000000000000e+00
3.000000000000000000e+00
3.000000000000000000e+00
3.000000000000000000e+00
3.000000000000000000e+00
3.000000000000000000e+00
3.000000000000000000e+00
3.000000000000000000e+00
3.000000000000000000e+00
3.000000000000000000e+00
3.000000000000000000e+00
3.000000000000000000e+00
3.000000000000000000e+00
3.000000000000000000e+00
3.000000000000000000e+00
3.000000000000000000e+00
3.000000000000000000e+00
3.000000000000000000e+00
3.000000000000000000e+00
3.000000000000000000e+00
3.000000000000000000e+00
3.000000000000000000e+00
3.000000000000000000e+00
3.000000000000000000e+00
3.000000000000000000e+00
3.000000000000000000e+00
3.000000000000000000e+00
3.000000000000000000e+00
3.000000000000000000e+00
3.000000000000000000e+00
3.000000000000000000e+00
3.000000000000000000e+00
3.000000000000000000e+00
3.000000000000000000e+00
3.000000000000000000e+00
3.000000000000000000e+00
3.000000000000000000e+00
3.000000000000000000e+00
3.000000000000000000e+00
3.000000000000000000e+00
3.000000000000000000e+00
3.000000000000000000e+00
3.000000000000000000e+00
3.000000000000000000e+00
3.000000000000000000e+00
3.000000000000000000e+00
3.000000000000000000e+00
3.000000000000000000e+00
3.000000000000000000e+00
3.000000000000000000e+00
3.000000000000000000e+00
3.000000000000000000e+00
3.000000000000000000e+00
3.000000000000000000e+00
3.000000000000000000e+00
3.000000000000000000e+00
3.000000000000000000e+00
3.000000000000000000e+00
3.000000000000000000e+00
3.000000000000000000e+00
4.000000000000000000e+00
4.000000000000000000e+00
4.000000000000000000e+00
4.000000000000000000e+00
4.000000000000000000e+00
4.000000000000000000e+00
4.000000000000000000e+00
4.000000000000000000e+00
4.000000000000000000e+00
4.000000000000000000e+00
5.000000000000000000e+00
5.000000000000000000e+00
5.000000000000000000e+00
5.000000000000000000e+00
5.000000000000000000e+00
5.000000000000000000e+00
5.000000000000000000e+00
5.000000000000000000e+00
5.000000000000000000e+00
5.000000000000000000e+00
5.000000000000000000e+00
5.000000000000000000e+00
5.000000000000000000e+00
5.000000000000000000e+00
5.000000000000000000e+00
5.000000000000000000e+00
5.000000000000000000e+00
5.000000000000000000e+00
5.000000000000000000e+00
5.000000000000000000e+00
5.000000000000000000e+00
5.000000000000000000e+00
5.000000000000000000e+00
5.000000000000000000e+00
5.000000000000000000e+00
5.000000000000000000e+00
5.000000000000000000e+00
5.000000000000000000e+00
5.000000000000000000e+00
5.000000000000000000e+00
5.000000000000000000e+00
5.000000000000000000e+00
5.000000000000000000e+00
5.000000000000000000e+00
5.000000000000000000e+00
5.000000000000000000e+00
5.000000000000000000e+00
5.000000000000000000e+00
5.000000000000000000e+00
5.000000000000000000e+00
5.000000000000000000e+00
5.000000000000000000e+00
5.000000000000000000e+00
5.000000000000000000e+00
5.000000000000000000e+00
5.000000000000000000e+00
5.000000000000000000e+00
5.000000000000000000e+00
5.000000000000000000e+00
5.000000000000000000e+00
5.000000000000000000e+00
5.000000000000000000e+00
5.000000000000000000e+00
6.000000000000000000e+00
6.000000000000000000e+00
6.000000000000000000e+00
6.000000000000000000e+00
6.000000000000000000e+00
6.000000000000000000e+00
8.000000000000000000e+00
8.000000000000000000e+00
8.000000000000000000e+00
8.000000000000000000e+00
8.000000000000000000e+00
8.000000000000000000e+00
8.000000000000000000e+00
8.000000000000000000e+00
8.000000000000000000e+00
8.000000000000000000e+00
8.000000000000000000e+00
9.000000000000000000e+00
9.000000000000000000e+00
9.000000000000000000e+00
9.000000000000000000e+00
9.000000000000000000e+00
9.000000000000000000e+00
9.000000000000000000e+00
9.000000000000000000e+00
9.000000000000000000e+00
9.000000000000000000e+00
9.000000000000000000e+00
9.000000000000000000e+00
9.000000000000000000e+00
9.000000000000000000e+00
9.000000000000000000e+00
9.000000000000000000e+00
9.000000000000000000e+00
9.000000000000000000e+00
9.000000000000000000e+00
9.000000000000000000e+00
9.000000000000000000e+00
9.000000000000000000e+00
9.000000000000000000e+00
9.000000000000000000e+00
1.000000000000000000e+01
1.000000000000000000e+01
1.000000000000000000e+01
1.000000000000000000e+01
1.000000000000000000e+01
1.000000000000000000e+01
1.000000000000000000e+01
1.000000000000000000e+01
1.100000000000000000e+01
1.100000000000000000e+01
1.100000000000000000e+01
1.100000000000000000e+01
1.100000000000000000e+01
1.100000000000000000e+01
1.100000000000000000e+01
1.100000000000000000e+01
1.100000000000000000e+01
1.100000000000000000e+01
1.100000000000000000e+01
1.100000000000000000e+01
1.100000000000000000e+01
1.100000000000000000e+01
1.100000000000000000e+01
1.200000000000000000e+01
1.200000000000000000e+01
1.200000000000000000e+01
1.200000000000000000e+01
1.200000000000000000e+01
1.200000000000000000e+01
1.200000000000000000e+01
1.200000000000000000e+01
1.200000000000000000e+01
1.200000000000000000e+01
1.200000000000000000e+01
1.200000000000000000e+01
1.300000000000000000e+01
1.300000000000000000e+01
1.300000000000000000e+01
1.300000000000000000e+01
1.300000000000000000e+01
1.300000000000000000e+01
1.300000000000000000e+01
1.400000000000000000e+01
1.400000000000000000e+01
1.400000000000000000e+01
1.400000000000000000e+01
1.400000000000000000e+01
1.400000000000000000e+01
1.400000000000000000e+01
1.400000000000000000e+01
1.400000000000000000e+01
1.400000000000000000e+01
1.400000000000000000e+01
1.400000000000000000e+01
1.400000000000000000e+01
1.400000000000000000e+01
1.400000000000000000e+01
1.500000000000000000e+01
1.500000000000000000e+01
1.500000000000000000e+01
1.500000000000000000e+01
1.500000000000000000e+01
1.500000000000000000e+01
1.500000000000000000e+01
1.700000000000000000e+01
1.700000000000000000e+01
1.700000000000000000e+01
1.700000000000000000e+01
1.800000000000000000e+01
1.800000000000000000e+01
1.800000000000000000e+01
1.800000000000000000e+01
1.800000000000000000e+01
1.800000000000000000e+01
1.800000000000000000e+01
1.800000000000000000e+01
1.800000000000000000e+01
1.800000000000000000e+01
1.800000000000000000e+01
1.900000000000000000e+01
1.900000000000000000e+01
1.900000000000000000e+01
2.000000000000000000e+01
2.000000000000000000e+01
2.000000000000000000e+01
2.000000000000000000e+01
2.000000000000000000e+01
2.000000000000000000e+01
2.000000000000000000e+01
2.000000000000000000e+01
2.000000000000000000e+01
2.000000000000000000e+01
2.000000000000000000e+01
2.000000000000000000e+01
2.000000000000000000e+01
2.000000000000000000e+01
2.000000000000000000e+01
2.000000000000000000e+01
2.000000000000000000e+01
2.000000000000000000e+01
2.000000000000000000e+01
2.000000000000000000e+01
2.000000000000000000e+01
2.000000000000000000e+01
2.000000000000000000e+01
2.100000000000000000e+01
2.100000000000000000e+01
2.100000000000000000e+01
2.100000000000000000e+01
2.100000000000000000e+01
2.200000000000000000e+01
2.300000000000000000e+01
2.300000000000000000e+01
2.400000000000000000e+01
2.400000000000000000e+01
2.400000000000000000e+01
2.400000000000000000e+01
2.400000000000000000e+01
2.400000000000000000e+01
2.400000000000000000e+01
2.400000000000000000e+01
2.400000000000000000e+01
2.400000000000000000e+01
2.400000000000000000e+01
2.400000000000000000e+01
2.400000000000000000e+01
2.400000000000000000e+01
2.400000000000000000e+01
2.400000000000000000e+01
2.500000000000000000e+01
2.500000000000000000e+01
2.600000000000000000e+01
2.600000000000000000e+01
2.700000000000000000e+01
2.700000000000000000e+01
2.800000000000000000e+01
2.800000000000000000e+01
2.800000000000000000e+01
2.800000000000000000e+01
2.900000000000000000e+01
2.900000000000000000e+01
2.900000000000000000e+01
2.900000000000000000e+01
2.900000000000000000e+01
2.900000000000000000e+01
2.900000000000000000e+01
2.900000000000000000e+01
2.900000000000000000e+01
2.900000000000000000e+01
2.900000000000000000e+01
2.900000000000000000e+01
2.900000000000000000e+01
2.900000000000000000e+01
3.000000000000000000e+01
3.100000000000000000e+01
3.100000000000000000e+01
3.200000000000000000e+01
3.200000000000000000e+01
3.200000000000000000e+01
3.300000000000000000e+01
3.300000000000000000e+01
3.300000000000000000e+01
3.300000000000000000e+01
3.300000000000000000e+01
3.400000000000000000e+01
3.400000000000000000e+01
3.400000000000000000e+01
3.400000000000000000e+01
3.400000000000000000e+01
3.400000000000000000e+01
3.500000000000000000e+01
3.500000000000000000e+01
3.500000000000000000e+01
3.500000000000000000e+01
3.500000000000000000e+01
3.500000000000000000e+01
3.600000000000000000e+01
3.600000000000000000e+01
3.700000000000000000e+01
3.700000000000000000e+01
3.700000000000000000e+01
3.700000000000000000e+01
3.700000000000000000e+01
3.700000000000000000e+01
3.700000000000000000e+01
3.700000000000000000e+01
3.800000000000000000e+01
3.800000000000000000e+01
3.900000000000000000e+01
3.900000000000000000e+01
3.900000000000000000e+01
3.900000000000000000e+01
3.900000000000000000e+01
3.900000000000000000e+01
3.900000000000000000e+01
4.000000000000000000e+01
4.000000000000000000e+01
4.000000000000000000e+01
4.000000000000000000e+01
4.000000000000000000e+01
4.000000000000000000e+01
4.100000000000000000e+01
4.100000000000000000e+01
4.200000000000000000e+01
4.300000000000000000e+01
4.300000000000000000e+01
4.400000000000000000e+01
4.500000000000000000e+01
4.500000000000000000e+01
4.500000000000000000e+01
4.500000000000000000e+01
4.500000000000000000e+01
4.700000000000000000e+01
4.700000000000000000e+01
4.700000000000000000e+01
4.700000000000000000e+01
4.800000000000000000e+01
4.800000000000000000e+01
4.800000000000000000e+01
4.800000000000000000e+01
5.000000000000000000e+01
5.000000000000000000e+01
5.100000000000000000e+01
5.100000000000000000e+01
5.100000000000000000e+01
5.100000000000000000e+01
5.100000000000000000e+01
5.200000000000000000e+01
5.200000000000000000e+01
5.300000000000000000e+01
5.300000000000000000e+01
5.300000000000000000e+01
5.300000000000000000e+01
5.300000000000000000e+01
5.300000000000000000e+01
5.300000000000000000e+01
5.300000000000000000e+01
5.300000000000000000e+01
5.300000000000000000e+01
5.300000000000000000e+01
5.300000000000000000e+01
5.300000000000000000e+01
5.400000000000000000e+01
5.400000000000000000e+01
5.400000000000000000e+01
5.600000000000000000e+01
5.600000000000000000e+01
5.600000000000000000e+01
5.600000000000000000e+01
5.600000000000000000e+01
5.600000000000000000e+01
5.600000000000000000e+01
5.700000000000000000e+01
5.800000000000000000e+01
5.900000000000000000e+01
5.900000000000000000e+01
6.000000000000000000e+01
6.000000000000000000e+01
6.000000000000000000e+01
6.100000000000000000e+01
6.100000000000000000e+01
6.100000000000000000e+01
6.200000000000000000e+01
6.400000000000000000e+01
6.500000000000000000e+01
6.500000000000000000e+01
6.600000000000000000e+01
6.700000000000000000e+01
6.700000000000000000e+01
6.800000000000000000e+01
7.000000000000000000e+01
7.200000000000000000e+01
7.300000000000000000e+01
7.300000000000000000e+01
7.300000000000000000e+01
7.300000000000000000e+01
7.400000000000000000e+01
7.500000000000000000e+01
7.500000000000000000e+01
7.500000000000000000e+01
7.500000000000000000e+01
7.500000000000000000e+01
7.600000000000000000e+01
7.600000000000000000e+01
7.700000000000000000e+01
7.700000000000000000e+01
7.800000000000000000e+01
7.800000000000000000e+01
7.800000000000000000e+01
7.800000000000000000e+01
7.900000000000000000e+01
7.900000000000000000e+01
7.900000000000000000e+01
7.900000000000000000e+01
8.000000000000000000e+01
8.200000000000000000e+01
8.200000000000000000e+01
8.200000000000000000e+01
8.200000000000000000e+01
8.300000000000000000e+01
8.400000000000000000e+01
8.400000000000000000e+01
8.500000000000000000e+01
8.600000000000000000e+01
8.800000000000000000e+01
8.800000000000000000e+01
8.900000000000000000e+01
8.900000000000000000e+01
9.000000000000000000e+01
9.100000000000000000e+01
9.200000000000000000e+01
9.300000000000000000e+01
9.700000000000000000e+01
9.800000000000000000e+01
9.900000000000000000e+01
1.000000000000000000e+02
1.010000000000000000e+02
1.010000000000000000e+02
1.010000000000000000e+02
1.010000000000000000e+02
1.020000000000000000e+02
1.020000000000000000e+02
1.040000000000000000e+02
1.040000000000000000e+02
1.040000000000000000e+02
1.040000000000000000e+02
1.050000000000000000e+02
1.070000000000000000e+02
1.080000000000000000e+02
1.090000000000000000e+02
1.090000000000000000e+02
1.090000000000000000e+02
1.100000000000000000e+02
1.100000000000000000e+02
1.100000000000000000e+02
1.110000000000000000e+02
1.120000000000000000e+02
1.130000000000000000e+02
1.130000000000000000e+02
1.150000000000000000e+02
1.170000000000000000e+02
1.170000000000000000e+02
1.170000000000000000e+02
1.170000000000000000e+02
1.170000000000000000e+02
1.170000000000000000e+02
1.180000000000000000e+02
1.180000000000000000e+02
1.180000000000000000e+02
1.190000000000000000e+02
1.190000000000000000e+02
1.210000000000000000e+02
1.220000000000000000e+02
1.240000000000000000e+02
1.240000000000000000e+02
1.240000000000000000e+02
1.250000000000000000e+02
1.250000000000000000e+02
1.250000000000000000e+02
1.260000000000000000e+02
1.260000000000000000e+02
1.260000000000000000e+02
1.260000000000000000e+02
1.280000000000000000e+02
1.300000000000000000e+02
1.310000000000000000e+02
1.310000000000000000e+02
1.320000000000000000e+02
1.330000000000000000e+02
1.360000000000000000e+02
1.360000000000000000e+02
1.360000000000000000e+02
1.390000000000000000e+02
1.420000000000000000e+02
1.450000000000000000e+02
1.480000000000000000e+02
1.490000000000000000e+02
1.510000000000000000e+02
1.520000000000000000e+02
1.520000000000000000e+02
1.540000000000000000e+02
1.540000000000000000e+02
1.540000000000000000e+02
1.550000000000000000e+02
1.570000000000000000e+02
1.580000000000000000e+02
1.590000000000000000e+02
1.620000000000000000e+02
1.630000000000000000e+02
1.630000000000000000e+02
1.640000000000000000e+02
1.650000000000000000e+02
1.660000000000000000e+02
1.660000000000000000e+02
1.660000000000000000e+02
1.670000000000000000e+02
1.670000000000000000e+02
1.690000000000000000e+02
1.700000000000000000e+02
1.710000000000000000e+02
1.720000000000000000e+02
1.740000000000000000e+02
1.780000000000000000e+02
1.780000000000000000e+02
1.780000000000000000e+02
1.780000000000000000e+02
1.790000000000000000e+02
1.810000000000000000e+02
1.820000000000000000e+02
1.820000000000000000e+02
1.820000000000000000e+02
1.830000000000000000e+02
1.840000000000000000e+02
1.840000000000000000e+02
1.840000000000000000e+02
1.850000000000000000e+02
1.860000000000000000e+02
1.860000000000000000e+02
1.900000000000000000e+02
1.920000000000000000e+02
1.940000000000000000e+02
1.960000000000000000e+02
1.990000000000000000e+02
2.010000000000000000e+02
2.010000000000000000e+02
2.050000000000000000e+02
2.050000000000000000e+02
2.060000000000000000e+02
2.070000000000000000e+02
2.100000000000000000e+02
2.110000000000000000e+02
2.130000000000000000e+02
2.170000000000000000e+02
2.220000000000000000e+02
2.240000000000000000e+02
2.260000000000000000e+02
2.290000000000000000e+02
2.320000000000000000e+02
2.330000000000000000e+02
2.340000000000000000e+02
2.340000000000000000e+02
2.350000000000000000e+02
2.350000000000000000e+02
2.350000000000000000e+02
2.350000000000000000e+02
2.360000000000000000e+02
2.390000000000000000e+02
2.420000000000000000e+02
2.440000000000000000e+02
2.450000000000000000e+02
2.460000000000000000e+02
2.470000000000000000e+02
2.480000000000000000e+02
2.530000000000000000e+02
2.570000000000000000e+02
2.580000000000000000e+02
2.630000000000000000e+02
2.650000000000000000e+02
2.690000000000000000e+02
2.710000000000000000e+02
2.730000000000000000e+02
2.750000000000000000e+02
2.770000000000000000e+02
2.800000000000000000e+02
2.800000000000000000e+02
2.840000000000000000e+02
2.840000000000000000e+02
2.850000000000000000e+02
2.850000000000000000e+02
2.880000000000000000e+02
2.890000000000000000e+02
2.930000000000000000e+02
2.940000000000000000e+02
2.970000000000000000e+02
2.990000000000000000e+02
3.000000000000000000e+02
3.010000000000000000e+02
3.040000000000000000e+02
3.040000000000000000e+02
3.080000000000000000e+02
3.130000000000000000e+02
3.150000000000000000e+02
3.170000000000000000e+02
3.200000000000000000e+02
3.210000000000000000e+02
3.210000000000000000e+02
3.220000000000000000e+02
3.250000000000000000e+02
3.260000000000000000e+02
3.300000000000000000e+02
3.370000000000000000e+02
3.400000000000000000e+02
3.430000000000000000e+02
3.430000000000000000e+02
3.450000000000000000e+02
3.470000000000000000e+02
3.480000000000000000e+02
3.500000000000000000e+02
3.510000000000000000e+02
3.540000000000000000e+02
3.550000000000000000e+02
3.570000000000000000e+02
3.580000000000000000e+02
3.600000000000000000e+02
3.610000000000000000e+02
3.640000000000000000e+02
3.660000000000000000e+02
3.680000000000000000e+02
3.710000000000000000e+02
3.720000000000000000e+02
3.750000000000000000e+02
3.780000000000000000e+02
3.790000000000000000e+02
3.830000000000000000e+02
3.830000000000000000e+02
3.830000000000000000e+02
3.860000000000000000e+02
3.880000000000000000e+02
3.920000000000000000e+02
3.930000000000000000e+02
3.960000000000000000e+02
3.980000000000000000e+02
4.000000000000000000e+02
4.030000000000000000e+02
4.100000000000000000e+02
4.120000000000000000e+02
4.120000000000000000e+02
4.130000000000000000e+02
4.140000000000000000e+02
4.170000000000000000e+02
4.230000000000000000e+02
4.270000000000000000e+02
4.300000000000000000e+02
4.340000000000000000e+02
4.380000000000000000e+02
4.420000000000000000e+02
4.470000000000000000e+02
4.490000000000000000e+02
4.530000000000000000e+02
4.570000000000000000e+02
4.600000000000000000e+02
4.620000000000000000e+02
4.660000000000000000e+02
4.700000000000000000e+02
4.760000000000000000e+02
4.800000000000000000e+02
4.830000000000000000e+02
4.870000000000000000e+02
4.930000000000000000e+02
4.990000000000000000e+02
5.030000000000000000e+02
5.070000000000000000e+02
5.090000000000000000e+02
5.150000000000000000e+02
5.200000000000000000e+02
5.230000000000000000e+02
5.300000000000000000e+02
5.400000000000000000e+02
5.410000000000000000e+02
5.440000000000000000e+02
5.460000000000000000e+02
5.480000000000000000e+02
5.500000000000000000e+02
5.520000000000000000e+02
5.600000000000000000e+02
5.630000000000000000e+02
5.670000000000000000e+02
5.710000000000000000e+02
5.750000000000000000e+02
5.760000000000000000e+02
5.780000000000000000e+02
5.860000000000000000e+02
5.910000000000000000e+02
5.950000000000000000e+02
6.000000000000000000e+02
6.020000000000000000e+02
6.040000000000000000e+02
6.100000000000000000e+02
6.150000000000000000e+02
6.180000000000000000e+02
6.200000000000000000e+02
6.230000000000000000e+02
6.240000000000000000e+02
6.290000000000000000e+02
6.320000000000000000e+02
6.340000000000000000e+02
6.400000000000000000e+02
6.420000000000000000e+02
6.480000000000000000e+02
6.540000000000000000e+02
6.630000000000000000e+02
6.710000000000000000e+02
6.780000000000000000e+02
6.830000000000000000e+02
6.860000000000000000e+02
6.890000000000000000e+02
6.980000000000000000e+02
7.010000000000000000e+02
7.080000000000000000e+02
7.130000000000000000e+02
7.190000000000000000e+02
7.220000000000000000e+02
7.270000000000000000e+02
7.290000000000000000e+02
7.310000000000000000e+02
7.350000000000000000e+02
7.420000000000000000e+02
7.460000000000000000e+02
7.500000000000000000e+02
7.540000000000000000e+02
7.640000000000000000e+02
7.690000000000000000e+02
7.720000000000000000e+02
7.790000000000000000e+02
7.900000000000000000e+02
7.950000000000000000e+02
8.040000000000000000e+02
8.090000000000000000e+02
8.110000000000000000e+02
8.190000000000000000e+02
8.230000000000000000e+02
8.300000000000000000e+02
8.340000000000000000e+02
8.390000000000000000e+02
8.450000000000000000e+02
8.480000000000000000e+02
8.520000000000000000e+02
8.590000000000000000e+02
8.680000000000000000e+02
8.750000000000000000e+02
8.800000000000000000e+02
8.850000000000000000e+02
8.900000000000000000e+02
8.950000000000000000e+02
9.020000000000000000e+02
9.110000000000000000e+02
9.210000000000000000e+02
9.300000000000000000e+02
9.340000000000000000e+02
9.450000000000000000e+02
9.560000000000000000e+02
9.680000000000000000e+02
9.760000000000000000e+02
9.840000000000000000e+02
9.890000000000000000e+02
9.970000000000000000e+02
1.003000000000000000e+03
1.011000000000000000e+03
1.018000000000000000e+03
1.027000000000000000e+03
1.034000000000000000e+03
1.040000000000000000e+03
1.050000000000000000e+03
1.058000000000000000e+03
1.068000000000000000e+03
1.072000000000000000e+03
1.079000000000000000e+03
1.084000000000000000e+03
1.092000000000000000e+03
1.097000000000000000e+03
1.100000000000000000e+03
1.106000000000000000e+03
1.117000000000000000e+03
1.124000000000000000e+03
1.132000000000000000e+03
1.141000000000000000e+03
1.149000000000000000e+03
1.159000000000000000e+03
1.162000000000000000e+03
1.176000000000000000e+03
1.185000000000000000e+03
1.203000000000000000e+03
1.210000000000000000e+03
1.216000000000000000e+03
1.227000000000000000e+03
1.238000000000000000e+03
1.251000000000000000e+03
1.255000000000000000e+03
1.265000000000000000e+03
1.273000000000000000e+03
1.281000000000000000e+03
1.290000000000000000e+03
1.297000000000000000e+03
1.302000000000000000e+03
1.314000000000000000e+03
1.329000000000000000e+03
1.336000000000000000e+03
1.343000000000000000e+03
1.351000000000000000e+03
1.361000000000000000e+03
1.368000000000000000e+03
1.373000000000000000e+03
1.384000000000000000e+03
1.390000000000000000e+03
1.396000000000000000e+03
1.402000000000000000e+03
1.407000000000000000e+03
1.417000000000000000e+03
1.431000000000000000e+03
1.437000000000000000e+03
1.449000000000000000e+03
1.459000000000000000e+03
1.472000000000000000e+03
1.481000000000000000e+03
1.490000000000000000e+03
1.507000000000000000e+03
1.517000000000000000e+03
1.531000000000000000e+03
1.548000000000000000e+03
1.558000000000000000e+03
1.568000000000000000e+03
1.577000000000000000e+03
1.591000000000000000e+03
1.604000000000000000e+03
1.615000000000000000e+03
1.626000000000000000e+03
1.635000000000000000e+03
1.647000000000000000e+03
1.656000000000000000e+03
1.675000000000000000e+03
1.695000000000000000e+03
1.710000000000000000e+03
1.730000000000000000e+03
1.747000000000000000e+03
1.758000000000000000e+03
1.769000000000000000e+03
1.785000000000000000e+03
1.802000000000000000e+03
1.820000000000000000e+03
1.831000000000000000e+03
1.844000000000000000e+03
1.863000000000000000e+03
1.873000000000000000e+03
1.891000000000000000e+03
1.912000000000000000e+03
1.930000000000000000e+03
1.943000000000000000e+03
1.950000000000000000e+03
1.962000000000000000e+03
1.972000000000000000e+03
1.990000000000000000e+03
1.998000000000000000e+03
2.007000000000000000e+03
2.026000000000000000e+03
2.039000000000000000e+03
2.045000000000000000e+03
2.062000000000000000e+03
2.077000000000000000e+03
2.093000000000000000e+03
2.106000000000000000e+03
2.118000000000000000e+03
2.135000000000000000e+03
2.142000000000000000e+03
2.154000000000000000e+03
2.172000000000000000e+03
2.186000000000000000e+03
2.197000000000000000e+03
2.211000000000000000e+03
2.222000000000000000e+03
2.234000000000000000e+03
2.242000000000000000e+03
2.264000000000000000e+03
2.278000000000000000e+03
2.291000000000000000e+03
2.305000000000000000e+03
2.331000000000000000e+03
2.348000000000000000e+03
2.365000000000000000e+03
2.381000000000000000e+03
2.400000000000000000e+03
2.420000000000000000e+03
2.441000000000000000e+03
2.458000000000000000e+03
2.469000000000000000e+03
2.488000000000000000e+03
2.508000000000000000e+03
2.526000000000000000e+03
2.544000000000000000e+03
2.574000000000000000e+03
2.584000000000000000e+03
2.602000000000000000e+03
2.618000000000000000e+03
2.643000000000000000e+03
2.662000000000000000e+03
2.680000000000000000e+03
2.696000000000000000e+03
2.721000000000000000e+03
2.743000000000000000e+03
2.758000000000000000e+03
2.791000000000000000e+03
2.808000000000000000e+03
2.831000000000000000e+03
2.857000000000000000e+03
2.880000000000000000e+03
2.902000000000000000e+03
2.917000000000000000e+03
2.939000000000000000e+03
2.958000000000000000e+03
2.985000000000000000e+03
3.002000000000000000e+03
3.021000000000000000e+03
3.036000000000000000e+03
3.060000000000000000e+03
3.077000000000000000e+03
3.093000000000000000e+03
3.116000000000000000e+03
3.141000000000000000e+03
3.163000000000000000e+03
3.181000000000000000e+03
3.204000000000000000e+03
3.228000000000000000e+03
3.251000000000000000e+03
3.279000000000000000e+03
3.302000000000000000e+03
3.331000000000000000e+03
3.355000000000000000e+03
3.383000000000000000e+03
3.403000000000000000e+03
3.426000000000000000e+03
3.451000000000000000e+03
3.472000000000000000e+03
3.496000000000000000e+03
3.522000000000000000e+03
3.554000000000000000e+03
3.573000000000000000e+03
3.596000000000000000e+03
3.629000000000000000e+03
3.652000000000000000e+03
3.683000000000000000e+03
3.705000000000000000e+03
3.732000000000000000e+03
3.755000000000000000e+03
3.785000000000000000e+03
3.807000000000000000e+03
3.830000000000000000e+03
3.863000000000000000e+03
3.898000000000000000e+03
3.932000000000000000e+03
3.959000000000000000e+03
3.980000000000000000e+03
4.019000000000000000e+03
4.055000000000000000e+03
4.079000000000000000e+03
4.100000000000000000e+03
4.140000000000000000e+03
4.166000000000000000e+03
4.201000000000000000e+03
4.239000000000000000e+03
4.270000000000000000e+03
4.300000000000000000e+03
4.331000000000000000e+03
4.362000000000000000e+03
4.404000000000000000e+03
4.443000000000000000e+03
4.475000000000000000e+03
4.500000000000000000e+03
4.534000000000000000e+03
4.571000000000000000e+03
4.619000000000000000e+03
4.646000000000000000e+03
4.693000000000000000e+03
4.726000000000000000e+03
4.760000000000000000e+03
4.790000000000000000e+03
4.828000000000000000e+03
4.863000000000000000e+03
4.892000000000000000e+03
4.921000000000000000e+03
4.959000000000000000e+03
5.004000000000000000e+03
5.045000000000000000e+03
5.076000000000000000e+03
5.122000000000000000e+03
5.154000000000000000e+03
5.196000000000000000e+03
5.244000000000000000e+03
5.276000000000000000e+03
5.319000000000000000e+03
5.355000000000000000e+03
5.405000000000000000e+03
5.454000000000000000e+03
5.488000000000000000e+03
5.520000000000000000e+03
5.557000000000000000e+03
5.599000000000000000e+03
5.635000000000000000e+03
5.674000000000000000e+03
5.701000000000000000e+03
5.733000000000000000e+03
5.775000000000000000e+03
5.810000000000000000e+03
5.849000000000000000e+03
5.907000000000000000e+03
5.963000000000000000e+03
6.006000000000000000e+03
6.042000000000000000e+03
6.083000000000000000e+03
6.126000000000000000e+03
6.170000000000000000e+03
6.219000000000000000e+03
6.273000000000000000e+03
6.323000000000000000e+03
6.375000000000000000e+03
6.423000000000000000e+03
6.464000000000000000e+03
6.505000000000000000e+03
6.559000000000000000e+03
6.608000000000000000e+03
6.660000000000000000e+03
6.704000000000000000e+03
6.740000000000000000e+03
6.787000000000000000e+03
6.828000000000000000e+03
6.860000000000000000e+03
6.896000000000000000e+03
6.950000000000000000e+03
6.993000000000000000e+03
7.035000000000000000e+03
7.093000000000000000e+03
7.136000000000000000e+03
7.195000000000000000e+03
7.253000000000000000e+03
7.303000000000000000e+03
7.358000000000000000e+03
7.411000000000000000e+03
7.459000000000000000e+03
7.518000000000000000e+03
7.578000000000000000e+03
7.628000000000000000e+03
7.682000000000000000e+03
7.753000000000000000e+03
7.806000000000000000e+03
7.877000000000000000e+03
7.923000000000000000e+03
7.982000000000000000e+03
8.043000000000000000e+03
8.116000000000000000e+03
8.174000000000000000e+03
8.231000000000000000e+03
8.288000000000000000e+03
8.344000000000000000e+03
8.400000000000000000e+03
8.479000000000000000e+03
8.538000000000000000e+03
8.605000000000000000e+03
8.672000000000000000e+03
8.730000000000000000e+03
8.805000000000000000e+03
8.875000000000000000e+03
8.943000000000000000e+03
9.012000000000000000e+03
9.081000000000000000e+03
9.123000000000000000e+03
9.195000000000000000e+03
9.257000000000000000e+03
9.339000000000000000e+03
9.408000000000000000e+03
9.476000000000000000e+03
9.539000000000000000e+03
9.613000000000000000e+03
9.698000000000000000e+03
9.783000000000000000e+03
9.850000000000000000e+03
9.924000000000000000e+03
1.001000000000000000e+04
1.007600000000000000e+04
1.014300000000000000e+04
1.022200000000000000e+04
1.028800000000000000e+04
1.037500000000000000e+04
1.044200000000000000e+04
1.052000000000000000e+04
1.060500000000000000e+04
1.067300000000000000e+04
1.076100000000000000e+04
1.083900000000000000e+04
1.091000000000000000e+04
1.100400000000000000e+04
1.106500000000000000e+04
1.115300000000000000e+04
1.124400000000000000e+04
1.133000000000000000e+04
1.141900000000000000e+04
1.149700000000000000e+04
1.158600000000000000e+04
1.166800000000000000e+04
1.174800000000000000e+04
1.184000000000000000e+04
1.193600000000000000e+04
1.201500000000000000e+04
1.212000000000000000e+04
1.218900000000000000e+04
1.226800000000000000e+04
1.234400000000000000e+04
1.242500000000000000e+04
1.252900000000000000e+04
1.262500000000000000e+04
1.273500000000000000e+04
1.281900000000000000e+04
1.290800000000000000e+04
1.301600000000000000e+04
1.310900000000000000e+04
1.320100000000000000e+04
1.329800000000000000e+04
1.338100000000000000e+04
1.347600000000000000e+04
1.356200000000000000e+04
1.365700000000000000e+04
1.375100000000000000e+04
1.384500000000000000e+04
1.395900000000000000e+04
1.406500000000000000e+04
1.417000000000000000e+04
1.427800000000000000e+04
1.436900000000000000e+04
1.445300000000000000e+04
1.456600000000000000e+04
1.465600000000000000e+04
1.475000000000000000e+04
1.486900000000000000e+04
1.498800000000000000e+04
1.510200000000000000e+04
1.519600000000000000e+04
1.531900000000000000e+04
1.544300000000000000e+04
1.556000000000000000e+04
1.566200000000000000e+04
1.577800000000000000e+04
1.589100000000000000e+04
1.598000000000000000e+04
1.609900000000000000e+04
1.620600000000000000e+04
1.632500000000000000e+04
1.644500000000000000e+04
1.656000000000000000e+04
1.666700000000000000e+04
1.679900000000000000e+04
1.691700000000000000e+04
1.703400000000000000e+04
1.714700000000000000e+04
1.728400000000000000e+04
1.740500000000000000e+04
1.753000000000000000e+04
1.765000000000000000e+04
1.779000000000000000e+04
1.792800000000000000e+04
1.806600000000000000e+04
1.818800000000000000e+04
1.834600000000000000e+04
1.849200000000000000e+04
1.861300000000000000e+04
1.874500000000000000e+04
1.888600000000000000e+04
1.902800000000000000e+04
1.917400000000000000e+04
1.933100000000000000e+04
1.946600000000000000e+04
1.960900000000000000e+04
1.975300000000000000e+04
1.990200000000000000e+04
2.002400000000000000e+04
2.021000000000000000e+04
2.035700000000000000e+04
2.049600000000000000e+04
2.064800000000000000e+04
2.081700000000000000e+04
2.096200000000000000e+04
2.113300000000000000e+04
2.128700000000000000e+04
2.146000000000000000e+04
2.159500000000000000e+04
2.176200000000000000e+04
2.193600000000000000e+04
2.210100000000000000e+04
2.224400000000000000e+04
2.240400000000000000e+04
2.258000000000000000e+04
2.273300000000000000e+04
2.291200000000000000e+04
2.305700000000000000e+04
2.322700000000000000e+04
2.338300000000000000e+04
2.357400000000000000e+04
2.375500000000000000e+04
2.391400000000000000e+04
2.408200000000000000e+04
2.425700000000000000e+04
2.444300000000000000e+04
2.459500000000000000e+04
2.476000000000000000e+04
2.494300000000000000e+04
2.512100000000000000e+04
2.531400000000000000e+04
2.550300000000000000e+04
2.569600000000000000e+04
2.591000000000000000e+04
2.610800000000000000e+04
2.630300000000000000e+04
2.650200000000000000e+04
2.669800000000000000e+04
2.690600000000000000e+04
2.709600000000000000e+04
2.732700000000000000e+04
2.753900000000000000e+04
2.773700000000000000e+04
