1.000000000000000000e+00
2.000000000000000000e+00
2.000000000000000000e+00
2.000000000000000000e+00
2.000000000000000000e+00
2.000000000000000000e+00
3.000000000000000000e+00
3.000000000000000000e+00
3.000000000000000000e+00
3.000000000000000000e+00
3.000000000000000000e+00
4.000000000000000000e+00
5.000000000000000000e+00
5.000000000000000000e+00
5.000000000000000000e+00
6.000000000000000000e+00
7.000000000000000000e+00
9.000000000000000000e+00
1.100000000000000000e+01
1.200000000000000000e+01
1.400000000000000000e+01
1.500000000000000000e+01
1.900000000000000000e+01
2.100000000000000000e+01
2.400000000000000000e+01
2.700000000000000000e+01
3.500000000000000000e+01
3.900000000000000000e+01
4.100000000000000000e+01
4.900000000000000000e+01
5.800000000000000000e+01
6.300000000000000000e+01
7.700000000000000000e+01
8.700000000000000000e+01
9.900000000000000000e+01
1.130000000000000000e+02
1.320000000000000000e+02
1.480000000000000000e+02
1.780000000000000000e+02
2.100000000000000000e+02
2.420000000000000000e+02
2.740000000000000000e+02
3.130000000000000000e+02
3.650000000000000000e+02
4.270000000000000000e+02
5.000000000000000000e+02
5.700000000000000000e+02
6.670000000000000000e+02
7.650000000000000000e+02
8.780000000000000000e+02
1.029000000000000000e+03
1.210000000000000000e+03
1.379000000000000000e+03
1.594000000000000000e+03
1.840000000000000000e+03
2.142000000000000000e+03
2.491000000000000000e+03
2.884000000000000000e+03
3.314000000000000000e+03
3.830000000000000000e+03
4.427000000000000000e+03
5.207000000000000000e+03
5.991000000000000000e+03
6.919000000000000000e+03
7.940000000000000000e+03
9.256000000000000000e+03
1.072100000000000000e+04
1.238200000000000000e+04
1.431100000000000000e+04
1.653900000000000000e+04
1.926200000000000000e+04
2.233900000000000000e+04
2.584000000000000000e+04
2.983500000000000000e+04
3.443300000000000000e+04
3.998600000000000000e+04
