1.000000000000000000e+00
2.000000000000000000e+00
2.000000000000000000e+00
2.000000000000000000e+00
3.000000000000000000e+00
3.000000000000000000e+00
4.000000000000000000e+00
4.000000000000000000e+00
5.000000000000000000e+00
6.000000000000000000e+00
6.000000000000000000e+00
6.000000000000000000e+00
8.000000000000000000e+00
1.000000000000000000e+01
1.200000000000000000e+01
1.200000000000000000e+01
1.300000000000000000e+01
1.400000000000000000e+01
1.800000000000000000e+01
1.900000000000000000e+01
2.300000000000000000e+01
2.600000000000000000e+01
3.000000000000000000e+01
3.300000000000000000e+01
3.800000000000000000e+01
4.700000000000000000e+01
5.400000000000000000e+01
5.700000000000000000e+01
6.900000000000000000e+01
7.500000000000000000e+01
9.100000000000000000e+01
1.060000000000000000e+02
1.260000000000000000e+02
1.340000000000000000e+02
1.540000000000000000e+02
1.810000000000000000e+02
2.120000000000000000e+02
2.460000000000000000e+02
2.780000000000000000e+02
3.190000000000000000e+02
3.690000000000000000e+02
4.240000000000000000e+02
4.840000000000000000e+02
5.620000000000000000e+02
6.340000000000000000e+02
7.500000000000000000e+02
8.810000000000000000e+02
1.015000000000000000e+03
1.171000000000000000e+03
1.351000000000000000e+03
1.533000000000000000e+03
1.790000000000000000e+03
2.101000000000000000e+03
2.403000000000000000e+03
2.763000000000000000e+03
3.217000000000000000e+03
3.706000000000000000e+03
4.271000000000000000e+03
4.985000000000000000e+03
5.797000000000000000e+03
6.657000000000000000e+03
7.680000000000000000e+03
8.861000000000000000e+03
1.032200000000000000e+04
1.194900000000000000e+04
1.387400000000000000e+04
1.601600000000000000e+04
1.853900000000000000e+04
2.137200000000000000e+04
2.478700000000000000e+04
2.868900000000000000e+04
3.314200000000000000e+04
3.835900000000000000e+04
4.439400000000000000e+04
5.135400000000000000e+04
5.946000000000000000e+04
