1.000000000000000000e+00
2.000000000000000000e+00
2.000000000000000000e+00
2.000000000000000000e+00
2.000000000000000000e+00
2.000000000000000000e+00
2.000000000000000000e+00
2.000000000000000000e+00
2.000000000000000000e+00
2.000000000000000000e+00
2.000000000000000000e+00
2.000000000000000000e+00
2.000000000000000000e+00
2.000000000000000000e+00
2.000000000000000000e+00
2.000000000000000000e+00
2.000000000000000000e+00
2.000000000000000000e+00
2.000000000000000000e+00
2.000000000000000000e+00
2.000000000000000000e+00
2.000000000000000000e+00
2.000000000000000000e+00
2.000000000000000000e+00
2.000000000000000000e+00
2.000000000000000000e+00
2.000000000000000000e+00
2.000000000000000000e+00
2.000000000000000000e+00
2.000000000000000000e+00
2.000000000000000000e+00
2.000000000000000000e+00
2.000000000000000000e+00
2.000000000000000000e+00
2.000000000000000000e+00
2.000000000000000000e+00
2.000000000000000000e+00
2.000000000000000000e+00
2.000000000000000000e+00
2.000000000000000000e+00
2.000000000000000000e+00
2.000000000000000000e+00
2.000000000000000000e+00
2.000000000000000000e+00
2.000000000000000000e+00
2.000000000000000000e+00
2.000000000000000000e+00
2.000000000000000000e+00
2.000000000000000000e+00
2.000000000000000000e+00
2.000000000000000000e+00
2.000000000000000000e+00
2.000000000000000000e+00
2.000000000000000000e+00
2.000000000000000000e+00
2.000000000000000000e+00
2.000000000000000000e+00
2.000000000000000000e+00
2.000000000000000000e+00
2.000000000000000000e+00
2.000000000000000000e+00
2.000000000000000000e+00
2.000000000000000000e+00
2.000000000000000000e+00
2.000000000000000000e+00
2.000000000000000000e+00
2.000000000000000000e+00
2.000000000000000000e+00
2.000000000000000000e+00
2.000000000000000000e+00
2.000000000000000000e+00
2.000000000000000000e+00
2.000000000000000000e+00
2.000000000000000000e+00
2.000000000000000000e+00
2.000000000000000000e+00
2.000000000000000000e+00
2.000000000000000000e+00
2.000000000000000000e+00
2.000000000000000000e+00
2.000000000000000000e+00
2.000000000000000000e+00
2.000000000000000000e+00
2.000000000000000000e+00
2.000000000000000000e+00
2.000000000000000000e+00
2.000000000000000000e+00
2.000000000000000000e+00
2.000000000000000000e+00
2.000000000000000000e+00
2.000000000000000000e+00
2.000000000000000000e+00
3.000000000000000000e+00
3.000000000000000000e+00
3.000000000000000000e+00
3.000000000000000000e+00
3.000000000000000000e+00
3.000000000000000000e+00
3.000000000000000000e+00
3.000000000000000000e+00
3.000000000000000000e+00
3.000000000000000000e+00
3.000000000000000000e+00
3.000000000000000000e+00
3.000000000000000000e+00
3.000000000000000000e+00
3.000000000000000000e+00
3.000000000000000000e+00
3.000000000000000000e+00
3.000000000000000000e+00
3.000000000000000000e+00
3.000000000000000000e+00
3.000000000000000000e+00
3.000000000000000000e+00
3.000000000000000000e+00
3.000000000000000000e+00
3.000000000000000000e+00
3.000000000000000000e+00
3.000000000000000000e+00
3.000000000000000000e+00
3.000000000000000000e+00
3.000000000000000000e+00
3.000000000000000000e+00
3.000000000000000000e+00
3.000000000000000000e+00
3.000000000000000000e+00
3.000000000000000000e+00
3.000000000000000000e+00
3.000000000000000000e+00
3.000000000000000000e+00
3.000000000000000000e+00
3.000000000000000000e+00
3.000000000000000000e+00
3.000000000000000000e+00
3.000000000000000000e+00
3.000000000000000000e+00
3.000000000000000000e+00
4.000000000000000000e+00
4.000000000000000000e+00
4.000000000000000000e+00
4.000000000000000000e+00
4.000000000000000000e+00
4.000000000000000000e+00
4.000000000000000000e+00
4.000000000000000000e+00
4.000000000000000000e+00
4.000000000000000000e+00
4.000000000000000000e+00
4.000000000000000000e+00
4.000000000000000000e+00
4.000000000000000000e+00
4.000000000000000000e+00
4.000000000000000000e+00
4.000000000000000000e+00
4.000000000000000000e+00
4.000000000000000000e+00
4.000000000000000000e+00
4.000000000000000000e+00
4.000000000000000000e+00
4.000000000000000000e+00
4.000000000000000000e+00
4.000000000000000000e+00
4.000000000000000000e+00
4.000000000000000000e+00
4.000000000000000000e+00
4.000000000000000000e+00
4.000000000000000000e+00
4.000000000000000000e+00
4.000000000000000000e+00
4.000000000000000000e+00
4.000000000000000000e+00
4.000000000000000000e+00
4.000000000000000000e+00
4.000000000000000000e+00
4.000000000000000000e+00
4.000000000000000000e+00
4.000000000000000000e+00
4.000000000000000000e+00
4.000000000000000000e+00
4.000000000000000000e+00
4.000000000000000000e+00
4.000000000000000000e+00
4.000000000000000000e+00
4.000000000000000000e+00
4.000000000000000000e+00
4.000000000000000000e+00
4.000000000000000000e+00
4.000000000000000000e+00
4.000000000000000000e+00
4.000000000000000000e+00
4.000000000000000000e+00
4.000000000000000000e+00
4.000000000000000000e+00
4.000000000000000000e+00
4.000000000000000000e+00
4.000000000000000000e+00
4.000000000000000000e+00
4.000000000000000000e+00
4.000000000000000000e+00
5.000000000000000000e+00
5.000000000000000000e+00
5.000000000000000000e+00
5.000000000000000000e+00
5.000000000000000000e+00
5.000000000000000000e+00
5.000000000000000000e+00
5.000000000000000000e+00
5.000000000000000000e+00
5.000000000000000000e+00
5.000000000000000000e+00
5.000000000000000000e+00
5.000000000000000000e+00
5.000000000000000000e+00
5.000000000000000000e+00
5.000000000000000000e+00
5.000000000000000000e+00
5.000000000000000000e+00
5.000000000000000000e+00
5.000000000000000000e+00
5.000000000000000000e+00
5.000000000000000000e+00
5.000000000000000000e+00
5.000000000000000000e+00
5.000000000000000000e+00
6.000000000000000000e+00
6.000000000000000000e+00
6.000000000000000000e+00
6.000000000000000000e+00
6.000000000000000000e+00
6.000000000000000000e+00
6.000000000000000000e+00
6.000000000000000000e+00
6.000000000000000000e+00
6.000000000000000000e+00
6.000000000000000000e+00
6.000000000000000000e+00
6.000000000000000000e+00
6.000000000000000000e+00
6.000000000000000000e+00
6.000000000000000000e+00
6.000000000000000000e+00
6.000000000000000000e+00
6.000000000000000000e+00
6.000000000000000000e+00
6.000000000000000000e+00
6.000000000000000000e+00
6.000000000000000000e+00
6.000000000000000000e+00
6.000000000000000000e+00
6.000000000000000000e+00
6.000000000000000000e+00
6.000000000000000000e+00
6.000000000000000000e+00
6.000000000000000000e+00
6.000000000000000000e+00
6.000000000000000000e+00
7.000000000000000000e+00
7.000000000000000000e+00
7.000000000000000000e+00
7.000000000000000000e+00
7.000000000000000000e+00
7.000000000000000000e+00
7.000000000000000000e+00
7.000000000000000000e+00
7.000000000000000000e+00
7.000000000000000000e+00
7.000000000000000000e+00
7.000000000000000000e+00
8.000000000000000000e+00
8.000000000000000000e+00
8.000000000000000000e+00
8.000000000000000000e+00
8.000000000000000000e+00
8.000000000000000000e+00
8.000000000000000000e+00
8.000000000000000000e+00
8.000000000000000000e+00
8.000000000000000000e+00
8.000000000000000000e+00
8.000000000000000000e+00
8.000000000000000000e+00
8.000000000000000000e+00
8.000000000000000000e+00
9.000000000000000000e+00
9.000000000000000000e+00
9.000000000000000000e+00
9.000000000000000000e+00
9.000000000000000000e+00
9.000000000000000000e+00
9.000000000000000000e+00
9.000000000000000000e+00
9.000000000000000000e+00
9.000000000000000000e+00
9.000000000000000000e+00
9.000000000000000000e+00
9.000000000000000000e+00
9.000000000000000000e+00
9.000000000000000000e+00
9.000000000000000000e+00
9.000000000000000000e+00
9.000000000000000000e+00
9.000000000000000000e+00
9.000000000000000000e+00
9.000000000000000000e+00
9.000000000000000000e+00
9.000000000000000000e+00
9.000000000000000000e+00
9.000000000000000000e+00
9.000000000000000000e+00
9.000000000000000000e+00
9.000000000000000000e+00
9.000000000000000000e+00
9.000000000000000000e+00
9.000000000000000000e+00
9.000000000000000000e+00
9.000000000000000000e+00
9.000000000000000000e+00
9.000000000000000000e+00
9.000000000000000000e+00
9.000000000000000000e+00
9.000000000000000000e+00
9.000000000000000000e+00
9.000000000000000000e+00
9.000000000000000000e+00
9.000000000000000000e+00
1.000000000000000000e+01
1.000000000000000000e+01
1.100000000000000000e+01
1.200000000000000000e+01
1.200000000000000000e+01
1.200000000000000000e+01
1.200000000000000000e+01
1.200000000000000000e+01
1.200000000000000000e+01
1.200000000000000000e+01
1.200000000000000000e+01
1.200000000000000000e+01
1.200000000000000000e+01
1.200000000000000000e+01
1.200000000000000000e+01
1.200000000000000000e+01
1.200000000000000000e+01
1.200000000000000000e+01
1.200000000000000000e+01
1.200000000000000000e+01
1.200000000000000000e+01
1.200000000000000000e+01
1.300000000000000000e+01
1.400000000000000000e+01
1.400000000000000000e+01
1.400000000000000000e+01
1.400000000000000000e+01
1.400000000000000000e+01
1.500000000000000000e+01
1.500000000000000000e+01
1.500000000000000000e+01
1.500000000000000000e+01
1.500000000000000000e+01
1.500000000000000000e+01
1.500000000000000000e+01
1.500000000000000000e+01
1.500000000000000000e+01
1.500000000000000000e+01
1.500000000000000000e+01
1.500000000000000000e+01
1.500000000000000000e+01
1.500000000000000000e+01
1.500000000000000000e+01
1.500000000000000000e+01
1.500000000000000000e+01
1.500000000000000000e+01
1.500000000000000000e+01
1.500000000000000000e+01
1.500000000000000000e+01
1.500000000000000000e+01
1.500000000000000000e+01
1.500000000000000000e+01
1.500000000000000000e+01
1.500000000000000000e+01
1.600000000000000000e+01
1.600000000000000000e+01
1.600000000000000000e+01
1.600000000000000000e+01
1.600000000000000000e+01
1.600000000000000000e+01
1.600000000000000000e+01
1.600000000000000000e+01
1.600000000000000000e+01
1.600000000000000000e+01
1.600000000000000000e+01
1.600000000000000000e+01
1.600000000000000000e+01
1.600000000000000000e+01
1.600000000000000000e+01
1.600000000000000000e+01
1.700000000000000000e+01
1.700000000000000000e+01
1.700000000000000000e+01
1.700000000000000000e+01
1.700000000000000000e+01
1.700000000000000000e+01
1.700000000000000000e+01
1.800000000000000000e+01
1.900000000000000000e+01
2.000000000000000000e+01
2.000000000000000000e+01
2.000000000000000000e+01
2.000000000000000000e+01
2.000000000000000000e+01
2.000000000000000000e+01
2.000000000000000000e+01
2.000000000000000000e+01
2.000000000000000000e+01
2.100000000000000000e+01
2.100000000000000000e+01
2.100000000000000000e+01
2.100000000000000000e+01
2.100000000000000000e+01
2.200000000000000000e+01
2.300000000000000000e+01
2.300000000000000000e+01
2.300000000000000000e+01
2.300000000000000000e+01
2.300000000000000000e+01
2.400000000000000000e+01
2.400000000000000000e+01
2.400000000000000000e+01
2.400000000000000000e+01
2.400000000000000000e+01
2.400000000000000000e+01
2.400000000000000000e+01
2.400000000000000000e+01
2.400000000000000000e+01
2.400000000000000000e+01
2.400000000000000000e+01
2.500000000000000000e+01
2.500000000000000000e+01
2.500000000000000000e+01
2.500000000000000000e+01
2.600000000000000000e+01
2.600000000000000000e+01
2.600000000000000000e+01
2.700000000000000000e+01
2.700000000000000000e+01
2.800000000000000000e+01
2.800000000000000000e+01
2.800000000000000000e+01
2.800000000000000000e+01
2.800000000000000000e+01
2.800000000000000000e+01
2.800000000000000000e+01
2.900000000000000000e+01
2.900000000000000000e+01
2.900000000000000000e+01
2.900000000000000000e+01
2.900000000000000000e+01
2.900000000000000000e+01
2.900000000000000000e+01
3.000000000000000000e+01
3.000000000000000000e+01
3.000000000000000000e+01
3.000000000000000000e+01
3.100000000000000000e+01
3.100000000000000000e+01
3.100000000000000000e+01
3.100000000000000000e+01
3.100000000000000000e+01
3.100000000000000000e+01
3.100000000000000000e+01
3.100000000000000000e+01
3.100000000000000000e+01
3.100000000000000000e+01
3.100000000000000000e+01
3.100000000000000000e+01
3.100000000000000000e+01
3.100000000000000000e+01
3.200000000000000000e+01
3.300000000000000000e+01
3.300000000000000000e+01
3.400000000000000000e+01
3.500000000000000000e+01
3.500000000000000000e+01
3.500000000000000000e+01
3.500000000000000000e+01
3.600000000000000000e+01
3.700000000000000000e+01
3.700000000000000000e+01
3.700000000000000000e+01
3.700000000000000000e+01
3.700000000000000000e+01
3.800000000000000000e+01
3.900000000000000000e+01
3.900000000000000000e+01
3.900000000000000000e+01
3.900000000000000000e+01
3.900000000000000000e+01
3.900000000000000000e+01
3.900000000000000000e+01
4.200000000000000000e+01
4.200000000000000000e+01
4.200000000000000000e+01
4.200000000000000000e+01
4.200000000000000000e+01
4.200000000000000000e+01
4.200000000000000000e+01
4.200000000000000000e+01
4.200000000000000000e+01
4.300000000000000000e+01
4.300000000000000000e+01
4.400000000000000000e+01
4.400000000000000000e+01
4.400000000000000000e+01
4.400000000000000000e+01
4.500000000000000000e+01
4.500000000000000000e+01
4.500000000000000000e+01
4.500000000000000000e+01
4.500000000000000000e+01
4.500000000000000000e+01
4.500000000000000000e+01
4.500000000000000000e+01
4.500000000000000000e+01
4.500000000000000000e+01
4.500000000000000000e+01
4.500000000000000000e+01
4.500000000000000000e+01
4.500000000000000000e+01
4.500000000000000000e+01
4.600000000000000000e+01
4.700000000000000000e+01
4.700000000000000000e+01
4.800000000000000000e+01
4.900000000000000000e+01
4.900000000000000000e+01
4.900000000000000000e+01
4.900000000000000000e+01
5.000000000000000000e+01
5.000000000000000000e+01
5.000000000000000000e+01
5.000000000000000000e+01
5.100000000000000000e+01
5.200000000000000000e+01
5.200000000000000000e+01
5.200000000000000000e+01
5.300000000000000000e+01
5.300000000000000000e+01
5.300000000000000000e+01
5.400000000000000000e+01
5.400000000000000000e+01
5.400000000000000000e+01
5.400000000000000000e+01
5.400000000000000000e+01
5.400000000000000000e+01
5.500000000000000000e+01
5.600000000000000000e+01
5.600000000000000000e+01
5.600000000000000000e+01
5.700000000000000000e+01
5.700000000000000000e+01
5.700000000000000000e+01
5.700000000000000000e+01
5.700000000000000000e+01
5.700000000000000000e+01
5.800000000000000000e+01
5.800000000000000000e+01
5.800000000000000000e+01
5.800000000000000000e+01
5.800000000000000000e+01
6.000000000000000000e+01
6.300000000000000000e+01
6.300000000000000000e+01
6.300000000000000000e+01
6.400000000000000000e+01
6.400000000000000000e+01
6.400000000000000000e+01
6.400000000000000000e+01
6.400000000000000000e+01
6.400000000000000000e+01
6.500000000000000000e+01
6.500000000000000000e+01
6.600000000000000000e+01
6.700000000000000000e+01
7.000000000000000000e+01
7.000000000000000000e+01
7.000000000000000000e+01
7.200000000000000000e+01
7.200000000000000000e+01
7.200000000000000000e+01
7.300000000000000000e+01
7.500000000000000000e+01
7.500000000000000000e+01
7.500000000000000000e+01
7.500000000000000000e+01
7.500000000000000000e+01
7.600000000000000000e+01
7.800000000000000000e+01
7.800000000000000000e+01
8.100000000000000000e+01
8.100000000000000000e+01
8.200000000000000000e+01
8.400000000000000000e+01
8.400000000000000000e+01
8.400000000000000000e+01
8.500000000000000000e+01
8.600000000000000000e+01
8.700000000000000000e+01
8.700000000000000000e+01
8.800000000000000000e+01
9.000000000000000000e+01
9.000000000000000000e+01
9.100000000000000000e+01
9.100000000000000000e+01
9.200000000000000000e+01
9.200000000000000000e+01
9.300000000000000000e+01
9.300000000000000000e+01
9.300000000000000000e+01
9.300000000000000000e+01
9.300000000000000000e+01
9.300000000000000000e+01
9.300000000000000000e+01
9.300000000000000000e+01
9.500000000000000000e+01
9.500000000000000000e+01
9.500000000000000000e+01
9.500000000000000000e+01
9.600000000000000000e+01
9.600000000000000000e+01
9.700000000000000000e+01
9.700000000000000000e+01
9.800000000000000000e+01
9.800000000000000000e+01
9.800000000000000000e+01
9.800000000000000000e+01
9.800000000000000000e+01
9.800000000000000000e+01
9.900000000000000000e+01
1.000000000000000000e+02
1.000000000000000000e+02
1.000000000000000000e+02
1.010000000000000000e+02
1.040000000000000000e+02
1.080000000000000000e+02
1.090000000000000000e+02
1.100000000000000000e+02
1.120000000000000000e+02
1.120000000000000000e+02
1.120000000000000000e+02
1.130000000000000000e+02
1.150000000000000000e+02
1.160000000000000000e+02
1.170000000000000000e+02
1.170000000000000000e+02
1.170000000000000000e+02
1.180000000000000000e+02
1.200000000000000000e+02
1.210000000000000000e+02
1.210000000000000000e+02
1.230000000000000000e+02
1.230000000000000000e+02
1.230000000000000000e+02
1.230000000000000000e+02
1.240000000000000000e+02
1.250000000000000000e+02
1.250000000000000000e+02
1.260000000000000000e+02
1.280000000000000000e+02
1.300000000000000000e+02
1.330000000000000000e+02
1.330000000000000000e+02
1.350000000000000000e+02
1.350000000000000000e+02
1.350000000000000000e+02
1.360000000000000000e+02
1.370000000000000000e+02
1.370000000000000000e+02
1.380000000000000000e+02
1.380000000000000000e+02
1.380000000000000000e+02
1.390000000000000000e+02
1.390000000000000000e+02
1.410000000000000000e+02
1.420000000000000000e+02
1.420000000000000000e+02
1.430000000000000000e+02
1.430000000000000000e+02
1.440000000000000000e+02
1.460000000000000000e+02
1.460000000000000000e+02
1.460000000000000000e+02
1.460000000000000000e+02
1.460000000000000000e+02
1.460000000000000000e+02
1.460000000000000000e+02
1.470000000000000000e+02
1.470000000000000000e+02
1.500000000000000000e+02
1.520000000000000000e+02
1.560000000000000000e+02
1.560000000000000000e+02
1.580000000000000000e+02
1.580000000000000000e+02
1.580000000000000000e+02
1.580000000000000000e+02
1.600000000000000000e+02
1.600000000000000000e+02
1.610000000000000000e+02
1.640000000000000000e+02
1.650000000000000000e+02
1.660000000000000000e+02
1.660000000000000000e+02
1.670000000000000000e+02
1.680000000000000000e+02
1.700000000000000000e+02
1.720000000000000000e+02
1.750000000000000000e+02
1.760000000000000000e+02
1.800000000000000000e+02
1.810000000000000000e+02
1.820000000000000000e+02
1.830000000000000000e+02
1.830000000000000000e+02
1.850000000000000000e+02
1.860000000000000000e+02
1.870000000000000000e+02
1.880000000000000000e+02
1.880000000000000000e+02
1.880000000000000000e+02
1.890000000000000000e+02
1.900000000000000000e+02
1.960000000000000000e+02
1.970000000000000000e+02
2.000000000000000000e+02
2.050000000000000000e+02
2.050000000000000000e+02
2.060000000000000000e+02
2.080000000000000000e+02
2.100000000000000000e+02
2.140000000000000000e+02
2.150000000000000000e+02
2.150000000000000000e+02
2.180000000000000000e+02
2.200000000000000000e+02
2.210000000000000000e+02
2.210000000000000000e+02
2.210000000000000000e+02
2.230000000000000000e+02
2.260000000000000000e+02
2.260000000000000000e+02
2.280000000000000000e+02
2.300000000000000000e+02
2.340000000000000000e+02
2.350000000000000000e+02
2.350000000000000000e+02
2.360000000000000000e+02
2.390000000000000000e+02
2.400000000000000000e+02
2.420000000000000000e+02
2.450000000000000000e+02
2.460000000000000000e+02
2.470000000000000000e+02
2.490000000000000000e+02
2.510000000000000000e+02
2.540000000000000000e+02
2.560000000000000000e+02
2.580000000000000000e+02
2.610000000000000000e+02
2.620000000000000000e+02
2.650000000000000000e+02
2.660000000000000000e+02
2.680000000000000000e+02
2.700000000000000000e+02
2.740000000000000000e+02
2.760000000000000000e+02
2.760000000000000000e+02
2.770000000000000000e+02
2.810000000000000000e+02
2.820000000000000000e+02
2.830000000000000000e+02
2.840000000000000000e+02
2.840000000000000000e+02
2.860000000000000000e+02
2.890000000000000000e+02
2.920000000000000000e+02
2.950000000000000000e+02
2.950000000000000000e+02
2.970000000000000000e+02
3.010000000000000000e+02
3.020000000000000000e+02
3.040000000000000000e+02
3.050000000000000000e+02
3.060000000000000000e+02
3.100000000000000000e+02
3.110000000000000000e+02
3.120000000000000000e+02
3.170000000000000000e+02
3.190000000000000000e+02
3.200000000000000000e+02
3.210000000000000000e+02
3.240000000000000000e+02
3.250000000000000000e+02
3.260000000000000000e+02
3.270000000000000000e+02
3.280000000000000000e+02
3.320000000000000000e+02
3.340000000000000000e+02
3.340000000000000000e+02
3.360000000000000000e+02
3.400000000000000000e+02
3.420000000000000000e+02
3.440000000000000000e+02
3.460000000000000000e+02
3.460000000000000000e+02
3.520000000000000000e+02
3.560000000000000000e+02
3.600000000000000000e+02
3.620000000000000000e+02
3.640000000000000000e+02
3.670000000000000000e+02
3.670000000000000000e+02
3.700000000000000000e+02
3.710000000000000000e+02
3.760000000000000000e+02
3.820000000000000000e+02
3.840000000000000000e+02
3.860000000000000000e+02
3.870000000000000000e+02
3.880000000000000000e+02
3.910000000000000000e+02
3.930000000000000000e+02
3.960000000000000000e+02
3.990000000000000000e+02
4.020000000000000000e+02
4.060000000000000000e+02
4.080000000000000000e+02
4.100000000000000000e+02
4.110000000000000000e+02
4.180000000000000000e+02
4.240000000000000000e+02
4.280000000000000000e+02
4.320000000000000000e+02
4.370000000000000000e+02
4.390000000000000000e+02
4.420000000000000000e+02
4.430000000000000000e+02
4.440000000000000000e+02
4.470000000000000000e+02
4.520000000000000000e+02
4.550000000000000000e+02
4.600000000000000000e+02
4.630000000000000000e+02
4.680000000000000000e+02
4.770000000000000000e+02
4.780000000000000000e+02
4.800000000000000000e+02
4.830000000000000000e+02
4.910000000000000000e+02
4.940000000000000000e+02
4.970000000000000000e+02
5.000000000000000000e+02
5.050000000000000000e+02
5.090000000000000000e+02
5.130000000000000000e+02
5.160000000000000000e+02
5.190000000000000000e+02
5.230000000000000000e+02
5.280000000000000000e+02
5.300000000000000000e+02
5.340000000000000000e+02
5.370000000000000000e+02
5.420000000000000000e+02
5.480000000000000000e+02
5.510000000000000000e+02
5.580000000000000000e+02
5.590000000000000000e+02
5.660000000000000000e+02
5.700000000000000000e+02
5.760000000000000000e+02
5.800000000000000000e+02
5.830000000000000000e+02
5.860000000000000000e+02
5.890000000000000000e+02
5.950000000000000000e+02
5.950000000000000000e+02
6.000000000000000000e+02
6.020000000000000000e+02
6.070000000000000000e+02
6.090000000000000000e+02
6.140000000000000000e+02
6.230000000000000000e+02
6.280000000000000000e+02
6.310000000000000000e+02
6.330000000000000000e+02
6.360000000000000000e+02
6.390000000000000000e+02
6.420000000000000000e+02
6.470000000000000000e+02
6.520000000000000000e+02
6.600000000000000000e+02
6.640000000000000000e+02
6.690000000000000000e+02
6.740000000000000000e+02
6.800000000000000000e+02
6.840000000000000000e+02
6.860000000000000000e+02
6.920000000000000000e+02
6.940000000000000000e+02
7.000000000000000000e+02
7.070000000000000000e+02
7.160000000000000000e+02
7.230000000000000000e+02
7.290000000000000000e+02
7.340000000000000000e+02
7.360000000000000000e+02
7.380000000000000000e+02
7.390000000000000000e+02
7.440000000000000000e+02
7.510000000000000000e+02
7.550000000000000000e+02
7.630000000000000000e+02
7.680000000000000000e+02
7.750000000000000000e+02
7.820000000000000000e+02
7.830000000000000000e+02
7.860000000000000000e+02
7.910000000000000000e+02
7.980000000000000000e+02
8.060000000000000000e+02
8.110000000000000000e+02
8.160000000000000000e+02
8.180000000000000000e+02
8.260000000000000000e+02
8.300000000000000000e+02
8.360000000000000000e+02
8.430000000000000000e+02
8.510000000000000000e+02
8.610000000000000000e+02
8.620000000000000000e+02
8.700000000000000000e+02
8.740000000000000000e+02
8.810000000000000000e+02
8.870000000000000000e+02
8.990000000000000000e+02
9.040000000000000000e+02
9.140000000000000000e+02
9.160000000000000000e+02
9.220000000000000000e+02
9.320000000000000000e+02
9.440000000000000000e+02
9.520000000000000000e+02
9.570000000000000000e+02
9.680000000000000000e+02
9.730000000000000000e+02
9.810000000000000000e+02
9.900000000000000000e+02
9.980000000000000000e+02
1.003000000000000000e+03
1.011000000000000000e+03
1.017000000000000000e+03
1.022000000000000000e+03
1.030000000000000000e+03
1.041000000000000000e+03
1.047000000000000000e+03
1.056000000000000000e+03
1.065000000000000000e+03
1.075000000000000000e+03
1.081000000000000000e+03
1.093000000000000000e+03
1.106000000000000000e+03
1.114000000000000000e+03
1.124000000000000000e+03
1.130000000000000000e+03
1.136000000000000000e+03
1.147000000000000000e+03
1.157000000000000000e+03
1.165000000000000000e+03
1.170000000000000000e+03
1.180000000000000000e+03
1.186000000000000000e+03
1.194000000000000000e+03
1.200000000000000000e+03
1.209000000000000000e+03
1.218000000000000000e+03
1.227000000000000000e+03
1.238000000000000000e+03
1.245000000000000000e+03
1.253000000000000000e+03
1.259000000000000000e+03
1.264000000000000000e+03
1.277000000000000000e+03
1.286000000000000000e+03
1.299000000000000000e+03
1.307000000000000000e+03
1.314000000000000000e+03
1.320000000000000000e+03
1.336000000000000000e+03
1.342000000000000000e+03
1.354000000000000000e+03
1.364000000000000000e+03
1.380000000000000000e+03
1.391000000000000000e+03
1.405000000000000000e+03
1.411000000000000000e+03
1.420000000000000000e+03
1.429000000000000000e+03
1.441000000000000000e+03
1.456000000000000000e+03
1.469000000000000000e+03
1.475000000000000000e+03
1.487000000000000000e+03
1.503000000000000000e+03
1.520000000000000000e+03
1.530000000000000000e+03
1.540000000000000000e+03
1.551000000000000000e+03
1.560000000000000000e+03
1.570000000000000000e+03
1.582000000000000000e+03
1.597000000000000000e+03
1.612000000000000000e+03
1.624000000000000000e+03
1.635000000000000000e+03
1.649000000000000000e+03
1.661000000000000000e+03
1.670000000000000000e+03
1.689000000000000000e+03
1.704000000000000000e+03
1.712000000000000000e+03
1.720000000000000000e+03
1.733000000000000000e+03
1.744000000000000000e+03
1.757000000000000000e+03
1.773000000000000000e+03
1.786000000000000000e+03
1.798000000000000000e+03
1.812000000000000000e+03
1.830000000000000000e+03
1.839000000000000000e+03
1.847000000000000000e+03
1.851000000000000000e+03
1.861000000000000000e+03
1.870000000000000000e+03
1.887000000000000000e+03
1.900000000000000000e+03
1.909000000000000000e+03
1.923000000000000000e+03
1.935000000000000000e+03
1.951000000000000000e+03
1.967000000000000000e+03
1.980000000000000000e+03
1.999000000000000000e+03
2.012000000000000000e+03
2.024000000000000000e+03
2.034000000000000000e+03
2.052000000000000000e+03
2.066000000000000000e+03
2.082000000000000000e+03
2.094000000000000000e+03
2.115000000000000000e+03
2.134000000000000000e+03
2.150000000000000000e+03
2.163000000000000000e+03
2.177000000000000000e+03
2.191000000000000000e+03
2.213000000000000000e+03
2.223000000000000000e+03
2.237000000000000000e+03
2.256000000000000000e+03
2.277000000000000000e+03
2.296000000000000000e+03
2.318000000000000000e+03
2.340000000000000000e+03
2.358000000000000000e+03
2.369000000000000000e+03
2.392000000000000000e+03
2.409000000000000000e+03
2.428000000000000000e+03
2.446000000000000000e+03
2.466000000000000000e+03
2.483000000000000000e+03
2.503000000000000000e+03
2.521000000000000000e+03
2.533000000000000000e+03
2.552000000000000000e+03
2.570000000000000000e+03
2.584000000000000000e+03
2.600000000000000000e+03
2.621000000000000000e+03
2.646000000000000000e+03
2.658000000000000000e+03
2.678000000000000000e+03
2.697000000000000000e+03
2.711000000000000000e+03
2.722000000000000000e+03
2.748000000000000000e+03
2.769000000000000000e+03
2.782000000000000000e+03
2.798000000000000000e+03
2.822000000000000000e+03
2.837000000000000000e+03
2.858000000000000000e+03
2.885000000000000000e+03
2.905000000000000000e+03
2.924000000000000000e+03
2.946000000000000000e+03
2.964000000000000000e+03
2.986000000000000000e+03
3.015000000000000000e+03
3.042000000000000000e+03
3.077000000000000000e+03
3.092000000000000000e+03
3.123000000000000000e+03
3.147000000000000000e+03
3.166000000000000000e+03
3.198000000000000000e+03
3.222000000000000000e+03
3.249000000000000000e+03
3.268000000000000000e+03
3.301000000000000000e+03
3.326000000000000000e+03
3.348000000000000000e+03
3.364000000000000000e+03
3.390000000000000000e+03
3.419000000000000000e+03
3.448000000000000000e+03
3.462000000000000000e+03
3.489000000000000000e+03
3.520000000000000000e+03
3.541000000000000000e+03
3.574000000000000000e+03
3.600000000000000000e+03
3.623000000000000000e+03
3.649000000000000000e+03
3.676000000000000000e+03
3.717000000000000000e+03
3.737000000000000000e+03
3.769000000000000000e+03
3.790000000000000000e+03
3.815000000000000000e+03
3.846000000000000000e+03
3.874000000000000000e+03
3.903000000000000000e+03
3.923000000000000000e+03
3.951000000000000000e+03
3.980000000000000000e+03
4.011000000000000000e+03
4.046000000000000000e+03
4.064000000000000000e+03
4.099000000000000000e+03
4.127000000000000000e+03
4.162000000000000000e+03
4.193000000000000000e+03
4.224000000000000000e+03
4.246000000000000000e+03
4.282000000000000000e+03
4.310000000000000000e+03
4.345000000000000000e+03
4.385000000000000000e+03
4.414000000000000000e+03
4.446000000000000000e+03
4.482000000000000000e+03
4.511000000000000000e+03
4.537000000000000000e+03
4.571000000000000000e+03
4.605000000000000000e+03
4.637000000000000000e+03
4.671000000000000000e+03
4.704000000000000000e+03
4.741000000000000000e+03
4.775000000000000000e+03
4.811000000000000000e+03
4.846000000000000000e+03
4.885000000000000000e+03
4.925000000000000000e+03
4.957000000000000000e+03
4.996000000000000000e+03
5.032000000000000000e+03
5.067000000000000000e+03
5.104000000000000000e+03
5.136000000000000000e+03
5.166000000000000000e+03
5.210000000000000000e+03
5.250000000000000000e+03
5.297000000000000000e+03
5.330000000000000000e+03
5.370000000000000000e+03
5.404000000000000000e+03
5.445000000000000000e+03
5.486000000000000000e+03
5.535000000000000000e+03
5.570000000000000000e+03
5.613000000000000000e+03
5.653000000000000000e+03
5.694000000000000000e+03
5.741000000000000000e+03
5.772000000000000000e+03
5.814000000000000000e+03
5.851000000000000000e+03
5.896000000000000000e+03
5.926000000000000000e+03
5.958000000000000000e+03
6.004000000000000000e+03
6.040000000000000000e+03
6.096000000000000000e+03
6.140000000000000000e+03
6.195000000000000000e+03
6.244000000000000000e+03
6.289000000000000000e+03
6.344000000000000000e+03
6.394000000000000000e+03
6.441000000000000000e+03
6.493000000000000000e+03
6.533000000000000000e+03
6.575000000000000000e+03
6.627000000000000000e+03
6.665000000000000000e+03
6.715000000000000000e+03
6.774000000000000000e+03
6.822000000000000000e+03
6.865000000000000000e+03
6.929000000000000000e+03
6.982000000000000000e+03
7.044000000000000000e+03
7.100000000000000000e+03
7.141000000000000000e+03
7.196000000000000000e+03
7.242000000000000000e+03
7.301000000000000000e+03
7.358000000000000000e+03
7.421000000000000000e+03
7.473000000000000000e+03
7.532000000000000000e+03
7.595000000000000000e+03
7.651000000000000000e+03
7.704000000000000000e+03
7.758000000000000000e+03
7.805000000000000000e+03
7.858000000000000000e+03
7.905000000000000000e+03
7.976000000000000000e+03
8.042000000000000000e+03
8.104000000000000000e+03
8.147000000000000000e+03
8.216000000000000000e+03
8.275000000000000000e+03
8.341000000000000000e+03
8.400000000000000000e+03
8.453000000000000000e+03
8.523000000000000000e+03
8.593000000000000000e+03
8.673000000000000000e+03
8.716000000000000000e+03
8.782000000000000000e+03
8.835000000000000000e+03
8.909000000000000000e+03
8.971000000000000000e+03
9.035000000000000000e+03
9.099000000000000000e+03
9.166000000000000000e+03
9.236000000000000000e+03
9.300000000000000000e+03
9.376000000000000000e+03
9.434000000000000000e+03
9.502000000000000000e+03
9.564000000000000000e+03
9.620000000000000000e+03
9.689000000000000000e+03
9.760000000000000000e+03
9.828000000000000000e+03
9.891000000000000000e+03
9.975000000000000000e+03
1.004900000000000000e+04
1.010800000000000000e+04
1.017900000000000000e+04
1.026000000000000000e+04
1.033100000000000000e+04
1.041300000000000000e+04
1.048800000000000000e+04
1.056900000000000000e+04
1.065200000000000000e+04
1.071700000000000000e+04
1.080500000000000000e+04
1.089800000000000000e+04
1.099300000000000000e+04
1.107200000000000000e+04
1.114400000000000000e+04
1.123000000000000000e+04
1.130800000000000000e+04
1.138000000000000000e+04
1.145800000000000000e+04
1.151800000000000000e+04
1.159200000000000000e+04
1.168600000000000000e+04
1.176100000000000000e+04
1.185000000000000000e+04
1.194200000000000000e+04
1.202200000000000000e+04
1.209900000000000000e+04
1.218000000000000000e+04
1.227900000000000000e+04
1.236800000000000000e+04
1.246200000000000000e+04
1.254000000000000000e+04
1.263500000000000000e+04
1.272700000000000000e+04
1.284300000000000000e+04
1.293900000000000000e+04
1.303200000000000000e+04
1.312600000000000000e+04
1.322300000000000000e+04
1.331000000000000000e+04
1.338900000000000000e+04
1.347500000000000000e+04
1.357400000000000000e+04
1.368400000000000000e+04
1.380200000000000000e+04
1.390600000000000000e+04
1.401200000000000000e+04
1.411200000000000000e+04
1.420000000000000000e+04
1.430900000000000000e+04
1.441100000000000000e+04
1.452400000000000000e+04
1.465800000000000000e+04
1.477000000000000000e+04
1.487000000000000000e+04
1.498500000000000000e+04
1.511800000000000000e+04
1.524100000000000000e+04
1.536700000000000000e+04
1.547800000000000000e+04
1.558700000000000000e+04
1.571500000000000000e+04
1.582100000000000000e+04
1.592300000000000000e+04
1.603400000000000000e+04
1.616000000000000000e+04
1.628400000000000000e+04
1.641500000000000000e+04
1.651700000000000000e+04
1.662300000000000000e+04
1.673800000000000000e+04
1.684000000000000000e+04
1.695400000000000000e+04
1.707700000000000000e+04
1.720400000000000000e+04
1.733400000000000000e+04
1.748300000000000000e+04
1.759500000000000000e+04
1.771700000000000000e+04
1.784800000000000000e+04
1.797800000000000000e+04
1.810900000000000000e+04
1.825000000000000000e+04
1.839900000000000000e+04
1.852500000000000000e+04
1.864400000000000000e+04
1.877200000000000000e+04
1.892200000000000000e+04
1.908500000000000000e+04
1.922600000000000000e+04
1.936500000000000000e+04
1.950100000000000000e+04
1.965000000000000000e+04
1.980800000000000000e+04
1.995800000000000000e+04
2.011000000000000000e+04
2.024600000000000000e+04
2.039900000000000000e+04
2.053900000000000000e+04
2.068800000000000000e+04
2.083300000000000000e+04
2.098200000000000000e+04
2.113500000000000000e+04
2.130400000000000000e+04
2.145200000000000000e+04
2.160200000000000000e+04
2.176100000000000000e+04
2.192500000000000000e+04
2.207800000000000000e+04
2.226100000000000000e+04
2.241400000000000000e+04
2.257200000000000000e+04
2.275000000000000000e+04
2.289400000000000000e+04
2.305000000000000000e+04
2.319600000000000000e+04
2.335100000000000000e+04
2.350100000000000000e+04
2.368400000000000000e+04
2.386300000000000000e+04
2.405100000000000000e+04
2.422200000000000000e+04
2.439600000000000000e+04
2.456200000000000000e+04
2.474000000000000000e+04
2.492200000000000000e+04
2.509900000000000000e+04
2.528500000000000000e+04
2.544500000000000000e+04
2.560700000000000000e+04
