1.000000000000000000e+00
2.000000000000000000e+00
2.000000000000000000e+00
2.000000000000000000e+00
2.000000000000000000e+00
5.000000000000000000e+00
5.000000000000000000e+00
5.000000000000000000e+00
8.000000000000000000e+00
9.000000000000000000e+00
1.000000000000000000e+01
1.300000000000000000e+01
1.300000000000000000e+01
1.400000000000000000e+01
1.600000000000000000e+01
2.100000000000000000e+01
2.100000000000000000e+01
2.400000000000000000e+01
2.500000000000000000e+01
3.500000000000000000e+01
3.500000000000000000e+01
4.200000000000000000e+01
4.900000000000000000e+01
5.900000000000000000e+01
6.900000000000000000e+01
7.800000000000000000e+01
9.200000000000000000e+01
1.020000000000000000e+02
1.220000000000000000e+02
1.330000000000000000e+02
1.630000000000000000e+02
1.910000000000000000e+02
2.130000000000000000e+02
2.500000000000000000e+02
2.840000000000000000e+02
3.300000000000000000e+02
3.840000000000000000e+02
4.420000000000000000e+02
5.120000000000000000e+02
5.970000000000000000e+02
6.940000000000000000e+02
8.040000000000000000e+02
9.150000000000000000e+02
1.058000000000000000e+03
1.213000000000000000e+03
1.403000000000000000e+03
1.641000000000000000e+03
1.875000000000000000e+03
2.169000000000000000e+03
2.506000000000000000e+03
2.920000000000000000e+03
3.362000000000000000e+03
3.888000000000000000e+03
4.513000000000000000e+03
5.237000000000000000e+03
6.044000000000000000e+03
7.011000000000000000e+03
8.039000000000000000e+03
9.281000000000000000e+03
1.075600000000000000e+04
1.242400000000000000e+04
1.445000000000000000e+04
1.666700000000000000e+04
1.925200000000000000e+04
2.222500000000000000e+04
2.576400000000000000e+04
2.980200000000000000e+04
3.445800000000000000e+04
3.988900000000000000e+04
4.609900000000000000e+04
5.332500000000000000e+04
6.164600000000000000e+04
7.130300000000000000e+04
8.256400000000000000e+04
9.551900000000000000e+04
1.103830000000000000e+05
