1.000000000000000000e+00
2.000000000000000000e+00
2.000000000000000000e+00
2.000000000000000000e+00
2.000000000000000000e+00
2.000000000000000000e+00
3.000000000000000000e+00
3.000000000000000000e+00
3.000000000000000000e+00
4.000000000000000000e+00
4.000000000000000000e+00
4.000000000000000000e+00
4.000000000000000000e+00
4.000000000000000000e+00
5.000000000000000000e+00
7.000000000000000000e+00
7.000000000000000000e+00
9.000000000000000000e+00
9.000000000000000000e+00
1.200000000000000000e+01
1.400000000000000000e+01
1.500000000000000000e+01
1.800000000000000000e+01
2.100000000000000000e+01
2.400000000000000000e+01
2.800000000000000000e+01
3.500000000000000000e+01
4.000000000000000000e+01
4.300000000000000000e+01
5.000000000000000000e+01
6.200000000000000000e+01
6.800000000000000000e+01
8.000000000000000000e+01
9.200000000000000000e+01
1.140000000000000000e+02
1.320000000000000000e+02
1.480000000000000000e+02
1.720000000000000000e+02
1.980000000000000000e+02
2.290000000000000000e+02
2.650000000000000000e+02
3.100000000000000000e+02
3.520000000000000000e+02
4.230000000000000000e+02
4.860000000000000000e+02
5.690000000000000000e+02
6.500000000000000000e+02
7.660000000000000000e+02
8.800000000000000000e+02
1.016000000000000000e+03
1.180000000000000000e+03
1.345000000000000000e+03
1.588000000000000000e+03
1.832000000000000000e+03
2.104000000000000000e+03
2.437000000000000000e+03
2.823000000000000000e+03
3.247000000000000000e+03
3.769000000000000000e+03
4.386000000000000000e+03
5.114000000000000000e+03
5.890000000000000000e+03
6.782000000000000000e+03
7.850000000000000000e+03
9.070000000000000000e+03
1.055900000000000000e+04
1.222700000000000000e+04
1.414700000000000000e+04
1.630200000000000000e+04
1.878800000000000000e+04
2.176700000000000000e+04
2.525800000000000000e+04
2.925200000000000000e+04
3.385300000000000000e+04
3.899400000000000000e+04
4.502800000000000000e+04
