1.000000000000000000e+00
2.000000000000000000e+00
2.000000000000000000e+00
2.000000000000000000e+00
2.000000000000000000e+00
2.000000000000000000e+00
2.000000000000000000e+00
3.000000000000000000e+00
3.000000000000000000e+00
3.000000000000000000e+00
3.000000000000000000e+00
3.000000000000000000e+00
3.000000000000000000e+00
5.000000000000000000e+00
5.000000000000000000e+00
5.000000000000000000e+00
5.000000000000000000e+00
5.000000000000000000e+00
5.000000000000000000e+00
9.000000000000000000e+00
1.000000000000000000e+01
1.000000000000000000e+01
1.100000000000000000e+01
1.200000000000000000e+01
1.700000000000000000e+01
2.000000000000000000e+01
2.200000000000000000e+01
2.200000000000000000e+01
2.700000000000000000e+01
3.200000000000000000e+01
3.600000000000000000e+01
4.100000000000000000e+01
5.000000000000000000e+01
5.500000000000000000e+01
5.900000000000000000e+01
7.100000000000000000e+01
8.200000000000000000e+01
9.600000000000000000e+01
1.100000000000000000e+02
1.310000000000000000e+02
1.470000000000000000e+02
1.660000000000000000e+02
1.940000000000000000e+02
2.260000000000000000e+02
2.760000000000000000e+02
3.130000000000000000e+02
3.540000000000000000e+02
3.980000000000000000e+02
4.630000000000000000e+02
5.390000000000000000e+02
6.250000000000000000e+02
7.360000000000000000e+02
8.430000000000000000e+02
9.730000000000000000e+02
1.145000000000000000e+03
1.317000000000000000e+03
1.513000000000000000e+03
1.764000000000000000e+03
2.031000000000000000e+03
2.361000000000000000e+03
2.737000000000000000e+03
3.156000000000000000e+03
3.675000000000000000e+03
4.209000000000000000e+03
4.909000000000000000e+03
5.655000000000000000e+03
6.567000000000000000e+03
7.574000000000000000e+03
8.789000000000000000e+03
1.017200000000000000e+04
1.172400000000000000e+04
1.357300000000000000e+04
1.576300000000000000e+04
1.819900000000000000e+04
2.106300000000000000e+04
2.435100000000000000e+04
