1.000000000000000000e+00
2.000000000000000000e+00
2.000000000000000000e+00
2.000000000000000000e+00
3.000000000000000000e+00
3.000000000000000000e+00
3.000000000000000000e+00
3.000000000000000000e+00
3.000000000000000000e+00
3.000000000000000000e+00
5.000000000000000000e+00
5.000000000000000000e+00
5.000000000000000000e+00
5.000000000000000000e+00
5.000000000000000000e+00
7.000000000000000000e+00
7.000000000000000000e+00
9.000000000000000000e+00
9.000000000000000000e+00
1.100000000000000000e+01
1.200000000000000000e+01
1.300000000000000000e+01
1.700000000000000000e+01
1.900000000000000000e+01
2.300000000000000000e+01
2.600000000000000000e+01
2.900000000000000000e+01
3.700000000000000000e+01
4.700000000000000000e+01
5.100000000000000000e+01
5.300000000000000000e+01
6.000000000000000000e+01
7.600000000000000000e+01
9.100000000000000000e+01
1.020000000000000000e+02
1.120000000000000000e+02
1.250000000000000000e+02
1.520000000000000000e+02
1.810000000000000000e+02
2.020000000000000000e+02
2.350000000000000000e+02
2.730000000000000000e+02
3.240000000000000000e+02
3.660000000000000000e+02
4.310000000000000000e+02
4.890000000000000000e+02
5.740000000000000000e+02
6.700000000000000000e+02
7.640000000000000000e+02
8.760000000000000000e+02
1.023000000000000000e+03
1.178000000000000000e+03
1.360000000000000000e+03
1.587000000000000000e+03
1.839000000000000000e+03
2.133000000000000000e+03
2.445000000000000000e+03
2.816000000000000000e+03
3.272000000000000000e+03
3.808000000000000000e+03
4.389000000000000000e+03
5.052000000000000000e+03
5.854000000000000000e+03
6.808000000000000000e+03
7.825000000000000000e+03
9.031000000000000000e+03
1.045900000000000000e+04
1.212800000000000000e+04
1.401200000000000000e+04
1.614200000000000000e+04
1.866800000000000000e+04
2.157800000000000000e+04
2.498800000000000000e+04
2.898600000000000000e+04
3.354100000000000000e+04
3.874000000000000000e+04
