1.000000000000000000e+00
2.000000000000000000e+00
2.000000000000000000e+00
2.000000000000000000e+00
2.000000000000000000e+00
2.000000000000000000e+00
3.000000000000000000e+00
3.000000000000000000e+00
4.000000000000000000e+00
4.000000000000000000e+00
4.000000000000000000e+00
4.000000000000000000e+00
7.000000000000000000e+00
7.000000000000000000e+00
7.000000000000000000e+00
9.000000000000000000e+00
1.100000000000000000e+01
1.200000000000000000e+01
1.300000000000000000e+01
1.700000000000000000e+01
1.900000000000000000e+01
2.000000000000000000e+01
2.100000000000000000e+01
2.900000000000000000e+01
3.100000000000000000e+01
3.300000000000000000e+01
4.000000000000000000e+01
4.500000000000000000e+01
5.300000000000000000e+01
6.100000000000000000e+01
6.800000000000000000e+01
8.100000000000000000e+01
9.100000000000000000e+01
1.040000000000000000e+02
1.190000000000000000e+02
1.430000000000000000e+02
1.590000000000000000e+02
1.860000000000000000e+02
2.230000000000000000e+02
2.470000000000000000e+02
2.840000000000000000e+02
3.270000000000000000e+02
3.780000000000000000e+02
4.360000000000000000e+02
4.980000000000000000e+02
5.850000000000000000e+02
6.790000000000000000e+02
7.740000000000000000e+02
9.020000000000000000e+02
1.059000000000000000e+03
1.203000000000000000e+03
1.401000000000000000e+03
1.638000000000000000e+03
1.893000000000000000e+03
2.179000000000000000e+03
2.516000000000000000e+03
2.907000000000000000e+03
3.388000000000000000e+03
3.904000000000000000e+03
4.536000000000000000e+03
5.225000000000000000e+03
6.038000000000000000e+03
6.917000000000000000e+03
8.045000000000000000e+03
9.329000000000000000e+03
1.082100000000000000e+04
1.247400000000000000e+04
1.437000000000000000e+04
1.664600000000000000e+04
1.926100000000000000e+04
2.232300000000000000e+04
2.581100000000000000e+04
2.981100000000000000e+04
3.445600000000000000e+04
3.991800000000000000e+04
4.617200000000000000e+04
