1.000000000000000000e+00
2.000000000000000000e+00
2.000000000000000000e+00
2.000000000000000000e+00
2.000000000000000000e+00
3.000000000000000000e+00
3.000000000000000000e+00
3.000000000000000000e+00
3.000000000000000000e+00
4.000000000000000000e+00
5.000000000000000000e+00
5.000000000000000000e+00
6.000000000000000000e+00
7.000000000000000000e+00
8.000000000000000000e+00
8.000000000000000000e+00
9.000000000000000000e+00
1.100000000000000000e+01
1.300000000000000000e+01
1.400000000000000000e+01
1.400000000000000000e+01
2.000000000000000000e+01
2.300000000000000000e+01
2.500000000000000000e+01
2.700000000000000000e+01
3.300000000000000000e+01
4.000000000000000000e+01
4.300000000000000000e+01
4.800000000000000000e+01
5.700000000000000000e+01
6.600000000000000000e+01
7.200000000000000000e+01
8.500000000000000000e+01
1.020000000000000000e+02
1.170000000000000000e+02
1.330000000000000000e+02
1.530000000000000000e+02
1.740000000000000000e+02
2.020000000000000000e+02
2.410000000000000000e+02
2.700000000000000000e+02
3.140000000000000000e+02
3.620000000000000000e+02
4.230000000000000000e+02
4.880000000000000000e+02
5.710000000000000000e+02
6.550000000000000000e+02
7.420000000000000000e+02
8.580000000000000000e+02
9.980000000000000000e+02
1.158000000000000000e+03
1.320000000000000000e+03
1.538000000000000000e+03
1.794000000000000000e+03
2.073000000000000000e+03
2.397000000000000000e+03
2.775000000000000000e+03
3.222000000000000000e+03
3.736000000000000000e+03
4.340000000000000000e+03
5.032000000000000000e+03
5.832000000000000000e+03
6.715000000000000000e+03
7.753000000000000000e+03
8.989000000000000000e+03
1.043800000000000000e+04
1.205100000000000000e+04
1.398300000000000000e+04
1.606800000000000000e+04
1.867300000000000000e+04
2.158400000000000000e+04
2.496700000000000000e+04
2.883300000000000000e+04
3.335200000000000000e+04
3.870300000000000000e+04
4.466000000000000000e+04
