1.000000000000000000e+00
2.000000000000000000e+00
2.000000000000000000e+00
2.000000000000000000e+00
2.000000000000000000e+00
2.000000000000000000e+00
2.000000000000000000e+00
2.000000000000000000e+00
2.000000000000000000e+00
2.000000000000000000e+00
2.000000000000000000e+00
2.000000000000000000e+00
2.000000000000000000e+00
2.000000000000000000e+00
2.000000000000000000e+00
2.000000000000000000e+00
2.000000000000000000e+00
2.000000000000000000e+00
2.000000000000000000e+00
2.000000000000000000e+00
2.000000000000000000e+00
2.000000000000000000e+00
2.000000000000000000e+00
2.000000000000000000e+00
2.000000000000000000e+00
2.000000000000000000e+00
2.000000000000000000e+00
2.000000000000000000e+00
2.000000000000000000e+00
2.000000000000000000e+00
2.000000000000000000e+00
2.000000000000000000e+00
2.000000000000000000e+00
2.000000000000000000e+00
2.000000000000000000e+00
2.000000000000000000e+00
2.000000000000000000e+00
2.000000000000000000e+00
2.000000000000000000e+00
2.000000000000000000e+00
2.000000000000000000e+00
2.000000000000000000e+00
2.000000000000000000e+00
2.000000000000000000e+00
2.000000000000000000e+00
2.000000000000000000e+00
2.000000000000000000e+00
2.000000000000000000e+00
2.000000000000000000e+00
2.000000000000000000e+00
2.000000000000000000e+00
2.000000000000000000e+00
2.000000000000000000e+00
2.000000000000000000e+00
2.000000000000000000e+00
2.000000000000000000e+00
2.000000000000000000e+00
2.000000000000000000e+00
2.000000000000000000e+00
2.000000000000000000e+00
2.000000000000000000e+00
2.000000000000000000e+00
2.000000000000000000e+00
2.000000000000000000e+00
2.000000000000000000e+00
2.000000000000000000e+00
2.000000000000000000e+00
2.000000000000000000e+00
2.000000000000000000e+00
2.000000000000000000e+00
2.000000000000000000e+00
2.000000000000000000e+00
2.000000000000000000e+00
2.000000000000000000e+00
2.000000000000000000e+00
2.000000000000000000e+00
2.000000000000000000e+00
2.000000000000000000e+00
2.000000000000000000e+00
2.000000000000000000e+00
2.000000000000000000e+00
2.000000000000000000e+00
2.000000000000000000e+00
2.000000000000000000e+00
2.000000000000000000e+00
2.000000000000000000e+00
2.000000000000000000e+00
2.000000000000000000e+00
2.000000000000000000e+00
2.000000000000000000e+00
2.000000000000000000e+00
2.000000000000000000e+00
2.000000000000000000e+00
2.000000000000000000e+00
2.000000000000000000e+00
2.000000000000000000e+00
2.000000000000000000e+00
2.000000000000000000e+00
2.000000000000000000e+00
2.000000000000000000e+00
2.000000000000000000e+00
2.000000000000000000e+00
2.000000000000000000e+00
2.000000000000000000e+00
2.000000000000000000e+00
3.000000000000000000e+00
3.000000000000000000e+00
3.000000000000000000e+00
3.000000000000000000e+00
3.000000000000000000e+00
3.000000000000000000e+00
3.000000000000000000e+00
3.000000000000000000e+00
3.000000000000000000e+00
3.000000000000000000e+00
3.000000000000000000e+00
3.000000000000000000e+00
3.000000000000000000e+00
3.000000000000000000e+00
3.000000000000000000e+00
3.000000000000000000e+00
3.000000000000000000e+00
3.000000000000000000e+00
3.000000000000000000e+00
3.000000000000000000e+00
3.000000000000000000e+00
3.000000000000000000e+00
3.000000000000000000e+00
3.000000000000000000e+00
3.000000000000000000e+00
3.000000000000000000e+00
3.000000000000000000e+00
3.000000000000000000e+00
3.000000000000000000e+00
3.000000000000000000e+00
3.000000000000000000e+00
3.000000000000000000e+00
3.000000000000000000e+00
3.000000000000000000e+00
3.000000000000000000e+00
3.000000000000000000e+00
3.000000000000000000e+00
3.000000000000000000e+00
3.000000000000000000e+00
3.000000000000000000e+00
3.000000000000000000e+00
3.000000000000000000e+00
3.000000000000000000e+00
3.000000000000000000e+00
3.000000000000000000e+00
3.000000000000000000e+00
3.000000000000000000e+00
3.000000000000000000e+00
3.000000000000000000e+00
3.000000000000000000e+00
3.000000000000000000e+00
3.000000000000000000e+00
3.000000000000000000e+00
3.000000000000000000e+00
3.000000000000000000e+00
3.000000000000000000e+00
3.000000000000000000e+00
3.000000000000000000e+00
3.000000000000000000e+00
3.000000000000000000e+00
3.000000000000000000e+00
3.000000000000000000e+00
3.000000000000000000e+00
3.000000000000000000e+00
3.000000000000000000e+00
3.000000000000000000e+00
3.000000000000000000e+00
3.000000000000000000e+00
3.000000000000000000e+00
3.000000000000000000e+00
3.000000000000000000e+00
3.000000000000000000e+00
3.000000000000000000e+00
3.000000000000000000e+00
3.000000000000000000e+00
3.000000000000000000e+00
3.000000000000000000e+00
3.000000000000000000e+00
3.000000000000000000e+00
3.000000000000000000e+00
3.000000000000000000e+00
3.000000000000000000e+00
3.000000000000000000e+00
3.000000000000000000e+00
3.000000000000000000e+00
3.000000000000000000e+00
3.000000000000000000e+00
3.000000000000000000e+00
3.000000000000000000e+00
3.000000000000000000e+00
3.000000000000000000e+00
4.000000000000000000e+00
4.000000000000000000e+00
4.000000000000000000e+00
4.000000000000000000e+00
4.000000000000000000e+00
4.000000000000000000e+00
4.000000000000000000e+00
4.000000000000000000e+00
4.000000000000000000e+00
4.000000000000000000e+00
4.000000000000000000e+00
4.000000000000000000e+00
4.000000000000000000e+00
4.000000000000000000e+00
4.000000000000000000e+00
4.000000000000000000e+00
4.000000000000000000e+00
4.000000000000000000e+00
4.000000000000000000e+00
5.000000000000000000e+00
5.000000000000000000e+00
5.000000000000000000e+00
5.000000000000000000e+00
5.000000000000000000e+00
5.000000000000000000e+00
5.000000000000000000e+00
5.000000000000000000e+00
5.000000000000000000e+00
5.000000000000000000e+00
5.000000000000000000e+00
5.000000000000000000e+00
5.000000000000000000e+00
5.000000000000000000e+00
5.000000000000000000e+00
5.000000000000000000e+00
5.000000000000000000e+00
5.000000000000000000e+00
5.000000000000000000e+00
5.000000000000000000e+00
5.000000000000000000e+00
5.000000000000000000e+00
5.000000000000000000e+00
5.000000000000000000e+00
5.000000000000000000e+00
5.000000000000000000e+00
5.000000000000000000e+00
5.000000000000000000e+00
5.000000000000000000e+00
5.000000000000000000e+00
5.000000000000000000e+00
5.000000000000000000e+00
5.000000000000000000e+00
5.000000000000000000e+00
5.000000000000000000e+00
5.000000000000000000e+00
5.000000000000000000e+00
5.000000000000000000e+00
5.000000000000000000e+00
5.000000000000000000e+00
5.000000000000000000e+00
5.000000000000000000e+00
5.000000000000000000e+00
5.000000000000000000e+00
5.000000000000000000e+00
5.000000000000000000e+00
5.000000000000000000e+00
5.000000000000000000e+00
5.000000000000000000e+00
5.000000000000000000e+00
5.000000000000000000e+00
5.000000000000000000e+00
5.000000000000000000e+00
5.000000000000000000e+00
5.000000000000000000e+00
5.000000000000000000e+00
5.000000000000000000e+00
5.000000000000000000e+00
5.000000000000000000e+00
5.000000000000000000e+00
5.000000000000000000e+00
5.000000000000000000e+00
5.000000000000000000e+00
5.000000000000000000e+00
6.000000000000000000e+00
6.000000000000000000e+00
7.000000000000000000e+00
7.000000000000000000e+00
7.000000000000000000e+00
7.000000000000000000e+00
7.000000000000000000e+00
7.000000000000000000e+00
7.000000000000000000e+00
7.000000000000000000e+00
7.000000000000000000e+00
7.000000000000000000e+00
7.000000000000000000e+00
7.000000000000000000e+00
7.000000000000000000e+00
7.000000000000000000e+00
7.000000000000000000e+00
7.000000000000000000e+00
7.000000000000000000e+00
7.000000000000000000e+00
7.000000000000000000e+00
7.000000000000000000e+00
8.000000000000000000e+00
8.000000000000000000e+00
8.000000000000000000e+00
8.000000000000000000e+00
8.000000000000000000e+00
8.000000000000000000e+00
8.000000000000000000e+00
8.000000000000000000e+00
8.000000000000000000e+00
8.000000000000000000e+00
8.000000000000000000e+00
8.000000000000000000e+00
8.000000000000000000e+00
8.000000000000000000e+00
9.000000000000000000e+00
9.000000000000000000e+00
9.000000000000000000e+00
9.000000000000000000e+00
9.000000000000000000e+00
9.000000000000000000e+00
9.000000000000000000e+00
9.000000000000000000e+00
9.000000000000000000e+00
9.000000000000000000e+00
9.000000000000000000e+00
9.000000000000000000e+00
9.000000000000000000e+00
9.000000000000000000e+00
9.000000000000000000e+00
9.000000000000000000e+00
9.000000000000000000e+00
9.000000000000000000e+00
9.000000000000000000e+00
9.000000000000000000e+00
9.000000000000000000e+00
9.000000000000000000e+00
9.000000000000000000e+00
9.000000000000000000e+00
9.000000000000000000e+00
9.000000000000000000e+00
9.000000000000000000e+00
9.000000000000000000e+00
9.000000000000000000e+00
9.000000000000000000e+00
9.000000000000000000e+00
9.000000000000000000e+00
9.000000000000000000e+00
9.000000000000000000e+00
9.000000000000000000e+00
9.000000000000000000e+00
9.000000000000000000e+00
9.000000000000000000e+00
9.000000000000000000e+00
9.000000000000000000e+00
9.000000000000000000e+00
9.000000000000000000e+00
9.000000000000000000e+00
9.000000000000000000e+00
9.000000000000000000e+00
9.000000000000000000e+00
9.000000000000000000e+00
9.000000000000000000e+00
9.000000000000000000e+00
9.000000000000000000e+00
1.000000000000000000e+01
1.000000000000000000e+01
1.000000000000000000e+01
1.000000000000000000e+01
1.000000000000000000e+01
1.000000000000000000e+01
1.000000000000000000e+01
1.000000000000000000e+01
1.100000000000000000e+01
1.100000000000000000e+01
1.100000000000000000e+01
1.200000000000000000e+01
1.200000000000000000e+01
1.200000000000000000e+01
1.200000000000000000e+01
1.200000000000000000e+01
1.300000000000000000e+01
1.300000000000000000e+01
1.300000000000000000e+01
1.300000000000000000e+01
1.300000000000000000e+01
1.300000000000000000e+01
1.300000000000000000e+01
1.300000000000000000e+01
1.300000000000000000e+01
1.400000000000000000e+01
1.400000000000000000e+01
1.400000000000000000e+01
1.400000000000000000e+01
1.400000000000000000e+01
1.400000000000000000e+01
1.400000000000000000e+01
1.400000000000000000e+01
1.400000000000000000e+01
1.400000000000000000e+01
1.400000000000000000e+01
1.400000000000000000e+01
1.400000000000000000e+01
1.400000000000000000e+01
1.400000000000000000e+01
1.400000000000000000e+01
1.400000000000000000e+01
1.400000000000000000e+01
1.400000000000000000e+01
1.400000000000000000e+01
1.400000000000000000e+01
1.400000000000000000e+01
1.400000000000000000e+01
1.400000000000000000e+01
1.400000000000000000e+01
1.400000000000000000e+01
1.500000000000000000e+01
1.600000000000000000e+01
1.700000000000000000e+01
1.700000000000000000e+01
1.700000000000000000e+01
1.700000000000000000e+01
1.700000000000000000e+01
1.700000000000000000e+01
1.700000000000000000e+01
1.700000000000000000e+01
1.700000000000000000e+01
1.700000000000000000e+01
1.700000000000000000e+01
1.700000000000000000e+01
1.700000000000000000e+01
1.700000000000000000e+01
1.700000000000000000e+01
1.800000000000000000e+01
1.800000000000000000e+01
1.800000000000000000e+01
1.800000000000000000e+01
1.800000000000000000e+01
1.800000000000000000e+01
1.800000000000000000e+01
1.900000000000000000e+01
1.900000000000000000e+01
2.000000000000000000e+01
2.000000000000000000e+01
2.200000000000000000e+01
2.200000000000000000e+01
2.300000000000000000e+01
2.300000000000000000e+01
2.300000000000000000e+01
2.300000000000000000e+01
2.300000000000000000e+01
2.300000000000000000e+01
2.400000000000000000e+01
2.400000000000000000e+01
2.400000000000000000e+01
2.400000000000000000e+01
2.400000000000000000e+01
2.400000000000000000e+01
2.400000000000000000e+01
2.400000000000000000e+01
2.400000000000000000e+01
2.400000000000000000e+01
2.400000000000000000e+01
2.400000000000000000e+01
2.400000000000000000e+01
2.400000000000000000e+01
2.400000000000000000e+01
2.400000000000000000e+01
2.400000000000000000e+01
2.400000000000000000e+01
2.400000000000000000e+01
2.400000000000000000e+01
2.400000000000000000e+01
2.400000000000000000e+01
2.400000000000000000e+01
2.400000000000000000e+01
2.400000000000000000e+01
2.400000000000000000e+01
2.400000000000000000e+01
2.400000000000000000e+01
2.400000000000000000e+01
2.400000000000000000e+01
2.400000000000000000e+01
2.500000000000000000e+01
2.500000000000000000e+01
2.500000000000000000e+01
2.500000000000000000e+01
2.500000000000000000e+01
2.500000000000000000e+01
2.500000000000000000e+01
2.500000000000000000e+01
2.600000000000000000e+01
2.600000000000000000e+01
2.700000000000000000e+01
2.800000000000000000e+01
2.900000000000000000e+01
2.900000000000000000e+01
2.900000000000000000e+01
2.900000000000000000e+01
3.000000000000000000e+01
3.100000000000000000e+01
3.100000000000000000e+01
3.100000000000000000e+01
3.100000000000000000e+01
3.100000000000000000e+01
3.100000000000000000e+01
3.100000000000000000e+01
3.100000000000000000e+01
3.100000000000000000e+01
3.200000000000000000e+01
3.200000000000000000e+01
3.300000000000000000e+01
3.300000000000000000e+01
3.400000000000000000e+01
3.400000000000000000e+01
3.600000000000000000e+01
3.600000000000000000e+01
3.600000000000000000e+01
3.600000000000000000e+01
3.600000000000000000e+01
3.600000000000000000e+01
3.800000000000000000e+01
3.800000000000000000e+01
3.800000000000000000e+01
3.900000000000000000e+01
3.900000000000000000e+01
3.900000000000000000e+01
4.000000000000000000e+01
4.000000000000000000e+01
4.000000000000000000e+01
4.100000000000000000e+01
4.100000000000000000e+01
4.100000000000000000e+01
4.100000000000000000e+01
4.100000000000000000e+01
4.100000000000000000e+01
4.100000000000000000e+01
4.100000000000000000e+01
4.100000000000000000e+01
4.100000000000000000e+01
4.100000000000000000e+01
4.100000000000000000e+01
4.100000000000000000e+01
4.200000000000000000e+01
4.200000000000000000e+01
4.300000000000000000e+01
4.300000000000000000e+01
4.300000000000000000e+01
4.300000000000000000e+01
4.300000000000000000e+01
4.300000000000000000e+01
4.300000000000000000e+01
4.300000000000000000e+01
4.300000000000000000e+01
4.300000000000000000e+01
4.300000000000000000e+01
4.300000000000000000e+01
4.600000000000000000e+01
4.600000000000000000e+01
4.600000000000000000e+01
4.700000000000000000e+01
4.700000000000000000e+01
4.700000000000000000e+01
4.700000000000000000e+01
4.700000000000000000e+01
4.700000000000000000e+01
4.700000000000000000e+01
4.700000000000000000e+01
4.800000000000000000e+01
4.900000000000000000e+01
5.000000000000000000e+01
5.000000000000000000e+01
5.300000000000000000e+01
5.300000000000000000e+01
5.300000000000000000e+01
5.300000000000000000e+01
5.300000000000000000e+01
5.300000000000000000e+01
5.300000000000000000e+01
5.400000000000000000e+01
5.400000000000000000e+01
5.400000000000000000e+01
5.500000000000000000e+01
5.500000000000000000e+01
5.600000000000000000e+01
5.600000000000000000e+01
5.800000000000000000e+01
5.800000000000000000e+01
5.900000000000000000e+01
5.900000000000000000e+01
5.900000000000000000e+01
5.900000000000000000e+01
6.100000000000000000e+01
6.100000000000000000e+01
6.200000000000000000e+01
6.300000000000000000e+01
6.300000000000000000e+01
6.300000000000000000e+01
6.400000000000000000e+01
6.500000000000000000e+01
6.500000000000000000e+01
6.500000000000000000e+01
6.600000000000000000e+01
6.600000000000000000e+01
6.600000000000000000e+01
6.600000000000000000e+01
6.600000000000000000e+01
6.700000000000000000e+01
6.900000000000000000e+01
6.900000000000000000e+01
6.900000000000000000e+01
7.000000000000000000e+01
7.100000000000000000e+01
7.100000000000000000e+01
7.100000000000000000e+01
7.100000000000000000e+01
7.200000000000000000e+01
7.200000000000000000e+01
7.200000000000000000e+01
7.200000000000000000e+01
7.200000000000000000e+01
7.200000000000000000e+01
7.300000000000000000e+01
7.300000000000000000e+01
7.300000000000000000e+01
7.400000000000000000e+01
7.400000000000000000e+01
7.600000000000000000e+01
7.700000000000000000e+01
7.700000000000000000e+01
7.700000000000000000e+01
8.000000000000000000e+01
8.100000000000000000e+01
8.400000000000000000e+01
8.400000000000000000e+01
8.600000000000000000e+01
8.700000000000000000e+01
8.900000000000000000e+01
9.100000000000000000e+01
9.300000000000000000e+01
9.400000000000000000e+01
9.400000000000000000e+01
9.500000000000000000e+01
9.600000000000000000e+01
9.600000000000000000e+01
9.700000000000000000e+01
9.700000000000000000e+01
9.700000000000000000e+01
9.800000000000000000e+01
9.800000000000000000e+01
9.800000000000000000e+01
9.800000000000000000e+01
9.800000000000000000e+01
9.800000000000000000e+01
9.900000000000000000e+01
9.900000000000000000e+01
9.900000000000000000e+01
1.000000000000000000e+02
1.000000000000000000e+02
1.030000000000000000e+02
1.030000000000000000e+02
1.040000000000000000e+02
1.040000000000000000e+02
1.050000000000000000e+02
1.050000000000000000e+02
1.060000000000000000e+02
1.080000000000000000e+02
1.080000000000000000e+02
1.100000000000000000e+02
1.110000000000000000e+02
1.120000000000000000e+02
1.140000000000000000e+02
1.140000000000000000e+02
1.140000000000000000e+02
1.150000000000000000e+02
1.150000000000000000e+02
1.170000000000000000e+02
1.170000000000000000e+02
1.170000000000000000e+02
1.200000000000000000e+02
1.200000000000000000e+02
1.210000000000000000e+02
1.210000000000000000e+02
1.220000000000000000e+02
1.220000000000000000e+02
1.260000000000000000e+02
1.270000000000000000e+02
1.280000000000000000e+02
1.280000000000000000e+02
1.290000000000000000e+02
1.290000000000000000e+02
1.290000000000000000e+02
1.300000000000000000e+02
1.310000000000000000e+02
1.310000000000000000e+02
1.310000000000000000e+02
1.320000000000000000e+02
1.330000000000000000e+02
1.340000000000000000e+02
1.340000000000000000e+02
1.370000000000000000e+02
1.380000000000000000e+02
1.390000000000000000e+02
1.390000000000000000e+02
1.390000000000000000e+02
1.400000000000000000e+02
1.420000000000000000e+02
1.440000000000000000e+02
1.450000000000000000e+02
1.460000000000000000e+02
1.460000000000000000e+02
1.460000000000000000e+02
1.470000000000000000e+02
1.490000000000000000e+02
1.500000000000000000e+02
1.500000000000000000e+02
1.520000000000000000e+02
1.540000000000000000e+02
1.560000000000000000e+02
1.580000000000000000e+02
1.610000000000000000e+02
1.610000000000000000e+02
1.620000000000000000e+02
1.630000000000000000e+02
1.630000000000000000e+02
1.640000000000000000e+02
1.670000000000000000e+02
1.680000000000000000e+02
1.710000000000000000e+02
1.740000000000000000e+02
1.740000000000000000e+02
1.750000000000000000e+02
1.770000000000000000e+02
1.790000000000000000e+02
1.810000000000000000e+02
1.820000000000000000e+02
1.820000000000000000e+02
1.830000000000000000e+02
1.840000000000000000e+02
1.860000000000000000e+02
1.890000000000000000e+02
1.900000000000000000e+02
1.930000000000000000e+02
1.930000000000000000e+02
1.930000000000000000e+02
1.940000000000000000e+02
1.970000000000000000e+02
1.970000000000000000e+02
1.970000000000000000e+02
1.970000000000000000e+02
1.990000000000000000e+02
2.000000000000000000e+02
2.020000000000000000e+02
2.040000000000000000e+02
2.040000000000000000e+02
2.060000000000000000e+02
2.060000000000000000e+02
2.070000000000000000e+02
2.100000000000000000e+02
2.100000000000000000e+02
2.110000000000000000e+02
2.130000000000000000e+02
2.140000000000000000e+02
2.140000000000000000e+02
2.150000000000000000e+02
2.150000000000000000e+02
2.170000000000000000e+02
2.180000000000000000e+02
2.210000000000000000e+02
2.220000000000000000e+02
2.250000000000000000e+02
2.260000000000000000e+02
2.270000000000000000e+02
2.310000000000000000e+02
2.330000000000000000e+02
2.340000000000000000e+02
2.350000000000000000e+02
2.360000000000000000e+02
2.380000000000000000e+02
2.410000000000000000e+02
2.430000000000000000e+02
2.460000000000000000e+02
2.460000000000000000e+02
2.470000000000000000e+02
2.490000000000000000e+02
2.510000000000000000e+02
2.520000000000000000e+02
2.530000000000000000e+02
2.560000000000000000e+02
2.570000000000000000e+02
2.580000000000000000e+02
2.600000000000000000e+02
2.620000000000000000e+02
2.640000000000000000e+02
2.650000000000000000e+02
2.660000000000000000e+02
2.670000000000000000e+02
2.680000000000000000e+02
2.680000000000000000e+02
2.700000000000000000e+02
2.730000000000000000e+02
2.740000000000000000e+02
2.750000000000000000e+02
2.780000000000000000e+02
2.830000000000000000e+02
2.880000000000000000e+02
2.920000000000000000e+02
2.960000000000000000e+02
2.960000000000000000e+02
2.960000000000000000e+02
3.000000000000000000e+02
3.020000000000000000e+02
3.040000000000000000e+02
3.060000000000000000e+02
3.060000000000000000e+02
3.090000000000000000e+02
3.150000000000000000e+02
3.160000000000000000e+02
3.200000000000000000e+02
3.210000000000000000e+02
3.220000000000000000e+02
3.250000000000000000e+02
3.260000000000000000e+02
3.280000000000000000e+02
3.310000000000000000e+02
3.350000000000000000e+02
3.370000000000000000e+02
3.400000000000000000e+02
3.410000000000000000e+02
3.460000000000000000e+02
3.520000000000000000e+02
3.550000000000000000e+02
3.600000000000000000e+02
3.650000000000000000e+02
3.670000000000000000e+02
3.700000000000000000e+02
3.700000000000000000e+02
3.750000000000000000e+02
3.790000000000000000e+02
3.800000000000000000e+02
3.830000000000000000e+02
3.840000000000000000e+02
3.870000000000000000e+02
3.910000000000000000e+02
3.960000000000000000e+02
4.000000000000000000e+02
4.030000000000000000e+02
4.060000000000000000e+02
4.090000000000000000e+02
4.090000000000000000e+02
4.090000000000000000e+02
4.100000000000000000e+02
4.120000000000000000e+02
4.130000000000000000e+02
4.150000000000000000e+02
4.180000000000000000e+02
4.220000000000000000e+02
4.220000000000000000e+02
4.260000000000000000e+02
4.280000000000000000e+02
4.310000000000000000e+02
4.330000000000000000e+02
4.400000000000000000e+02
4.440000000000000000e+02
4.490000000000000000e+02
4.490000000000000000e+02
4.560000000000000000e+02
4.570000000000000000e+02
4.590000000000000000e+02
4.620000000000000000e+02
4.640000000000000000e+02
4.690000000000000000e+02
4.710000000000000000e+02
4.740000000000000000e+02
4.810000000000000000e+02
4.830000000000000000e+02
4.840000000000000000e+02
4.850000000000000000e+02
4.860000000000000000e+02
4.890000000000000000e+02
4.960000000000000000e+02
5.010000000000000000e+02
5.030000000000000000e+02
5.070000000000000000e+02
5.130000000000000000e+02
5.130000000000000000e+02
5.190000000000000000e+02
5.210000000000000000e+02
5.240000000000000000e+02
5.290000000000000000e+02
5.310000000000000000e+02
5.340000000000000000e+02
5.370000000000000000e+02
5.420000000000000000e+02
5.450000000000000000e+02
5.480000000000000000e+02
5.550000000000000000e+02
5.600000000000000000e+02
5.700000000000000000e+02
5.730000000000000000e+02
5.730000000000000000e+02
5.750000000000000000e+02
5.800000000000000000e+02
5.840000000000000000e+02
5.920000000000000000e+02
5.970000000000000000e+02
6.010000000000000000e+02
6.060000000000000000e+02
6.100000000000000000e+02
6.150000000000000000e+02
6.190000000000000000e+02
6.240000000000000000e+02
6.280000000000000000e+02
6.330000000000000000e+02
6.360000000000000000e+02
6.420000000000000000e+02
6.470000000000000000e+02
6.530000000000000000e+02
6.590000000000000000e+02
6.620000000000000000e+02
6.700000000000000000e+02
6.740000000000000000e+02
6.820000000000000000e+02
6.880000000000000000e+02
6.990000000000000000e+02
7.070000000000000000e+02
7.090000000000000000e+02
7.140000000000000000e+02
7.230000000000000000e+02
7.240000000000000000e+02
7.270000000000000000e+02
7.320000000000000000e+02
7.380000000000000000e+02
7.400000000000000000e+02
7.450000000000000000e+02
7.520000000000000000e+02
7.570000000000000000e+02
7.630000000000000000e+02
7.670000000000000000e+02
7.720000000000000000e+02
7.790000000000000000e+02
7.870000000000000000e+02
7.910000000000000000e+02
7.970000000000000000e+02
8.040000000000000000e+02
8.100000000000000000e+02
8.130000000000000000e+02
8.150000000000000000e+02
8.200000000000000000e+02
8.240000000000000000e+02
8.320000000000000000e+02
8.410000000000000000e+02
8.480000000000000000e+02
8.540000000000000000e+02
8.600000000000000000e+02
8.670000000000000000e+02
8.700000000000000000e+02
8.800000000000000000e+02
8.870000000000000000e+02
8.960000000000000000e+02
8.970000000000000000e+02
9.020000000000000000e+02
9.070000000000000000e+02
9.130000000000000000e+02
9.190000000000000000e+02
9.240000000000000000e+02
9.310000000000000000e+02
9.410000000000000000e+02
9.490000000000000000e+02
9.580000000000000000e+02
9.630000000000000000e+02
9.680000000000000000e+02
9.710000000000000000e+02
9.770000000000000000e+02
9.850000000000000000e+02
9.880000000000000000e+02
9.920000000000000000e+02
1.003000000000000000e+03
1.012000000000000000e+03
1.017000000000000000e+03
1.022000000000000000e+03
1.029000000000000000e+03
1.032000000000000000e+03
1.036000000000000000e+03
1.044000000000000000e+03
1.053000000000000000e+03
1.059000000000000000e+03
1.066000000000000000e+03
1.072000000000000000e+03
1.083000000000000000e+03
1.092000000000000000e+03
1.096000000000000000e+03
1.103000000000000000e+03
1.113000000000000000e+03
1.128000000000000000e+03
1.136000000000000000e+03
1.147000000000000000e+03
1.157000000000000000e+03
1.167000000000000000e+03
1.180000000000000000e+03
1.190000000000000000e+03
1.199000000000000000e+03
1.209000000000000000e+03
1.213000000000000000e+03
1.219000000000000000e+03
1.227000000000000000e+03
1.237000000000000000e+03
1.242000000000000000e+03
1.253000000000000000e+03
1.263000000000000000e+03
1.270000000000000000e+03
1.277000000000000000e+03
1.288000000000000000e+03
1.296000000000000000e+03
1.309000000000000000e+03
1.319000000000000000e+03
1.332000000000000000e+03
1.343000000000000000e+03
1.353000000000000000e+03
1.359000000000000000e+03
1.366000000000000000e+03
1.372000000000000000e+03
1.382000000000000000e+03
1.395000000000000000e+03
1.405000000000000000e+03
1.414000000000000000e+03
1.425000000000000000e+03
1.438000000000000000e+03
1.444000000000000000e+03
1.461000000000000000e+03
1.473000000000000000e+03
1.486000000000000000e+03
1.499000000000000000e+03
1.507000000000000000e+03
1.522000000000000000e+03
1.537000000000000000e+03
1.545000000000000000e+03
1.555000000000000000e+03
1.564000000000000000e+03
1.574000000000000000e+03
1.584000000000000000e+03
1.591000000000000000e+03
1.601000000000000000e+03
1.610000000000000000e+03
1.624000000000000000e+03
1.634000000000000000e+03
1.649000000000000000e+03
1.667000000000000000e+03
1.675000000000000000e+03
1.684000000000000000e+03
1.701000000000000000e+03
1.720000000000000000e+03
1.731000000000000000e+03
1.745000000000000000e+03
1.764000000000000000e+03
1.775000000000000000e+03
1.783000000000000000e+03
1.799000000000000000e+03
1.815000000000000000e+03
1.832000000000000000e+03
1.849000000000000000e+03
1.858000000000000000e+03
1.869000000000000000e+03
1.887000000000000000e+03
1.905000000000000000e+03
1.919000000000000000e+03
1.930000000000000000e+03
1.942000000000000000e+03
1.960000000000000000e+03
1.984000000000000000e+03
1.998000000000000000e+03
2.009000000000000000e+03
2.019000000000000000e+03
2.034000000000000000e+03
2.049000000000000000e+03
2.066000000000000000e+03
2.078000000000000000e+03
2.094000000000000000e+03
2.106000000000000000e+03
2.123000000000000000e+03
2.141000000000000000e+03
2.151000000000000000e+03
2.167000000000000000e+03
2.182000000000000000e+03
2.203000000000000000e+03
2.219000000000000000e+03
2.235000000000000000e+03
2.251000000000000000e+03
2.259000000000000000e+03
2.272000000000000000e+03
2.290000000000000000e+03
2.302000000000000000e+03
2.323000000000000000e+03
2.340000000000000000e+03
2.358000000000000000e+03
2.368000000000000000e+03
2.383000000000000000e+03
2.401000000000000000e+03
2.420000000000000000e+03
2.438000000000000000e+03
2.458000000000000000e+03
2.479000000000000000e+03
2.493000000000000000e+03
2.514000000000000000e+03
2.536000000000000000e+03
2.550000000000000000e+03
2.563000000000000000e+03
2.584000000000000000e+03
2.600000000000000000e+03
2.618000000000000000e+03
2.642000000000000000e+03
2.665000000000000000e+03
2.683000000000000000e+03
2.699000000000000000e+03
2.714000000000000000e+03
2.736000000000000000e+03
2.755000000000000000e+03
2.783000000000000000e+03
2.803000000000000000e+03
2.823000000000000000e+03
2.845000000000000000e+03
2.868000000000000000e+03
2.889000000000000000e+03
2.907000000000000000e+03
2.922000000000000000e+03
2.945000000000000000e+03
2.969000000000000000e+03
2.993000000000000000e+03
3.019000000000000000e+03
3.041000000000000000e+03
3.065000000000000000e+03
3.093000000000000000e+03
3.120000000000000000e+03
3.135000000000000000e+03
3.166000000000000000e+03
3.187000000000000000e+03
3.210000000000000000e+03
3.235000000000000000e+03
3.252000000000000000e+03
3.277000000000000000e+03
3.298000000000000000e+03
3.325000000000000000e+03
3.353000000000000000e+03
3.378000000000000000e+03
3.398000000000000000e+03
3.417000000000000000e+03
3.444000000000000000e+03
3.481000000000000000e+03
3.513000000000000000e+03
3.543000000000000000e+03
3.570000000000000000e+03
3.598000000000000000e+03
3.624000000000000000e+03
3.654000000000000000e+03
3.679000000000000000e+03
3.701000000000000000e+03
3.727000000000000000e+03
3.756000000000000000e+03
3.795000000000000000e+03
3.816000000000000000e+03
3.836000000000000000e+03
3.864000000000000000e+03
3.886000000000000000e+03
3.922000000000000000e+03
3.944000000000000000e+03
3.972000000000000000e+03
4.004000000000000000e+03
4.030000000000000000e+03
4.058000000000000000e+03
4.087000000000000000e+03
4.128000000000000000e+03
4.150000000000000000e+03
4.173000000000000000e+03
4.207000000000000000e+03
4.229000000000000000e+03
4.256000000000000000e+03
4.297000000000000000e+03
4.319000000000000000e+03
4.356000000000000000e+03
4.387000000000000000e+03
4.415000000000000000e+03
4.443000000000000000e+03
4.470000000000000000e+03
4.507000000000000000e+03
4.540000000000000000e+03
4.568000000000000000e+03
4.606000000000000000e+03
4.649000000000000000e+03
4.685000000000000000e+03
4.711000000000000000e+03
4.745000000000000000e+03
4.770000000000000000e+03
4.803000000000000000e+03
4.838000000000000000e+03
4.875000000000000000e+03
4.915000000000000000e+03
4.952000000000000000e+03
4.982000000000000000e+03
5.022000000000000000e+03
5.064000000000000000e+03
5.100000000000000000e+03
5.133000000000000000e+03
5.169000000000000000e+03
5.207000000000000000e+03
5.243000000000000000e+03
5.283000000000000000e+03
5.324000000000000000e+03
5.359000000000000000e+03
5.394000000000000000e+03
5.438000000000000000e+03
5.468000000000000000e+03
5.515000000000000000e+03
5.556000000000000000e+03
5.593000000000000000e+03
5.639000000000000000e+03
5.678000000000000000e+03
5.713000000000000000e+03
5.755000000000000000e+03
5.788000000000000000e+03
5.831000000000000000e+03
5.875000000000000000e+03
5.915000000000000000e+03
5.960000000000000000e+03
5.996000000000000000e+03
6.044000000000000000e+03
6.094000000000000000e+03
6.152000000000000000e+03
6.188000000000000000e+03
6.237000000000000000e+03
6.288000000000000000e+03
6.328000000000000000e+03
6.377000000000000000e+03
6.418000000000000000e+03
6.470000000000000000e+03
6.512000000000000000e+03
6.559000000000000000e+03
6.589000000000000000e+03
6.624000000000000000e+03
6.658000000000000000e+03
6.702000000000000000e+03
6.762000000000000000e+03
6.819000000000000000e+03
6.862000000000000000e+03
6.914000000000000000e+03
6.983000000000000000e+03
7.035000000000000000e+03
7.078000000000000000e+03
7.134000000000000000e+03
7.189000000000000000e+03
7.230000000000000000e+03
7.294000000000000000e+03
7.355000000000000000e+03
7.410000000000000000e+03
7.456000000000000000e+03
7.509000000000000000e+03
7.552000000000000000e+03
7.602000000000000000e+03
7.671000000000000000e+03
7.723000000000000000e+03
7.776000000000000000e+03
7.841000000000000000e+03
7.898000000000000000e+03
7.955000000000000000e+03
8.014000000000000000e+03
8.075000000000000000e+03
8.136000000000000000e+03
8.192000000000000000e+03
8.259000000000000000e+03
8.321000000000000000e+03
8.391000000000000000e+03
8.455000000000000000e+03
8.527000000000000000e+03
8.591000000000000000e+03
8.649000000000000000e+03
8.702000000000000000e+03
8.769000000000000000e+03
8.839000000000000000e+03
8.895000000000000000e+03
8.950000000000000000e+03
9.031000000000000000e+03
9.098000000000000000e+03
9.160000000000000000e+03
9.228000000000000000e+03
9.296000000000000000e+03
9.372000000000000000e+03
9.460000000000000000e+03
9.529000000000000000e+03
9.597000000000000000e+03
9.666000000000000000e+03
9.726000000000000000e+03
9.787000000000000000e+03
9.872000000000000000e+03
9.941000000000000000e+03
1.001100000000000000e+04
1.007400000000000000e+04
1.015300000000000000e+04
1.024300000000000000e+04
1.032200000000000000e+04
1.039600000000000000e+04
1.047000000000000000e+04
1.056000000000000000e+04
1.063300000000000000e+04
1.070700000000000000e+04
1.078900000000000000e+04
1.086200000000000000e+04
1.094300000000000000e+04
1.101600000000000000e+04
1.109500000000000000e+04
1.116800000000000000e+04
1.125900000000000000e+04
1.135500000000000000e+04
1.141700000000000000e+04
1.150200000000000000e+04
1.157700000000000000e+04
1.165000000000000000e+04
1.172700000000000000e+04
1.180800000000000000e+04
1.189100000000000000e+04
1.199300000000000000e+04
1.209000000000000000e+04
1.215900000000000000e+04
1.226200000000000000e+04
1.237000000000000000e+04
1.245700000000000000e+04
1.256100000000000000e+04
1.264400000000000000e+04
1.273300000000000000e+04
1.283900000000000000e+04
1.291800000000000000e+04
1.301500000000000000e+04
1.311300000000000000e+04
1.320200000000000000e+04
1.328300000000000000e+04
1.336900000000000000e+04
1.348600000000000000e+04
1.358200000000000000e+04
1.367900000000000000e+04
1.378100000000000000e+04
1.388000000000000000e+04
1.398300000000000000e+04
1.408300000000000000e+04
1.418000000000000000e+04
1.427000000000000000e+04
1.438200000000000000e+04
1.447800000000000000e+04
1.457600000000000000e+04
1.469000000000000000e+04
1.479700000000000000e+04
1.488500000000000000e+04
1.499600000000000000e+04
1.508600000000000000e+04
1.519700000000000000e+04
1.530400000000000000e+04
1.540500000000000000e+04
1.551200000000000000e+04
1.562600000000000000e+04
1.575100000000000000e+04
1.585900000000000000e+04
1.596600000000000000e+04
1.609600000000000000e+04
1.620200000000000000e+04
1.631800000000000000e+04
1.644000000000000000e+04
1.656600000000000000e+04
1.668500000000000000e+04
1.680500000000000000e+04
1.694200000000000000e+04
1.706900000000000000e+04
1.719700000000000000e+04
1.730800000000000000e+04
1.743700000000000000e+04
1.756500000000000000e+04
1.768200000000000000e+04
1.781300000000000000e+04
1.795200000000000000e+04
1.808900000000000000e+04
1.821600000000000000e+04
1.836100000000000000e+04
1.850000000000000000e+04
1.864900000000000000e+04
1.878200000000000000e+04
1.890700000000000000e+04
1.905400000000000000e+04
1.918700000000000000e+04
1.933900000000000000e+04
1.946500000000000000e+04
1.962400000000000000e+04
1.978800000000000000e+04
1.994200000000000000e+04
2.009800000000000000e+04
2.024100000000000000e+04
2.040200000000000000e+04
2.053700000000000000e+04
2.068400000000000000e+04
2.083800000000000000e+04
2.098700000000000000e+04
2.114600000000000000e+04
2.130000000000000000e+04
2.144200000000000000e+04
2.158900000000000000e+04
2.174600000000000000e+04
