1.000000000000000000e+00
2.000000000000000000e+00
2.000000000000000000e+00
2.000000000000000000e+00
2.000000000000000000e+00
2.000000000000000000e+00
2.000000000000000000e+00
2.000000000000000000e+00
3.000000000000000000e+00
3.000000000000000000e+00
3.000000000000000000e+00
3.000000000000000000e+00
4.000000000000000000e+00
4.000000000000000000e+00
5.000000000000000000e+00
5.000000000000000000e+00
6.000000000000000000e+00
7.000000000000000000e+00
8.000000000000000000e+00
9.000000000000000000e+00
9.000000000000000000e+00
1.300000000000000000e+01
1.400000000000000000e+01
1.500000000000000000e+01
1.600000000000000000e+01
2.000000000000000000e+01
2.700000000000000000e+01
2.800000000000000000e+01
3.000000000000000000e+01
3.600000000000000000e+01
4.200000000000000000e+01
4.800000000000000000e+01
5.800000000000000000e+01
6.600000000000000000e+01
7.500000000000000000e+01
8.900000000000000000e+01
1.010000000000000000e+02
1.150000000000000000e+02
1.320000000000000000e+02
1.570000000000000000e+02
1.760000000000000000e+02
2.070000000000000000e+02
2.330000000000000000e+02
2.780000000000000000e+02
3.170000000000000000e+02
3.700000000000000000e+02
4.190000000000000000e+02
4.930000000000000000e+02
5.530000000000000000e+02
6.510000000000000000e+02
7.500000000000000000e+02
8.610000000000000000e+02
9.970000000000000000e+02
1.171000000000000000e+03
1.356000000000000000e+03
1.568000000000000000e+03
1.801000000000000000e+03
2.082000000000000000e+03
2.389000000000000000e+03
2.793000000000000000e+03
3.215000000000000000e+03
3.738000000000000000e+03
4.328000000000000000e+03
5.009000000000000000e+03
5.791000000000000000e+03
6.655000000000000000e+03
7.704000000000000000e+03
8.931000000000000000e+03
1.034300000000000000e+04
1.192900000000000000e+04
1.382400000000000000e+04
1.600400000000000000e+04
1.853700000000000000e+04
2.142100000000000000e+04
2.477600000000000000e+04
2.869500000000000000e+04
