1.000000000000000000e+00
2.000000000000000000e+00
2.000000000000000000e+00
2.000000000000000000e+00
3.000000000000000000e+00
3.000000000000000000e+00
3.000000000000000000e+00
4.000000000000000000e+00
5.000000000000000000e+00
5.000000000000000000e+00
5.000000000000000000e+00
7.000000000000000000e+00
7.000000000000000000e+00
8.000000000000000000e+00
9.000000000000000000e+00
9.000000000000000000e+00
1.300000000000000000e+01
1.300000000000000000e+01
1.400000000000000000e+01
1.500000000000000000e+01
2.000000000000000000e+01
2.100000000000000000e+01
2.400000000000000000e+01
2.600000000000000000e+01
2.900000000000000000e+01
3.600000000000000000e+01
4.600000000000000000e+01
5.000000000000000000e+01
5.500000000000000000e+01
6.700000000000000000e+01
7.400000000000000000e+01
8.700000000000000000e+01
1.000000000000000000e+02
1.110000000000000000e+02
1.340000000000000000e+02
1.570000000000000000e+02
1.740000000000000000e+02
2.070000000000000000e+02
2.420000000000000000e+02
2.730000000000000000e+02
3.130000000000000000e+02
3.600000000000000000e+02
4.180000000000000000e+02
4.780000000000000000e+02
5.640000000000000000e+02
6.510000000000000000e+02
7.410000000000000000e+02
8.550000000000000000e+02
9.940000000000000000e+02
1.151000000000000000e+03
1.324000000000000000e+03
1.546000000000000000e+03
1.775000000000000000e+03
2.042000000000000000e+03
2.354000000000000000e+03
2.745000000000000000e+03
3.198000000000000000e+03
3.701000000000000000e+03
4.256000000000000000e+03
4.899000000000000000e+03
5.714000000000000000e+03
6.587000000000000000e+03
7.631000000000000000e+03
8.841000000000000000e+03
1.019500000000000000e+04
1.175600000000000000e+04
1.362200000000000000e+04
1.577400000000000000e+04
1.823600000000000000e+04
2.115500000000000000e+04
2.444200000000000000e+04
2.818400000000000000e+04
3.266600000000000000e+04
3.792400000000000000e+04
4.384000000000000000e+04
5.071000000000000000e+04
