1.000000000000000000e+00
2.000000000000000000e+00
2.000000000000000000e+00
2.000000000000000000e+00
2.000000000000000000e+00
2.000000000000000000e+00
3.000000000000000000e+00
3.000000000000000000e+00
3.000000000000000000e+00
3.000000000000000000e+00
3.000000000000000000e+00
3.000000000000000000e+00
5.000000000000000000e+00
5.000000000000000000e+00
5.000000000000000000e+00
5.000000000000000000e+00
6.000000000000000000e+00
7.000000000000000000e+00
1.000000000000000000e+01
1.200000000000000000e+01
1.300000000000000000e+01
1.600000000000000000e+01
1.900000000000000000e+01
2.000000000000000000e+01
2.400000000000000000e+01
2.700000000000000000e+01
2.800000000000000000e+01
3.500000000000000000e+01
4.200000000000000000e+01
4.500000000000000000e+01
4.700000000000000000e+01
5.700000000000000000e+01
6.800000000000000000e+01
7.900000000000000000e+01
9.000000000000000000e+01
1.020000000000000000e+02
1.200000000000000000e+02
1.400000000000000000e+02
1.530000000000000000e+02
1.850000000000000000e+02
2.190000000000000000e+02
2.480000000000000000e+02
2.810000000000000000e+02
3.300000000000000000e+02
3.830000000000000000e+02
4.360000000000000000e+02
5.080000000000000000e+02
5.920000000000000000e+02
6.890000000000000000e+02
7.790000000000000000e+02
9.090000000000000000e+02
1.059000000000000000e+03
1.202000000000000000e+03
1.419000000000000000e+03
1.638000000000000000e+03
1.884000000000000000e+03
2.177000000000000000e+03
2.541000000000000000e+03
2.939000000000000000e+03
3.386000000000000000e+03
3.910000000000000000e+03
4.546000000000000000e+03
5.246000000000000000e+03
6.096000000000000000e+03
7.003000000000000000e+03
8.077000000000000000e+03
9.333000000000000000e+03
1.086800000000000000e+04
1.253500000000000000e+04
1.447900000000000000e+04
1.684700000000000000e+04
1.937300000000000000e+04
2.239900000000000000e+04
2.602200000000000000e+04
3.011100000000000000e+04
3.479200000000000000e+04
