1.000000000000000000e+00
2.000000000000000000e+00
2.000000000000000000e+00
3.000000000000000000e+00
3.000000000000000000e+00
3.000000000000000000e+00
4.000000000000000000e+00
5.000000000000000000e+00
5.000000000000000000e+00
6.000000000000000000e+00
8.000000000000000000e+00
8.000000000000000000e+00
9.000000000000000000e+00
1.200000000000000000e+01
1.300000000000000000e+01
1.600000000000000000e+01
1.700000000000000000e+01
2.100000000000000000e+01
2.100000000000000000e+01
2.300000000000000000e+01
2.900000000000000000e+01
3.700000000000000000e+01
4.000000000000000000e+01
4.200000000000000000e+01
5.300000000000000000e+01
6.100000000000000000e+01
6.800000000000000000e+01
7.800000000000000000e+01
9.300000000000000000e+01
1.020000000000000000e+02
1.220000000000000000e+02
1.390000000000000000e+02
1.620000000000000000e+02
1.930000000000000000e+02
2.200000000000000000e+02
2.550000000000000000e+02
3.060000000000000000e+02
3.570000000000000000e+02
4.000000000000000000e+02
4.670000000000000000e+02
5.380000000000000000e+02
6.250000000000000000e+02
7.270000000000000000e+02
8.270000000000000000e+02
9.490000000000000000e+02
1.113000000000000000e+03
1.309000000000000000e+03
1.496000000000000000e+03
1.726000000000000000e+03
1.985000000000000000e+03
2.334000000000000000e+03
2.706000000000000000e+03
3.130000000000000000e+03
3.585000000000000000e+03
4.131000000000000000e+03
4.794000000000000000e+03
5.593000000000000000e+03
6.418000000000000000e+03
7.427000000000000000e+03
8.617000000000000000e+03
9.897000000000000000e+03
1.149300000000000000e+04
1.337200000000000000e+04
1.545300000000000000e+04
1.786800000000000000e+04
2.067000000000000000e+04
2.385600000000000000e+04
2.766900000000000000e+04
3.212500000000000000e+04
3.716100000000000000e+04
4.287600000000000000e+04
4.958600000000000000e+04
5.747400000000000000e+04
6.656900000000000000e+04
7.706900000000000000e+04
8.896100000000000000e+04
