1.000000000000000000e+00
2.000000000000000000e+00
2.000000000000000000e+00
2.000000000000000000e+00
2.000000000000000000e+00
2.000000000000000000e+00
3.000000000000000000e+00
3.000000000000000000e+00
3.000000000000000000e+00
4.000000000000000000e+00
5.000000000000000000e+00
5.000000000000000000e+00
5.000000000000000000e+00
5.000000000000000000e+00
5.000000000000000000e+00
5.000000000000000000e+00
8.000000000000000000e+00
9.000000000000000000e+00
9.000000000000000000e+00
9.000000000000000000e+00
1.000000000000000000e+01
1.200000000000000000e+01
1.500000000000000000e+01
1.600000000000000000e+01
1.600000000000000000e+01
1.800000000000000000e+01
2.100000000000000000e+01
2.500000000000000000e+01
3.000000000000000000e+01
3.300000000000000000e+01
3.800000000000000000e+01
4.600000000000000000e+01
5.200000000000000000e+01
5.900000000000000000e+01
6.500000000000000000e+01
7.400000000000000000e+01
8.900000000000000000e+01
1.060000000000000000e+02
1.200000000000000000e+02
1.340000000000000000e+02
1.570000000000000000e+02
1.840000000000000000e+02
2.130000000000000000e+02
2.460000000000000000e+02
2.800000000000000000e+02
3.180000000000000000e+02
3.750000000000000000e+02
4.430000000000000000e+02
4.990000000000000000e+02
5.650000000000000000e+02
6.550000000000000000e+02
7.750000000000000000e+02
8.950000000000000000e+02
1.035000000000000000e+03
1.184000000000000000e+03
1.380000000000000000e+03
1.588000000000000000e+03
1.841000000000000000e+03
2.143000000000000000e+03
2.487000000000000000e+03
2.876000000000000000e+03
3.306000000000000000e+03
3.842000000000000000e+03
4.452000000000000000e+03
5.169000000000000000e+03
5.944000000000000000e+03
6.842000000000000000e+03
7.964000000000000000e+03
9.205000000000000000e+03
1.063300000000000000e+04
1.224800000000000000e+04
1.423900000000000000e+04
1.652100000000000000e+04
1.906000000000000000e+04
2.205500000000000000e+04
2.549600000000000000e+04
