1.000000000000000000e+00
2.000000000000000000e+00
2.000000000000000000e+00
2.000000000000000000e+00
2.000000000000000000e+00
3.000000000000000000e+00
3.000000000000000000e+00
3.000000000000000000e+00
3.000000000000000000e+00
3.000000000000000000e+00
4.000000000000000000e+00
5.000000000000000000e+00
5.000000000000000000e+00
5.000000000000000000e+00
5.000000000000000000e+00
7.000000000000000000e+00
8.000000000000000000e+00
9.000000000000000000e+00
9.000000000000000000e+00
1.000000000000000000e+01
1.100000000000000000e+01
1.400000000000000000e+01
1.600000000000000000e+01
1.700000000000000000e+01
2.100000000000000000e+01
2.800000000000000000e+01
2.800000000000000000e+01
3.200000000000000000e+01
4.000000000000000000e+01
4.200000000000000000e+01
5.100000000000000000e+01
6.100000000000000000e+01
6.600000000000000000e+01
7.500000000000000000e+01
8.800000000000000000e+01
1.020000000000000000e+02
1.180000000000000000e+02
1.360000000000000000e+02
1.540000000000000000e+02
1.770000000000000000e+02
2.090000000000000000e+02
2.440000000000000000e+02
2.720000000000000000e+02
3.160000000000000000e+02
3.580000000000000000e+02
4.220000000000000000e+02
4.830000000000000000e+02
5.550000000000000000e+02
6.410000000000000000e+02
7.410000000000000000e+02
8.570000000000000000e+02
9.890000000000000000e+02
1.153000000000000000e+03
1.334000000000000000e+03
1.521000000000000000e+03
1.786000000000000000e+03
2.063000000000000000e+03
2.397000000000000000e+03
2.770000000000000000e+03
3.193000000000000000e+03
3.684000000000000000e+03
4.310000000000000000e+03
4.956000000000000000e+03
5.713000000000000000e+03
6.622000000000000000e+03
7.623000000000000000e+03
8.858000000000000000e+03
1.015800000000000000e+04
1.173400000000000000e+04
1.360600000000000000e+04
1.580900000000000000e+04
1.832100000000000000e+04
2.108000000000000000e+04
2.436300000000000000e+04
2.826300000000000000e+04
3.265300000000000000e+04
