1.000000000000000000e+00
2.000000000000000000e+00
2.000000000000000000e+00
2.000000000000000000e+00
2.000000000000000000e+00
2.000000000000000000e+00
3.000000000000000000e+00
3.000000000000000000e+00
3.000000000000000000e+00
4.000000000000000000e+00
6.000000000000000000e+00
6.000000000000000000e+00
8.000000000000000000e+00
8.000000000000000000e+00
8.000000000000000000e+00
1.100000000000000000e+01
1.400000000000000000e+01
1.400000000000000000e+01
1.600000000000000000e+01
1.700000000000000000e+01
2.100000000000000000e+01
2.600000000000000000e+01
2.800000000000000000e+01
3.000000000000000000e+01
3.600000000000000000e+01
4.100000000000000000e+01
5.000000000000000000e+01
5.500000000000000000e+01
6.300000000000000000e+01
7.400000000000000000e+01
9.000000000000000000e+01
1.060000000000000000e+02
1.200000000000000000e+02
1.410000000000000000e+02
1.590000000000000000e+02
1.780000000000000000e+02
2.080000000000000000e+02
2.460000000000000000e+02
2.870000000000000000e+02
3.250000000000000000e+02
3.730000000000000000e+02
4.320000000000000000e+02
5.060000000000000000e+02
5.760000000000000000e+02
6.730000000000000000e+02
7.610000000000000000e+02
8.850000000000000000e+02
1.043000000000000000e+03
1.191000000000000000e+03
1.374000000000000000e+03
1.594000000000000000e+03
1.848000000000000000e+03
2.115000000000000000e+03
2.468000000000000000e+03
2.847000000000000000e+03
3.290000000000000000e+03
3.790000000000000000e+03
4.389000000000000000e+03
5.075000000000000000e+03
5.841000000000000000e+03
6.777000000000000000e+03
7.838000000000000000e+03
9.096000000000000000e+03
1.054200000000000000e+04
1.218200000000000000e+04
1.412100000000000000e+04
1.629800000000000000e+04
1.886700000000000000e+04
2.178400000000000000e+04
2.525300000000000000e+04
2.924700000000000000e+04
3.387100000000000000e+04
3.919900000000000000e+04
4.511700000000000000e+04
5.216800000000000000e+04
6.045100000000000000e+04
