1.000000000000000000e+00
2.000000000000000000e+00
2.000000000000000000e+00
2.000000000000000000e+00
2.000000000000000000e+00
3.000000000000000000e+00
3.000000000000000000e+00
3.000000000000000000e+00
3.000000000000000000e+00
4.000000000000000000e+00
4.000000000000000000e+00
4.000000000000000000e+00
5.000000000000000000e+00
5.000000000000000000e+00
6.000000000000000000e+00
7.000000000000000000e+00
7.000000000000000000e+00
9.000000000000000000e+00
1.000000000000000000e+01
1.200000000000000000e+01
1.400000000000000000e+01
1.500000000000000000e+01
1.600000000000000000e+01
2.000000000000000000e+01
2.500000000000000000e+01
2.700000000000000000e+01
3.300000000000000000e+01
3.800000000000000000e+01
4.200000000000000000e+01
4.900000000000000000e+01
5.600000000000000000e+01
6.300000000000000000e+01
7.200000000000000000e+01
8.500000000000000000e+01
9.700000000000000000e+01
1.120000000000000000e+02
1.310000000000000000e+02
1.500000000000000000e+02
1.720000000000000000e+02
2.050000000000000000e+02
2.340000000000000000e+02
2.640000000000000000e+02
3.080000000000000000e+02
3.650000000000000000e+02
4.160000000000000000e+02
4.830000000000000000e+02
5.590000000000000000e+02
6.550000000000000000e+02
7.650000000000000000e+02
8.770000000000000000e+02
1.023000000000000000e+03
1.162000000000000000e+03
1.342000000000000000e+03
1.583000000000000000e+03
1.825000000000000000e+03
2.098000000000000000e+03
2.404000000000000000e+03
2.783000000000000000e+03
3.250000000000000000e+03
3.752000000000000000e+03
4.363000000000000000e+03
5.067000000000000000e+03
5.892000000000000000e+03
6.771000000000000000e+03
7.822000000000000000e+03
9.065000000000000000e+03
1.047900000000000000e+04
1.214900000000000000e+04
1.402600000000000000e+04
1.618400000000000000e+04
1.875500000000000000e+04
2.168600000000000000e+04
2.504000000000000000e+04
2.902900000000000000e+04
3.353500000000000000e+04
3.873800000000000000e+04
