1.000000000000000000e+00
2.000000000000000000e+00
2.000000000000000000e+00
2.000000000000000000e+00
2.000000000000000000e+00
2.000000000000000000e+00
2.000000000000000000e+00
2.000000000000000000e+00
3.000000000000000000e+00
3.000000000000000000e+00
3.000000000000000000e+00
3.000000000000000000e+00
3.000000000000000000e+00
4.000000000000000000e+00
4.000000000000000000e+00
5.000000000000000000e+00
5.000000000000000000e+00
5.000000000000000000e+00
7.000000000000000000e+00
7.000000000000000000e+00
7.000000000000000000e+00
9.000000000000000000e+00
9.000000000000000000e+00
1.100000000000000000e+01
1.200000000000000000e+01
1.400000000000000000e+01
1.500000000000000000e+01
1.600000000000000000e+01
2.100000000000000000e+01
2.200000000000000000e+01
2.700000000000000000e+01
3.000000000000000000e+01
3.200000000000000000e+01
3.700000000000000000e+01
4.200000000000000000e+01
5.100000000000000000e+01
5.800000000000000000e+01
6.600000000000000000e+01
7.300000000000000000e+01
8.300000000000000000e+01
9.800000000000000000e+01
1.160000000000000000e+02
1.300000000000000000e+02
1.520000000000000000e+02
1.740000000000000000e+02
2.050000000000000000e+02
2.380000000000000000e+02
2.670000000000000000e+02
3.140000000000000000e+02
3.670000000000000000e+02
4.270000000000000000e+02
5.020000000000000000e+02
5.670000000000000000e+02
6.550000000000000000e+02
7.820000000000000000e+02
8.910000000000000000e+02
1.046000000000000000e+03
1.198000000000000000e+03
1.383000000000000000e+03
1.599000000000000000e+03
1.819000000000000000e+03
2.135000000000000000e+03
2.481000000000000000e+03
2.853000000000000000e+03
3.290000000000000000e+03
3.794000000000000000e+03
4.415000000000000000e+03
5.094000000000000000e+03
5.922000000000000000e+03
6.794000000000000000e+03
7.902000000000000000e+03
9.088000000000000000e+03
1.050000000000000000e+04
1.219800000000000000e+04
1.415200000000000000e+04
1.636000000000000000e+04
