1.000000000000000000e+00
2.000000000000000000e+00
2.000000000000000000e+00
2.000000000000000000e+00
2.000000000000000000e+00
2.000000000000000000e+00
3.000000000000000000e+00
3.000000000000000000e+00
3.000000000000000000e+00
3.000000000000000000e+00
3.000000000000000000e+00
5.000000000000000000e+00
5.000000000000000000e+00
5.000000000000000000e+00
5.000000000000000000e+00
6.000000000000000000e+00
7.000000000000000000e+00
9.000000000000000000e+00
9.000000000000000000e+00
1.000000000000000000e+01
1.300000000000000000e+01
1.300000000000000000e+01
1.600000000000000000e+01
1.600000000000000000e+01
1.800000000000000000e+01
2.200000000000000000e+01
2.900000000000000000e+01
3.000000000000000000e+01
3.500000000000000000e+01
4.000000000000000000e+01
4.600000000000000000e+01
5.200000000000000000e+01
6.500000000000000000e+01
7.200000000000000000e+01
7.700000000000000000e+01
9.600000000000000000e+01
1.130000000000000000e+02
1.300000000000000000e+02
1.490000000000000000e+02
1.730000000000000000e+02
2.040000000000000000e+02
2.350000000000000000e+02
2.650000000000000000e+02
3.090000000000000000e+02
3.520000000000000000e+02
4.080000000000000000e+02
4.730000000000000000e+02
5.520000000000000000e+02
6.180000000000000000e+02
7.410000000000000000e+02
8.470000000000000000e+02
9.740000000000000000e+02
1.133000000000000000e+03
1.324000000000000000e+03
1.532000000000000000e+03
1.769000000000000000e+03
2.018000000000000000e+03
2.340000000000000000e+03
2.747000000000000000e+03
3.173000000000000000e+03
3.664000000000000000e+03
4.221000000000000000e+03
4.898000000000000000e+03
5.678000000000000000e+03
6.561000000000000000e+03
7.540000000000000000e+03
8.809000000000000000e+03
1.014600000000000000e+04
1.172800000000000000e+04
1.367200000000000000e+04
1.574600000000000000e+04
1.821100000000000000e+04
2.105000000000000000e+04
2.438100000000000000e+04
2.813400000000000000e+04
3.261300000000000000e+04
