1.000000000000000000e+00
2.000000000000000000e+00
2.000000000000000000e+00
2.000000000000000000e+00
2.000000000000000000e+00
2.000000000000000000e+00
3.000000000000000000e+00
3.000000000000000000e+00
3.000000000000000000e+00
3.000000000000000000e+00
3.000000000000000000e+00
5.000000000000000000e+00
6.000000000000000000e+00
6.000000000000000000e+00
6.000000000000000000e+00
7.000000000000000000e+00
8.000000000000000000e+00
1.000000000000000000e+01
1.300000000000000000e+01
1.400000000000000000e+01
1.500000000000000000e+01
1.500000000000000000e+01
2.000000000000000000e+01
2.200000000000000000e+01
2.700000000000000000e+01
3.300000000000000000e+01
3.500000000000000000e+01
4.200000000000000000e+01
4.800000000000000000e+01
5.300000000000000000e+01
6.200000000000000000e+01
7.200000000000000000e+01
8.300000000000000000e+01
9.100000000000000000e+01
1.070000000000000000e+02
1.250000000000000000e+02
1.430000000000000000e+02
1.630000000000000000e+02
1.860000000000000000e+02
2.160000000000000000e+02
2.440000000000000000e+02
2.900000000000000000e+02
3.330000000000000000e+02
3.820000000000000000e+02
4.510000000000000000e+02
5.290000000000000000e+02
6.000000000000000000e+02
6.950000000000000000e+02
8.050000000000000000e+02
9.380000000000000000e+02
1.089000000000000000e+03
1.248000000000000000e+03
1.439000000000000000e+03
1.663000000000000000e+03
1.944000000000000000e+03
2.264000000000000000e+03
2.585000000000000000e+03
3.001000000000000000e+03
3.472000000000000000e+03
4.018000000000000000e+03
4.672000000000000000e+03
5.370000000000000000e+03
6.278000000000000000e+03
7.217000000000000000e+03
8.345000000000000000e+03
9.671000000000000000e+03
1.117400000000000000e+04
1.294800000000000000e+04
1.491700000000000000e+04
1.732000000000000000e+04
2.002200000000000000e+04
2.319400000000000000e+04
2.677700000000000000e+04
3.102600000000000000e+04
3.578700000000000000e+04
4.150800000000000000e+04
