1.000000000000000000e+00
2.000000000000000000e+00
2.000000000000000000e+00
2.000000000000000000e+00
3.000000000000000000e+00
3.000000000000000000e+00
4.000000000000000000e+00
4.000000000000000000e+00
5.000000000000000000e+00
7.000000000000000000e+00
7.000000000000000000e+00
7.000000000000000000e+00
7.000000000000000000e+00
9.000000000000000000e+00
1.100000000000000000e+01
1.200000000000000000e+01
1.300000000000000000e+01
1.600000000000000000e+01
2.100000000000000000e+01
2.300000000000000000e+01
2.400000000000000000e+01
2.500000000000000000e+01
3.500000000000000000e+01
4.000000000000000000e+01
4.600000000000000000e+01
4.900000000000000000e+01
5.900000000000000000e+01
6.600000000000000000e+01
7.900000000000000000e+01
9.500000000000000000e+01
1.080000000000000000e+02
1.250000000000000000e+02
1.370000000000000000e+02
1.580000000000000000e+02
1.890000000000000000e+02
2.260000000000000000e+02
2.550000000000000000e+02
2.890000000000000000e+02
3.270000000000000000e+02
3.880000000000000000e+02
4.580000000000000000e+02
5.360000000000000000e+02
6.200000000000000000e+02
7.100000000000000000e+02
8.290000000000000000e+02
9.620000000000000000e+02
1.100000000000000000e+03
1.276000000000000000e+03
1.473000000000000000e+03
1.703000000000000000e+03
1.962000000000000000e+03
2.272000000000000000e+03
2.621000000000000000e+03
3.043000000000000000e+03
3.522000000000000000e+03
4.050000000000000000e+03
4.728000000000000000e+03
5.514000000000000000e+03
6.374000000000000000e+03
7.312000000000000000e+03
8.461000000000000000e+03
9.833000000000000000e+03
1.138600000000000000e+04
1.318600000000000000e+04
1.516500000000000000e+04
1.756800000000000000e+04
2.032000000000000000e+04
2.356200000000000000e+04
2.729500000000000000e+04
3.154200000000000000e+04
3.641100000000000000e+04
4.214400000000000000e+04
4.880200000000000000e+04
5.665500000000000000e+04
6.544700000000000000e+04
7.542900000000000000e+04
