1.000000000000000000e+00
2.000000000000000000e+00
2.000000000000000000e+00
2.000000000000000000e+00
3.000000000000000000e+00
3.000000000000000000e+00
3.000000000000000000e+00
3.000000000000000000e+00
4.000000000000000000e+00
5.000000000000000000e+00
5.000000000000000000e+00
6.000000000000000000e+00
8.000000000000000000e+00
9.000000000000000000e+00
9.000000000000000000e+00
9.000000000000000000e+00
1.100000000000000000e+01
1.200000000000000000e+01
1.300000000000000000e+01
1.500000000000000000e+01
1.900000000000000000e+01
2.000000000000000000e+01
2.200000000000000000e+01
2.400000000000000000e+01
2.600000000000000000e+01
3.300000000000000000e+01
4.100000000000000000e+01
4.600000000000000000e+01
4.800000000000000000e+01
5.500000000000000000e+01
6.300000000000000000e+01
7.600000000000000000e+01
8.900000000000000000e+01
9.700000000000000000e+01
1.150000000000000000e+02
1.300000000000000000e+02
1.570000000000000000e+02
1.810000000000000000e+02
2.060000000000000000e+02
2.340000000000000000e+02
2.690000000000000000e+02
3.240000000000000000e+02
3.670000000000000000e+02
4.140000000000000000e+02
4.940000000000000000e+02
5.690000000000000000e+02
6.510000000000000000e+02
7.450000000000000000e+02
8.400000000000000000e+02
9.770000000000000000e+02
1.138000000000000000e+03
1.323000000000000000e+03
1.508000000000000000e+03
1.740000000000000000e+03
2.013000000000000000e+03
2.333000000000000000e+03
2.710000000000000000e+03
3.119000000000000000e+03
3.606000000000000000e+03
4.181000000000000000e+03
4.830000000000000000e+03
5.598000000000000000e+03
6.461000000000000000e+03
7.494000000000000000e+03
8.588000000000000000e+03
1.000400000000000000e+04
1.157400000000000000e+04
1.339700000000000000e+04
1.546600000000000000e+04
1.787000000000000000e+04
2.072500000000000000e+04
2.395200000000000000e+04
2.778100000000000000e+04
3.212200000000000000e+04
3.703800000000000000e+04
4.280100000000000000e+04
