1.000000000000000000e+00
2.000000000000000000e+00
2.000000000000000000e+00
2.000000000000000000e+00
3.000000000000000000e+00
3.000000000000000000e+00
3.000000000000000000e+00
3.000000000000000000e+00
3.000000000000000000e+00
4.000000000000000000e+00
5.000000000000000000e+00
5.000000000000000000e+00
5.000000000000000000e+00
5.000000000000000000e+00
6.000000000000000000e+00
7.000000000000000000e+00
9.000000000000000000e+00
9.000000000000000000e+00
1.100000000000000000e+01
1.200000000000000000e+01
1.400000000000000000e+01
1.400000000000000000e+01
1.600000000000000000e+01
2.200000000000000000e+01
2.300000000000000000e+01
2.700000000000000000e+01
3.100000000000000000e+01
3.800000000000000000e+01
4.400000000000000000e+01
5.300000000000000000e+01
5.700000000000000000e+01
6.300000000000000000e+01
7.200000000000000000e+01
8.800000000000000000e+01
9.800000000000000000e+01
1.100000000000000000e+02
1.220000000000000000e+02
1.460000000000000000e+02
1.710000000000000000e+02
1.980000000000000000e+02
2.260000000000000000e+02
2.600000000000000000e+02
2.960000000000000000e+02
3.550000000000000000e+02
4.080000000000000000e+02
4.650000000000000000e+02
5.360000000000000000e+02
6.300000000000000000e+02
7.370000000000000000e+02
8.540000000000000000e+02
9.740000000000000000e+02
1.126000000000000000e+03
1.313000000000000000e+03
1.523000000000000000e+03
1.770000000000000000e+03
2.023000000000000000e+03
2.354000000000000000e+03
2.748000000000000000e+03
3.178000000000000000e+03
3.677000000000000000e+03
4.209000000000000000e+03
4.879000000000000000e+03
5.661000000000000000e+03
6.583000000000000000e+03
7.611000000000000000e+03
8.755000000000000000e+03
1.014500000000000000e+04
1.171000000000000000e+04
1.360500000000000000e+04
1.576500000000000000e+04
1.817800000000000000e+04
2.096300000000000000e+04
2.431900000000000000e+04
2.818700000000000000e+04
3.268000000000000000e+04
3.767500000000000000e+04
