1.000000000000000000e+00
2.000000000000000000e+00
2.000000000000000000e+00
2.000000000000000000e+00
2.000000000000000000e+00
3.000000000000000000e+00
3.000000000000000000e+00
3.000000000000000000e+00
4.000000000000000000e+00
4.000000000000000000e+00
4.000000000000000000e+00
4.000000000000000000e+00
5.000000000000000000e+00
6.000000000000000000e+00
6.000000000000000000e+00
8.000000000000000000e+00
1.000000000000000000e+01
1.000000000000000000e+01
1.000000000000000000e+01
1.200000000000000000e+01
1.400000000000000000e+01
1.600000000000000000e+01
1.900000000000000000e+01
2.200000000000000000e+01
2.600000000000000000e+01
2.800000000000000000e+01
3.100000000000000000e+01
3.700000000000000000e+01
4.300000000000000000e+01
4.600000000000000000e+01
5.400000000000000000e+01
6.100000000000000000e+01
7.300000000000000000e+01
8.300000000000000000e+01
9.400000000000000000e+01
1.080000000000000000e+02
1.240000000000000000e+02
1.460000000000000000e+02
1.690000000000000000e+02
1.950000000000000000e+02
2.200000000000000000e+02
2.570000000000000000e+02
3.020000000000000000e+02
3.450000000000000000e+02
3.890000000000000000e+02
4.550000000000000000e+02
5.220000000000000000e+02
6.130000000000000000e+02
7.030000000000000000e+02
7.970000000000000000e+02
9.210000000000000000e+02
1.051000000000000000e+03
1.209000000000000000e+03
1.417000000000000000e+03
1.640000000000000000e+03
1.918000000000000000e+03
2.210000000000000000e+03
2.522000000000000000e+03
2.937000000000000000e+03
3.418000000000000000e+03
3.920000000000000000e+03
4.525000000000000000e+03
5.278000000000000000e+03
6.086000000000000000e+03
7.052000000000000000e+03
8.177000000000000000e+03
9.481000000000000000e+03
1.101100000000000000e+04
1.267100000000000000e+04
1.463100000000000000e+04
1.693500000000000000e+04
1.959900000000000000e+04
2.269400000000000000e+04
2.616300000000000000e+04
3.031100000000000000e+04
3.509200000000000000e+04
