1.000000000000000000e+00
2.000000000000000000e+00
2.000000000000000000e+00
2.000000000000000000e+00
3.000000000000000000e+00
3.000000000000000000e+00
4.000000000000000000e+00
4.000000000000000000e+00
4.000000000000000000e+00
6.000000000000000000e+00
6.000000000000000000e+00
7.000000000000000000e+00
1.100000000000000000e+01
1.100000000000000000e+01
1.100000000000000000e+01
1.300000000000000000e+01
1.600000000000000000e+01
2.000000000000000000e+01
2.100000000000000000e+01
2.300000000000000000e+01
2.600000000000000000e+01
3.400000000000000000e+01
3.700000000000000000e+01
4.100000000000000000e+01
5.100000000000000000e+01
5.900000000000000000e+01
6.300000000000000000e+01
7.600000000000000000e+01
8.200000000000000000e+01
9.800000000000000000e+01
1.140000000000000000e+02
1.310000000000000000e+02
1.550000000000000000e+02
1.650000000000000000e+02
1.980000000000000000e+02
2.380000000000000000e+02
2.620000000000000000e+02
3.080000000000000000e+02
3.570000000000000000e+02
4.240000000000000000e+02
4.860000000000000000e+02
5.510000000000000000e+02
6.280000000000000000e+02
7.350000000000000000e+02
8.600000000000000000e+02
9.950000000000000000e+02
1.151000000000000000e+03
1.315000000000000000e+03
1.506000000000000000e+03
1.759000000000000000e+03
2.040000000000000000e+03
2.338000000000000000e+03
2.691000000000000000e+03
3.155000000000000000e+03
3.615000000000000000e+03
4.192000000000000000e+03
4.860000000000000000e+03
5.631000000000000000e+03
6.510000000000000000e+03
7.523000000000000000e+03
8.693000000000000000e+03
1.008800000000000000e+04
1.169000000000000000e+04
1.350700000000000000e+04
1.556000000000000000e+04
1.812300000000000000e+04
2.091300000000000000e+04
2.418800000000000000e+04
2.796600000000000000e+04
3.239000000000000000e+04
3.755300000000000000e+04
4.343000000000000000e+04
5.013300000000000000e+04
5.816500000000000000e+04
6.707900000000000000e+04
7.780500000000000000e+04
