1.000000000000000000e+00
2.000000000000000000e+00
2.000000000000000000e+00
2.000000000000000000e+00
2.000000000000000000e+00
2.000000000000000000e+00
2.000000000000000000e+00
2.000000000000000000e+00
2.000000000000000000e+00
2.000000000000000000e+00
2.000000000000000000e+00
2.000000000000000000e+00
2.000000000000000000e+00
2.000000000000000000e+00
2.000000000000000000e+00
2.000000000000000000e+00
2.000000000000000000e+00
2.000000000000000000e+00
2.000000000000000000e+00
2.000000000000000000e+00
2.000000000000000000e+00
2.000000000000000000e+00
2.000000000000000000e+00
2.000000000000000000e+00
2.000000000000000000e+00
2.000000000000000000e+00
2.000000000000000000e+00
2.000000000000000000e+00
2.000000000000000000e+00
2.000000000000000000e+00
2.000000000000000000e+00
2.000000000000000000e+00
2.000000000000000000e+00
2.000000000000000000e+00
2.000000000000000000e+00
2.000000000000000000e+00
2.000000000000000000e+00
2.000000000000000000e+00
2.000000000000000000e+00
2.000000000000000000e+00
2.000000000000000000e+00
2.000000000000000000e+00
2.000000000000000000e+00
2.000000000000000000e+00
2.000000000000000000e+00
2.000000000000000000e+00
2.000000000000000000e+00
2.000000000000000000e+00
2.000000000000000000e+00
2.000000000000000000e+00
2.000000000000000000e+00
2.000000000000000000e+00
2.000000000000000000e+00
2.000000000000000000e+00
2.000000000000000000e+00
2.000000000000000000e+00
2.000000000000000000e+00
2.000000000000000000e+00
2.000000000000000000e+00
2.000000000000000000e+00
2.000000000000000000e+00
2.000000000000000000e+00
2.000000000000000000e+00
2.000000000000000000e+00
2.000000000000000000e+00
2.000000000000000000e+00
2.000000000000000000e+00
2.000000000000000000e+00
2.000000000000000000e+00
2.000000000000000000e+00
2.000000000000000000e+00
2.000000000000000000e+00
2.000000000000000000e+00
2.000000000000000000e+00
2.000000000000000000e+00
2.000000000000000000e+00
2.000000000000000000e+00
2.000000000000000000e+00
2.000000000000000000e+00
2.000000000000000000e+00
2.000000000000000000e+00
2.000000000000000000e+00
2.000000000000000000e+00
2.000000000000000000e+00
2.000000000000000000e+00
2.000000000000000000e+00
2.000000000000000000e+00
2.000000000000000000e+00
2.000000000000000000e+00
2.000000000000000000e+00
2.000000000000000000e+00
2.000000000000000000e+00
2.000000000000000000e+00
2.000000000000000000e+00
2.000000000000000000e+00
2.000000000000000000e+00
2.000000000000000000e+00
2.000000000000000000e+00
2.000000000000000000e+00
2.000000000000000000e+00
2.000000000000000000e+00
2.000000000000000000e+00
2.000000000000000000e+00
2.000000000000000000e+00
2.000000000000000000e+00
2.000000000000000000e+00
2.000000000000000000e+00
2.000000000000000000e+00
2.000000000000000000e+00
2.000000000000000000e+00
2.000000000000000000e+00
2.000000000000000000e+00
3.000000000000000000e+00
3.000000000000000000e+00
3.000000000000000000e+00
3.000000000000000000e+00
3.000000000000000000e+00
3.000000000000000000e+00
3.000000000000000000e+00
3.000000000000000000e+00
3.000000000000000000e+00
3.000000000000000000e+00
3.000000000000000000e+00
3.000000000000000000e+00
3.000000000000000000e+00
3.000000000000000000e+00
3.000000000000000000e+00
3.000000000000000000e+00
3.000000000000000000e+00
3.000000000000000000e+00
3.000000000000000000e+00
3.000000000000000000e+00
3.000000000000000000e+00
3.000000000000000000e+00
3.000000000000000000e+00
3.000000000000000000e+00
3.000000000000000000e+00
3.000000000000000000e+00
3.000000000000000000e+00
3.000000000000000000e+00
3.000000000000000000e+00
3.000000000000000000e+00
3.000000000000000000e+00
3.000000000000000000e+00
3.000000000000000000e+00
3.000000000000000000e+00
3.000000000000000000e+00
3.000000000000000000e+00
3.000000000000000000e+00
3.000000000000000000e+00
3.000000000000000000e+00
3.000000000000000000e+00
3.000000000000000000e+00
3.000000000000000000e+00
3.000000000000000000e+00
3.000000000000000000e+00
3.000000000000000000e+00
3.000000000000000000e+00
3.000000000000000000e+00
3.000000000000000000e+00
3.000000000000000000e+00
3.000000000000000000e+00
3.000000000000000000e+00
3.000000000000000000e+00
3.000000000000000000e+00
3.000000000000000000e+00
3.000000000000000000e+00
3.000000000000000000e+00
3.000000000000000000e+00
4.000000000000000000e+00
4.000000000000000000e+00
4.000000000000000000e+00
4.000000000000000000e+00
4.000000000000000000e+00
4.000000000000000000e+00
4.000000000000000000e+00
4.000000000000000000e+00
4.000000000000000000e+00
4.000000000000000000e+00
4.000000000000000000e+00
4.000000000000000000e+00
4.000000000000000000e+00
4.000000000000000000e+00
4.000000000000000000e+00
4.000000000000000000e+00
4.000000000000000000e+00
4.000000000000000000e+00
4.000000000000000000e+00
4.000000000000000000e+00
4.000000000000000000e+00
4.000000000000000000e+00
4.000000000000000000e+00
4.000000000000000000e+00
4.000000000000000000e+00
4.000000000000000000e+00
4.000000000000000000e+00
4.000000000000000000e+00
4.000000000000000000e+00
4.000000000000000000e+00
4.000000000000000000e+00
4.000000000000000000e+00
4.000000000000000000e+00
4.000000000000000000e+00
4.000000000000000000e+00
4.000000000000000000e+00
4.000000000000000000e+00
4.000000000000000000e+00
4.000000000000000000e+00
4.000000000000000000e+00
4.000000000000000000e+00
4.000000000000000000e+00
4.000000000000000000e+00
4.000000000000000000e+00
4.000000000000000000e+00
4.000000000000000000e+00
5.000000000000000000e+00
5.000000000000000000e+00
5.000000000000000000e+00
5.000000000000000000e+00
5.000000000000000000e+00
5.000000000000000000e+00
5.000000000000000000e+00
5.000000000000000000e+00
5.000000000000000000e+00
6.000000000000000000e+00
6.000000000000000000e+00
6.000000000000000000e+00
6.000000000000000000e+00
6.000000000000000000e+00
6.000000000000000000e+00
6.000000000000000000e+00
6.000000000000000000e+00
6.000000000000000000e+00
6.000000000000000000e+00
6.000000000000000000e+00
6.000000000000000000e+00
6.000000000000000000e+00
6.000000000000000000e+00
6.000000000000000000e+00
6.000000000000000000e+00
6.000000000000000000e+00
6.000000000000000000e+00
6.000000000000000000e+00
6.000000000000000000e+00
6.000000000000000000e+00
6.000000000000000000e+00
6.000000000000000000e+00
6.000000000000000000e+00
6.000000000000000000e+00
7.000000000000000000e+00
7.000000000000000000e+00
7.000000000000000000e+00
7.000000000000000000e+00
7.000000000000000000e+00
7.000000000000000000e+00
7.000000000000000000e+00
7.000000000000000000e+00
7.000000000000000000e+00
7.000000000000000000e+00
7.000000000000000000e+00
7.000000000000000000e+00
7.000000000000000000e+00
7.000000000000000000e+00
7.000000000000000000e+00
7.000000000000000000e+00
7.000000000000000000e+00
7.000000000000000000e+00
7.000000000000000000e+00
7.000000000000000000e+00
7.000000000000000000e+00
7.000000000000000000e+00
7.000000000000000000e+00
7.000000000000000000e+00
7.000000000000000000e+00
7.000000000000000000e+00
7.000000000000000000e+00
7.000000000000000000e+00
7.000000000000000000e+00
7.000000000000000000e+00
7.000000000000000000e+00
7.000000000000000000e+00
7.000000000000000000e+00
7.000000000000000000e+00
7.000000000000000000e+00
7.000000000000000000e+00
8.000000000000000000e+00
8.000000000000000000e+00
8.000000000000000000e+00
8.000000000000000000e+00
1.000000000000000000e+01
1.000000000000000000e+01
1.000000000000000000e+01
1.000000000000000000e+01
1.000000000000000000e+01
1.000000000000000000e+01
1.000000000000000000e+01
1.000000000000000000e+01
1.000000000000000000e+01
1.000000000000000000e+01
1.000000000000000000e+01
1.000000000000000000e+01
1.000000000000000000e+01
1.000000000000000000e+01
1.000000000000000000e+01
1.000000000000000000e+01
1.000000000000000000e+01
1.000000000000000000e+01
1.000000000000000000e+01
1.000000000000000000e+01
1.000000000000000000e+01
1.000000000000000000e+01
1.000000000000000000e+01
1.000000000000000000e+01
1.000000000000000000e+01
1.000000000000000000e+01
1.000000000000000000e+01
1.100000000000000000e+01
1.100000000000000000e+01
1.100000000000000000e+01
1.100000000000000000e+01
1.100000000000000000e+01
1.100000000000000000e+01
1.100000000000000000e+01
1.100000000000000000e+01
1.100000000000000000e+01
1.100000000000000000e+01
1.100000000000000000e+01
1.100000000000000000e+01
1.100000000000000000e+01
1.200000000000000000e+01
1.200000000000000000e+01
1.200000000000000000e+01
1.200000000000000000e+01
1.200000000000000000e+01
1.200000000000000000e+01
1.300000000000000000e+01
1.300000000000000000e+01
1.300000000000000000e+01
1.300000000000000000e+01
1.300000000000000000e+01
1.300000000000000000e+01
1.300000000000000000e+01
1.300000000000000000e+01
1.300000000000000000e+01
1.300000000000000000e+01
1.300000000000000000e+01
1.300000000000000000e+01
1.300000000000000000e+01
1.400000000000000000e+01
1.400000000000000000e+01
1.500000000000000000e+01
1.500000000000000000e+01
1.500000000000000000e+01
1.500000000000000000e+01
1.500000000000000000e+01
1.500000000000000000e+01
1.500000000000000000e+01
1.500000000000000000e+01
1.500000000000000000e+01
1.500000000000000000e+01
1.500000000000000000e+01
1.500000000000000000e+01
1.500000000000000000e+01
1.500000000000000000e+01
1.500000000000000000e+01
1.500000000000000000e+01
1.500000000000000000e+01
1.500000000000000000e+01
1.500000000000000000e+01
1.500000000000000000e+01
1.500000000000000000e+01
1.500000000000000000e+01
1.500000000000000000e+01
1.500000000000000000e+01
1.600000000000000000e+01
1.600000000000000000e+01
1.600000000000000000e+01
1.600000000000000000e+01
1.600000000000000000e+01
1.600000000000000000e+01
1.600000000000000000e+01
1.600000000000000000e+01
1.600000000000000000e+01
1.600000000000000000e+01
1.600000000000000000e+01
1.700000000000000000e+01
1.700000000000000000e+01
1.700000000000000000e+01
1.700000000000000000e+01
1.700000000000000000e+01
1.700000000000000000e+01
1.700000000000000000e+01
1.700000000000000000e+01
1.800000000000000000e+01
1.800000000000000000e+01
1.800000000000000000e+01
1.800000000000000000e+01
1.800000000000000000e+01
1.800000000000000000e+01
1.800000000000000000e+01
1.800000000000000000e+01
1.800000000000000000e+01
1.800000000000000000e+01
1.800000000000000000e+01
1.800000000000000000e+01
1.800000000000000000e+01
1.900000000000000000e+01
1.900000000000000000e+01
1.900000000000000000e+01
2.200000000000000000e+01
2.300000000000000000e+01
2.300000000000000000e+01
2.300000000000000000e+01
2.300000000000000000e+01
2.300000000000000000e+01
2.300000000000000000e+01
2.300000000000000000e+01
2.300000000000000000e+01
2.300000000000000000e+01
2.300000000000000000e+01
2.300000000000000000e+01
2.400000000000000000e+01
2.400000000000000000e+01
2.400000000000000000e+01
2.400000000000000000e+01
2.400000000000000000e+01
2.400000000000000000e+01
2.400000000000000000e+01
2.400000000000000000e+01
2.400000000000000000e+01
2.400000000000000000e+01
2.400000000000000000e+01
2.400000000000000000e+01
2.400000000000000000e+01
2.500000000000000000e+01
2.600000000000000000e+01
2.700000000000000000e+01
2.700000000000000000e+01
2.700000000000000000e+01
2.700000000000000000e+01
2.700000000000000000e+01
2.700000000000000000e+01
2.700000000000000000e+01
2.700000000000000000e+01
2.800000000000000000e+01
2.800000000000000000e+01
2.900000000000000000e+01
2.900000000000000000e+01
2.900000000000000000e+01
2.900000000000000000e+01
2.900000000000000000e+01
2.900000000000000000e+01
2.900000000000000000e+01
2.900000000000000000e+01
2.900000000000000000e+01
2.900000000000000000e+01
2.900000000000000000e+01
2.900000000000000000e+01
2.900000000000000000e+01
2.900000000000000000e+01
2.900000000000000000e+01
2.900000000000000000e+01
3.000000000000000000e+01
3.000000000000000000e+01
3.000000000000000000e+01
3.000000000000000000e+01
3.100000000000000000e+01
3.100000000000000000e+01
3.100000000000000000e+01
3.100000000000000000e+01
3.100000000000000000e+01
3.100000000000000000e+01
3.300000000000000000e+01
3.300000000000000000e+01
3.300000000000000000e+01
3.300000000000000000e+01
3.300000000000000000e+01
3.300000000000000000e+01
3.300000000000000000e+01
3.300000000000000000e+01
3.300000000000000000e+01
3.300000000000000000e+01
3.400000000000000000e+01
3.400000000000000000e+01
3.400000000000000000e+01
3.400000000000000000e+01
3.400000000000000000e+01
3.400000000000000000e+01
3.400000000000000000e+01
3.500000000000000000e+01
3.700000000000000000e+01
3.900000000000000000e+01
3.900000000000000000e+01
3.900000000000000000e+01
3.900000000000000000e+01
3.900000000000000000e+01
3.900000000000000000e+01
3.900000000000000000e+01
3.900000000000000000e+01
3.900000000000000000e+01
4.000000000000000000e+01
4.100000000000000000e+01
4.100000000000000000e+01
4.100000000000000000e+01
4.100000000000000000e+01
4.200000000000000000e+01
4.200000000000000000e+01
4.300000000000000000e+01
4.300000000000000000e+01
4.300000000000000000e+01
4.300000000000000000e+01
4.300000000000000000e+01
4.300000000000000000e+01
4.300000000000000000e+01
4.300000000000000000e+01
4.400000000000000000e+01
4.400000000000000000e+01
4.400000000000000000e+01
4.600000000000000000e+01
4.700000000000000000e+01
4.700000000000000000e+01
4.800000000000000000e+01
4.800000000000000000e+01
5.000000000000000000e+01
5.000000000000000000e+01
5.000000000000000000e+01
5.000000000000000000e+01
5.000000000000000000e+01
5.000000000000000000e+01
5.100000000000000000e+01
5.200000000000000000e+01
5.200000000000000000e+01
5.200000000000000000e+01
5.200000000000000000e+01
5.200000000000000000e+01
5.300000000000000000e+01
5.300000000000000000e+01
5.300000000000000000e+01
5.300000000000000000e+01
5.300000000000000000e+01
5.300000000000000000e+01
5.300000000000000000e+01
5.300000000000000000e+01
5.300000000000000000e+01
5.300000000000000000e+01
5.400000000000000000e+01
5.400000000000000000e+01
5.400000000000000000e+01
5.600000000000000000e+01
5.600000000000000000e+01
5.600000000000000000e+01
5.800000000000000000e+01
5.900000000000000000e+01
6.000000000000000000e+01
6.100000000000000000e+01
6.100000000000000000e+01
6.200000000000000000e+01
6.300000000000000000e+01
6.300000000000000000e+01
6.400000000000000000e+01
6.500000000000000000e+01
6.600000000000000000e+01
6.600000000000000000e+01
6.700000000000000000e+01
6.700000000000000000e+01
6.700000000000000000e+01
6.700000000000000000e+01
6.700000000000000000e+01
6.800000000000000000e+01
6.800000000000000000e+01
6.800000000000000000e+01
6.900000000000000000e+01
6.900000000000000000e+01
6.900000000000000000e+01
6.900000000000000000e+01
6.900000000000000000e+01
7.000000000000000000e+01
7.000000000000000000e+01
7.000000000000000000e+01
7.000000000000000000e+01
7.100000000000000000e+01
7.100000000000000000e+01
7.100000000000000000e+01
7.300000000000000000e+01
7.400000000000000000e+01
7.500000000000000000e+01
7.500000000000000000e+01
7.500000000000000000e+01
7.600000000000000000e+01
7.700000000000000000e+01
7.800000000000000000e+01
7.900000000000000000e+01
7.900000000000000000e+01
8.000000000000000000e+01
8.200000000000000000e+01
8.200000000000000000e+01
8.200000000000000000e+01
8.300000000000000000e+01
8.300000000000000000e+01
8.400000000000000000e+01
8.600000000000000000e+01
8.600000000000000000e+01
8.600000000000000000e+01
8.700000000000000000e+01
8.800000000000000000e+01
8.800000000000000000e+01
8.800000000000000000e+01
9.000000000000000000e+01
9.000000000000000000e+01
9.000000000000000000e+01
9.000000000000000000e+01
9.100000000000000000e+01
9.200000000000000000e+01
9.200000000000000000e+01
9.300000000000000000e+01
9.400000000000000000e+01
9.500000000000000000e+01
9.500000000000000000e+01
9.600000000000000000e+01
9.600000000000000000e+01
9.700000000000000000e+01
9.800000000000000000e+01
9.800000000000000000e+01
9.800000000000000000e+01
9.800000000000000000e+01
1.010000000000000000e+02
1.040000000000000000e+02
1.040000000000000000e+02
1.040000000000000000e+02
1.070000000000000000e+02
1.070000000000000000e+02
1.080000000000000000e+02
1.100000000000000000e+02
1.100000000000000000e+02
1.100000000000000000e+02
1.110000000000000000e+02
1.130000000000000000e+02
1.130000000000000000e+02
1.130000000000000000e+02
1.140000000000000000e+02
1.150000000000000000e+02
1.150000000000000000e+02
1.150000000000000000e+02
1.170000000000000000e+02
1.170000000000000000e+02
1.170000000000000000e+02
1.170000000000000000e+02
1.170000000000000000e+02
1.180000000000000000e+02
1.180000000000000000e+02
1.180000000000000000e+02
1.190000000000000000e+02
1.220000000000000000e+02
1.220000000000000000e+02
1.220000000000000000e+02
1.240000000000000000e+02
1.240000000000000000e+02
1.260000000000000000e+02
1.280000000000000000e+02
1.280000000000000000e+02
1.280000000000000000e+02
1.320000000000000000e+02
1.330000000000000000e+02
1.330000000000000000e+02
1.330000000000000000e+02
1.350000000000000000e+02
1.360000000000000000e+02
1.390000000000000000e+02
1.400000000000000000e+02
1.410000000000000000e+02
1.440000000000000000e+02
1.440000000000000000e+02
1.450000000000000000e+02
1.450000000000000000e+02
1.450000000000000000e+02
1.460000000000000000e+02
1.470000000000000000e+02
1.480000000000000000e+02
1.490000000000000000e+02
1.490000000000000000e+02
1.490000000000000000e+02
1.500000000000000000e+02
1.500000000000000000e+02
1.510000000000000000e+02
1.510000000000000000e+02
1.520000000000000000e+02
1.520000000000000000e+02
1.530000000000000000e+02
1.540000000000000000e+02
1.560000000000000000e+02
1.570000000000000000e+02
1.590000000000000000e+02
1.610000000000000000e+02
1.620000000000000000e+02
1.640000000000000000e+02
1.660000000000000000e+02
1.660000000000000000e+02
1.680000000000000000e+02
1.680000000000000000e+02
1.720000000000000000e+02
1.720000000000000000e+02
1.740000000000000000e+02
1.750000000000000000e+02
1.750000000000000000e+02
1.760000000000000000e+02
1.800000000000000000e+02
1.800000000000000000e+02
1.820000000000000000e+02
1.840000000000000000e+02
1.850000000000000000e+02
1.870000000000000000e+02
1.870000000000000000e+02
1.880000000000000000e+02
1.890000000000000000e+02
1.900000000000000000e+02
1.900000000000000000e+02
1.920000000000000000e+02
1.940000000000000000e+02
1.950000000000000000e+02
1.960000000000000000e+02
1.960000000000000000e+02
1.960000000000000000e+02
1.970000000000000000e+02
1.970000000000000000e+02
1.980000000000000000e+02
2.020000000000000000e+02
2.020000000000000000e+02
2.020000000000000000e+02
2.020000000000000000e+02
2.040000000000000000e+02
2.060000000000000000e+02
2.080000000000000000e+02
2.080000000000000000e+02
2.110000000000000000e+02
2.120000000000000000e+02
2.130000000000000000e+02
2.140000000000000000e+02
2.160000000000000000e+02
2.180000000000000000e+02
2.200000000000000000e+02
2.220000000000000000e+02
2.240000000000000000e+02
2.260000000000000000e+02
2.310000000000000000e+02
2.320000000000000000e+02
2.370000000000000000e+02
2.390000000000000000e+02
2.430000000000000000e+02
2.450000000000000000e+02
2.450000000000000000e+02
2.460000000000000000e+02
2.530000000000000000e+02
2.540000000000000000e+02
2.560000000000000000e+02
2.570000000000000000e+02
2.580000000000000000e+02
2.600000000000000000e+02
2.630000000000000000e+02
2.640000000000000000e+02
2.640000000000000000e+02
2.670000000000000000e+02
2.670000000000000000e+02
2.680000000000000000e+02
2.710000000000000000e+02
2.730000000000000000e+02
2.750000000000000000e+02
2.770000000000000000e+02
2.780000000000000000e+02
2.790000000000000000e+02
2.800000000000000000e+02
2.820000000000000000e+02
2.840000000000000000e+02
2.870000000000000000e+02
2.880000000000000000e+02
2.890000000000000000e+02
2.920000000000000000e+02
2.940000000000000000e+02
2.970000000000000000e+02
2.970000000000000000e+02
3.000000000000000000e+02
3.050000000000000000e+02
3.080000000000000000e+02
3.100000000000000000e+02
3.110000000000000000e+02
3.140000000000000000e+02
3.160000000000000000e+02
3.170000000000000000e+02
3.190000000000000000e+02
3.200000000000000000e+02
3.230000000000000000e+02
3.240000000000000000e+02
3.290000000000000000e+02
3.330000000000000000e+02
3.330000000000000000e+02
3.370000000000000000e+02
3.380000000000000000e+02
3.420000000000000000e+02
3.450000000000000000e+02
3.480000000000000000e+02
3.510000000000000000e+02
3.550000000000000000e+02
3.580000000000000000e+02
3.640000000000000000e+02
3.690000000000000000e+02
3.740000000000000000e+02
3.760000000000000000e+02
3.760000000000000000e+02
3.760000000000000000e+02
3.760000000000000000e+02
3.760000000000000000e+02
3.780000000000000000e+02
3.810000000000000000e+02
3.840000000000000000e+02
3.840000000000000000e+02
3.850000000000000000e+02
3.850000000000000000e+02
3.870000000000000000e+02
3.910000000000000000e+02
3.940000000000000000e+02
3.970000000000000000e+02
3.990000000000000000e+02
4.020000000000000000e+02
4.070000000000000000e+02
4.140000000000000000e+02
4.170000000000000000e+02
4.200000000000000000e+02
4.240000000000000000e+02
4.260000000000000000e+02
4.280000000000000000e+02
4.300000000000000000e+02
4.310000000000000000e+02
4.340000000000000000e+02
4.350000000000000000e+02
4.410000000000000000e+02
4.460000000000000000e+02
4.490000000000000000e+02
4.510000000000000000e+02
4.540000000000000000e+02
4.580000000000000000e+02
4.630000000000000000e+02
4.650000000000000000e+02
4.690000000000000000e+02
4.720000000000000000e+02
4.800000000000000000e+02
4.860000000000000000e+02
4.910000000000000000e+02
4.950000000000000000e+02
5.000000000000000000e+02
5.030000000000000000e+02
5.040000000000000000e+02
5.050000000000000000e+02
5.060000000000000000e+02
5.140000000000000000e+02
5.150000000000000000e+02
5.190000000000000000e+02
5.240000000000000000e+02
5.310000000000000000e+02
5.340000000000000000e+02
5.360000000000000000e+02
5.390000000000000000e+02
5.410000000000000000e+02
5.480000000000000000e+02
5.540000000000000000e+02
5.570000000000000000e+02
5.630000000000000000e+02
5.680000000000000000e+02
5.690000000000000000e+02
5.740000000000000000e+02
5.800000000000000000e+02
5.850000000000000000e+02
5.870000000000000000e+02
5.900000000000000000e+02
5.940000000000000000e+02
5.980000000000000000e+02
6.060000000000000000e+02
6.100000000000000000e+02
6.170000000000000000e+02
6.190000000000000000e+02
6.240000000000000000e+02
6.330000000000000000e+02
6.390000000000000000e+02
6.460000000000000000e+02
6.460000000000000000e+02
6.500000000000000000e+02
6.550000000000000000e+02
6.620000000000000000e+02
6.660000000000000000e+02
6.680000000000000000e+02
6.740000000000000000e+02
6.790000000000000000e+02
6.810000000000000000e+02
6.860000000000000000e+02
6.900000000000000000e+02
6.940000000000000000e+02
6.980000000000000000e+02
7.010000000000000000e+02
7.080000000000000000e+02
7.110000000000000000e+02
7.160000000000000000e+02
7.240000000000000000e+02
7.270000000000000000e+02
7.320000000000000000e+02
7.370000000000000000e+02
7.430000000000000000e+02
7.520000000000000000e+02
7.570000000000000000e+02
7.630000000000000000e+02
7.680000000000000000e+02
7.750000000000000000e+02
7.820000000000000000e+02
7.870000000000000000e+02
7.960000000000000000e+02
8.000000000000000000e+02
8.030000000000000000e+02
8.090000000000000000e+02
8.150000000000000000e+02
8.190000000000000000e+02
8.270000000000000000e+02
8.310000000000000000e+02
8.350000000000000000e+02
8.410000000000000000e+02
8.450000000000000000e+02
8.500000000000000000e+02
8.580000000000000000e+02
8.650000000000000000e+02
8.740000000000000000e+02
8.760000000000000000e+02
8.810000000000000000e+02
8.900000000000000000e+02
8.980000000000000000e+02
9.030000000000000000e+02
9.100000000000000000e+02
9.210000000000000000e+02
9.280000000000000000e+02
9.350000000000000000e+02
9.410000000000000000e+02
9.510000000000000000e+02
9.620000000000000000e+02
9.670000000000000000e+02
9.740000000000000000e+02
9.810000000000000000e+02
9.920000000000000000e+02
1.001000000000000000e+03
1.005000000000000000e+03
1.014000000000000000e+03
1.025000000000000000e+03
1.036000000000000000e+03
1.045000000000000000e+03
1.055000000000000000e+03
1.065000000000000000e+03
1.074000000000000000e+03
1.083000000000000000e+03
1.089000000000000000e+03
1.098000000000000000e+03
1.104000000000000000e+03
1.110000000000000000e+03
1.113000000000000000e+03
1.127000000000000000e+03
1.133000000000000000e+03
1.144000000000000000e+03
1.149000000000000000e+03
1.157000000000000000e+03
1.165000000000000000e+03
1.172000000000000000e+03
1.180000000000000000e+03
1.184000000000000000e+03
1.195000000000000000e+03
1.201000000000000000e+03
1.215000000000000000e+03
1.219000000000000000e+03
1.227000000000000000e+03
1.235000000000000000e+03
1.240000000000000000e+03
1.250000000000000000e+03
1.260000000000000000e+03
1.269000000000000000e+03
1.274000000000000000e+03
1.278000000000000000e+03
1.293000000000000000e+03
1.303000000000000000e+03
1.314000000000000000e+03
1.323000000000000000e+03
1.333000000000000000e+03
1.340000000000000000e+03
1.352000000000000000e+03
1.366000000000000000e+03
1.381000000000000000e+03
1.394000000000000000e+03
1.406000000000000000e+03
1.413000000000000000e+03
1.425000000000000000e+03
1.431000000000000000e+03
1.441000000000000000e+03
1.457000000000000000e+03
1.468000000000000000e+03
1.482000000000000000e+03
1.494000000000000000e+03
1.500000000000000000e+03
1.511000000000000000e+03
1.520000000000000000e+03
1.537000000000000000e+03
1.551000000000000000e+03
1.559000000000000000e+03
1.571000000000000000e+03
1.586000000000000000e+03
1.591000000000000000e+03
1.602000000000000000e+03
1.614000000000000000e+03
1.625000000000000000e+03
1.633000000000000000e+03
1.641000000000000000e+03
1.656000000000000000e+03
1.675000000000000000e+03
1.688000000000000000e+03
1.702000000000000000e+03
1.710000000000000000e+03
1.723000000000000000e+03
1.732000000000000000e+03
1.742000000000000000e+03
1.755000000000000000e+03
1.761000000000000000e+03
1.769000000000000000e+03
1.787000000000000000e+03
1.801000000000000000e+03
1.818000000000000000e+03
1.832000000000000000e+03
1.843000000000000000e+03
1.853000000000000000e+03
1.863000000000000000e+03
1.878000000000000000e+03
1.887000000000000000e+03
1.896000000000000000e+03
1.914000000000000000e+03
1.928000000000000000e+03
1.944000000000000000e+03
1.966000000000000000e+03
1.980000000000000000e+03
1.997000000000000000e+03
2.015000000000000000e+03
2.031000000000000000e+03
2.050000000000000000e+03
2.059000000000000000e+03
2.077000000000000000e+03
2.099000000000000000e+03
2.111000000000000000e+03
2.127000000000000000e+03
2.137000000000000000e+03
2.155000000000000000e+03
2.170000000000000000e+03
2.184000000000000000e+03
2.202000000000000000e+03
2.213000000000000000e+03
2.220000000000000000e+03
2.236000000000000000e+03
2.253000000000000000e+03
2.273000000000000000e+03
2.294000000000000000e+03
2.310000000000000000e+03
2.322000000000000000e+03
2.342000000000000000e+03
2.363000000000000000e+03
2.386000000000000000e+03
2.400000000000000000e+03
2.419000000000000000e+03
2.434000000000000000e+03
2.448000000000000000e+03
2.468000000000000000e+03
2.495000000000000000e+03
2.509000000000000000e+03
2.524000000000000000e+03
2.548000000000000000e+03
2.567000000000000000e+03
2.583000000000000000e+03
2.596000000000000000e+03
2.617000000000000000e+03
2.641000000000000000e+03
2.656000000000000000e+03
2.673000000000000000e+03
2.692000000000000000e+03
2.715000000000000000e+03
2.734000000000000000e+03
2.754000000000000000e+03
2.775000000000000000e+03
2.795000000000000000e+03
2.811000000000000000e+03
2.827000000000000000e+03
2.848000000000000000e+03
2.872000000000000000e+03
2.892000000000000000e+03
2.920000000000000000e+03
2.940000000000000000e+03
2.967000000000000000e+03
2.989000000000000000e+03
3.010000000000000000e+03
3.026000000000000000e+03
3.046000000000000000e+03
3.074000000000000000e+03
3.095000000000000000e+03
3.116000000000000000e+03
3.132000000000000000e+03
3.150000000000000000e+03
3.172000000000000000e+03
3.196000000000000000e+03
3.219000000000000000e+03
3.244000000000000000e+03
3.264000000000000000e+03
3.290000000000000000e+03
3.319000000000000000e+03
3.346000000000000000e+03
3.371000000000000000e+03
3.394000000000000000e+03
3.418000000000000000e+03
3.445000000000000000e+03
3.467000000000000000e+03
3.490000000000000000e+03
3.515000000000000000e+03
3.541000000000000000e+03
3.567000000000000000e+03
3.586000000000000000e+03
3.617000000000000000e+03
3.645000000000000000e+03
3.682000000000000000e+03
3.704000000000000000e+03
3.735000000000000000e+03
3.758000000000000000e+03
3.791000000000000000e+03
3.825000000000000000e+03
3.847000000000000000e+03
3.871000000000000000e+03
3.892000000000000000e+03
3.920000000000000000e+03
3.950000000000000000e+03
3.988000000000000000e+03
4.010000000000000000e+03
4.037000000000000000e+03
4.060000000000000000e+03
4.104000000000000000e+03
4.144000000000000000e+03
4.183000000000000000e+03
4.210000000000000000e+03
4.241000000000000000e+03
4.268000000000000000e+03
4.300000000000000000e+03
4.333000000000000000e+03
4.365000000000000000e+03
4.390000000000000000e+03
4.431000000000000000e+03
4.461000000000000000e+03
4.487000000000000000e+03
4.518000000000000000e+03
4.554000000000000000e+03
4.593000000000000000e+03
4.624000000000000000e+03
4.656000000000000000e+03
4.676000000000000000e+03
4.714000000000000000e+03
4.758000000000000000e+03
4.791000000000000000e+03
4.828000000000000000e+03
4.865000000000000000e+03
4.893000000000000000e+03
4.923000000000000000e+03
4.958000000000000000e+03
4.993000000000000000e+03
5.031000000000000000e+03
5.067000000000000000e+03
5.107000000000000000e+03
5.138000000000000000e+03
5.167000000000000000e+03
5.207000000000000000e+03
5.243000000000000000e+03
5.282000000000000000e+03
5.324000000000000000e+03
5.362000000000000000e+03
5.405000000000000000e+03
5.444000000000000000e+03
5.495000000000000000e+03
5.541000000000000000e+03
5.575000000000000000e+03
5.624000000000000000e+03
5.670000000000000000e+03
5.707000000000000000e+03
5.746000000000000000e+03
5.793000000000000000e+03
5.843000000000000000e+03
5.884000000000000000e+03
5.926000000000000000e+03
5.975000000000000000e+03
6.016000000000000000e+03
6.054000000000000000e+03
6.091000000000000000e+03
6.139000000000000000e+03
6.181000000000000000e+03
6.230000000000000000e+03
6.278000000000000000e+03
6.323000000000000000e+03
6.379000000000000000e+03
6.412000000000000000e+03
6.455000000000000000e+03
6.504000000000000000e+03
6.552000000000000000e+03
6.602000000000000000e+03
6.649000000000000000e+03
6.688000000000000000e+03
6.746000000000000000e+03
6.784000000000000000e+03
6.834000000000000000e+03
6.872000000000000000e+03
6.910000000000000000e+03
6.963000000000000000e+03
7.016000000000000000e+03
7.076000000000000000e+03
7.119000000000000000e+03
7.155000000000000000e+03
7.213000000000000000e+03
7.267000000000000000e+03
7.330000000000000000e+03
7.383000000000000000e+03
7.450000000000000000e+03
7.510000000000000000e+03
7.561000000000000000e+03
7.619000000000000000e+03
7.674000000000000000e+03
7.738000000000000000e+03
7.805000000000000000e+03
7.868000000000000000e+03
7.940000000000000000e+03
8.004000000000000000e+03
8.063000000000000000e+03
8.110000000000000000e+03
8.165000000000000000e+03
8.232000000000000000e+03
8.288000000000000000e+03
8.346000000000000000e+03
8.389000000000000000e+03
8.462000000000000000e+03
8.520000000000000000e+03
8.571000000000000000e+03
8.640000000000000000e+03
8.691000000000000000e+03
8.752000000000000000e+03
8.820000000000000000e+03
8.882000000000000000e+03
8.958000000000000000e+03
9.029000000000000000e+03
9.096000000000000000e+03
9.168000000000000000e+03
9.221000000000000000e+03
9.278000000000000000e+03
9.338000000000000000e+03
9.408000000000000000e+03
9.465000000000000000e+03
9.545000000000000000e+03
9.612000000000000000e+03
9.679000000000000000e+03
9.761000000000000000e+03
9.825000000000000000e+03
9.900000000000000000e+03
9.981000000000000000e+03
1.006200000000000000e+04
1.014600000000000000e+04
1.022000000000000000e+04
1.029400000000000000e+04
1.036400000000000000e+04
1.042100000000000000e+04
1.050500000000000000e+04
1.057600000000000000e+04
1.064800000000000000e+04
1.073500000000000000e+04
1.080200000000000000e+04
1.087200000000000000e+04
1.094500000000000000e+04
1.103500000000000000e+04
1.111200000000000000e+04
1.117800000000000000e+04
1.125800000000000000e+04
1.133100000000000000e+04
1.139800000000000000e+04
1.148500000000000000e+04
1.157800000000000000e+04
1.166300000000000000e+04
1.174100000000000000e+04
1.184300000000000000e+04
1.193500000000000000e+04
1.203200000000000000e+04
1.210200000000000000e+04
1.218300000000000000e+04
1.226500000000000000e+04
1.235300000000000000e+04
1.245300000000000000e+04
1.256200000000000000e+04
1.264900000000000000e+04
1.275400000000000000e+04
1.285500000000000000e+04
1.293200000000000000e+04
1.302600000000000000e+04
1.312800000000000000e+04
1.321500000000000000e+04
1.330800000000000000e+04
1.341900000000000000e+04
1.350800000000000000e+04
1.361000000000000000e+04
1.369900000000000000e+04
1.381300000000000000e+04
1.392400000000000000e+04
1.402100000000000000e+04
1.411000000000000000e+04
1.421800000000000000e+04
1.430900000000000000e+04
1.441200000000000000e+04
1.452000000000000000e+04
1.461800000000000000e+04
1.472300000000000000e+04
1.484600000000000000e+04
1.494700000000000000e+04
1.506000000000000000e+04
1.516500000000000000e+04
1.526500000000000000e+04
1.538600000000000000e+04
1.549200000000000000e+04
1.561000000000000000e+04
1.573400000000000000e+04
1.584100000000000000e+04
1.595900000000000000e+04
1.608700000000000000e+04
1.620500000000000000e+04
1.633800000000000000e+04
1.644200000000000000e+04
1.655900000000000000e+04
1.669100000000000000e+04
1.681500000000000000e+04
1.694300000000000000e+04
1.707100000000000000e+04
1.718000000000000000e+04
1.731500000000000000e+04
1.742700000000000000e+04
1.755000000000000000e+04
1.768900000000000000e+04
1.782100000000000000e+04
1.795900000000000000e+04
1.809200000000000000e+04
1.822000000000000000e+04
1.834200000000000000e+04
1.848900000000000000e+04
1.863100000000000000e+04
1.878500000000000000e+04
1.893200000000000000e+04
1.908000000000000000e+04
1.921800000000000000e+04
1.934200000000000000e+04
1.945600000000000000e+04
1.959600000000000000e+04
1.975200000000000000e+04
1.990700000000000000e+04
2.005700000000000000e+04
2.019200000000000000e+04
2.032400000000000000e+04
2.046900000000000000e+04
2.061900000000000000e+04
2.076900000000000000e+04
2.094100000000000000e+04
2.108800000000000000e+04
2.123100000000000000e+04
2.137300000000000000e+04
2.151300000000000000e+04
2.166500000000000000e+04
2.180500000000000000e+04
2.196300000000000000e+04
2.212700000000000000e+04
2.229700000000000000e+04
2.247400000000000000e+04
2.261500000000000000e+04
2.276200000000000000e+04
2.296200000000000000e+04
2.311200000000000000e+04
2.326300000000000000e+04
2.342200000000000000e+04
2.359200000000000000e+04
2.376000000000000000e+04
2.393000000000000000e+04
2.411100000000000000e+04
2.427000000000000000e+04
2.446000000000000000e+04
2.465100000000000000e+04
2.482200000000000000e+04
2.499200000000000000e+04
2.517600000000000000e+04
2.536900000000000000e+04
2.556600000000000000e+04
2.576200000000000000e+04
2.593400000000000000e+04
2.611400000000000000e+04
2.631400000000000000e+04
2.652800000000000000e+04
2.674300000000000000e+04
2.691900000000000000e+04
2.712700000000000000e+04
2.732300000000000000e+04
2.752700000000000000e+04
2.774900000000000000e+04
2.795000000000000000e+04
