1.000000000000000000e+00
2.000000000000000000e+00
2.000000000000000000e+00
2.000000000000000000e+00
2.000000000000000000e+00
3.000000000000000000e+00
3.000000000000000000e+00
3.000000000000000000e+00
3.000000000000000000e+00
4.000000000000000000e+00
5.000000000000000000e+00
5.000000000000000000e+00
7.000000000000000000e+00
8.000000000000000000e+00
1.000000000000000000e+01
1.000000000000000000e+01
1.200000000000000000e+01
1.400000000000000000e+01
1.500000000000000000e+01
1.800000000000000000e+01
2.000000000000000000e+01
2.200000000000000000e+01
2.700000000000000000e+01
3.000000000000000000e+01
3.400000000000000000e+01
3.800000000000000000e+01
4.300000000000000000e+01
5.000000000000000000e+01
5.900000000000000000e+01
7.100000000000000000e+01
7.800000000000000000e+01
9.200000000000000000e+01
1.030000000000000000e+02
1.180000000000000000e+02
1.410000000000000000e+02
1.690000000000000000e+02
1.870000000000000000e+02
2.070000000000000000e+02
2.390000000000000000e+02
2.750000000000000000e+02
3.200000000000000000e+02
3.730000000000000000e+02
4.380000000000000000e+02
5.040000000000000000e+02
5.880000000000000000e+02
6.700000000000000000e+02
7.820000000000000000e+02
8.970000000000000000e+02
1.030000000000000000e+03
1.220000000000000000e+03
1.391000000000000000e+03
1.602000000000000000e+03
1.874000000000000000e+03
2.178000000000000000e+03
2.501000000000000000e+03
2.895000000000000000e+03
3.331000000000000000e+03
3.862000000000000000e+03
4.492000000000000000e+03
5.195000000000000000e+03
6.033000000000000000e+03
6.941000000000000000e+03
8.018000000000000000e+03
9.292000000000000000e+03
1.082300000000000000e+04
1.247300000000000000e+04
1.434800000000000000e+04
1.664400000000000000e+04
1.932900000000000000e+04
2.230000000000000000e+04
2.583500000000000000e+04
2.985500000000000000e+04
3.448400000000000000e+04
3.985500000000000000e+04
4.612000000000000000e+04
5.342800000000000000e+04
