1.000000000000000000e+00
2.000000000000000000e+00
2.000000000000000000e+00
2.000000000000000000e+00
3.000000000000000000e+00
3.000000000000000000e+00
3.000000000000000000e+00
3.000000000000000000e+00
4.000000000000000000e+00
4.000000000000000000e+00
5.000000000000000000e+00
5.000000000000000000e+00
5.000000000000000000e+00
5.000000000000000000e+00
7.000000000000000000e+00
8.000000000000000000e+00
9.000000000000000000e+00
1.000000000000000000e+01
1.200000000000000000e+01
1.300000000000000000e+01
1.500000000000000000e+01
1.800000000000000000e+01
2.200000000000000000e+01
2.300000000000000000e+01
2.600000000000000000e+01
2.900000000000000000e+01
3.700000000000000000e+01
4.300000000000000000e+01
4.800000000000000000e+01
5.300000000000000000e+01
5.900000000000000000e+01
7.400000000000000000e+01
8.900000000000000000e+01
9.900000000000000000e+01
1.110000000000000000e+02
1.230000000000000000e+02
1.510000000000000000e+02
1.740000000000000000e+02
1.980000000000000000e+02
2.280000000000000000e+02
2.640000000000000000e+02
3.060000000000000000e+02
3.600000000000000000e+02
4.070000000000000000e+02
4.660000000000000000e+02
5.460000000000000000e+02
6.390000000000000000e+02
7.240000000000000000e+02
8.530000000000000000e+02
9.720000000000000000e+02
1.121000000000000000e+03
1.290000000000000000e+03
1.507000000000000000e+03
1.751000000000000000e+03
2.005000000000000000e+03
2.303000000000000000e+03
2.682000000000000000e+03
3.100000000000000000e+03
3.602000000000000000e+03
4.172000000000000000e+03
4.814000000000000000e+03
5.564000000000000000e+03
6.445000000000000000e+03
7.429000000000000000e+03
8.632000000000000000e+03
9.963000000000000000e+03
1.151800000000000000e+04
1.333300000000000000e+04
1.542200000000000000e+04
1.780100000000000000e+04
2.061600000000000000e+04
2.388800000000000000e+04
2.758100000000000000e+04
3.203000000000000000e+04
3.706300000000000000e+04
4.278500000000000000e+04
