1.000000000000000000e+00
2.000000000000000000e+00
2.000000000000000000e+00
2.000000000000000000e+00
2.000000000000000000e+00
2.000000000000000000e+00
2.000000000000000000e+00
3.000000000000000000e+00
3.000000000000000000e+00
3.000000000000000000e+00
3.000000000000000000e+00
3.000000000000000000e+00
4.000000000000000000e+00
4.000000000000000000e+00
6.000000000000000000e+00
6.000000000000000000e+00
6.000000000000000000e+00
7.000000000000000000e+00
8.000000000000000000e+00
1.000000000000000000e+01
1.100000000000000000e+01
1.300000000000000000e+01
1.500000000000000000e+01
1.600000000000000000e+01
1.800000000000000000e+01
2.200000000000000000e+01
2.600000000000000000e+01
2.900000000000000000e+01
3.100000000000000000e+01
3.700000000000000000e+01
4.600000000000000000e+01
5.000000000000000000e+01
6.100000000000000000e+01
6.900000000000000000e+01
8.100000000000000000e+01
9.300000000000000000e+01
1.050000000000000000e+02
1.220000000000000000e+02
1.480000000000000000e+02
1.650000000000000000e+02
1.990000000000000000e+02
2.220000000000000000e+02
2.490000000000000000e+02
2.870000000000000000e+02
3.360000000000000000e+02
3.940000000000000000e+02
4.610000000000000000e+02
5.270000000000000000e+02
5.990000000000000000e+02
7.000000000000000000e+02
8.020000000000000000e+02
9.140000000000000000e+02
1.073000000000000000e+03
1.231000000000000000e+03
1.421000000000000000e+03
1.637000000000000000e+03
1.896000000000000000e+03
2.212000000000000000e+03
2.542000000000000000e+03
2.938000000000000000e+03
3.418000000000000000e+03
3.946000000000000000e+03
4.529000000000000000e+03
5.248000000000000000e+03
6.101000000000000000e+03
7.072000000000000000e+03
8.205000000000000000e+03
9.492000000000000000e+03
1.093200000000000000e+04
1.264700000000000000e+04
1.466700000000000000e+04
1.696200000000000000e+04
1.960300000000000000e+04
2.269200000000000000e+04
2.625700000000000000e+04
3.038000000000000000e+04
