1.000000000000000000e+00
2.000000000000000000e+00
2.000000000000000000e+00
3.000000000000000000e+00
3.000000000000000000e+00
3.000000000000000000e+00
5.000000000000000000e+00
5.000000000000000000e+00
5.000000000000000000e+00
5.000000000000000000e+00
6.000000000000000000e+00
8.000000000000000000e+00
9.000000000000000000e+00
1.000000000000000000e+01
1.200000000000000000e+01
1.300000000000000000e+01
1.500000000000000000e+01
1.800000000000000000e+01
2.000000000000000000e+01
2.400000000000000000e+01
2.800000000000000000e+01
3.200000000000000000e+01
3.500000000000000000e+01
4.200000000000000000e+01
4.700000000000000000e+01
5.400000000000000000e+01
6.800000000000000000e+01
7.700000000000000000e+01
8.500000000000000000e+01
9.500000000000000000e+01
1.090000000000000000e+02
1.290000000000000000e+02
1.590000000000000000e+02
1.810000000000000000e+02
1.960000000000000000e+02
2.200000000000000000e+02
2.630000000000000000e+02
3.150000000000000000e+02
3.660000000000000000e+02
4.140000000000000000e+02
4.770000000000000000e+02
5.440000000000000000e+02
6.410000000000000000e+02
7.410000000000000000e+02
8.500000000000000000e+02
9.780000000000000000e+02
1.149000000000000000e+03
1.333000000000000000e+03
1.525000000000000000e+03
1.770000000000000000e+03
2.039000000000000000e+03
2.367000000000000000e+03
2.720000000000000000e+03
3.174000000000000000e+03
3.682000000000000000e+03
4.238000000000000000e+03
4.877000000000000000e+03
5.638000000000000000e+03
6.539000000000000000e+03
7.578000000000000000e+03
8.798000000000000000e+03
1.014300000000000000e+04
1.172100000000000000e+04
1.360800000000000000e+04
1.572700000000000000e+04
1.817200000000000000e+04
2.105100000000000000e+04
2.439800000000000000e+04
2.820400000000000000e+04
3.267500000000000000e+04
3.783900000000000000e+04
4.363200000000000000e+04
5.041500000000000000e+04
5.843400000000000000e+04
6.768100000000000000e+04
7.825400000000000000e+04
