1.000000000000000000e+00
2.000000000000000000e+00
2.000000000000000000e+00
2.000000000000000000e+00
2.000000000000000000e+00
2.000000000000000000e+00
2.000000000000000000e+00
2.000000000000000000e+00
2.000000000000000000e+00
2.000000000000000000e+00
2.000000000000000000e+00
2.000000000000000000e+00
2.000000000000000000e+00
2.000000000000000000e+00
2.000000000000000000e+00
2.000000000000000000e+00
2.000000000000000000e+00
2.000000000000000000e+00
2.000000000000000000e+00
2.000000000000000000e+00
2.000000000000000000e+00
2.000000000000000000e+00
2.000000000000000000e+00
2.000000000000000000e+00
2.000000000000000000e+00
2.000000000000000000e+00
2.000000000000000000e+00
2.000000000000000000e+00
2.000000000000000000e+00
2.000000000000000000e+00
2.000000000000000000e+00
2.000000000000000000e+00
2.000000000000000000e+00
2.000000000000000000e+00
2.000000000000000000e+00
2.000000000000000000e+00
2.000000000000000000e+00
2.000000000000000000e+00
2.000000000000000000e+00
2.000000000000000000e+00
2.000000000000000000e+00
2.000000000000000000e+00
2.000000000000000000e+00
2.000000000000000000e+00
2.000000000000000000e+00
2.000000000000000000e+00
2.000000000000000000e+00
2.000000000000000000e+00
2.000000000000000000e+00
2.000000000000000000e+00
2.000000000000000000e+00
2.000000000000000000e+00
2.000000000000000000e+00
2.000000000000000000e+00
2.000000000000000000e+00
2.000000000000000000e+00
2.000000000000000000e+00
2.000000000000000000e+00
2.000000000000000000e+00
2.000000000000000000e+00
2.000000000000000000e+00
2.000000000000000000e+00
2.000000000000000000e+00
2.000000000000000000e+00
2.000000000000000000e+00
2.000000000000000000e+00
2.000000000000000000e+00
2.000000000000000000e+00
2.000000000000000000e+00
2.000000000000000000e+00
2.000000000000000000e+00
2.000000000000000000e+00
2.000000000000000000e+00
3.000000000000000000e+00
3.000000000000000000e+00
3.000000000000000000e+00
3.000000000000000000e+00
3.000000000000000000e+00
3.000000000000000000e+00
3.000000000000000000e+00
3.000000000000000000e+00
3.000000000000000000e+00
3.000000000000000000e+00
3.000000000000000000e+00
3.000000000000000000e+00
3.000000000000000000e+00
3.000000000000000000e+00
3.000000000000000000e+00
3.000000000000000000e+00
3.000000000000000000e+00
3.000000000000000000e+00
3.000000000000000000e+00
3.000000000000000000e+00
3.000000000000000000e+00
3.000000000000000000e+00
3.000000000000000000e+00
3.000000000000000000e+00
3.000000000000000000e+00
3.000000000000000000e+00
3.000000000000000000e+00
3.000000000000000000e+00
3.000000000000000000e+00
3.000000000000000000e+00
3.000000000000000000e+00
3.000000000000000000e+00
3.000000000000000000e+00
3.000000000000000000e+00
3.000000000000000000e+00
3.000000000000000000e+00
3.000000000000000000e+00
3.000000000000000000e+00
3.000000000000000000e+00
3.000000000000000000e+00
3.000000000000000000e+00
3.000000000000000000e+00
3.000000000000000000e+00
3.000000000000000000e+00
3.000000000000000000e+00
3.000000000000000000e+00
3.000000000000000000e+00
3.000000000000000000e+00
4.000000000000000000e+00
4.000000000000000000e+00
4.000000000000000000e+00
4.000000000000000000e+00
4.000000000000000000e+00
4.000000000000000000e+00
4.000000000000000000e+00
4.000000000000000000e+00
4.000000000000000000e+00
4.000000000000000000e+00
4.000000000000000000e+00
4.000000000000000000e+00
4.000000000000000000e+00
4.000000000000000000e+00
4.000000000000000000e+00
4.000000000000000000e+00
4.000000000000000000e+00
4.000000000000000000e+00
4.000000000000000000e+00
4.000000000000000000e+00
4.000000000000000000e+00
4.000000000000000000e+00
4.000000000000000000e+00
4.000000000000000000e+00
4.000000000000000000e+00
4.000000000000000000e+00
4.000000000000000000e+00
4.000000000000000000e+00
4.000000000000000000e+00
4.000000000000000000e+00
4.000000000000000000e+00
4.000000000000000000e+00
4.000000000000000000e+00
4.000000000000000000e+00
4.000000000000000000e+00
4.000000000000000000e+00
4.000000000000000000e+00
4.000000000000000000e+00
4.000000000000000000e+00
4.000000000000000000e+00
4.000000000000000000e+00
4.000000000000000000e+00
4.000000000000000000e+00
4.000000000000000000e+00
4.000000000000000000e+00
4.000000000000000000e+00
5.000000000000000000e+00
5.000000000000000000e+00
6.000000000000000000e+00
6.000000000000000000e+00
6.000000000000000000e+00
6.000000000000000000e+00
6.000000000000000000e+00
6.000000000000000000e+00
6.000000000000000000e+00
6.000000000000000000e+00
6.000000000000000000e+00
6.000000000000000000e+00
6.000000000000000000e+00
6.000000000000000000e+00
6.000000000000000000e+00
6.000000000000000000e+00
6.000000000000000000e+00
6.000000000000000000e+00
6.000000000000000000e+00
6.000000000000000000e+00
6.000000000000000000e+00
6.000000000000000000e+00
6.000000000000000000e+00
6.000000000000000000e+00
6.000000000000000000e+00
6.000000000000000000e+00
6.000000000000000000e+00
6.000000000000000000e+00
6.000000000000000000e+00
6.000000000000000000e+00
6.000000000000000000e+00
6.000000000000000000e+00
6.000000000000000000e+00
6.000000000000000000e+00
6.000000000000000000e+00
6.000000000000000000e+00
6.000000000000000000e+00
6.000000000000000000e+00
6.000000000000000000e+00
6.000000000000000000e+00
6.000000000000000000e+00
6.000000000000000000e+00
6.000000000000000000e+00
6.000000000000000000e+00
6.000000000000000000e+00
6.000000000000000000e+00
6.000000000000000000e+00
6.000000000000000000e+00
6.000000000000000000e+00
6.000000000000000000e+00
6.000000000000000000e+00
6.000000000000000000e+00
6.000000000000000000e+00
6.000000000000000000e+00
6.000000000000000000e+00
6.000000000000000000e+00
6.000000000000000000e+00
6.000000000000000000e+00
6.000000000000000000e+00
6.000000000000000000e+00
6.000000000000000000e+00
6.000000000000000000e+00
6.000000000000000000e+00
6.000000000000000000e+00
6.000000000000000000e+00
6.000000000000000000e+00
6.000000000000000000e+00
6.000000000000000000e+00
6.000000000000000000e+00
6.000000000000000000e+00
6.000000000000000000e+00
7.000000000000000000e+00
7.000000000000000000e+00
7.000000000000000000e+00
7.000000000000000000e+00
7.000000000000000000e+00
7.000000000000000000e+00
7.000000000000000000e+00
7.000000000000000000e+00
7.000000000000000000e+00
8.000000000000000000e+00
8.000000000000000000e+00
8.000000000000000000e+00
8.000000000000000000e+00
8.000000000000000000e+00
8.000000000000000000e+00
8.000000000000000000e+00
8.000000000000000000e+00
8.000000000000000000e+00
8.000000000000000000e+00
8.000000000000000000e+00
9.000000000000000000e+00
9.000000000000000000e+00
9.000000000000000000e+00
1.000000000000000000e+01
1.000000000000000000e+01
1.000000000000000000e+01
1.000000000000000000e+01
1.000000000000000000e+01
1.000000000000000000e+01
1.000000000000000000e+01
1.000000000000000000e+01
1.000000000000000000e+01
1.000000000000000000e+01
1.000000000000000000e+01
1.000000000000000000e+01
1.000000000000000000e+01
1.000000000000000000e+01
1.000000000000000000e+01
1.000000000000000000e+01
1.000000000000000000e+01
1.000000000000000000e+01
1.000000000000000000e+01
1.000000000000000000e+01
1.000000000000000000e+01
1.000000000000000000e+01
1.000000000000000000e+01
1.000000000000000000e+01
1.000000000000000000e+01
1.000000000000000000e+01
1.000000000000000000e+01
1.000000000000000000e+01
1.000000000000000000e+01
1.000000000000000000e+01
1.000000000000000000e+01
1.000000000000000000e+01
1.100000000000000000e+01
1.100000000000000000e+01
1.100000000000000000e+01
1.100000000000000000e+01
1.100000000000000000e+01
1.100000000000000000e+01
1.100000000000000000e+01
1.100000000000000000e+01
1.100000000000000000e+01
1.100000000000000000e+01
1.100000000000000000e+01
1.100000000000000000e+01
1.100000000000000000e+01
1.100000000000000000e+01
1.100000000000000000e+01
1.100000000000000000e+01
1.100000000000000000e+01
1.100000000000000000e+01
1.100000000000000000e+01
1.100000000000000000e+01
1.100000000000000000e+01
1.100000000000000000e+01
1.100000000000000000e+01
1.100000000000000000e+01
1.100000000000000000e+01
1.100000000000000000e+01
1.100000000000000000e+01
1.100000000000000000e+01
1.100000000000000000e+01
1.100000000000000000e+01
1.100000000000000000e+01
1.100000000000000000e+01
1.100000000000000000e+01
1.100000000000000000e+01
1.100000000000000000e+01
1.100000000000000000e+01
1.100000000000000000e+01
1.100000000000000000e+01
1.100000000000000000e+01
1.100000000000000000e+01
1.100000000000000000e+01
1.100000000000000000e+01
1.100000000000000000e+01
1.200000000000000000e+01
1.200000000000000000e+01
1.200000000000000000e+01
1.200000000000000000e+01
1.200000000000000000e+01
1.200000000000000000e+01
1.200000000000000000e+01
1.200000000000000000e+01
1.200000000000000000e+01
1.200000000000000000e+01
1.300000000000000000e+01
1.300000000000000000e+01
1.300000000000000000e+01
1.400000000000000000e+01
1.400000000000000000e+01
1.500000000000000000e+01
1.500000000000000000e+01
1.500000000000000000e+01
1.500000000000000000e+01
1.700000000000000000e+01
1.700000000000000000e+01
1.700000000000000000e+01
1.700000000000000000e+01
1.800000000000000000e+01
1.800000000000000000e+01
1.800000000000000000e+01
1.800000000000000000e+01
1.800000000000000000e+01
1.800000000000000000e+01
1.800000000000000000e+01
1.800000000000000000e+01
1.800000000000000000e+01
1.800000000000000000e+01
1.800000000000000000e+01
1.800000000000000000e+01
1.800000000000000000e+01
1.800000000000000000e+01
1.800000000000000000e+01
1.800000000000000000e+01
1.800000000000000000e+01
1.800000000000000000e+01
1.800000000000000000e+01
1.800000000000000000e+01
1.800000000000000000e+01
1.800000000000000000e+01
1.800000000000000000e+01
1.900000000000000000e+01
1.900000000000000000e+01
1.900000000000000000e+01
1.900000000000000000e+01
1.900000000000000000e+01
1.900000000000000000e+01
1.900000000000000000e+01
1.900000000000000000e+01
1.900000000000000000e+01
1.900000000000000000e+01
1.900000000000000000e+01
1.900000000000000000e+01
1.900000000000000000e+01
2.000000000000000000e+01
2.000000000000000000e+01
2.000000000000000000e+01
2.000000000000000000e+01
2.000000000000000000e+01
2.000000000000000000e+01
2.000000000000000000e+01
2.000000000000000000e+01
2.000000000000000000e+01
2.000000000000000000e+01
2.000000000000000000e+01
2.000000000000000000e+01
2.000000000000000000e+01
2.100000000000000000e+01
2.100000000000000000e+01
2.100000000000000000e+01
2.200000000000000000e+01
2.200000000000000000e+01
2.200000000000000000e+01
2.300000000000000000e+01
2.300000000000000000e+01
2.300000000000000000e+01
2.300000000000000000e+01
2.300000000000000000e+01
2.400000000000000000e+01
2.500000000000000000e+01
2.500000000000000000e+01
2.500000000000000000e+01
2.500000000000000000e+01
2.500000000000000000e+01
2.600000000000000000e+01
2.600000000000000000e+01
2.600000000000000000e+01
2.600000000000000000e+01
2.600000000000000000e+01
2.600000000000000000e+01
2.600000000000000000e+01
2.600000000000000000e+01
2.600000000000000000e+01
2.600000000000000000e+01
2.600000000000000000e+01
2.600000000000000000e+01
2.600000000000000000e+01
2.700000000000000000e+01
2.700000000000000000e+01
2.700000000000000000e+01
2.700000000000000000e+01
2.700000000000000000e+01
2.700000000000000000e+01
2.700000000000000000e+01
2.700000000000000000e+01
2.800000000000000000e+01
2.800000000000000000e+01
2.800000000000000000e+01
2.800000000000000000e+01
2.800000000000000000e+01
2.800000000000000000e+01
2.800000000000000000e+01
2.800000000000000000e+01
2.800000000000000000e+01
2.800000000000000000e+01
2.800000000000000000e+01
2.900000000000000000e+01
2.900000000000000000e+01
3.000000000000000000e+01
3.000000000000000000e+01
3.000000000000000000e+01
3.000000000000000000e+01
3.000000000000000000e+01
3.000000000000000000e+01
3.000000000000000000e+01
3.200000000000000000e+01
3.200000000000000000e+01
3.300000000000000000e+01
3.300000000000000000e+01
3.300000000000000000e+01
3.300000000000000000e+01
3.300000000000000000e+01
3.400000000000000000e+01
3.400000000000000000e+01
3.600000000000000000e+01
3.600000000000000000e+01
3.600000000000000000e+01
3.700000000000000000e+01
3.700000000000000000e+01
3.700000000000000000e+01
3.700000000000000000e+01
3.700000000000000000e+01
3.700000000000000000e+01
3.700000000000000000e+01
3.700000000000000000e+01
3.700000000000000000e+01
3.700000000000000000e+01
3.700000000000000000e+01
3.900000000000000000e+01
3.900000000000000000e+01
3.900000000000000000e+01
4.000000000000000000e+01
4.000000000000000000e+01
4.000000000000000000e+01
4.000000000000000000e+01
4.000000000000000000e+01
4.000000000000000000e+01
4.000000000000000000e+01
4.000000000000000000e+01
4.000000000000000000e+01
4.000000000000000000e+01
4.000000000000000000e+01
4.000000000000000000e+01
4.100000000000000000e+01
4.200000000000000000e+01
4.200000000000000000e+01
4.200000000000000000e+01
4.300000000000000000e+01
4.300000000000000000e+01
4.300000000000000000e+01
4.300000000000000000e+01
4.300000000000000000e+01
4.300000000000000000e+01
4.300000000000000000e+01
4.300000000000000000e+01
4.500000000000000000e+01
4.600000000000000000e+01
4.600000000000000000e+01
4.600000000000000000e+01
4.600000000000000000e+01
4.600000000000000000e+01
4.700000000000000000e+01
4.700000000000000000e+01
4.800000000000000000e+01
4.800000000000000000e+01
4.800000000000000000e+01
4.900000000000000000e+01
4.900000000000000000e+01
4.900000000000000000e+01
4.900000000000000000e+01
5.000000000000000000e+01
5.000000000000000000e+01
5.000000000000000000e+01
5.100000000000000000e+01
5.200000000000000000e+01
5.200000000000000000e+01
5.200000000000000000e+01
5.300000000000000000e+01
5.300000000000000000e+01
5.300000000000000000e+01
5.300000000000000000e+01
5.300000000000000000e+01
5.300000000000000000e+01
5.300000000000000000e+01
5.400000000000000000e+01
5.400000000000000000e+01
5.400000000000000000e+01
5.400000000000000000e+01
5.500000000000000000e+01
5.500000000000000000e+01
5.500000000000000000e+01
5.500000000000000000e+01
5.600000000000000000e+01
5.600000000000000000e+01
5.600000000000000000e+01
5.600000000000000000e+01
5.700000000000000000e+01
5.800000000000000000e+01
6.000000000000000000e+01
6.200000000000000000e+01
6.200000000000000000e+01
6.200000000000000000e+01
6.200000000000000000e+01
6.200000000000000000e+01
6.400000000000000000e+01
6.400000000000000000e+01
6.400000000000000000e+01
6.400000000000000000e+01
6.400000000000000000e+01
6.400000000000000000e+01
6.500000000000000000e+01
6.600000000000000000e+01
6.900000000000000000e+01
6.900000000000000000e+01
6.900000000000000000e+01
7.100000000000000000e+01
7.200000000000000000e+01
7.300000000000000000e+01
7.300000000000000000e+01
7.300000000000000000e+01
7.300000000000000000e+01
7.400000000000000000e+01
7.400000000000000000e+01
7.500000000000000000e+01
7.500000000000000000e+01
7.500000000000000000e+01
7.600000000000000000e+01
7.600000000000000000e+01
7.600000000000000000e+01
7.800000000000000000e+01
7.900000000000000000e+01
7.900000000000000000e+01
7.900000000000000000e+01
7.900000000000000000e+01
8.100000000000000000e+01
8.100000000000000000e+01
8.100000000000000000e+01
8.200000000000000000e+01
8.300000000000000000e+01
8.300000000000000000e+01
8.300000000000000000e+01
8.300000000000000000e+01
8.300000000000000000e+01
8.400000000000000000e+01
8.400000000000000000e+01
8.400000000000000000e+01
8.400000000000000000e+01
8.500000000000000000e+01
8.700000000000000000e+01
8.800000000000000000e+01
9.000000000000000000e+01
9.000000000000000000e+01
9.000000000000000000e+01
9.100000000000000000e+01
9.100000000000000000e+01
9.100000000000000000e+01
9.100000000000000000e+01
9.200000000000000000e+01
9.200000000000000000e+01
9.200000000000000000e+01
9.300000000000000000e+01
9.400000000000000000e+01
9.400000000000000000e+01
9.500000000000000000e+01
9.500000000000000000e+01
9.600000000000000000e+01
9.600000000000000000e+01
9.700000000000000000e+01
9.800000000000000000e+01
9.900000000000000000e+01
9.900000000000000000e+01
9.900000000000000000e+01
9.900000000000000000e+01
9.900000000000000000e+01
1.010000000000000000e+02
1.020000000000000000e+02
1.030000000000000000e+02
1.040000000000000000e+02
1.060000000000000000e+02
1.080000000000000000e+02
1.080000000000000000e+02
1.080000000000000000e+02
1.090000000000000000e+02
1.090000000000000000e+02
1.110000000000000000e+02
1.120000000000000000e+02
1.120000000000000000e+02
1.120000000000000000e+02
1.130000000000000000e+02
1.140000000000000000e+02
1.140000000000000000e+02
1.160000000000000000e+02
1.160000000000000000e+02
1.160000000000000000e+02
1.190000000000000000e+02
1.200000000000000000e+02
1.210000000000000000e+02
1.220000000000000000e+02
1.230000000000000000e+02
1.240000000000000000e+02
1.250000000000000000e+02
1.270000000000000000e+02
1.280000000000000000e+02
1.310000000000000000e+02
1.330000000000000000e+02
1.340000000000000000e+02
1.350000000000000000e+02
1.360000000000000000e+02
1.360000000000000000e+02
1.360000000000000000e+02
1.370000000000000000e+02
1.380000000000000000e+02
1.380000000000000000e+02
1.400000000000000000e+02
1.400000000000000000e+02
1.400000000000000000e+02
1.420000000000000000e+02
1.430000000000000000e+02
1.440000000000000000e+02
1.440000000000000000e+02
1.440000000000000000e+02
1.460000000000000000e+02
1.470000000000000000e+02
1.470000000000000000e+02
1.490000000000000000e+02
1.530000000000000000e+02
1.550000000000000000e+02
1.570000000000000000e+02
1.580000000000000000e+02
1.590000000000000000e+02
1.590000000000000000e+02
1.590000000000000000e+02
1.600000000000000000e+02
1.610000000000000000e+02
1.630000000000000000e+02
1.650000000000000000e+02
1.660000000000000000e+02
1.660000000000000000e+02
1.670000000000000000e+02
1.670000000000000000e+02
1.670000000000000000e+02
1.680000000000000000e+02
1.700000000000000000e+02
1.720000000000000000e+02
1.740000000000000000e+02
1.750000000000000000e+02
1.770000000000000000e+02
1.770000000000000000e+02
1.790000000000000000e+02
1.800000000000000000e+02
1.810000000000000000e+02
1.810000000000000000e+02
1.830000000000000000e+02
1.840000000000000000e+02
1.860000000000000000e+02
1.880000000000000000e+02
1.890000000000000000e+02
1.920000000000000000e+02
1.960000000000000000e+02
1.970000000000000000e+02
1.980000000000000000e+02
2.010000000000000000e+02
2.010000000000000000e+02
2.010000000000000000e+02
2.020000000000000000e+02
2.040000000000000000e+02
2.060000000000000000e+02
2.070000000000000000e+02
2.080000000000000000e+02
2.090000000000000000e+02
2.100000000000000000e+02
2.110000000000000000e+02
2.130000000000000000e+02
2.140000000000000000e+02
2.160000000000000000e+02
2.180000000000000000e+02
2.200000000000000000e+02
2.200000000000000000e+02
2.200000000000000000e+02
2.230000000000000000e+02
2.240000000000000000e+02
2.270000000000000000e+02
2.300000000000000000e+02
2.310000000000000000e+02
2.330000000000000000e+02
2.330000000000000000e+02
2.340000000000000000e+02
2.370000000000000000e+02
2.400000000000000000e+02
2.420000000000000000e+02
2.450000000000000000e+02
2.460000000000000000e+02
2.460000000000000000e+02
2.460000000000000000e+02
2.480000000000000000e+02
2.490000000000000000e+02
2.570000000000000000e+02
2.590000000000000000e+02
2.620000000000000000e+02
2.650000000000000000e+02
2.690000000000000000e+02
2.700000000000000000e+02
2.730000000000000000e+02
2.730000000000000000e+02
2.740000000000000000e+02
2.770000000000000000e+02
2.820000000000000000e+02
2.840000000000000000e+02
2.840000000000000000e+02
2.840000000000000000e+02
2.870000000000000000e+02
2.870000000000000000e+02
2.880000000000000000e+02
2.900000000000000000e+02
2.940000000000000000e+02
2.940000000000000000e+02
2.960000000000000000e+02
2.980000000000000000e+02
2.980000000000000000e+02
2.990000000000000000e+02
3.020000000000000000e+02
3.060000000000000000e+02
3.080000000000000000e+02
3.120000000000000000e+02
3.160000000000000000e+02
3.170000000000000000e+02
3.180000000000000000e+02
3.200000000000000000e+02
3.220000000000000000e+02
3.240000000000000000e+02
3.270000000000000000e+02
3.300000000000000000e+02
3.340000000000000000e+02
3.350000000000000000e+02
3.380000000000000000e+02
3.400000000000000000e+02
3.420000000000000000e+02
3.440000000000000000e+02
3.460000000000000000e+02
3.480000000000000000e+02
3.510000000000000000e+02
3.530000000000000000e+02
3.550000000000000000e+02
3.550000000000000000e+02
3.570000000000000000e+02
3.590000000000000000e+02
3.610000000000000000e+02
3.620000000000000000e+02
3.650000000000000000e+02
3.660000000000000000e+02
3.690000000000000000e+02
3.700000000000000000e+02
3.710000000000000000e+02
3.720000000000000000e+02
3.760000000000000000e+02
3.780000000000000000e+02
3.830000000000000000e+02
3.860000000000000000e+02
3.890000000000000000e+02
3.920000000000000000e+02
3.960000000000000000e+02
3.970000000000000000e+02
4.020000000000000000e+02
4.050000000000000000e+02
4.070000000000000000e+02
4.100000000000000000e+02
4.170000000000000000e+02
4.230000000000000000e+02
4.250000000000000000e+02
4.280000000000000000e+02
4.320000000000000000e+02
4.350000000000000000e+02
4.380000000000000000e+02
4.420000000000000000e+02
4.440000000000000000e+02
4.490000000000000000e+02
4.530000000000000000e+02
4.540000000000000000e+02
4.580000000000000000e+02
4.620000000000000000e+02
4.630000000000000000e+02
4.650000000000000000e+02
4.690000000000000000e+02
4.740000000000000000e+02
4.760000000000000000e+02
4.780000000000000000e+02
4.800000000000000000e+02
4.850000000000000000e+02
4.920000000000000000e+02
4.950000000000000000e+02
4.990000000000000000e+02
5.020000000000000000e+02
5.060000000000000000e+02
5.090000000000000000e+02
5.140000000000000000e+02
5.210000000000000000e+02
5.240000000000000000e+02
5.240000000000000000e+02
5.260000000000000000e+02
5.280000000000000000e+02
5.330000000000000000e+02
5.380000000000000000e+02
5.440000000000000000e+02
5.500000000000000000e+02
5.530000000000000000e+02
5.550000000000000000e+02
5.610000000000000000e+02
5.670000000000000000e+02
5.710000000000000000e+02
5.750000000000000000e+02
5.790000000000000000e+02
5.870000000000000000e+02
5.900000000000000000e+02
5.970000000000000000e+02
5.990000000000000000e+02
6.040000000000000000e+02
6.090000000000000000e+02
6.120000000000000000e+02
6.150000000000000000e+02
6.200000000000000000e+02
6.230000000000000000e+02
6.260000000000000000e+02
6.320000000000000000e+02
6.380000000000000000e+02
6.440000000000000000e+02
6.470000000000000000e+02
6.490000000000000000e+02
6.490000000000000000e+02
6.510000000000000000e+02
6.560000000000000000e+02
6.620000000000000000e+02
6.710000000000000000e+02
6.760000000000000000e+02
6.780000000000000000e+02
6.800000000000000000e+02
6.840000000000000000e+02
6.950000000000000000e+02
6.980000000000000000e+02
7.020000000000000000e+02
7.040000000000000000e+02
7.100000000000000000e+02
7.130000000000000000e+02
7.140000000000000000e+02
7.180000000000000000e+02
7.210000000000000000e+02
7.260000000000000000e+02
7.310000000000000000e+02
7.330000000000000000e+02
7.380000000000000000e+02
7.430000000000000000e+02
7.460000000000000000e+02
7.550000000000000000e+02
7.610000000000000000e+02
7.640000000000000000e+02
7.700000000000000000e+02
7.780000000000000000e+02
7.820000000000000000e+02
7.900000000000000000e+02
7.980000000000000000e+02
8.010000000000000000e+02
8.100000000000000000e+02
8.210000000000000000e+02
8.250000000000000000e+02
8.320000000000000000e+02
8.340000000000000000e+02
8.390000000000000000e+02
8.450000000000000000e+02
8.500000000000000000e+02
8.560000000000000000e+02
8.600000000000000000e+02
8.650000000000000000e+02
8.720000000000000000e+02
8.800000000000000000e+02
8.880000000000000000e+02
9.010000000000000000e+02
9.070000000000000000e+02
9.170000000000000000e+02
9.240000000000000000e+02
9.300000000000000000e+02
9.410000000000000000e+02
9.540000000000000000e+02
9.570000000000000000e+02
9.630000000000000000e+02
9.760000000000000000e+02
9.790000000000000000e+02
9.860000000000000000e+02
9.960000000000000000e+02
1.004000000000000000e+03
1.009000000000000000e+03
1.015000000000000000e+03
1.023000000000000000e+03
1.028000000000000000e+03
1.032000000000000000e+03
1.038000000000000000e+03
1.041000000000000000e+03
1.048000000000000000e+03
1.063000000000000000e+03
1.071000000000000000e+03
1.082000000000000000e+03
1.092000000000000000e+03
1.100000000000000000e+03
1.107000000000000000e+03
1.119000000000000000e+03
1.129000000000000000e+03
1.138000000000000000e+03
1.147000000000000000e+03
1.156000000000000000e+03
1.165000000000000000e+03
1.174000000000000000e+03
1.186000000000000000e+03
1.189000000000000000e+03
1.203000000000000000e+03
1.211000000000000000e+03
1.220000000000000000e+03
1.229000000000000000e+03
1.234000000000000000e+03
1.242000000000000000e+03
1.254000000000000000e+03
1.259000000000000000e+03
1.269000000000000000e+03
1.278000000000000000e+03
1.289000000000000000e+03
1.297000000000000000e+03
1.303000000000000000e+03
1.311000000000000000e+03
1.315000000000000000e+03
1.324000000000000000e+03
1.330000000000000000e+03
1.336000000000000000e+03
1.347000000000000000e+03
1.355000000000000000e+03
1.364000000000000000e+03
1.379000000000000000e+03
1.393000000000000000e+03
1.400000000000000000e+03
1.406000000000000000e+03
1.421000000000000000e+03
1.430000000000000000e+03
1.441000000000000000e+03
1.451000000000000000e+03
1.460000000000000000e+03
1.472000000000000000e+03
1.482000000000000000e+03
1.487000000000000000e+03
1.494000000000000000e+03
1.505000000000000000e+03
1.516000000000000000e+03
1.532000000000000000e+03
1.545000000000000000e+03
1.559000000000000000e+03
1.568000000000000000e+03
1.574000000000000000e+03
1.587000000000000000e+03
1.596000000000000000e+03
1.615000000000000000e+03
1.622000000000000000e+03
1.634000000000000000e+03
1.648000000000000000e+03
1.663000000000000000e+03
1.675000000000000000e+03
1.687000000000000000e+03
1.700000000000000000e+03
1.713000000000000000e+03
1.720000000000000000e+03
1.736000000000000000e+03
1.745000000000000000e+03
1.755000000000000000e+03
1.762000000000000000e+03
1.781000000000000000e+03
1.793000000000000000e+03
1.806000000000000000e+03
1.819000000000000000e+03
1.829000000000000000e+03
1.851000000000000000e+03
1.863000000000000000e+03
1.873000000000000000e+03
1.883000000000000000e+03
1.898000000000000000e+03
1.914000000000000000e+03
1.933000000000000000e+03
1.951000000000000000e+03
1.964000000000000000e+03
1.978000000000000000e+03
1.992000000000000000e+03
2.006000000000000000e+03
2.022000000000000000e+03
2.034000000000000000e+03
2.056000000000000000e+03
2.067000000000000000e+03
2.077000000000000000e+03
2.093000000000000000e+03
2.109000000000000000e+03
2.123000000000000000e+03
2.146000000000000000e+03
2.159000000000000000e+03
2.178000000000000000e+03
2.189000000000000000e+03
2.210000000000000000e+03
2.225000000000000000e+03
2.240000000000000000e+03
2.257000000000000000e+03
2.269000000000000000e+03
2.285000000000000000e+03
2.301000000000000000e+03
2.323000000000000000e+03
2.339000000000000000e+03
2.361000000000000000e+03
2.376000000000000000e+03
2.389000000000000000e+03
2.403000000000000000e+03
2.417000000000000000e+03
2.434000000000000000e+03
2.450000000000000000e+03
2.463000000000000000e+03
2.481000000000000000e+03
2.504000000000000000e+03
2.526000000000000000e+03
2.556000000000000000e+03
2.575000000000000000e+03
2.599000000000000000e+03
2.614000000000000000e+03
2.630000000000000000e+03
2.643000000000000000e+03
2.660000000000000000e+03
2.682000000000000000e+03
2.703000000000000000e+03
2.721000000000000000e+03
2.743000000000000000e+03
2.763000000000000000e+03
2.779000000000000000e+03
2.797000000000000000e+03
2.822000000000000000e+03
2.840000000000000000e+03
2.863000000000000000e+03
2.873000000000000000e+03
2.900000000000000000e+03
2.917000000000000000e+03
2.936000000000000000e+03
2.965000000000000000e+03
2.992000000000000000e+03
3.009000000000000000e+03
3.031000000000000000e+03
3.051000000000000000e+03
3.075000000000000000e+03
3.096000000000000000e+03
3.124000000000000000e+03
3.141000000000000000e+03
3.167000000000000000e+03
3.185000000000000000e+03
3.205000000000000000e+03
3.239000000000000000e+03
3.264000000000000000e+03
3.283000000000000000e+03
3.310000000000000000e+03
3.327000000000000000e+03
3.362000000000000000e+03
3.388000000000000000e+03
3.417000000000000000e+03
3.444000000000000000e+03
3.471000000000000000e+03
3.493000000000000000e+03
3.516000000000000000e+03
3.540000000000000000e+03
3.563000000000000000e+03
3.593000000000000000e+03
3.619000000000000000e+03
3.649000000000000000e+03
3.671000000000000000e+03
3.698000000000000000e+03
3.721000000000000000e+03
3.749000000000000000e+03
3.775000000000000000e+03
3.808000000000000000e+03
3.826000000000000000e+03
3.842000000000000000e+03
3.873000000000000000e+03
3.909000000000000000e+03
3.936000000000000000e+03
3.959000000000000000e+03
3.989000000000000000e+03
4.020000000000000000e+03
4.048000000000000000e+03
4.073000000000000000e+03
4.097000000000000000e+03
4.127000000000000000e+03
4.157000000000000000e+03
4.182000000000000000e+03
4.214000000000000000e+03
4.241000000000000000e+03
4.272000000000000000e+03
4.304000000000000000e+03
4.330000000000000000e+03
4.369000000000000000e+03
4.398000000000000000e+03
4.435000000000000000e+03
4.461000000000000000e+03
4.491000000000000000e+03
4.520000000000000000e+03
4.561000000000000000e+03
4.590000000000000000e+03
4.619000000000000000e+03
4.648000000000000000e+03
4.684000000000000000e+03
4.721000000000000000e+03
4.765000000000000000e+03
4.798000000000000000e+03
4.833000000000000000e+03
4.865000000000000000e+03
4.902000000000000000e+03
4.945000000000000000e+03
4.989000000000000000e+03
5.033000000000000000e+03
5.071000000000000000e+03
5.108000000000000000e+03
5.161000000000000000e+03
5.211000000000000000e+03
5.247000000000000000e+03
5.285000000000000000e+03
5.311000000000000000e+03
5.347000000000000000e+03
5.388000000000000000e+03
5.435000000000000000e+03
5.480000000000000000e+03
5.519000000000000000e+03
5.564000000000000000e+03
5.598000000000000000e+03
5.645000000000000000e+03
5.687000000000000000e+03
5.725000000000000000e+03
5.757000000000000000e+03
5.802000000000000000e+03
5.842000000000000000e+03
5.868000000000000000e+03
5.919000000000000000e+03
5.960000000000000000e+03
6.007000000000000000e+03
6.060000000000000000e+03
6.096000000000000000e+03
6.134000000000000000e+03
6.166000000000000000e+03
6.224000000000000000e+03
6.271000000000000000e+03
6.313000000000000000e+03
6.355000000000000000e+03
6.394000000000000000e+03
6.443000000000000000e+03
6.484000000000000000e+03
6.532000000000000000e+03
6.584000000000000000e+03
6.632000000000000000e+03
6.685000000000000000e+03
6.735000000000000000e+03
6.774000000000000000e+03
6.822000000000000000e+03
6.875000000000000000e+03
6.931000000000000000e+03
6.987000000000000000e+03
7.034000000000000000e+03
7.081000000000000000e+03
7.131000000000000000e+03
7.182000000000000000e+03
7.247000000000000000e+03
7.301000000000000000e+03
7.351000000000000000e+03
7.409000000000000000e+03
7.462000000000000000e+03
7.524000000000000000e+03
7.573000000000000000e+03
7.636000000000000000e+03
7.689000000000000000e+03
7.751000000000000000e+03
7.818000000000000000e+03
7.871000000000000000e+03
7.928000000000000000e+03
7.987000000000000000e+03
8.052000000000000000e+03
8.115000000000000000e+03
8.186000000000000000e+03
8.252000000000000000e+03
8.304000000000000000e+03
8.360000000000000000e+03
8.405000000000000000e+03
8.467000000000000000e+03
8.528000000000000000e+03
8.589000000000000000e+03
8.654000000000000000e+03
8.703000000000000000e+03
8.768000000000000000e+03
8.841000000000000000e+03
8.914000000000000000e+03
8.974000000000000000e+03
9.045000000000000000e+03
9.101000000000000000e+03
9.177000000000000000e+03
9.242000000000000000e+03
9.307000000000000000e+03
9.376000000000000000e+03
9.470000000000000000e+03
9.541000000000000000e+03
9.609000000000000000e+03
9.685000000000000000e+03
9.770000000000000000e+03
9.822000000000000000e+03
9.894000000000000000e+03
9.978000000000000000e+03
1.003900000000000000e+04
1.011300000000000000e+04
1.018900000000000000e+04
1.026200000000000000e+04
1.033700000000000000e+04
1.041100000000000000e+04
1.048000000000000000e+04
1.055000000000000000e+04
1.063600000000000000e+04
1.071800000000000000e+04
1.078300000000000000e+04
1.085100000000000000e+04
1.094700000000000000e+04
1.103400000000000000e+04
1.111600000000000000e+04
1.117900000000000000e+04
1.125600000000000000e+04
1.132600000000000000e+04
1.141500000000000000e+04
1.150500000000000000e+04
1.159900000000000000e+04
1.168600000000000000e+04
1.177500000000000000e+04
1.186600000000000000e+04
1.196100000000000000e+04
1.205400000000000000e+04
1.212900000000000000e+04
1.221300000000000000e+04
1.229700000000000000e+04
1.239600000000000000e+04
1.247200000000000000e+04
1.256400000000000000e+04
1.265500000000000000e+04
1.275100000000000000e+04
1.285400000000000000e+04
1.294600000000000000e+04
1.304600000000000000e+04
1.313500000000000000e+04
1.322900000000000000e+04
1.333200000000000000e+04
1.342000000000000000e+04
1.353800000000000000e+04
1.363200000000000000e+04
1.374500000000000000e+04
1.385700000000000000e+04
1.395400000000000000e+04
1.404800000000000000e+04
1.415900000000000000e+04
1.425800000000000000e+04
1.435600000000000000e+04
1.446400000000000000e+04
1.457200000000000000e+04
1.470000000000000000e+04
1.481600000000000000e+04
1.492600000000000000e+04
1.503500000000000000e+04
1.514100000000000000e+04
1.525700000000000000e+04
1.537400000000000000e+04
1.549300000000000000e+04
1.559400000000000000e+04
1.569800000000000000e+04
1.580800000000000000e+04
1.590900000000000000e+04
1.603600000000000000e+04
1.615900000000000000e+04
1.627000000000000000e+04
1.641400000000000000e+04
1.653500000000000000e+04
1.666600000000000000e+04
1.678600000000000000e+04
1.690500000000000000e+04
1.702000000000000000e+04
1.713300000000000000e+04
1.724500000000000000e+04
1.736300000000000000e+04
1.748800000000000000e+04
1.760700000000000000e+04
1.776800000000000000e+04
1.790300000000000000e+04
1.803100000000000000e+04
1.817700000000000000e+04
1.832300000000000000e+04
1.847000000000000000e+04
1.859500000000000000e+04
1.872800000000000000e+04
1.887800000000000000e+04
1.899700000000000000e+04
1.912800000000000000e+04
1.926200000000000000e+04
1.941900000000000000e+04
1.955300000000000000e+04
1.968500000000000000e+04
1.982700000000000000e+04
1.997700000000000000e+04
2.013700000000000000e+04
2.028000000000000000e+04
2.040700000000000000e+04
2.057200000000000000e+04
2.071800000000000000e+04
2.085400000000000000e+04
2.099000000000000000e+04
2.112500000000000000e+04
2.128300000000000000e+04
2.141900000000000000e+04
2.157200000000000000e+04
2.172700000000000000e+04
2.188400000000000000e+04
2.205000000000000000e+04
2.222600000000000000e+04
2.240300000000000000e+04
2.255900000000000000e+04
2.271600000000000000e+04
2.287300000000000000e+04
2.305700000000000000e+04
2.322800000000000000e+04
2.340600000000000000e+04
2.357700000000000000e+04
2.373700000000000000e+04
2.390500000000000000e+04
2.406700000000000000e+04
2.424400000000000000e+04
2.442100000000000000e+04
2.460600000000000000e+04
2.476700000000000000e+04
2.493300000000000000e+04
2.510600000000000000e+04
2.529800000000000000e+04
2.548500000000000000e+04
2.568700000000000000e+04
2.592700000000000000e+04
2.611600000000000000e+04
2.631700000000000000e+04
2.649200000000000000e+04
2.668700000000000000e+04
