1.000000000000000000e+00
3.000000000000000000e+00
3.000000000000000000e+00
3.000000000000000000e+00
3.000000000000000000e+00
4.000000000000000000e+00
4.000000000000000000e+00
5.000000000000000000e+00
6.000000000000000000e+00
6.000000000000000000e+00
8.000000000000000000e+00
9.000000000000000000e+00
1.000000000000000000e+01
1.100000000000000000e+01
1.200000000000000000e+01
1.400000000000000000e+01
1.600000000000000000e+01
1.700000000000000000e+01
2.100000000000000000e+01
2.300000000000000000e+01
2.900000000000000000e+01
3.100000000000000000e+01
3.300000000000000000e+01
3.800000000000000000e+01
4.600000000000000000e+01
5.300000000000000000e+01
6.100000000000000000e+01
6.900000000000000000e+01
7.800000000000000000e+01
9.500000000000000000e+01
1.090000000000000000e+02
1.240000000000000000e+02
1.420000000000000000e+02
1.690000000000000000e+02
1.890000000000000000e+02
2.120000000000000000e+02
2.520000000000000000e+02
2.910000000000000000e+02
3.330000000000000000e+02
3.860000000000000000e+02
4.540000000000000000e+02
5.170000000000000000e+02
5.980000000000000000e+02
7.060000000000000000e+02
8.040000000000000000e+02
9.480000000000000000e+02
1.106000000000000000e+03
1.248000000000000000e+03
1.466000000000000000e+03
1.698000000000000000e+03
1.938000000000000000e+03
2.249000000000000000e+03
2.608000000000000000e+03
3.004000000000000000e+03
3.442000000000000000e+03
4.020000000000000000e+03
4.682000000000000000e+03
5.425000000000000000e+03
6.208000000000000000e+03
7.166000000000000000e+03
8.289000000000000000e+03
9.623000000000000000e+03
1.110800000000000000e+04
1.288500000000000000e+04
1.489700000000000000e+04
1.724500000000000000e+04
1.992200000000000000e+04
2.307400000000000000e+04
2.670200000000000000e+04
3.091800000000000000e+04
3.570400000000000000e+04
4.123900000000000000e+04
4.765000000000000000e+04
5.530100000000000000e+04
6.399200000000000000e+04
7.405100000000000000e+04
