1.000000000000000000e+00
2.000000000000000000e+00
2.000000000000000000e+00
2.000000000000000000e+00
3.000000000000000000e+00
3.000000000000000000e+00
3.000000000000000000e+00
4.000000000000000000e+00
4.000000000000000000e+00
5.000000000000000000e+00
5.000000000000000000e+00
5.000000000000000000e+00
6.000000000000000000e+00
8.000000000000000000e+00
9.000000000000000000e+00
9.000000000000000000e+00
1.100000000000000000e+01
1.300000000000000000e+01
1.800000000000000000e+01
1.900000000000000000e+01
2.100000000000000000e+01
2.300000000000000000e+01
2.800000000000000000e+01
3.200000000000000000e+01
3.500000000000000000e+01
4.100000000000000000e+01
4.900000000000000000e+01
5.600000000000000000e+01
6.200000000000000000e+01
6.900000000000000000e+01
7.900000000000000000e+01
9.500000000000000000e+01
1.090000000000000000e+02
1.290000000000000000e+02
1.530000000000000000e+02
1.810000000000000000e+02
2.010000000000000000e+02
2.320000000000000000e+02
2.640000000000000000e+02
3.060000000000000000e+02
3.520000000000000000e+02
4.000000000000000000e+02
4.730000000000000000e+02
5.580000000000000000e+02
6.380000000000000000e+02
7.220000000000000000e+02
8.350000000000000000e+02
9.730000000000000000e+02
1.134000000000000000e+03
1.314000000000000000e+03
1.524000000000000000e+03
1.759000000000000000e+03
2.049000000000000000e+03
2.376000000000000000e+03
2.774000000000000000e+03
3.172000000000000000e+03
3.711000000000000000e+03
4.266000000000000000e+03
4.939000000000000000e+03
5.687000000000000000e+03
6.610000000000000000e+03
7.654000000000000000e+03
8.819000000000000000e+03
1.022300000000000000e+04
1.185100000000000000e+04
1.365400000000000000e+04
1.579800000000000000e+04
1.832500000000000000e+04
2.121400000000000000e+04
2.453200000000000000e+04
2.834000000000000000e+04
3.278000000000000000e+04
3.793700000000000000e+04
4.388500000000000000e+04
5.067100000000000000e+04
5.870000000000000000e+04
