1.000000000000000000e+00
2.000000000000000000e+00
2.000000000000000000e+00
2.000000000000000000e+00
2.000000000000000000e+00
3.000000000000000000e+00
3.000000000000000000e+00
3.000000000000000000e+00
4.000000000000000000e+00
5.000000000000000000e+00
5.000000000000000000e+00
5.000000000000000000e+00
6.000000000000000000e+00
6.000000000000000000e+00
8.000000000000000000e+00
9.000000000000000000e+00
1.000000000000000000e+01
1.200000000000000000e+01
1.400000000000000000e+01
1.700000000000000000e+01
1.900000000000000000e+01
2.100000000000000000e+01
2.300000000000000000e+01
3.000000000000000000e+01
3.200000000000000000e+01
3.600000000000000000e+01
4.200000000000000000e+01
4.900000000000000000e+01
5.900000000000000000e+01
6.900000000000000000e+01
7.600000000000000000e+01
9.000000000000000000e+01
1.030000000000000000e+02
1.190000000000000000e+02
1.430000000000000000e+02
1.620000000000000000e+02
1.840000000000000000e+02
2.160000000000000000e+02
2.440000000000000000e+02
2.830000000000000000e+02
3.340000000000000000e+02
3.800000000000000000e+02
4.370000000000000000e+02
5.080000000000000000e+02
5.810000000000000000e+02
6.760000000000000000e+02
7.780000000000000000e+02
8.910000000000000000e+02
1.050000000000000000e+03
1.202000000000000000e+03
1.412000000000000000e+03
1.620000000000000000e+03
1.876000000000000000e+03
2.156000000000000000e+03
2.500000000000000000e+03
2.912000000000000000e+03
3.364000000000000000e+03
3.883000000000000000e+03
4.477000000000000000e+03
5.199000000000000000e+03
6.005000000000000000e+03
6.932000000000000000e+03
8.039000000000000000e+03
9.313000000000000000e+03
1.076500000000000000e+04
1.244700000000000000e+04
1.434900000000000000e+04
1.664700000000000000e+04
1.927900000000000000e+04
2.223000000000000000e+04
2.576600000000000000e+04
2.976900000000000000e+04
3.444100000000000000e+04
3.989100000000000000e+04
4.617300000000000000e+04
5.349700000000000000e+04
