1.000000000000000000e+00
2.000000000000000000e+00
2.000000000000000000e+00
2.000000000000000000e+00
2.000000000000000000e+00
2.000000000000000000e+00
2.000000000000000000e+00
3.000000000000000000e+00
3.000000000000000000e+00
3.000000000000000000e+00
3.000000000000000000e+00
4.000000000000000000e+00
4.000000000000000000e+00
4.000000000000000000e+00
5.000000000000000000e+00
6.000000000000000000e+00
7.000000000000000000e+00
7.000000000000000000e+00
7.000000000000000000e+00
1.000000000000000000e+01
1.200000000000000000e+01
1.300000000000000000e+01
1.300000000000000000e+01
1.600000000000000000e+01
1.800000000000000000e+01
2.400000000000000000e+01
2.800000000000000000e+01
2.900000000000000000e+01
3.200000000000000000e+01
3.600000000000000000e+01
4.400000000000000000e+01
5.200000000000000000e+01
6.700000000000000000e+01
7.600000000000000000e+01
8.200000000000000000e+01
9.400000000000000000e+01
1.070000000000000000e+02
1.340000000000000000e+02
1.470000000000000000e+02
1.720000000000000000e+02
1.980000000000000000e+02
2.260000000000000000e+02
2.620000000000000000e+02
3.020000000000000000e+02
3.570000000000000000e+02
4.130000000000000000e+02
4.680000000000000000e+02
5.440000000000000000e+02
6.360000000000000000e+02
7.540000000000000000e+02
8.630000000000000000e+02
9.900000000000000000e+02
1.159000000000000000e+03
1.337000000000000000e+03
1.539000000000000000e+03
1.781000000000000000e+03
2.054000000000000000e+03
2.389000000000000000e+03
2.769000000000000000e+03
3.174000000000000000e+03
3.676000000000000000e+03
4.266000000000000000e+03
4.950000000000000000e+03
5.689000000000000000e+03
6.574000000000000000e+03
7.653000000000000000e+03
8.858000000000000000e+03
1.022700000000000000e+04
1.178900000000000000e+04
1.365600000000000000e+04
1.588800000000000000e+04
1.839100000000000000e+04
2.115400000000000000e+04
2.447700000000000000e+04
2.835500000000000000e+04
3.291800000000000000e+04
