1.000000000000000000e+00
2.000000000000000000e+00
2.000000000000000000e+00
2.000000000000000000e+00
2.000000000000000000e+00
2.000000000000000000e+00
3.000000000000000000e+00
3.000000000000000000e+00
3.000000000000000000e+00
3.000000000000000000e+00
4.000000000000000000e+00
4.000000000000000000e+00
6.000000000000000000e+00
6.000000000000000000e+00
6.000000000000000000e+00
7.000000000000000000e+00
9.000000000000000000e+00
1.000000000000000000e+01
1.200000000000000000e+01
1.700000000000000000e+01
1.700000000000000000e+01
2.100000000000000000e+01
2.400000000000000000e+01
2.900000000000000000e+01
3.600000000000000000e+01
4.000000000000000000e+01
4.600000000000000000e+01
5.700000000000000000e+01
7.000000000000000000e+01
7.900000000000000000e+01
8.600000000000000000e+01
1.000000000000000000e+02
1.170000000000000000e+02
1.360000000000000000e+02
1.590000000000000000e+02
1.810000000000000000e+02
2.060000000000000000e+02
2.410000000000000000e+02
2.770000000000000000e+02
3.230000000000000000e+02
3.780000000000000000e+02
4.440000000000000000e+02
5.100000000000000000e+02
5.810000000000000000e+02
6.730000000000000000e+02
7.770000000000000000e+02
8.970000000000000000e+02
1.035000000000000000e+03
1.189000000000000000e+03
1.375000000000000000e+03
1.598000000000000000e+03
1.837000000000000000e+03
2.109000000000000000e+03
2.450000000000000000e+03
2.844000000000000000e+03
3.290000000000000000e+03
3.791000000000000000e+03
4.356000000000000000e+03
5.039000000000000000e+03
5.859000000000000000e+03
6.760000000000000000e+03
7.822000000000000000e+03
9.037000000000000000e+03
1.048600000000000000e+04
1.212200000000000000e+04
1.393800000000000000e+04
1.611800000000000000e+04
1.873800000000000000e+04
2.162600000000000000e+04
2.499000000000000000e+04
2.891400000000000000e+04
3.345400000000000000e+04
3.871700000000000000e+04
4.481000000000000000e+04
5.182400000000000000e+04
5.983300000000000000e+04
