1.000000000000000000e+00
2.000000000000000000e+00
2.000000000000000000e+00
2.000000000000000000e+00
2.000000000000000000e+00
3.000000000000000000e+00
3.000000000000000000e+00
3.000000000000000000e+00
4.000000000000000000e+00
4.000000000000000000e+00
4.000000000000000000e+00
6.000000000000000000e+00
6.000000000000000000e+00
7.000000000000000000e+00
8.000000000000000000e+00
8.000000000000000000e+00
1.000000000000000000e+01
1.200000000000000000e+01
1.400000000000000000e+01
1.500000000000000000e+01
1.600000000000000000e+01
2.100000000000000000e+01
2.200000000000000000e+01
2.700000000000000000e+01
3.300000000000000000e+01
3.500000000000000000e+01
4.100000000000000000e+01
4.600000000000000000e+01
5.700000000000000000e+01
7.100000000000000000e+01
7.700000000000000000e+01
8.800000000000000000e+01
1.000000000000000000e+02
1.180000000000000000e+02
1.350000000000000000e+02
1.570000000000000000e+02
1.800000000000000000e+02
2.110000000000000000e+02
2.440000000000000000e+02
2.810000000000000000e+02
3.200000000000000000e+02
3.770000000000000000e+02
4.280000000000000000e+02
5.110000000000000000e+02
5.940000000000000000e+02
6.770000000000000000e+02
7.980000000000000000e+02
9.130000000000000000e+02
1.062000000000000000e+03
1.231000000000000000e+03
1.449000000000000000e+03
1.658000000000000000e+03
1.923000000000000000e+03
2.210000000000000000e+03
2.593000000000000000e+03
3.015000000000000000e+03
3.465000000000000000e+03
4.003000000000000000e+03
4.601000000000000000e+03
5.350000000000000000e+03
6.156000000000000000e+03
7.185000000000000000e+03
8.281000000000000000e+03
9.606000000000000000e+03
1.113800000000000000e+04
1.287900000000000000e+04
1.488200000000000000e+04
1.719200000000000000e+04
1.989600000000000000e+04
2.300900000000000000e+04
2.662500000000000000e+04
3.075200000000000000e+04
3.566200000000000000e+04
4.124800000000000000e+04
4.773300000000000000e+04
5.515900000000000000e+04
