1.000000000000000000e+00
2.000000000000000000e+00
2.000000000000000000e+00
2.000000000000000000e+00
2.000000000000000000e+00
2.000000000000000000e+00
2.000000000000000000e+00
2.000000000000000000e+00
3.000000000000000000e+00
3.000000000000000000e+00
3.000000000000000000e+00
3.000000000000000000e+00
5.000000000000000000e+00
5.000000000000000000e+00
5.000000000000000000e+00
5.000000000000000000e+00
7.000000000000000000e+00
8.000000000000000000e+00
9.000000000000000000e+00
9.000000000000000000e+00
1.000000000000000000e+01
1.100000000000000000e+01
1.400000000000000000e+01
1.600000000000000000e+01
1.900000000000000000e+01
2.100000000000000000e+01
2.500000000000000000e+01
2.900000000000000000e+01
3.400000000000000000e+01
3.800000000000000000e+01
4.300000000000000000e+01
5.300000000000000000e+01
5.900000000000000000e+01
6.800000000000000000e+01
7.700000000000000000e+01
9.200000000000000000e+01
1.080000000000000000e+02
1.260000000000000000e+02
1.400000000000000000e+02
1.600000000000000000e+02
1.920000000000000000e+02
2.180000000000000000e+02
2.540000000000000000e+02
2.980000000000000000e+02
3.270000000000000000e+02
3.870000000000000000e+02
4.530000000000000000e+02
5.280000000000000000e+02
6.060000000000000000e+02
7.130000000000000000e+02
8.150000000000000000e+02
9.470000000000000000e+02
1.090000000000000000e+03
1.242000000000000000e+03
1.463000000000000000e+03
1.697000000000000000e+03
1.927000000000000000e+03
2.264000000000000000e+03
2.615000000000000000e+03
3.028000000000000000e+03
3.485000000000000000e+03
4.030000000000000000e+03
4.675000000000000000e+03
5.408000000000000000e+03
6.265000000000000000e+03
7.261000000000000000e+03
8.388000000000000000e+03
9.692000000000000000e+03
1.126600000000000000e+04
1.303100000000000000e+04
1.504700000000000000e+04
1.748400000000000000e+04
2.025900000000000000e+04
2.333500000000000000e+04
2.702800000000000000e+04
3.130000000000000000e+04
