1.000000000000000000e+00
2.000000000000000000e+00
2.000000000000000000e+00
2.000000000000000000e+00
2.000000000000000000e+00
3.000000000000000000e+00
3.000000000000000000e+00
3.000000000000000000e+00
3.000000000000000000e+00
4.000000000000000000e+00
5.000000000000000000e+00
5.000000000000000000e+00
6.000000000000000000e+00
6.000000000000000000e+00
7.000000000000000000e+00
7.000000000000000000e+00
8.000000000000000000e+00
1.000000000000000000e+01
1.200000000000000000e+01
1.200000000000000000e+01
1.400000000000000000e+01
1.600000000000000000e+01
2.000000000000000000e+01
2.600000000000000000e+01
2.800000000000000000e+01
3.200000000000000000e+01
3.700000000000000000e+01
4.300000000000000000e+01
4.900000000000000000e+01
5.400000000000000000e+01
6.200000000000000000e+01
7.100000000000000000e+01
8.800000000000000000e+01
1.040000000000000000e+02
1.110000000000000000e+02
1.260000000000000000e+02
1.530000000000000000e+02
1.810000000000000000e+02
2.100000000000000000e+02
2.350000000000000000e+02
2.720000000000000000e+02
3.200000000000000000e+02
3.700000000000000000e+02
4.250000000000000000e+02
4.810000000000000000e+02
5.790000000000000000e+02
6.720000000000000000e+02
7.730000000000000000e+02
8.800000000000000000e+02
1.026000000000000000e+03
1.188000000000000000e+03
1.384000000000000000e+03
1.607000000000000000e+03
1.865000000000000000e+03
2.129000000000000000e+03
2.462000000000000000e+03
2.856000000000000000e+03
3.331000000000000000e+03
3.850000000000000000e+03
4.480000000000000000e+03
5.125000000000000000e+03
5.999000000000000000e+03
6.991000000000000000e+03
8.085000000000000000e+03
9.322000000000000000e+03
1.080300000000000000e+04
1.242100000000000000e+04
1.442200000000000000e+04
1.670500000000000000e+04
1.942100000000000000e+04
2.237800000000000000e+04
2.584300000000000000e+04
2.990900000000000000e+04
3.468600000000000000e+04
4.022400000000000000e+04
4.642300000000000000e+04
