1.000000000000000000e+00
2.000000000000000000e+00
3.000000000000000000e+00
3.000000000000000000e+00
3.000000000000000000e+00
4.000000000000000000e+00
5.000000000000000000e+00
6.000000000000000000e+00
7.000000000000000000e+00
7.000000000000000000e+00
8.000000000000000000e+00
1.100000000000000000e+01
1.200000000000000000e+01
1.300000000000000000e+01
1.700000000000000000e+01
1.900000000000000000e+01
1.900000000000000000e+01
2.700000000000000000e+01
3.200000000000000000e+01
3.600000000000000000e+01
4.100000000000000000e+01
5.200000000000000000e+01
5.800000000000000000e+01
6.500000000000000000e+01
7.500000000000000000e+01
8.800000000000000000e+01
1.040000000000000000e+02
1.170000000000000000e+02
1.330000000000000000e+02
1.580000000000000000e+02
1.920000000000000000e+02
2.190000000000000000e+02
2.410000000000000000e+02
2.760000000000000000e+02
3.310000000000000000e+02
3.800000000000000000e+02
4.400000000000000000e+02
5.070000000000000000e+02
5.950000000000000000e+02
6.910000000000000000e+02
8.060000000000000000e+02
9.330000000000000000e+02
1.077000000000000000e+03
1.229000000000000000e+03
1.439000000000000000e+03
1.652000000000000000e+03
1.914000000000000000e+03
2.218000000000000000e+03
2.583000000000000000e+03
2.968000000000000000e+03
3.443000000000000000e+03
3.976000000000000000e+03
4.641000000000000000e+03
5.377000000000000000e+03
6.195000000000000000e+03
7.116000000000000000e+03
8.188000000000000000e+03
9.479000000000000000e+03
1.105300000000000000e+04
1.271800000000000000e+04
1.474000000000000000e+04
1.705200000000000000e+04
1.975100000000000000e+04
2.281400000000000000e+04
2.637800000000000000e+04
3.051300000000000000e+04
3.538700000000000000e+04
4.089700000000000000e+04
4.735300000000000000e+04
5.468200000000000000e+04
6.321900000000000000e+04
7.322700000000000000e+04
8.480100000000000000e+04
9.793700000000000000e+04
1.132890000000000000e+05
1.312860000000000000e+05
