1.000000000000000000e+00
2.000000000000000000e+00
2.000000000000000000e+00
2.000000000000000000e+00
2.000000000000000000e+00
2.000000000000000000e+00
3.000000000000000000e+00
3.000000000000000000e+00
3.000000000000000000e+00
3.000000000000000000e+00
3.000000000000000000e+00
4.000000000000000000e+00
4.000000000000000000e+00
4.000000000000000000e+00
4.000000000000000000e+00
5.000000000000000000e+00
7.000000000000000000e+00
7.000000000000000000e+00
8.000000000000000000e+00
9.000000000000000000e+00
9.000000000000000000e+00
1.000000000000000000e+01
1.200000000000000000e+01
1.500000000000000000e+01
1.800000000000000000e+01
1.800000000000000000e+01
2.100000000000000000e+01
2.600000000000000000e+01
2.900000000000000000e+01
3.200000000000000000e+01
3.900000000000000000e+01
4.600000000000000000e+01
5.600000000000000000e+01
6.200000000000000000e+01
7.100000000000000000e+01
8.200000000000000000e+01
9.300000000000000000e+01
1.070000000000000000e+02
1.250000000000000000e+02
1.490000000000000000e+02
1.750000000000000000e+02
1.960000000000000000e+02
2.320000000000000000e+02
2.640000000000000000e+02
3.060000000000000000e+02
3.590000000000000000e+02
4.130000000000000000e+02
4.780000000000000000e+02
5.610000000000000000e+02
6.520000000000000000e+02
7.460000000000000000e+02
8.590000000000000000e+02
9.950000000000000000e+02
1.160000000000000000e+03
1.345000000000000000e+03
1.530000000000000000e+03
1.794000000000000000e+03
2.089000000000000000e+03
2.416000000000000000e+03
2.781000000000000000e+03
3.201000000000000000e+03
3.680000000000000000e+03
4.264000000000000000e+03
4.923000000000000000e+03
5.751000000000000000e+03
6.662000000000000000e+03
7.662000000000000000e+03
8.872000000000000000e+03
1.020300000000000000e+04
1.191100000000000000e+04
1.373100000000000000e+04
1.587300000000000000e+04
1.834000000000000000e+04
2.124800000000000000e+04
2.464100000000000000e+04
2.836300000000000000e+04
