1.000000000000000000e+00
2.000000000000000000e+00
2.000000000000000000e+00
2.000000000000000000e+00
2.000000000000000000e+00
3.000000000000000000e+00
3.000000000000000000e+00
3.000000000000000000e+00
3.000000000000000000e+00
3.000000000000000000e+00
3.000000000000000000e+00
5.000000000000000000e+00
5.000000000000000000e+00
6.000000000000000000e+00
6.000000000000000000e+00
8.000000000000000000e+00
8.000000000000000000e+00
1.000000000000000000e+01
1.200000000000000000e+01
1.300000000000000000e+01
1.600000000000000000e+01
1.600000000000000000e+01
2.000000000000000000e+01
2.400000000000000000e+01
2.900000000000000000e+01
3.100000000000000000e+01
3.600000000000000000e+01
4.200000000000000000e+01
4.700000000000000000e+01
5.300000000000000000e+01
6.600000000000000000e+01
7.500000000000000000e+01
8.100000000000000000e+01
9.300000000000000000e+01
1.100000000000000000e+02
1.300000000000000000e+02
1.550000000000000000e+02
1.780000000000000000e+02
2.050000000000000000e+02
2.300000000000000000e+02
2.590000000000000000e+02
3.060000000000000000e+02
3.580000000000000000e+02
4.270000000000000000e+02
4.710000000000000000e+02
5.390000000000000000e+02
6.360000000000000000e+02
7.340000000000000000e+02
8.450000000000000000e+02
9.920000000000000000e+02
1.148000000000000000e+03
1.298000000000000000e+03
1.527000000000000000e+03
1.747000000000000000e+03
2.036000000000000000e+03
2.352000000000000000e+03
2.700000000000000000e+03
3.143000000000000000e+03
3.675000000000000000e+03
4.215000000000000000e+03
4.885000000000000000e+03
5.597000000000000000e+03
6.514000000000000000e+03
7.583000000000000000e+03
8.753000000000000000e+03
1.011000000000000000e+04
1.169600000000000000e+04
1.356900000000000000e+04
1.570600000000000000e+04
1.819100000000000000e+04
2.099600000000000000e+04
2.425800000000000000e+04
2.805200000000000000e+04
3.242000000000000000e+04
3.749800000000000000e+04
4.348700000000000000e+04
