1.000000000000000000e+00
2.000000000000000000e+00
2.000000000000000000e+00
2.000000000000000000e+00
2.000000000000000000e+00
2.000000000000000000e+00
2.000000000000000000e+00
3.000000000000000000e+00
3.000000000000000000e+00
3.000000000000000000e+00
3.000000000000000000e+00
3.000000000000000000e+00
5.000000000000000000e+00
6.000000000000000000e+00
6.000000000000000000e+00
6.000000000000000000e+00
6.000000000000000000e+00
9.000000000000000000e+00
1.000000000000000000e+01
1.200000000000000000e+01
1.200000000000000000e+01
1.300000000000000000e+01
1.600000000000000000e+01
1.700000000000000000e+01
1.800000000000000000e+01
2.200000000000000000e+01
2.700000000000000000e+01
2.900000000000000000e+01
3.300000000000000000e+01
3.700000000000000000e+01
4.300000000000000000e+01
5.400000000000000000e+01
6.100000000000000000e+01
6.900000000000000000e+01
7.600000000000000000e+01
9.300000000000000000e+01
1.110000000000000000e+02
1.280000000000000000e+02
1.490000000000000000e+02
1.670000000000000000e+02
1.970000000000000000e+02
2.320000000000000000e+02
2.640000000000000000e+02
3.160000000000000000e+02
3.670000000000000000e+02
4.240000000000000000e+02
4.860000000000000000e+02
5.540000000000000000e+02
6.520000000000000000e+02
7.510000000000000000e+02
8.720000000000000000e+02
1.002000000000000000e+03
1.161000000000000000e+03
1.354000000000000000e+03
1.564000000000000000e+03
1.811000000000000000e+03
2.092000000000000000e+03
2.427000000000000000e+03
2.809000000000000000e+03
3.251000000000000000e+03
3.767000000000000000e+03
4.360000000000000000e+03
5.038000000000000000e+03
5.829000000000000000e+03
6.731000000000000000e+03
7.840000000000000000e+03
9.074000000000000000e+03
1.046300000000000000e+04
1.206700000000000000e+04
1.398100000000000000e+04
1.620000000000000000e+04
1.869400000000000000e+04
2.171500000000000000e+04
2.502100000000000000e+04
2.893700000000000000e+04
3.342900000000000000e+04
