1.000000000000000000e+00
2.000000000000000000e+00
2.000000000000000000e+00
2.000000000000000000e+00
2.000000000000000000e+00
2.000000000000000000e+00
2.000000000000000000e+00
2.000000000000000000e+00
2.000000000000000000e+00
2.000000000000000000e+00
2.000000000000000000e+00
2.000000000000000000e+00
2.000000000000000000e+00
2.000000000000000000e+00
2.000000000000000000e+00
2.000000000000000000e+00
2.000000000000000000e+00
2.000000000000000000e+00
2.000000000000000000e+00
2.000000000000000000e+00
2.000000000000000000e+00
2.000000000000000000e+00
2.000000000000000000e+00
2.000000000000000000e+00
2.000000000000000000e+00
2.000000000000000000e+00
2.000000000000000000e+00
2.000000000000000000e+00
2.000000000000000000e+00
2.000000000000000000e+00
2.000000000000000000e+00
2.000000000000000000e+00
2.000000000000000000e+00
2.000000000000000000e+00
2.000000000000000000e+00
2.000000000000000000e+00
2.000000000000000000e+00
2.000000000000000000e+00
2.000000000000000000e+00
2.000000000000000000e+00
2.000000000000000000e+00
2.000000000000000000e+00
2.000000000000000000e+00
2.000000000000000000e+00
2.000000000000000000e+00
2.000000000000000000e+00
2.000000000000000000e+00
2.000000000000000000e+00
2.000000000000000000e+00
2.000000000000000000e+00
2.000000000000000000e+00
2.000000000000000000e+00
2.000000000000000000e+00
2.000000000000000000e+00
2.000000000000000000e+00
2.000000000000000000e+00
2.000000000000000000e+00
2.000000000000000000e+00
2.000000000000000000e+00
2.000000000000000000e+00
2.000000000000000000e+00
2.000000000000000000e+00
2.000000000000000000e+00
2.000000000000000000e+00
2.000000000000000000e+00
2.000000000000000000e+00
2.000000000000000000e+00
2.000000000000000000e+00
2.000000000000000000e+00
2.000000000000000000e+00
2.000000000000000000e+00
2.000000000000000000e+00
2.000000000000000000e+00
2.000000000000000000e+00
2.000000000000000000e+00
2.000000000000000000e+00
2.000000000000000000e+00
2.000000000000000000e+00
2.000000000000000000e+00
2.000000000000000000e+00
2.000000000000000000e+00
2.000000000000000000e+00
2.000000000000000000e+00
2.000000000000000000e+00
2.000000000000000000e+00
2.000000000000000000e+00
2.000000000000000000e+00
3.000000000000000000e+00
3.000000000000000000e+00
3.000000000000000000e+00
3.000000000000000000e+00
3.000000000000000000e+00
3.000000000000000000e+00
3.000000000000000000e+00
3.000000000000000000e+00
3.000000000000000000e+00
3.000000000000000000e+00
3.000000000000000000e+00
3.000000000000000000e+00
3.000000000000000000e+00
3.000000000000000000e+00
3.000000000000000000e+00
3.000000000000000000e+00
3.000000000000000000e+00
3.000000000000000000e+00
3.000000000000000000e+00
3.000000000000000000e+00
3.000000000000000000e+00
3.000000000000000000e+00
3.000000000000000000e+00
3.000000000000000000e+00
3.000000000000000000e+00
3.000000000000000000e+00
3.000000000000000000e+00
3.000000000000000000e+00
3.000000000000000000e+00
3.000000000000000000e+00
3.000000000000000000e+00
3.000000000000000000e+00
3.000000000000000000e+00
3.000000000000000000e+00
3.000000000000000000e+00
3.000000000000000000e+00
3.000000000000000000e+00
3.000000000000000000e+00
3.000000000000000000e+00
3.000000000000000000e+00
3.000000000000000000e+00
3.000000000000000000e+00
3.000000000000000000e+00
3.000000000000000000e+00
3.000000000000000000e+00
3.000000000000000000e+00
3.000000000000000000e+00
3.000000000000000000e+00
3.000000000000000000e+00
3.000000000000000000e+00
3.000000000000000000e+00
3.000000000000000000e+00
3.000000000000000000e+00
3.000000000000000000e+00
3.000000000000000000e+00
3.000000000000000000e+00
3.000000000000000000e+00
3.000000000000000000e+00
3.000000000000000000e+00
3.000000000000000000e+00
3.000000000000000000e+00
3.000000000000000000e+00
3.000000000000000000e+00
3.000000000000000000e+00
3.000000000000000000e+00
3.000000000000000000e+00
3.000000000000000000e+00
3.000000000000000000e+00
3.000000000000000000e+00
3.000000000000000000e+00
3.000000000000000000e+00
3.000000000000000000e+00
3.000000000000000000e+00
3.000000000000000000e+00
3.000000000000000000e+00
3.000000000000000000e+00
3.000000000000000000e+00
3.000000000000000000e+00
3.000000000000000000e+00
3.000000000000000000e+00
3.000000000000000000e+00
3.000000000000000000e+00
3.000000000000000000e+00
3.000000000000000000e+00
3.000000000000000000e+00
3.000000000000000000e+00
3.000000000000000000e+00
3.000000000000000000e+00
3.000000000000000000e+00
3.000000000000000000e+00
3.000000000000000000e+00
3.000000000000000000e+00
3.000000000000000000e+00
3.000000000000000000e+00
3.000000000000000000e+00
3.000000000000000000e+00
3.000000000000000000e+00
3.000000000000000000e+00
3.000000000000000000e+00
3.000000000000000000e+00
3.000000000000000000e+00
3.000000000000000000e+00
3.000000000000000000e+00
3.000000000000000000e+00
4.000000000000000000e+00
4.000000000000000000e+00
4.000000000000000000e+00
4.000000000000000000e+00
4.000000000000000000e+00
4.000000000000000000e+00
5.000000000000000000e+00
5.000000000000000000e+00
5.000000000000000000e+00
5.000000000000000000e+00
5.000000000000000000e+00
5.000000000000000000e+00
5.000000000000000000e+00
5.000000000000000000e+00
5.000000000000000000e+00
5.000000000000000000e+00
5.000000000000000000e+00
5.000000000000000000e+00
5.000000000000000000e+00
5.000000000000000000e+00
5.000000000000000000e+00
5.000000000000000000e+00
5.000000000000000000e+00
5.000000000000000000e+00
5.000000000000000000e+00
5.000000000000000000e+00
5.000000000000000000e+00
5.000000000000000000e+00
5.000000000000000000e+00
5.000000000000000000e+00
5.000000000000000000e+00
5.000000000000000000e+00
5.000000000000000000e+00
5.000000000000000000e+00
5.000000000000000000e+00
5.000000000000000000e+00
5.000000000000000000e+00
5.000000000000000000e+00
5.000000000000000000e+00
5.000000000000000000e+00
5.000000000000000000e+00
5.000000000000000000e+00
5.000000000000000000e+00
5.000000000000000000e+00
5.000000000000000000e+00
5.000000000000000000e+00
5.000000000000000000e+00
5.000000000000000000e+00
5.000000000000000000e+00
5.000000000000000000e+00
5.000000000000000000e+00
5.000000000000000000e+00
5.000000000000000000e+00
5.000000000000000000e+00
5.000000000000000000e+00
5.000000000000000000e+00
5.000000000000000000e+00
5.000000000000000000e+00
5.000000000000000000e+00
5.000000000000000000e+00
5.000000000000000000e+00
5.000000000000000000e+00
5.000000000000000000e+00
5.000000000000000000e+00
5.000000000000000000e+00
6.000000000000000000e+00
6.000000000000000000e+00
6.000000000000000000e+00
6.000000000000000000e+00
6.000000000000000000e+00
6.000000000000000000e+00
6.000000000000000000e+00
6.000000000000000000e+00
6.000000000000000000e+00
6.000000000000000000e+00
6.000000000000000000e+00
6.000000000000000000e+00
6.000000000000000000e+00
6.000000000000000000e+00
6.000000000000000000e+00
6.000000000000000000e+00
6.000000000000000000e+00
6.000000000000000000e+00
6.000000000000000000e+00
6.000000000000000000e+00
6.000000000000000000e+00
6.000000000000000000e+00
6.000000000000000000e+00
6.000000000000000000e+00
6.000000000000000000e+00
6.000000000000000000e+00
6.000000000000000000e+00
6.000000000000000000e+00
6.000000000000000000e+00
6.000000000000000000e+00
6.000000000000000000e+00
6.000000000000000000e+00
6.000000000000000000e+00
6.000000000000000000e+00
6.000000000000000000e+00
6.000000000000000000e+00
6.000000000000000000e+00
6.000000000000000000e+00
6.000000000000000000e+00
6.000000000000000000e+00
6.000000000000000000e+00
6.000000000000000000e+00
6.000000000000000000e+00
6.000000000000000000e+00
6.000000000000000000e+00
6.000000000000000000e+00
6.000000000000000000e+00
6.000000000000000000e+00
6.000000000000000000e+00
6.000000000000000000e+00
6.000000000000000000e+00
6.000000000000000000e+00
6.000000000000000000e+00
6.000000000000000000e+00
6.000000000000000000e+00
6.000000000000000000e+00
6.000000000000000000e+00
6.000000000000000000e+00
6.000000000000000000e+00
6.000000000000000000e+00
6.000000000000000000e+00
6.000000000000000000e+00
6.000000000000000000e+00
6.000000000000000000e+00
6.000000000000000000e+00
6.000000000000000000e+00
7.000000000000000000e+00
7.000000000000000000e+00
7.000000000000000000e+00
8.000000000000000000e+00
8.000000000000000000e+00
8.000000000000000000e+00
8.000000000000000000e+00
8.000000000000000000e+00
8.000000000000000000e+00
8.000000000000000000e+00
8.000000000000000000e+00
9.000000000000000000e+00
9.000000000000000000e+00
9.000000000000000000e+00
1.000000000000000000e+01
1.000000000000000000e+01
1.000000000000000000e+01
1.000000000000000000e+01
1.000000000000000000e+01
1.000000000000000000e+01
1.000000000000000000e+01
1.000000000000000000e+01
1.000000000000000000e+01
1.000000000000000000e+01
1.000000000000000000e+01
1.000000000000000000e+01
1.000000000000000000e+01
1.000000000000000000e+01
1.000000000000000000e+01
1.000000000000000000e+01
1.000000000000000000e+01
1.000000000000000000e+01
1.000000000000000000e+01
1.000000000000000000e+01
1.000000000000000000e+01
1.000000000000000000e+01
1.100000000000000000e+01
1.100000000000000000e+01
1.100000000000000000e+01
1.100000000000000000e+01
1.100000000000000000e+01
1.100000000000000000e+01
1.100000000000000000e+01
1.100000000000000000e+01
1.100000000000000000e+01
1.100000000000000000e+01
1.100000000000000000e+01
1.100000000000000000e+01
1.100000000000000000e+01
1.100000000000000000e+01
1.100000000000000000e+01
1.100000000000000000e+01
1.100000000000000000e+01
1.100000000000000000e+01
1.100000000000000000e+01
1.100000000000000000e+01
1.100000000000000000e+01
1.100000000000000000e+01
1.100000000000000000e+01
1.100000000000000000e+01
1.100000000000000000e+01
1.100000000000000000e+01
1.100000000000000000e+01
1.100000000000000000e+01
1.100000000000000000e+01
1.100000000000000000e+01
1.100000000000000000e+01
1.100000000000000000e+01
1.100000000000000000e+01
1.100000000000000000e+01
1.100000000000000000e+01
1.100000000000000000e+01
1.100000000000000000e+01
1.100000000000000000e+01
1.100000000000000000e+01
1.100000000000000000e+01
1.100000000000000000e+01
1.100000000000000000e+01
1.100000000000000000e+01
1.100000000000000000e+01
1.100000000000000000e+01
1.100000000000000000e+01
1.100000000000000000e+01
1.100000000000000000e+01
1.100000000000000000e+01
1.100000000000000000e+01
1.100000000000000000e+01
1.100000000000000000e+01
1.100000000000000000e+01
1.100000000000000000e+01
1.200000000000000000e+01
1.200000000000000000e+01
1.300000000000000000e+01
1.300000000000000000e+01
1.300000000000000000e+01
1.300000000000000000e+01
1.300000000000000000e+01
1.300000000000000000e+01
1.300000000000000000e+01
1.400000000000000000e+01
1.400000000000000000e+01
1.400000000000000000e+01
1.400000000000000000e+01
1.400000000000000000e+01
1.400000000000000000e+01
1.400000000000000000e+01
1.400000000000000000e+01
1.400000000000000000e+01
1.400000000000000000e+01
1.400000000000000000e+01
1.400000000000000000e+01
1.400000000000000000e+01
1.400000000000000000e+01
1.400000000000000000e+01
1.500000000000000000e+01
1.500000000000000000e+01
1.500000000000000000e+01
1.600000000000000000e+01
1.600000000000000000e+01
1.600000000000000000e+01
1.600000000000000000e+01
1.600000000000000000e+01
1.600000000000000000e+01
1.600000000000000000e+01
1.600000000000000000e+01
1.600000000000000000e+01
1.600000000000000000e+01
1.600000000000000000e+01
1.600000000000000000e+01
1.600000000000000000e+01
1.600000000000000000e+01
1.600000000000000000e+01
1.600000000000000000e+01
1.600000000000000000e+01
1.600000000000000000e+01
1.600000000000000000e+01
1.600000000000000000e+01
1.700000000000000000e+01
1.700000000000000000e+01
1.700000000000000000e+01
1.700000000000000000e+01
1.700000000000000000e+01
1.700000000000000000e+01
1.800000000000000000e+01
1.800000000000000000e+01
1.800000000000000000e+01
1.800000000000000000e+01
1.800000000000000000e+01
1.900000000000000000e+01
1.900000000000000000e+01
1.900000000000000000e+01
1.900000000000000000e+01
1.900000000000000000e+01
2.000000000000000000e+01
2.000000000000000000e+01
2.000000000000000000e+01
2.000000000000000000e+01
2.000000000000000000e+01
2.000000000000000000e+01
2.000000000000000000e+01
2.000000000000000000e+01
2.000000000000000000e+01
2.000000000000000000e+01
2.000000000000000000e+01
2.000000000000000000e+01
2.100000000000000000e+01
2.100000000000000000e+01
2.100000000000000000e+01
2.100000000000000000e+01
2.100000000000000000e+01
2.100000000000000000e+01
2.100000000000000000e+01
2.100000000000000000e+01
2.100000000000000000e+01
2.100000000000000000e+01
2.100000000000000000e+01
2.100000000000000000e+01
2.200000000000000000e+01
2.200000000000000000e+01
2.200000000000000000e+01
2.200000000000000000e+01
2.200000000000000000e+01
2.200000000000000000e+01
2.200000000000000000e+01
2.200000000000000000e+01
2.200000000000000000e+01
2.300000000000000000e+01
2.300000000000000000e+01
2.300000000000000000e+01
2.300000000000000000e+01
2.300000000000000000e+01
2.300000000000000000e+01
2.400000000000000000e+01
2.400000000000000000e+01
2.400000000000000000e+01
2.400000000000000000e+01
2.400000000000000000e+01
2.400000000000000000e+01
2.400000000000000000e+01
2.500000000000000000e+01
2.500000000000000000e+01
2.500000000000000000e+01
2.500000000000000000e+01
2.500000000000000000e+01
2.500000000000000000e+01
2.500000000000000000e+01
2.500000000000000000e+01
2.600000000000000000e+01
2.600000000000000000e+01
2.600000000000000000e+01
2.600000000000000000e+01
2.600000000000000000e+01
2.600000000000000000e+01
2.700000000000000000e+01
2.800000000000000000e+01
2.800000000000000000e+01
2.800000000000000000e+01
2.800000000000000000e+01
2.800000000000000000e+01
2.800000000000000000e+01
2.900000000000000000e+01
2.900000000000000000e+01
2.900000000000000000e+01
2.900000000000000000e+01
2.900000000000000000e+01
3.000000000000000000e+01
3.000000000000000000e+01
3.000000000000000000e+01
3.000000000000000000e+01
3.000000000000000000e+01
3.000000000000000000e+01
3.100000000000000000e+01
3.100000000000000000e+01
3.100000000000000000e+01
3.100000000000000000e+01
3.200000000000000000e+01
3.300000000000000000e+01
3.400000000000000000e+01
3.400000000000000000e+01
3.400000000000000000e+01
3.400000000000000000e+01
3.500000000000000000e+01
3.500000000000000000e+01
3.500000000000000000e+01
3.500000000000000000e+01
3.500000000000000000e+01
3.600000000000000000e+01
3.600000000000000000e+01
3.600000000000000000e+01
3.600000000000000000e+01
3.600000000000000000e+01
3.700000000000000000e+01
3.700000000000000000e+01
3.700000000000000000e+01
3.700000000000000000e+01
3.700000000000000000e+01
3.700000000000000000e+01
3.700000000000000000e+01
3.700000000000000000e+01
3.900000000000000000e+01
3.900000000000000000e+01
3.900000000000000000e+01
3.900000000000000000e+01
3.900000000000000000e+01
3.900000000000000000e+01
3.900000000000000000e+01
4.100000000000000000e+01
4.200000000000000000e+01
4.200000000000000000e+01
4.200000000000000000e+01
4.200000000000000000e+01
4.300000000000000000e+01
4.300000000000000000e+01
4.300000000000000000e+01
4.300000000000000000e+01
4.300000000000000000e+01
4.300000000000000000e+01
4.300000000000000000e+01
4.400000000000000000e+01
4.400000000000000000e+01
4.400000000000000000e+01
4.400000000000000000e+01
4.400000000000000000e+01
4.400000000000000000e+01
4.400000000000000000e+01
4.400000000000000000e+01
4.500000000000000000e+01
4.600000000000000000e+01
4.600000000000000000e+01
4.700000000000000000e+01
4.700000000000000000e+01
4.700000000000000000e+01
4.700000000000000000e+01
4.800000000000000000e+01
4.900000000000000000e+01
5.000000000000000000e+01
5.000000000000000000e+01
5.000000000000000000e+01
5.000000000000000000e+01
5.000000000000000000e+01
5.000000000000000000e+01
5.000000000000000000e+01
5.000000000000000000e+01
5.000000000000000000e+01
5.000000000000000000e+01
5.100000000000000000e+01
5.100000000000000000e+01
5.100000000000000000e+01
5.200000000000000000e+01
5.200000000000000000e+01
5.200000000000000000e+01
5.300000000000000000e+01
5.400000000000000000e+01
5.400000000000000000e+01
5.400000000000000000e+01
5.400000000000000000e+01
5.400000000000000000e+01
5.400000000000000000e+01
5.400000000000000000e+01
5.500000000000000000e+01
5.600000000000000000e+01
5.700000000000000000e+01
5.800000000000000000e+01
5.900000000000000000e+01
5.900000000000000000e+01
5.900000000000000000e+01
5.900000000000000000e+01
6.000000000000000000e+01
6.000000000000000000e+01
6.000000000000000000e+01
6.000000000000000000e+01
6.000000000000000000e+01
6.000000000000000000e+01
6.000000000000000000e+01
6.000000000000000000e+01
6.200000000000000000e+01
6.300000000000000000e+01
6.300000000000000000e+01
6.300000000000000000e+01
6.400000000000000000e+01
6.400000000000000000e+01
6.600000000000000000e+01
6.600000000000000000e+01
6.700000000000000000e+01
6.700000000000000000e+01
6.800000000000000000e+01
6.900000000000000000e+01
6.900000000000000000e+01
7.000000000000000000e+01
7.500000000000000000e+01
7.500000000000000000e+01
7.500000000000000000e+01
7.500000000000000000e+01
7.500000000000000000e+01
7.600000000000000000e+01
7.700000000000000000e+01
7.700000000000000000e+01
7.800000000000000000e+01
7.800000000000000000e+01
7.900000000000000000e+01
8.000000000000000000e+01
8.200000000000000000e+01
8.200000000000000000e+01
8.200000000000000000e+01
8.200000000000000000e+01
8.300000000000000000e+01
8.300000000000000000e+01
8.300000000000000000e+01
8.400000000000000000e+01
8.400000000000000000e+01
8.400000000000000000e+01
8.400000000000000000e+01
8.400000000000000000e+01
8.600000000000000000e+01
8.700000000000000000e+01
8.700000000000000000e+01
8.700000000000000000e+01
8.700000000000000000e+01
8.700000000000000000e+01
8.700000000000000000e+01
8.700000000000000000e+01
8.700000000000000000e+01
8.900000000000000000e+01
9.000000000000000000e+01
9.000000000000000000e+01
9.000000000000000000e+01
9.100000000000000000e+01
9.100000000000000000e+01
9.200000000000000000e+01
9.400000000000000000e+01
9.400000000000000000e+01
9.500000000000000000e+01
9.600000000000000000e+01
9.900000000000000000e+01
9.900000000000000000e+01
9.900000000000000000e+01
9.900000000000000000e+01
1.000000000000000000e+02
1.010000000000000000e+02
1.010000000000000000e+02
1.010000000000000000e+02
1.010000000000000000e+02
1.010000000000000000e+02
1.010000000000000000e+02
1.010000000000000000e+02
1.020000000000000000e+02
1.030000000000000000e+02
1.040000000000000000e+02
1.080000000000000000e+02
1.080000000000000000e+02
1.110000000000000000e+02
1.110000000000000000e+02
1.110000000000000000e+02
1.120000000000000000e+02
1.120000000000000000e+02
1.140000000000000000e+02
1.170000000000000000e+02
1.170000000000000000e+02
1.190000000000000000e+02
1.190000000000000000e+02
1.200000000000000000e+02
1.200000000000000000e+02
1.200000000000000000e+02
1.220000000000000000e+02
1.220000000000000000e+02
1.240000000000000000e+02
1.250000000000000000e+02
1.270000000000000000e+02
1.290000000000000000e+02
1.290000000000000000e+02
1.300000000000000000e+02
1.310000000000000000e+02
1.310000000000000000e+02
1.320000000000000000e+02
1.330000000000000000e+02
1.330000000000000000e+02
1.350000000000000000e+02
1.360000000000000000e+02
1.370000000000000000e+02
1.380000000000000000e+02
1.390000000000000000e+02
1.400000000000000000e+02
1.400000000000000000e+02
1.400000000000000000e+02
1.420000000000000000e+02
1.420000000000000000e+02
1.430000000000000000e+02
1.460000000000000000e+02
1.460000000000000000e+02
1.470000000000000000e+02
1.480000000000000000e+02
1.500000000000000000e+02
1.510000000000000000e+02
1.520000000000000000e+02
1.520000000000000000e+02
1.520000000000000000e+02
1.540000000000000000e+02
1.540000000000000000e+02
1.550000000000000000e+02
1.560000000000000000e+02
1.560000000000000000e+02
1.560000000000000000e+02
1.570000000000000000e+02
1.570000000000000000e+02
1.590000000000000000e+02
1.610000000000000000e+02
1.620000000000000000e+02
1.650000000000000000e+02
1.660000000000000000e+02
1.670000000000000000e+02
1.690000000000000000e+02
1.700000000000000000e+02
1.700000000000000000e+02
1.700000000000000000e+02
1.720000000000000000e+02
1.720000000000000000e+02
1.730000000000000000e+02
1.730000000000000000e+02
1.740000000000000000e+02
1.750000000000000000e+02
1.780000000000000000e+02
1.790000000000000000e+02
1.800000000000000000e+02
1.800000000000000000e+02
1.800000000000000000e+02
1.830000000000000000e+02
1.850000000000000000e+02
1.870000000000000000e+02
1.880000000000000000e+02
1.890000000000000000e+02
1.920000000000000000e+02
1.940000000000000000e+02
1.980000000000000000e+02
1.990000000000000000e+02
2.000000000000000000e+02
2.000000000000000000e+02
2.010000000000000000e+02
2.050000000000000000e+02
2.060000000000000000e+02
2.070000000000000000e+02
2.100000000000000000e+02
2.100000000000000000e+02
2.140000000000000000e+02
2.150000000000000000e+02
2.160000000000000000e+02
2.180000000000000000e+02
2.190000000000000000e+02
2.210000000000000000e+02
2.210000000000000000e+02
2.210000000000000000e+02
2.250000000000000000e+02
2.260000000000000000e+02
2.270000000000000000e+02
2.270000000000000000e+02
2.290000000000000000e+02
2.300000000000000000e+02
2.340000000000000000e+02
2.350000000000000000e+02
2.360000000000000000e+02
2.370000000000000000e+02
2.370000000000000000e+02
2.400000000000000000e+02
2.410000000000000000e+02
2.410000000000000000e+02
2.430000000000000000e+02
2.450000000000000000e+02
2.480000000000000000e+02
2.480000000000000000e+02
2.510000000000000000e+02
2.540000000000000000e+02
2.560000000000000000e+02
2.570000000000000000e+02
2.570000000000000000e+02
2.590000000000000000e+02
2.600000000000000000e+02
2.600000000000000000e+02
2.650000000000000000e+02
2.680000000000000000e+02
2.700000000000000000e+02
2.710000000000000000e+02
2.740000000000000000e+02
2.770000000000000000e+02
2.800000000000000000e+02
2.830000000000000000e+02
2.830000000000000000e+02
2.850000000000000000e+02
2.890000000000000000e+02
2.920000000000000000e+02
2.920000000000000000e+02
2.940000000000000000e+02
2.970000000000000000e+02
3.000000000000000000e+02
3.000000000000000000e+02
3.010000000000000000e+02
3.020000000000000000e+02
3.040000000000000000e+02
3.070000000000000000e+02
3.110000000000000000e+02
3.110000000000000000e+02
3.150000000000000000e+02
3.180000000000000000e+02
3.210000000000000000e+02
3.210000000000000000e+02
3.230000000000000000e+02
3.260000000000000000e+02
3.260000000000000000e+02
3.290000000000000000e+02
3.310000000000000000e+02
3.330000000000000000e+02
3.340000000000000000e+02
3.400000000000000000e+02
3.430000000000000000e+02
3.460000000000000000e+02
3.490000000000000000e+02
3.560000000000000000e+02
3.590000000000000000e+02
3.610000000000000000e+02
3.680000000000000000e+02
3.700000000000000000e+02
3.720000000000000000e+02
3.770000000000000000e+02
3.800000000000000000e+02
3.830000000000000000e+02
3.870000000000000000e+02
3.890000000000000000e+02
3.910000000000000000e+02
3.950000000000000000e+02
3.980000000000000000e+02
4.020000000000000000e+02
4.060000000000000000e+02
4.090000000000000000e+02
4.120000000000000000e+02
4.210000000000000000e+02
4.210000000000000000e+02
4.220000000000000000e+02
4.240000000000000000e+02
4.270000000000000000e+02
4.300000000000000000e+02
4.320000000000000000e+02
4.350000000000000000e+02
4.390000000000000000e+02
4.410000000000000000e+02
4.430000000000000000e+02
4.460000000000000000e+02
4.480000000000000000e+02
4.510000000000000000e+02
4.530000000000000000e+02
4.550000000000000000e+02
4.560000000000000000e+02
4.570000000000000000e+02
4.600000000000000000e+02
4.670000000000000000e+02
4.710000000000000000e+02
4.730000000000000000e+02
4.760000000000000000e+02
4.800000000000000000e+02
4.870000000000000000e+02
4.880000000000000000e+02
4.930000000000000000e+02
4.930000000000000000e+02
4.960000000000000000e+02
4.980000000000000000e+02
5.040000000000000000e+02
5.070000000000000000e+02
5.120000000000000000e+02
5.160000000000000000e+02
5.210000000000000000e+02
5.240000000000000000e+02
5.270000000000000000e+02
5.320000000000000000e+02
5.350000000000000000e+02
5.400000000000000000e+02
5.420000000000000000e+02
5.480000000000000000e+02
5.560000000000000000e+02
5.590000000000000000e+02
5.610000000000000000e+02
5.690000000000000000e+02
5.710000000000000000e+02
5.760000000000000000e+02
5.810000000000000000e+02
5.870000000000000000e+02
5.930000000000000000e+02
5.970000000000000000e+02
6.030000000000000000e+02
6.070000000000000000e+02
6.120000000000000000e+02
6.150000000000000000e+02
6.200000000000000000e+02
6.240000000000000000e+02
6.270000000000000000e+02
6.300000000000000000e+02
6.370000000000000000e+02
6.410000000000000000e+02
6.430000000000000000e+02
6.470000000000000000e+02
6.500000000000000000e+02
6.580000000000000000e+02
6.640000000000000000e+02
6.680000000000000000e+02
6.750000000000000000e+02
6.790000000000000000e+02
6.860000000000000000e+02
6.930000000000000000e+02
6.970000000000000000e+02
7.060000000000000000e+02
7.120000000000000000e+02
7.160000000000000000e+02
7.200000000000000000e+02
7.240000000000000000e+02
7.320000000000000000e+02
7.380000000000000000e+02
7.490000000000000000e+02
7.550000000000000000e+02
7.620000000000000000e+02
7.690000000000000000e+02
7.750000000000000000e+02
7.830000000000000000e+02
7.880000000000000000e+02
7.970000000000000000e+02
7.980000000000000000e+02
8.020000000000000000e+02
8.130000000000000000e+02
8.160000000000000000e+02
8.210000000000000000e+02
8.240000000000000000e+02
8.290000000000000000e+02
8.320000000000000000e+02
8.340000000000000000e+02
8.380000000000000000e+02
8.440000000000000000e+02
8.490000000000000000e+02
8.550000000000000000e+02
8.610000000000000000e+02
8.620000000000000000e+02
8.660000000000000000e+02
8.750000000000000000e+02
8.800000000000000000e+02
8.840000000000000000e+02
8.880000000000000000e+02
8.910000000000000000e+02
8.960000000000000000e+02
9.020000000000000000e+02
9.100000000000000000e+02
9.130000000000000000e+02
9.180000000000000000e+02
9.250000000000000000e+02
9.320000000000000000e+02
9.400000000000000000e+02
9.470000000000000000e+02
9.530000000000000000e+02
9.600000000000000000e+02
9.620000000000000000e+02
9.710000000000000000e+02
9.760000000000000000e+02
9.860000000000000000e+02
9.910000000000000000e+02
1.002000000000000000e+03
1.008000000000000000e+03
1.012000000000000000e+03
1.019000000000000000e+03
1.027000000000000000e+03
1.036000000000000000e+03
1.045000000000000000e+03
1.061000000000000000e+03
1.072000000000000000e+03
1.081000000000000000e+03
1.089000000000000000e+03
1.103000000000000000e+03
1.112000000000000000e+03
1.119000000000000000e+03
1.126000000000000000e+03
1.130000000000000000e+03
1.143000000000000000e+03
1.154000000000000000e+03
1.162000000000000000e+03
1.174000000000000000e+03
1.181000000000000000e+03
1.192000000000000000e+03
1.200000000000000000e+03
1.213000000000000000e+03
1.218000000000000000e+03
1.225000000000000000e+03
1.233000000000000000e+03
1.245000000000000000e+03
1.256000000000000000e+03
1.263000000000000000e+03
1.275000000000000000e+03
1.286000000000000000e+03
1.293000000000000000e+03
1.300000000000000000e+03
1.310000000000000000e+03
1.319000000000000000e+03
1.332000000000000000e+03
1.342000000000000000e+03
1.352000000000000000e+03
1.360000000000000000e+03
1.369000000000000000e+03
1.375000000000000000e+03
1.390000000000000000e+03
1.399000000000000000e+03
1.407000000000000000e+03
1.416000000000000000e+03
1.431000000000000000e+03
1.446000000000000000e+03
1.455000000000000000e+03
1.464000000000000000e+03
1.480000000000000000e+03
1.494000000000000000e+03
1.505000000000000000e+03
1.514000000000000000e+03
1.528000000000000000e+03
1.541000000000000000e+03
1.546000000000000000e+03
1.557000000000000000e+03
1.566000000000000000e+03
1.578000000000000000e+03
1.583000000000000000e+03
1.594000000000000000e+03
1.608000000000000000e+03
1.616000000000000000e+03
1.623000000000000000e+03
1.634000000000000000e+03
1.642000000000000000e+03
1.657000000000000000e+03
1.669000000000000000e+03
1.680000000000000000e+03
1.692000000000000000e+03
1.704000000000000000e+03
1.716000000000000000e+03
1.731000000000000000e+03
1.746000000000000000e+03
1.754000000000000000e+03
1.766000000000000000e+03
1.771000000000000000e+03
1.781000000000000000e+03
1.800000000000000000e+03
1.812000000000000000e+03
1.823000000000000000e+03
1.837000000000000000e+03
1.857000000000000000e+03
1.873000000000000000e+03
1.886000000000000000e+03
1.906000000000000000e+03
1.919000000000000000e+03
1.941000000000000000e+03
1.953000000000000000e+03
1.966000000000000000e+03
1.982000000000000000e+03
2.006000000000000000e+03
2.020000000000000000e+03
2.035000000000000000e+03
2.046000000000000000e+03
2.058000000000000000e+03
2.070000000000000000e+03
2.080000000000000000e+03
2.098000000000000000e+03
2.116000000000000000e+03
2.130000000000000000e+03
2.145000000000000000e+03
2.156000000000000000e+03
2.170000000000000000e+03
2.178000000000000000e+03
2.198000000000000000e+03
2.213000000000000000e+03
2.230000000000000000e+03
2.244000000000000000e+03
2.265000000000000000e+03
2.287000000000000000e+03
2.305000000000000000e+03
2.323000000000000000e+03
2.332000000000000000e+03
2.350000000000000000e+03
2.370000000000000000e+03
2.394000000000000000e+03
2.411000000000000000e+03
2.425000000000000000e+03
2.440000000000000000e+03
2.454000000000000000e+03
2.465000000000000000e+03
2.482000000000000000e+03
2.501000000000000000e+03
2.520000000000000000e+03
2.541000000000000000e+03
2.559000000000000000e+03
2.579000000000000000e+03
2.601000000000000000e+03
2.613000000000000000e+03
2.633000000000000000e+03
2.649000000000000000e+03
2.673000000000000000e+03
2.697000000000000000e+03
2.715000000000000000e+03
2.728000000000000000e+03
2.745000000000000000e+03
2.766000000000000000e+03
2.782000000000000000e+03
2.798000000000000000e+03
2.823000000000000000e+03
2.842000000000000000e+03
2.870000000000000000e+03
2.887000000000000000e+03
2.909000000000000000e+03
2.927000000000000000e+03
2.945000000000000000e+03
2.966000000000000000e+03
2.983000000000000000e+03
3.012000000000000000e+03
3.033000000000000000e+03
3.055000000000000000e+03
3.082000000000000000e+03
3.108000000000000000e+03
3.128000000000000000e+03
3.148000000000000000e+03
3.181000000000000000e+03
3.205000000000000000e+03
3.223000000000000000e+03
3.249000000000000000e+03
3.276000000000000000e+03
3.299000000000000000e+03
3.329000000000000000e+03
3.357000000000000000e+03
3.385000000000000000e+03
3.414000000000000000e+03
3.436000000000000000e+03
3.467000000000000000e+03
3.491000000000000000e+03
3.508000000000000000e+03
3.535000000000000000e+03
3.564000000000000000e+03
3.595000000000000000e+03
3.625000000000000000e+03
3.656000000000000000e+03
3.687000000000000000e+03
3.714000000000000000e+03
3.733000000000000000e+03
3.753000000000000000e+03
3.786000000000000000e+03
3.820000000000000000e+03
3.847000000000000000e+03
3.875000000000000000e+03
3.905000000000000000e+03
3.939000000000000000e+03
3.972000000000000000e+03
3.991000000000000000e+03
4.024000000000000000e+03
4.052000000000000000e+03
4.084000000000000000e+03
4.116000000000000000e+03
4.140000000000000000e+03
4.173000000000000000e+03
4.203000000000000000e+03
4.237000000000000000e+03
4.265000000000000000e+03
4.294000000000000000e+03
4.325000000000000000e+03
4.356000000000000000e+03
4.384000000000000000e+03
4.414000000000000000e+03
4.445000000000000000e+03
4.472000000000000000e+03
4.504000000000000000e+03
4.544000000000000000e+03
4.576000000000000000e+03
4.603000000000000000e+03
4.650000000000000000e+03
4.676000000000000000e+03
4.707000000000000000e+03
4.739000000000000000e+03
4.781000000000000000e+03
4.814000000000000000e+03
4.842000000000000000e+03
4.875000000000000000e+03
4.913000000000000000e+03
4.942000000000000000e+03
4.969000000000000000e+03
5.013000000000000000e+03
5.048000000000000000e+03
5.078000000000000000e+03
5.116000000000000000e+03
5.153000000000000000e+03
5.191000000000000000e+03
5.225000000000000000e+03
5.257000000000000000e+03
5.301000000000000000e+03
5.346000000000000000e+03
5.388000000000000000e+03
5.438000000000000000e+03
5.472000000000000000e+03
5.516000000000000000e+03
5.550000000000000000e+03
5.577000000000000000e+03
5.603000000000000000e+03
5.655000000000000000e+03
5.689000000000000000e+03
5.738000000000000000e+03
5.786000000000000000e+03
5.819000000000000000e+03
5.854000000000000000e+03
5.899000000000000000e+03
5.934000000000000000e+03
5.976000000000000000e+03
6.021000000000000000e+03
6.057000000000000000e+03
6.114000000000000000e+03
6.145000000000000000e+03
6.188000000000000000e+03
6.237000000000000000e+03
6.284000000000000000e+03
6.331000000000000000e+03
6.377000000000000000e+03
6.418000000000000000e+03
6.462000000000000000e+03
6.514000000000000000e+03
6.551000000000000000e+03
6.601000000000000000e+03
6.657000000000000000e+03
6.710000000000000000e+03
6.755000000000000000e+03
6.803000000000000000e+03
6.868000000000000000e+03
6.928000000000000000e+03
6.974000000000000000e+03
7.040000000000000000e+03
7.074000000000000000e+03
7.133000000000000000e+03
7.187000000000000000e+03
7.234000000000000000e+03
7.293000000000000000e+03
7.352000000000000000e+03
7.414000000000000000e+03
7.476000000000000000e+03
7.525000000000000000e+03
7.577000000000000000e+03
7.628000000000000000e+03
7.690000000000000000e+03
7.740000000000000000e+03
7.803000000000000000e+03
7.854000000000000000e+03
7.915000000000000000e+03
7.972000000000000000e+03
8.023000000000000000e+03
8.084000000000000000e+03
8.140000000000000000e+03
8.205000000000000000e+03
8.275000000000000000e+03
8.339000000000000000e+03
8.387000000000000000e+03
8.456000000000000000e+03
8.510000000000000000e+03
8.570000000000000000e+03
8.643000000000000000e+03
8.707000000000000000e+03
8.775000000000000000e+03
8.839000000000000000e+03
8.905000000000000000e+03
8.973000000000000000e+03
9.042000000000000000e+03
9.105000000000000000e+03
9.163000000000000000e+03
9.261000000000000000e+03
9.332000000000000000e+03
9.398000000000000000e+03
9.462000000000000000e+03
9.528000000000000000e+03
9.576000000000000000e+03
9.631000000000000000e+03
9.710000000000000000e+03
9.784000000000000000e+03
9.856000000000000000e+03
9.924000000000000000e+03
9.984000000000000000e+03
1.005400000000000000e+04
1.013900000000000000e+04
1.020900000000000000e+04
1.028400000000000000e+04
1.035300000000000000e+04
1.044700000000000000e+04
1.051600000000000000e+04
1.061400000000000000e+04
1.068900000000000000e+04
1.076200000000000000e+04
1.083900000000000000e+04
1.091300000000000000e+04
1.099200000000000000e+04
1.105900000000000000e+04
1.112200000000000000e+04
1.122300000000000000e+04
1.131100000000000000e+04
1.140300000000000000e+04
1.149600000000000000e+04
1.158400000000000000e+04
1.165400000000000000e+04
1.173600000000000000e+04
1.183000000000000000e+04
1.191800000000000000e+04
1.199100000000000000e+04
1.208100000000000000e+04
1.217200000000000000e+04
1.224600000000000000e+04
1.234300000000000000e+04
1.242100000000000000e+04
1.249400000000000000e+04
1.258100000000000000e+04
1.267300000000000000e+04
1.276500000000000000e+04
1.286200000000000000e+04
1.296700000000000000e+04
1.305200000000000000e+04
1.316700000000000000e+04
1.326100000000000000e+04
1.334100000000000000e+04
1.343500000000000000e+04
1.353200000000000000e+04
1.364200000000000000e+04
1.372400000000000000e+04
1.381800000000000000e+04
1.392800000000000000e+04
1.403100000000000000e+04
