1.000000000000000000e+00
2.000000000000000000e+00
2.000000000000000000e+00
2.000000000000000000e+00
2.000000000000000000e+00
2.000000000000000000e+00
2.000000000000000000e+00
3.000000000000000000e+00
3.000000000000000000e+00
3.000000000000000000e+00
4.000000000000000000e+00
4.000000000000000000e+00
4.000000000000000000e+00
5.000000000000000000e+00
5.000000000000000000e+00
6.000000000000000000e+00
7.000000000000000000e+00
9.000000000000000000e+00
9.000000000000000000e+00
1.200000000000000000e+01
1.300000000000000000e+01
1.500000000000000000e+01
1.900000000000000000e+01
2.100000000000000000e+01
2.300000000000000000e+01
2.500000000000000000e+01
3.000000000000000000e+01
3.900000000000000000e+01
4.200000000000000000e+01
4.500000000000000000e+01
5.200000000000000000e+01
6.000000000000000000e+01
6.900000000000000000e+01
8.400000000000000000e+01
9.200000000000000000e+01
1.030000000000000000e+02
1.220000000000000000e+02
1.460000000000000000e+02
1.630000000000000000e+02
1.950000000000000000e+02
2.200000000000000000e+02
2.490000000000000000e+02
2.930000000000000000e+02
3.460000000000000000e+02
3.850000000000000000e+02
4.490000000000000000e+02
5.240000000000000000e+02
6.060000000000000000e+02
7.020000000000000000e+02
8.060000000000000000e+02
9.540000000000000000e+02
1.104000000000000000e+03
1.282000000000000000e+03
1.462000000000000000e+03
1.692000000000000000e+03
1.990000000000000000e+03
2.280000000000000000e+03
2.650000000000000000e+03
3.090000000000000000e+03
3.581000000000000000e+03
4.088000000000000000e+03
4.740000000000000000e+03
5.531000000000000000e+03
6.378000000000000000e+03
7.377000000000000000e+03
8.519000000000000000e+03
9.859000000000000000e+03
1.140600000000000000e+04
1.316800000000000000e+04
1.527400000000000000e+04
1.766300000000000000e+04
2.043400000000000000e+04
2.363400000000000000e+04
2.724000000000000000e+04
3.148200000000000000e+04
3.654800000000000000e+04
