1.000000000000000000e+00
2.000000000000000000e+00
2.000000000000000000e+00
2.000000000000000000e+00
3.000000000000000000e+00
3.000000000000000000e+00
3.000000000000000000e+00
3.000000000000000000e+00
3.000000000000000000e+00
5.000000000000000000e+00
5.000000000000000000e+00
5.000000000000000000e+00
5.000000000000000000e+00
8.000000000000000000e+00
9.000000000000000000e+00
9.000000000000000000e+00
9.000000000000000000e+00
1.100000000000000000e+01
1.300000000000000000e+01
1.500000000000000000e+01
1.700000000000000000e+01
1.900000000000000000e+01
2.200000000000000000e+01
2.300000000000000000e+01
2.700000000000000000e+01
3.100000000000000000e+01
3.900000000000000000e+01
4.300000000000000000e+01
5.000000000000000000e+01
5.700000000000000000e+01
6.300000000000000000e+01
7.400000000000000000e+01
8.300000000000000000e+01
9.800000000000000000e+01
1.080000000000000000e+02
1.240000000000000000e+02
1.430000000000000000e+02
1.650000000000000000e+02
1.920000000000000000e+02
2.210000000000000000e+02
2.510000000000000000e+02
2.950000000000000000e+02
3.430000000000000000e+02
3.970000000000000000e+02
4.530000000000000000e+02
5.220000000000000000e+02
6.140000000000000000e+02
7.160000000000000000e+02
8.270000000000000000e+02
9.490000000000000000e+02
1.076000000000000000e+03
1.250000000000000000e+03
1.462000000000000000e+03
1.731000000000000000e+03
1.993000000000000000e+03
2.275000000000000000e+03
2.649000000000000000e+03
3.059000000000000000e+03
3.579000000000000000e+03
4.136000000000000000e+03
4.780000000000000000e+03
5.539000000000000000e+03
6.373000000000000000e+03
7.380000000000000000e+03
8.531000000000000000e+03
9.931000000000000000e+03
1.148400000000000000e+04
1.323100000000000000e+04
1.530900000000000000e+04
1.763300000000000000e+04
2.047200000000000000e+04
2.365400000000000000e+04
2.735600000000000000e+04
3.161500000000000000e+04
3.654100000000000000e+04
4.232700000000000000e+04
