1.000000000000000000e+00
2.000000000000000000e+00
2.000000000000000000e+00
2.000000000000000000e+00
2.000000000000000000e+00
2.000000000000000000e+00
2.000000000000000000e+00
2.000000000000000000e+00
2.000000000000000000e+00
2.000000000000000000e+00
2.000000000000000000e+00
2.000000000000000000e+00
2.000000000000000000e+00
2.000000000000000000e+00
2.000000000000000000e+00
2.000000000000000000e+00
2.000000000000000000e+00
2.000000000000000000e+00
2.000000000000000000e+00
2.000000000000000000e+00
2.000000000000000000e+00
2.000000000000000000e+00
2.000000000000000000e+00
2.000000000000000000e+00
2.000000000000000000e+00
2.000000000000000000e+00
2.000000000000000000e+00
2.000000000000000000e+00
2.000000000000000000e+00
2.000000000000000000e+00
2.000000000000000000e+00
2.000000000000000000e+00
2.000000000000000000e+00
2.000000000000000000e+00
2.000000000000000000e+00
2.000000000000000000e+00
2.000000000000000000e+00
2.000000000000000000e+00
2.000000000000000000e+00
2.000000000000000000e+00
2.000000000000000000e+00
2.000000000000000000e+00
2.000000000000000000e+00
2.000000000000000000e+00
2.000000000000000000e+00
2.000000000000000000e+00
2.000000000000000000e+00
2.000000000000000000e+00
2.000000000000000000e+00
2.000000000000000000e+00
2.000000000000000000e+00
2.000000000000000000e+00
2.000000000000000000e+00
2.000000000000000000e+00
2.000000000000000000e+00
2.000000000000000000e+00
2.000000000000000000e+00
2.000000000000000000e+00
2.000000000000000000e+00
2.000000000000000000e+00
2.000000000000000000e+00
2.000000000000000000e+00
2.000000000000000000e+00
2.000000000000000000e+00
2.000000000000000000e+00
2.000000000000000000e+00
2.000000000000000000e+00
2.000000000000000000e+00
2.000000000000000000e+00
2.000000000000000000e+00
2.000000000000000000e+00
2.000000000000000000e+00
2.000000000000000000e+00
2.000000000000000000e+00
2.000000000000000000e+00
2.000000000000000000e+00
2.000000000000000000e+00
2.000000000000000000e+00
2.000000000000000000e+00
2.000000000000000000e+00
2.000000000000000000e+00
2.000000000000000000e+00
2.000000000000000000e+00
2.000000000000000000e+00
2.000000000000000000e+00
2.000000000000000000e+00
2.000000000000000000e+00
2.000000000000000000e+00
2.000000000000000000e+00
2.000000000000000000e+00
2.000000000000000000e+00
2.000000000000000000e+00
2.000000000000000000e+00
2.000000000000000000e+00
2.000000000000000000e+00
2.000000000000000000e+00
2.000000000000000000e+00
2.000000000000000000e+00
2.000000000000000000e+00
2.000000000000000000e+00
2.000000000000000000e+00
2.000000000000000000e+00
2.000000000000000000e+00
2.000000000000000000e+00
2.000000000000000000e+00
2.000000000000000000e+00
2.000000000000000000e+00
2.000000000000000000e+00
2.000000000000000000e+00
2.000000000000000000e+00
3.000000000000000000e+00
3.000000000000000000e+00
3.000000000000000000e+00
3.000000000000000000e+00
3.000000000000000000e+00
3.000000000000000000e+00
3.000000000000000000e+00
3.000000000000000000e+00
3.000000000000000000e+00
3.000000000000000000e+00
3.000000000000000000e+00
3.000000000000000000e+00
3.000000000000000000e+00
3.000000000000000000e+00
3.000000000000000000e+00
3.000000000000000000e+00
3.000000000000000000e+00
3.000000000000000000e+00
3.000000000000000000e+00
3.000000000000000000e+00
3.000000000000000000e+00
3.000000000000000000e+00
3.000000000000000000e+00
3.000000000000000000e+00
3.000000000000000000e+00
3.000000000000000000e+00
3.000000000000000000e+00
3.000000000000000000e+00
3.000000000000000000e+00
3.000000000000000000e+00
3.000000000000000000e+00
3.000000000000000000e+00
3.000000000000000000e+00
3.000000000000000000e+00
3.000000000000000000e+00
3.000000000000000000e+00
3.000000000000000000e+00
3.000000000000000000e+00
3.000000000000000000e+00
3.000000000000000000e+00
3.000000000000000000e+00
3.000000000000000000e+00
3.000000000000000000e+00
3.000000000000000000e+00
3.000000000000000000e+00
3.000000000000000000e+00
3.000000000000000000e+00
3.000000000000000000e+00
3.000000000000000000e+00
3.000000000000000000e+00
3.000000000000000000e+00
3.000000000000000000e+00
3.000000000000000000e+00
3.000000000000000000e+00
3.000000000000000000e+00
3.000000000000000000e+00
3.000000000000000000e+00
3.000000000000000000e+00
3.000000000000000000e+00
3.000000000000000000e+00
3.000000000000000000e+00
3.000000000000000000e+00
3.000000000000000000e+00
3.000000000000000000e+00
3.000000000000000000e+00
3.000000000000000000e+00
3.000000000000000000e+00
3.000000000000000000e+00
3.000000000000000000e+00
3.000000000000000000e+00
3.000000000000000000e+00
3.000000000000000000e+00
3.000000000000000000e+00
3.000000000000000000e+00
3.000000000000000000e+00
3.000000000000000000e+00
3.000000000000000000e+00
3.000000000000000000e+00
3.000000000000000000e+00
3.000000000000000000e+00
3.000000000000000000e+00
3.000000000000000000e+00
3.000000000000000000e+00
3.000000000000000000e+00
3.000000000000000000e+00
3.000000000000000000e+00
3.000000000000000000e+00
3.000000000000000000e+00
3.000000000000000000e+00
3.000000000000000000e+00
3.000000000000000000e+00
3.000000000000000000e+00
3.000000000000000000e+00
3.000000000000000000e+00
3.000000000000000000e+00
3.000000000000000000e+00
3.000000000000000000e+00
3.000000000000000000e+00
3.000000000000000000e+00
3.000000000000000000e+00
3.000000000000000000e+00
3.000000000000000000e+00
3.000000000000000000e+00
4.000000000000000000e+00
4.000000000000000000e+00
4.000000000000000000e+00
4.000000000000000000e+00
4.000000000000000000e+00
4.000000000000000000e+00
4.000000000000000000e+00
4.000000000000000000e+00
4.000000000000000000e+00
4.000000000000000000e+00
4.000000000000000000e+00
5.000000000000000000e+00
5.000000000000000000e+00
5.000000000000000000e+00
5.000000000000000000e+00
5.000000000000000000e+00
5.000000000000000000e+00
5.000000000000000000e+00
5.000000000000000000e+00
5.000000000000000000e+00
5.000000000000000000e+00
5.000000000000000000e+00
5.000000000000000000e+00
5.000000000000000000e+00
5.000000000000000000e+00
5.000000000000000000e+00
5.000000000000000000e+00
5.000000000000000000e+00
5.000000000000000000e+00
5.000000000000000000e+00
5.000000000000000000e+00
5.000000000000000000e+00
5.000000000000000000e+00
5.000000000000000000e+00
5.000000000000000000e+00
5.000000000000000000e+00
5.000000000000000000e+00
5.000000000000000000e+00
5.000000000000000000e+00
5.000000000000000000e+00
5.000000000000000000e+00
5.000000000000000000e+00
5.000000000000000000e+00
5.000000000000000000e+00
5.000000000000000000e+00
5.000000000000000000e+00
5.000000000000000000e+00
5.000000000000000000e+00
5.000000000000000000e+00
5.000000000000000000e+00
5.000000000000000000e+00
5.000000000000000000e+00
5.000000000000000000e+00
5.000000000000000000e+00
5.000000000000000000e+00
5.000000000000000000e+00
5.000000000000000000e+00
5.000000000000000000e+00
5.000000000000000000e+00
5.000000000000000000e+00
5.000000000000000000e+00
5.000000000000000000e+00
5.000000000000000000e+00
5.000000000000000000e+00
5.000000000000000000e+00
5.000000000000000000e+00
5.000000000000000000e+00
5.000000000000000000e+00
5.000000000000000000e+00
5.000000000000000000e+00
5.000000000000000000e+00
6.000000000000000000e+00
6.000000000000000000e+00
6.000000000000000000e+00
6.000000000000000000e+00
6.000000000000000000e+00
6.000000000000000000e+00
6.000000000000000000e+00
6.000000000000000000e+00
6.000000000000000000e+00
6.000000000000000000e+00
6.000000000000000000e+00
6.000000000000000000e+00
6.000000000000000000e+00
6.000000000000000000e+00
6.000000000000000000e+00
6.000000000000000000e+00
6.000000000000000000e+00
6.000000000000000000e+00
6.000000000000000000e+00
6.000000000000000000e+00
6.000000000000000000e+00
6.000000000000000000e+00
6.000000000000000000e+00
6.000000000000000000e+00
6.000000000000000000e+00
6.000000000000000000e+00
6.000000000000000000e+00
6.000000000000000000e+00
6.000000000000000000e+00
7.000000000000000000e+00
7.000000000000000000e+00
7.000000000000000000e+00
7.000000000000000000e+00
7.000000000000000000e+00
7.000000000000000000e+00
7.000000000000000000e+00
7.000000000000000000e+00
8.000000000000000000e+00
8.000000000000000000e+00
8.000000000000000000e+00
8.000000000000000000e+00
8.000000000000000000e+00
8.000000000000000000e+00
8.000000000000000000e+00
8.000000000000000000e+00
8.000000000000000000e+00
8.000000000000000000e+00
8.000000000000000000e+00
8.000000000000000000e+00
8.000000000000000000e+00
8.000000000000000000e+00
8.000000000000000000e+00
8.000000000000000000e+00
8.000000000000000000e+00
8.000000000000000000e+00
8.000000000000000000e+00
9.000000000000000000e+00
9.000000000000000000e+00
9.000000000000000000e+00
9.000000000000000000e+00
9.000000000000000000e+00
9.000000000000000000e+00
9.000000000000000000e+00
9.000000000000000000e+00
9.000000000000000000e+00
9.000000000000000000e+00
9.000000000000000000e+00
9.000000000000000000e+00
9.000000000000000000e+00
9.000000000000000000e+00
9.000000000000000000e+00
9.000000000000000000e+00
9.000000000000000000e+00
9.000000000000000000e+00
9.000000000000000000e+00
9.000000000000000000e+00
9.000000000000000000e+00
9.000000000000000000e+00
9.000000000000000000e+00
9.000000000000000000e+00
9.000000000000000000e+00
9.000000000000000000e+00
9.000000000000000000e+00
9.000000000000000000e+00
9.000000000000000000e+00
9.000000000000000000e+00
9.000000000000000000e+00
9.000000000000000000e+00
9.000000000000000000e+00
9.000000000000000000e+00
9.000000000000000000e+00
9.000000000000000000e+00
9.000000000000000000e+00
9.000000000000000000e+00
9.000000000000000000e+00
9.000000000000000000e+00
9.000000000000000000e+00
9.000000000000000000e+00
9.000000000000000000e+00
9.000000000000000000e+00
1.000000000000000000e+01
1.000000000000000000e+01
1.000000000000000000e+01
1.000000000000000000e+01
1.000000000000000000e+01
1.000000000000000000e+01
1.000000000000000000e+01
1.000000000000000000e+01
1.000000000000000000e+01
1.000000000000000000e+01
1.100000000000000000e+01
1.100000000000000000e+01
1.100000000000000000e+01
1.100000000000000000e+01
1.100000000000000000e+01
1.100000000000000000e+01
1.100000000000000000e+01
1.100000000000000000e+01
1.100000000000000000e+01
1.100000000000000000e+01
1.100000000000000000e+01
1.100000000000000000e+01
1.100000000000000000e+01
1.100000000000000000e+01
1.100000000000000000e+01
1.100000000000000000e+01
1.100000000000000000e+01
1.200000000000000000e+01
1.200000000000000000e+01
1.200000000000000000e+01
1.200000000000000000e+01
1.200000000000000000e+01
1.200000000000000000e+01
1.200000000000000000e+01
1.200000000000000000e+01
1.200000000000000000e+01
1.300000000000000000e+01
1.300000000000000000e+01
1.300000000000000000e+01
1.300000000000000000e+01
1.300000000000000000e+01
1.300000000000000000e+01
1.300000000000000000e+01
1.300000000000000000e+01
1.300000000000000000e+01
1.400000000000000000e+01
1.400000000000000000e+01
1.400000000000000000e+01
1.400000000000000000e+01
1.400000000000000000e+01
1.400000000000000000e+01
1.400000000000000000e+01
1.400000000000000000e+01
1.400000000000000000e+01
1.400000000000000000e+01
1.400000000000000000e+01
1.400000000000000000e+01
1.400000000000000000e+01
1.400000000000000000e+01
1.400000000000000000e+01
1.400000000000000000e+01
1.500000000000000000e+01
1.500000000000000000e+01
1.500000000000000000e+01
1.500000000000000000e+01
1.500000000000000000e+01
1.500000000000000000e+01
1.500000000000000000e+01
1.500000000000000000e+01
1.500000000000000000e+01
1.500000000000000000e+01
1.700000000000000000e+01
1.700000000000000000e+01
1.700000000000000000e+01
1.700000000000000000e+01
1.700000000000000000e+01
1.700000000000000000e+01
1.700000000000000000e+01
1.700000000000000000e+01
1.700000000000000000e+01
1.700000000000000000e+01
1.700000000000000000e+01
1.800000000000000000e+01
1.800000000000000000e+01
1.800000000000000000e+01
1.800000000000000000e+01
1.800000000000000000e+01
1.800000000000000000e+01
1.800000000000000000e+01
1.800000000000000000e+01
1.800000000000000000e+01
1.800000000000000000e+01
1.800000000000000000e+01
1.800000000000000000e+01
1.800000000000000000e+01
1.800000000000000000e+01
1.800000000000000000e+01
1.800000000000000000e+01
1.900000000000000000e+01
1.900000000000000000e+01
1.900000000000000000e+01
1.900000000000000000e+01
1.900000000000000000e+01
1.900000000000000000e+01
1.900000000000000000e+01
1.900000000000000000e+01
2.000000000000000000e+01
2.000000000000000000e+01
2.000000000000000000e+01
2.000000000000000000e+01
2.000000000000000000e+01
2.000000000000000000e+01
2.000000000000000000e+01
2.000000000000000000e+01
2.000000000000000000e+01
2.000000000000000000e+01
2.000000000000000000e+01
2.000000000000000000e+01
2.000000000000000000e+01
2.000000000000000000e+01
2.100000000000000000e+01
2.100000000000000000e+01
2.200000000000000000e+01
2.200000000000000000e+01
2.200000000000000000e+01
2.200000000000000000e+01
2.400000000000000000e+01
2.400000000000000000e+01
2.400000000000000000e+01
2.400000000000000000e+01
2.400000000000000000e+01
2.400000000000000000e+01
2.400000000000000000e+01
2.400000000000000000e+01
2.400000000000000000e+01
2.400000000000000000e+01
2.500000000000000000e+01
2.500000000000000000e+01
2.500000000000000000e+01
2.500000000000000000e+01
2.600000000000000000e+01
2.600000000000000000e+01
2.600000000000000000e+01
2.600000000000000000e+01
2.600000000000000000e+01
2.700000000000000000e+01
2.700000000000000000e+01
2.700000000000000000e+01
2.700000000000000000e+01
2.700000000000000000e+01
2.700000000000000000e+01
2.700000000000000000e+01
2.700000000000000000e+01
2.800000000000000000e+01
2.800000000000000000e+01
2.800000000000000000e+01
2.800000000000000000e+01
2.900000000000000000e+01
2.900000000000000000e+01
2.900000000000000000e+01
2.900000000000000000e+01
2.900000000000000000e+01
2.900000000000000000e+01
3.000000000000000000e+01
3.000000000000000000e+01
3.200000000000000000e+01
3.200000000000000000e+01
3.200000000000000000e+01
3.200000000000000000e+01
3.200000000000000000e+01
3.200000000000000000e+01
3.200000000000000000e+01
3.300000000000000000e+01
3.300000000000000000e+01
3.300000000000000000e+01
3.300000000000000000e+01
3.300000000000000000e+01
3.300000000000000000e+01
3.300000000000000000e+01
3.300000000000000000e+01
3.300000000000000000e+01
3.400000000000000000e+01
3.400000000000000000e+01
3.400000000000000000e+01
3.400000000000000000e+01
3.400000000000000000e+01
3.400000000000000000e+01
3.500000000000000000e+01
3.500000000000000000e+01
3.500000000000000000e+01
3.500000000000000000e+01
3.500000000000000000e+01
3.500000000000000000e+01
3.500000000000000000e+01
3.500000000000000000e+01
3.500000000000000000e+01
3.600000000000000000e+01
3.600000000000000000e+01
3.700000000000000000e+01
3.700000000000000000e+01
3.700000000000000000e+01
3.800000000000000000e+01
3.900000000000000000e+01
3.900000000000000000e+01
3.900000000000000000e+01
3.900000000000000000e+01
3.900000000000000000e+01
3.900000000000000000e+01
3.900000000000000000e+01
4.000000000000000000e+01
4.000000000000000000e+01
4.000000000000000000e+01
4.000000000000000000e+01
4.000000000000000000e+01
4.000000000000000000e+01
4.100000000000000000e+01
4.100000000000000000e+01
4.100000000000000000e+01
4.300000000000000000e+01
4.300000000000000000e+01
4.400000000000000000e+01
4.400000000000000000e+01
4.400000000000000000e+01
4.400000000000000000e+01
4.400000000000000000e+01
4.400000000000000000e+01
4.400000000000000000e+01
4.500000000000000000e+01
4.500000000000000000e+01
4.500000000000000000e+01
4.600000000000000000e+01
4.700000000000000000e+01
4.800000000000000000e+01
4.900000000000000000e+01
4.900000000000000000e+01
5.000000000000000000e+01
5.100000000000000000e+01
5.100000000000000000e+01
5.100000000000000000e+01
5.100000000000000000e+01
5.100000000000000000e+01
5.200000000000000000e+01
5.200000000000000000e+01
5.200000000000000000e+01
5.300000000000000000e+01
5.300000000000000000e+01
5.300000000000000000e+01
5.300000000000000000e+01
5.300000000000000000e+01
5.300000000000000000e+01
5.400000000000000000e+01
5.400000000000000000e+01
5.400000000000000000e+01
5.400000000000000000e+01
5.400000000000000000e+01
5.400000000000000000e+01
5.400000000000000000e+01
5.400000000000000000e+01
5.400000000000000000e+01
5.400000000000000000e+01
5.400000000000000000e+01
5.400000000000000000e+01
5.400000000000000000e+01
5.400000000000000000e+01
5.700000000000000000e+01
5.700000000000000000e+01
5.800000000000000000e+01
5.800000000000000000e+01
5.900000000000000000e+01
5.900000000000000000e+01
6.100000000000000000e+01
6.100000000000000000e+01
6.100000000000000000e+01
6.100000000000000000e+01
6.200000000000000000e+01
6.200000000000000000e+01
6.200000000000000000e+01
6.300000000000000000e+01
6.500000000000000000e+01
6.500000000000000000e+01
6.700000000000000000e+01
6.800000000000000000e+01
6.900000000000000000e+01
7.000000000000000000e+01
7.000000000000000000e+01
7.000000000000000000e+01
7.000000000000000000e+01
7.100000000000000000e+01
7.100000000000000000e+01
7.200000000000000000e+01
7.200000000000000000e+01
7.300000000000000000e+01
7.400000000000000000e+01
7.400000000000000000e+01
7.500000000000000000e+01
7.500000000000000000e+01
7.500000000000000000e+01
7.500000000000000000e+01
7.500000000000000000e+01
7.600000000000000000e+01
7.600000000000000000e+01
7.600000000000000000e+01
7.600000000000000000e+01
7.700000000000000000e+01
7.900000000000000000e+01
7.900000000000000000e+01
7.900000000000000000e+01
8.000000000000000000e+01
8.000000000000000000e+01
8.000000000000000000e+01
8.000000000000000000e+01
8.000000000000000000e+01
8.000000000000000000e+01
8.100000000000000000e+01
8.100000000000000000e+01
8.100000000000000000e+01
8.100000000000000000e+01
8.200000000000000000e+01
8.200000000000000000e+01
8.400000000000000000e+01
8.500000000000000000e+01
8.700000000000000000e+01
8.700000000000000000e+01
8.800000000000000000e+01
8.800000000000000000e+01
9.000000000000000000e+01
9.100000000000000000e+01
9.100000000000000000e+01
9.200000000000000000e+01
9.300000000000000000e+01
9.400000000000000000e+01
9.500000000000000000e+01
9.600000000000000000e+01
9.700000000000000000e+01
9.700000000000000000e+01
9.800000000000000000e+01
9.900000000000000000e+01
1.000000000000000000e+02
1.000000000000000000e+02
1.000000000000000000e+02
1.010000000000000000e+02
1.010000000000000000e+02
1.040000000000000000e+02
1.060000000000000000e+02
1.060000000000000000e+02
1.080000000000000000e+02
1.090000000000000000e+02
1.090000000000000000e+02
1.100000000000000000e+02
1.110000000000000000e+02
1.110000000000000000e+02
1.140000000000000000e+02
1.140000000000000000e+02
1.140000000000000000e+02
1.140000000000000000e+02
1.150000000000000000e+02
1.160000000000000000e+02
1.160000000000000000e+02
1.170000000000000000e+02
1.180000000000000000e+02
1.200000000000000000e+02
1.210000000000000000e+02
1.220000000000000000e+02
1.260000000000000000e+02
1.260000000000000000e+02
1.290000000000000000e+02
1.300000000000000000e+02
1.300000000000000000e+02
1.310000000000000000e+02
1.320000000000000000e+02
1.340000000000000000e+02
1.340000000000000000e+02
1.350000000000000000e+02
1.360000000000000000e+02
1.390000000000000000e+02
1.410000000000000000e+02
1.420000000000000000e+02
1.420000000000000000e+02
1.420000000000000000e+02
1.420000000000000000e+02
1.420000000000000000e+02
1.440000000000000000e+02
1.440000000000000000e+02
1.440000000000000000e+02
1.440000000000000000e+02
1.440000000000000000e+02
1.450000000000000000e+02
1.470000000000000000e+02
1.470000000000000000e+02
1.490000000000000000e+02
1.500000000000000000e+02
1.500000000000000000e+02
1.510000000000000000e+02
1.520000000000000000e+02
1.530000000000000000e+02
1.530000000000000000e+02
1.540000000000000000e+02
1.540000000000000000e+02
1.570000000000000000e+02
1.580000000000000000e+02
1.580000000000000000e+02
1.580000000000000000e+02
1.590000000000000000e+02
1.620000000000000000e+02
1.630000000000000000e+02
1.630000000000000000e+02
1.640000000000000000e+02
1.660000000000000000e+02
1.690000000000000000e+02
1.700000000000000000e+02
1.710000000000000000e+02
1.730000000000000000e+02
1.740000000000000000e+02
1.760000000000000000e+02
1.760000000000000000e+02
1.760000000000000000e+02
1.770000000000000000e+02
1.770000000000000000e+02
1.770000000000000000e+02
1.780000000000000000e+02
1.800000000000000000e+02
1.820000000000000000e+02
1.840000000000000000e+02
1.890000000000000000e+02
1.910000000000000000e+02
1.940000000000000000e+02
1.940000000000000000e+02
1.950000000000000000e+02
1.950000000000000000e+02
1.970000000000000000e+02
1.990000000000000000e+02
2.020000000000000000e+02
2.030000000000000000e+02
2.040000000000000000e+02
2.060000000000000000e+02
2.070000000000000000e+02
2.080000000000000000e+02
2.090000000000000000e+02
2.090000000000000000e+02
2.110000000000000000e+02
2.120000000000000000e+02
2.130000000000000000e+02
2.150000000000000000e+02
2.160000000000000000e+02
2.170000000000000000e+02
2.180000000000000000e+02
2.200000000000000000e+02
2.220000000000000000e+02
2.220000000000000000e+02
2.230000000000000000e+02
2.240000000000000000e+02
2.260000000000000000e+02
2.280000000000000000e+02
2.280000000000000000e+02
2.320000000000000000e+02
2.350000000000000000e+02
2.370000000000000000e+02
2.390000000000000000e+02
2.400000000000000000e+02
2.420000000000000000e+02
2.440000000000000000e+02
2.440000000000000000e+02
2.450000000000000000e+02
2.480000000000000000e+02
2.540000000000000000e+02
2.550000000000000000e+02
2.580000000000000000e+02
2.600000000000000000e+02
2.620000000000000000e+02
2.630000000000000000e+02
2.660000000000000000e+02
2.660000000000000000e+02
2.670000000000000000e+02
2.700000000000000000e+02
2.700000000000000000e+02
2.760000000000000000e+02
2.760000000000000000e+02
2.790000000000000000e+02
2.810000000000000000e+02
2.820000000000000000e+02
2.850000000000000000e+02
2.900000000000000000e+02
2.910000000000000000e+02
2.920000000000000000e+02
2.920000000000000000e+02
2.930000000000000000e+02
2.950000000000000000e+02
2.990000000000000000e+02
3.000000000000000000e+02
3.000000000000000000e+02
3.010000000000000000e+02
3.030000000000000000e+02
3.060000000000000000e+02
3.070000000000000000e+02
3.070000000000000000e+02
3.130000000000000000e+02
3.180000000000000000e+02
3.230000000000000000e+02
3.280000000000000000e+02
3.300000000000000000e+02
3.300000000000000000e+02
3.310000000000000000e+02
3.310000000000000000e+02
3.370000000000000000e+02
3.370000000000000000e+02
3.380000000000000000e+02
3.400000000000000000e+02
3.420000000000000000e+02
3.430000000000000000e+02
3.480000000000000000e+02
3.500000000000000000e+02
3.520000000000000000e+02
3.580000000000000000e+02
3.580000000000000000e+02
3.600000000000000000e+02
3.610000000000000000e+02
3.620000000000000000e+02
3.630000000000000000e+02
3.640000000000000000e+02
3.650000000000000000e+02
3.670000000000000000e+02
3.690000000000000000e+02
3.700000000000000000e+02
3.730000000000000000e+02
3.760000000000000000e+02
3.780000000000000000e+02
3.840000000000000000e+02
3.910000000000000000e+02
3.920000000000000000e+02
3.940000000000000000e+02
3.970000000000000000e+02
4.000000000000000000e+02
4.000000000000000000e+02
4.040000000000000000e+02
4.070000000000000000e+02
4.110000000000000000e+02
4.160000000000000000e+02
4.180000000000000000e+02
4.190000000000000000e+02
4.230000000000000000e+02
4.280000000000000000e+02
4.310000000000000000e+02
4.330000000000000000e+02
4.350000000000000000e+02
4.390000000000000000e+02
4.480000000000000000e+02
4.550000000000000000e+02
4.570000000000000000e+02
4.590000000000000000e+02
4.620000000000000000e+02
4.630000000000000000e+02
4.650000000000000000e+02
4.710000000000000000e+02
4.740000000000000000e+02
4.780000000000000000e+02
4.860000000000000000e+02
4.930000000000000000e+02
4.950000000000000000e+02
4.990000000000000000e+02
5.020000000000000000e+02
5.090000000000000000e+02
5.120000000000000000e+02
5.170000000000000000e+02
5.220000000000000000e+02
5.240000000000000000e+02
5.260000000000000000e+02
5.280000000000000000e+02
5.350000000000000000e+02
5.370000000000000000e+02
5.400000000000000000e+02
5.460000000000000000e+02
5.490000000000000000e+02
5.540000000000000000e+02
5.600000000000000000e+02
5.620000000000000000e+02
5.670000000000000000e+02
5.680000000000000000e+02
5.710000000000000000e+02
5.740000000000000000e+02
5.800000000000000000e+02
5.830000000000000000e+02
5.870000000000000000e+02
5.900000000000000000e+02
5.950000000000000000e+02
5.960000000000000000e+02
6.030000000000000000e+02
6.030000000000000000e+02
6.070000000000000000e+02
6.090000000000000000e+02
6.130000000000000000e+02
6.170000000000000000e+02
6.190000000000000000e+02
6.240000000000000000e+02
6.300000000000000000e+02
6.330000000000000000e+02
6.400000000000000000e+02
6.430000000000000000e+02
6.480000000000000000e+02
6.570000000000000000e+02
6.600000000000000000e+02
6.620000000000000000e+02
6.680000000000000000e+02
6.740000000000000000e+02
6.820000000000000000e+02
6.830000000000000000e+02
6.910000000000000000e+02
6.960000000000000000e+02
7.050000000000000000e+02
7.070000000000000000e+02
7.100000000000000000e+02
7.210000000000000000e+02
7.270000000000000000e+02
7.310000000000000000e+02
7.360000000000000000e+02
7.430000000000000000e+02
7.530000000000000000e+02
7.550000000000000000e+02
7.590000000000000000e+02
7.640000000000000000e+02
7.710000000000000000e+02
7.770000000000000000e+02
7.830000000000000000e+02
7.920000000000000000e+02
7.950000000000000000e+02
8.000000000000000000e+02
8.070000000000000000e+02
8.110000000000000000e+02
8.150000000000000000e+02
8.210000000000000000e+02
8.310000000000000000e+02
8.410000000000000000e+02
8.450000000000000000e+02
8.510000000000000000e+02
8.540000000000000000e+02
8.650000000000000000e+02
8.700000000000000000e+02
8.770000000000000000e+02
8.850000000000000000e+02
8.910000000000000000e+02
8.960000000000000000e+02
9.010000000000000000e+02
9.080000000000000000e+02
9.130000000000000000e+02
9.180000000000000000e+02
9.220000000000000000e+02
9.290000000000000000e+02
9.410000000000000000e+02
9.470000000000000000e+02
9.560000000000000000e+02
9.590000000000000000e+02
9.620000000000000000e+02
9.650000000000000000e+02
9.710000000000000000e+02
9.810000000000000000e+02
9.870000000000000000e+02
9.940000000000000000e+02
1.001000000000000000e+03
1.007000000000000000e+03
1.019000000000000000e+03
1.026000000000000000e+03
1.034000000000000000e+03
1.044000000000000000e+03
1.059000000000000000e+03
1.065000000000000000e+03
1.075000000000000000e+03
1.082000000000000000e+03
1.089000000000000000e+03
1.094000000000000000e+03
1.098000000000000000e+03
1.109000000000000000e+03
1.115000000000000000e+03
1.122000000000000000e+03
1.127000000000000000e+03
1.134000000000000000e+03
1.144000000000000000e+03
1.154000000000000000e+03
1.160000000000000000e+03
1.169000000000000000e+03
1.182000000000000000e+03
1.192000000000000000e+03
1.201000000000000000e+03
1.206000000000000000e+03
1.214000000000000000e+03
1.221000000000000000e+03
1.227000000000000000e+03
1.238000000000000000e+03
1.249000000000000000e+03
1.262000000000000000e+03
1.270000000000000000e+03
1.286000000000000000e+03
1.293000000000000000e+03
1.304000000000000000e+03
1.312000000000000000e+03
1.318000000000000000e+03
1.330000000000000000e+03
1.339000000000000000e+03
1.345000000000000000e+03
1.356000000000000000e+03
1.366000000000000000e+03
1.374000000000000000e+03
1.386000000000000000e+03
1.400000000000000000e+03
1.410000000000000000e+03
1.422000000000000000e+03
1.432000000000000000e+03
1.439000000000000000e+03
1.451000000000000000e+03
1.469000000000000000e+03
1.480000000000000000e+03
1.492000000000000000e+03
1.511000000000000000e+03
1.523000000000000000e+03
1.536000000000000000e+03
1.545000000000000000e+03
1.555000000000000000e+03
1.574000000000000000e+03
1.585000000000000000e+03
1.594000000000000000e+03
1.605000000000000000e+03
1.616000000000000000e+03
1.629000000000000000e+03
1.640000000000000000e+03
1.654000000000000000e+03
1.663000000000000000e+03
1.677000000000000000e+03
1.683000000000000000e+03
1.692000000000000000e+03
1.697000000000000000e+03
1.712000000000000000e+03
1.728000000000000000e+03
1.739000000000000000e+03
1.757000000000000000e+03
1.771000000000000000e+03
1.791000000000000000e+03
1.808000000000000000e+03
1.822000000000000000e+03
1.832000000000000000e+03
1.841000000000000000e+03
1.853000000000000000e+03
1.877000000000000000e+03
1.891000000000000000e+03
1.903000000000000000e+03
1.919000000000000000e+03
1.937000000000000000e+03
1.951000000000000000e+03
1.960000000000000000e+03
1.975000000000000000e+03
1.991000000000000000e+03
2.000000000000000000e+03
2.025000000000000000e+03
2.035000000000000000e+03
2.047000000000000000e+03
2.058000000000000000e+03
2.066000000000000000e+03
2.085000000000000000e+03
2.101000000000000000e+03
2.112000000000000000e+03
2.126000000000000000e+03
2.134000000000000000e+03
2.144000000000000000e+03
2.154000000000000000e+03
2.162000000000000000e+03
2.188000000000000000e+03
2.202000000000000000e+03
2.220000000000000000e+03
2.240000000000000000e+03
2.256000000000000000e+03
2.274000000000000000e+03
2.286000000000000000e+03
2.296000000000000000e+03
2.310000000000000000e+03
2.333000000000000000e+03
2.349000000000000000e+03
2.365000000000000000e+03
2.385000000000000000e+03
2.397000000000000000e+03
2.413000000000000000e+03
2.434000000000000000e+03
2.457000000000000000e+03
2.473000000000000000e+03
2.488000000000000000e+03
2.506000000000000000e+03
2.524000000000000000e+03
2.541000000000000000e+03
2.563000000000000000e+03
2.579000000000000000e+03
2.602000000000000000e+03
2.613000000000000000e+03
2.628000000000000000e+03
2.643000000000000000e+03
2.661000000000000000e+03
2.681000000000000000e+03
2.699000000000000000e+03
2.722000000000000000e+03
2.742000000000000000e+03
2.764000000000000000e+03
2.784000000000000000e+03
2.806000000000000000e+03
2.833000000000000000e+03
2.849000000000000000e+03
2.860000000000000000e+03
2.889000000000000000e+03
2.912000000000000000e+03
2.942000000000000000e+03
2.966000000000000000e+03
2.984000000000000000e+03
3.003000000000000000e+03
3.022000000000000000e+03
3.050000000000000000e+03
3.071000000000000000e+03
3.096000000000000000e+03
3.129000000000000000e+03
3.159000000000000000e+03
3.184000000000000000e+03
3.206000000000000000e+03
3.232000000000000000e+03
3.259000000000000000e+03
3.294000000000000000e+03
3.316000000000000000e+03
3.331000000000000000e+03
3.355000000000000000e+03
3.385000000000000000e+03
3.421000000000000000e+03
3.443000000000000000e+03
3.466000000000000000e+03
3.497000000000000000e+03
3.528000000000000000e+03
3.548000000000000000e+03
3.579000000000000000e+03
3.606000000000000000e+03
3.635000000000000000e+03
3.655000000000000000e+03
3.682000000000000000e+03
3.717000000000000000e+03
3.741000000000000000e+03
3.767000000000000000e+03
3.792000000000000000e+03
3.828000000000000000e+03
3.862000000000000000e+03
3.885000000000000000e+03
3.913000000000000000e+03
3.940000000000000000e+03
3.965000000000000000e+03
3.992000000000000000e+03
4.025000000000000000e+03
4.051000000000000000e+03
4.071000000000000000e+03
4.085000000000000000e+03
4.107000000000000000e+03
4.137000000000000000e+03
4.175000000000000000e+03
4.191000000000000000e+03
4.226000000000000000e+03
4.252000000000000000e+03
4.291000000000000000e+03
4.327000000000000000e+03
4.358000000000000000e+03
4.384000000000000000e+03
4.415000000000000000e+03
4.442000000000000000e+03
4.465000000000000000e+03
4.499000000000000000e+03
4.545000000000000000e+03
4.582000000000000000e+03
4.627000000000000000e+03
4.654000000000000000e+03
4.674000000000000000e+03
4.710000000000000000e+03
4.736000000000000000e+03
4.775000000000000000e+03
4.806000000000000000e+03
4.836000000000000000e+03
4.873000000000000000e+03
4.907000000000000000e+03
4.953000000000000000e+03
4.985000000000000000e+03
5.016000000000000000e+03
5.053000000000000000e+03
5.088000000000000000e+03
5.131000000000000000e+03
5.165000000000000000e+03
5.213000000000000000e+03
5.250000000000000000e+03
5.282000000000000000e+03
5.317000000000000000e+03
5.358000000000000000e+03
5.404000000000000000e+03
5.447000000000000000e+03
5.485000000000000000e+03
5.528000000000000000e+03
5.555000000000000000e+03
5.614000000000000000e+03
5.641000000000000000e+03
5.692000000000000000e+03
5.728000000000000000e+03
5.780000000000000000e+03
5.835000000000000000e+03
5.877000000000000000e+03
5.917000000000000000e+03
5.967000000000000000e+03
6.013000000000000000e+03
6.054000000000000000e+03
6.100000000000000000e+03
6.142000000000000000e+03
6.192000000000000000e+03
6.242000000000000000e+03
6.286000000000000000e+03
6.332000000000000000e+03
6.381000000000000000e+03
6.428000000000000000e+03
6.472000000000000000e+03
6.512000000000000000e+03
6.571000000000000000e+03
6.624000000000000000e+03
6.671000000000000000e+03
6.727000000000000000e+03
6.772000000000000000e+03
6.819000000000000000e+03
6.857000000000000000e+03
6.916000000000000000e+03
6.955000000000000000e+03
7.014000000000000000e+03
7.057000000000000000e+03
7.104000000000000000e+03
7.155000000000000000e+03
7.205000000000000000e+03
7.253000000000000000e+03
7.314000000000000000e+03
7.366000000000000000e+03
7.416000000000000000e+03
7.458000000000000000e+03
7.514000000000000000e+03
7.567000000000000000e+03
7.638000000000000000e+03
7.684000000000000000e+03
7.746000000000000000e+03
7.792000000000000000e+03
7.853000000000000000e+03
7.905000000000000000e+03
7.968000000000000000e+03
8.021000000000000000e+03
8.088000000000000000e+03
8.144000000000000000e+03
8.206000000000000000e+03
8.253000000000000000e+03
8.318000000000000000e+03
8.374000000000000000e+03
8.438000000000000000e+03
8.494000000000000000e+03
8.565000000000000000e+03
8.627000000000000000e+03
8.692000000000000000e+03
8.750000000000000000e+03
8.809000000000000000e+03
8.876000000000000000e+03
8.951000000000000000e+03
9.015000000000000000e+03
9.079000000000000000e+03
9.161000000000000000e+03
9.248000000000000000e+03
9.313000000000000000e+03
9.377000000000000000e+03
9.446000000000000000e+03
9.516000000000000000e+03
9.574000000000000000e+03
9.628000000000000000e+03
9.680000000000000000e+03
9.749000000000000000e+03
9.831000000000000000e+03
9.906000000000000000e+03
9.977000000000000000e+03
1.003200000000000000e+04
1.010500000000000000e+04
1.017800000000000000e+04
1.024100000000000000e+04
1.033100000000000000e+04
1.039800000000000000e+04
1.047400000000000000e+04
1.055600000000000000e+04
1.063200000000000000e+04
1.069600000000000000e+04
1.077100000000000000e+04
1.086700000000000000e+04
1.093900000000000000e+04
1.101700000000000000e+04
1.110600000000000000e+04
1.118700000000000000e+04
1.127400000000000000e+04
1.135200000000000000e+04
1.142400000000000000e+04
1.149500000000000000e+04
1.157800000000000000e+04
1.166400000000000000e+04
1.174200000000000000e+04
1.183700000000000000e+04
1.192700000000000000e+04
1.201600000000000000e+04
1.212100000000000000e+04
1.219700000000000000e+04
1.228100000000000000e+04
1.236100000000000000e+04
1.244200000000000000e+04
1.254500000000000000e+04
1.263200000000000000e+04
1.272000000000000000e+04
1.281100000000000000e+04
1.292000000000000000e+04
1.302100000000000000e+04
1.311100000000000000e+04
1.320500000000000000e+04
1.330500000000000000e+04
1.341900000000000000e+04
1.350900000000000000e+04
1.360200000000000000e+04
1.367600000000000000e+04
1.377300000000000000e+04
1.387800000000000000e+04
