1.000000000000000000e+00
2.000000000000000000e+00
2.000000000000000000e+00
3.000000000000000000e+00
3.000000000000000000e+00
3.000000000000000000e+00
3.000000000000000000e+00
3.000000000000000000e+00
3.000000000000000000e+00
5.000000000000000000e+00
5.000000000000000000e+00
5.000000000000000000e+00
5.000000000000000000e+00
5.000000000000000000e+00
6.000000000000000000e+00
8.000000000000000000e+00
8.000000000000000000e+00
1.000000000000000000e+01
1.100000000000000000e+01
1.100000000000000000e+01
1.200000000000000000e+01
1.600000000000000000e+01
1.600000000000000000e+01
1.900000000000000000e+01
2.300000000000000000e+01
2.300000000000000000e+01
2.700000000000000000e+01
3.200000000000000000e+01
3.700000000000000000e+01
4.200000000000000000e+01
5.000000000000000000e+01
5.800000000000000000e+01
6.800000000000000000e+01
7.500000000000000000e+01
9.100000000000000000e+01
1.020000000000000000e+02
1.180000000000000000e+02
1.390000000000000000e+02
1.520000000000000000e+02
1.840000000000000000e+02
2.130000000000000000e+02
2.450000000000000000e+02
2.830000000000000000e+02
3.260000000000000000e+02
3.790000000000000000e+02
4.250000000000000000e+02
4.920000000000000000e+02
5.680000000000000000e+02
6.600000000000000000e+02
7.690000000000000000e+02
9.040000000000000000e+02
1.042000000000000000e+03
1.196000000000000000e+03
1.390000000000000000e+03
1.622000000000000000e+03
1.855000000000000000e+03
2.167000000000000000e+03
2.498000000000000000e+03
2.897000000000000000e+03
3.310000000000000000e+03
3.842000000000000000e+03
4.421000000000000000e+03
5.150000000000000000e+03
5.937000000000000000e+03
6.883000000000000000e+03
7.914000000000000000e+03
9.129000000000000000e+03
1.056300000000000000e+04
1.228900000000000000e+04
1.411000000000000000e+04
1.631700000000000000e+04
1.885100000000000000e+04
2.176700000000000000e+04
2.530300000000000000e+04
2.925800000000000000e+04
3.385300000000000000e+04
