1.000000000000000000e+00
2.000000000000000000e+00
2.000000000000000000e+00
2.000000000000000000e+00
2.000000000000000000e+00
3.000000000000000000e+00
3.000000000000000000e+00
3.000000000000000000e+00
4.000000000000000000e+00
5.000000000000000000e+00
5.000000000000000000e+00
6.000000000000000000e+00
7.000000000000000000e+00
7.000000000000000000e+00
9.000000000000000000e+00
1.100000000000000000e+01
1.100000000000000000e+01
1.200000000000000000e+01
1.400000000000000000e+01
1.800000000000000000e+01
1.800000000000000000e+01
2.200000000000000000e+01
2.800000000000000000e+01
3.200000000000000000e+01
3.600000000000000000e+01
4.100000000000000000e+01
4.800000000000000000e+01
5.000000000000000000e+01
6.200000000000000000e+01
7.400000000000000000e+01
8.600000000000000000e+01
1.030000000000000000e+02
1.100000000000000000e+02
1.320000000000000000e+02
1.540000000000000000e+02
1.810000000000000000e+02
2.050000000000000000e+02
2.350000000000000000e+02
2.750000000000000000e+02
3.120000000000000000e+02
3.520000000000000000e+02
4.120000000000000000e+02
4.840000000000000000e+02
5.550000000000000000e+02
6.430000000000000000e+02
7.350000000000000000e+02
8.470000000000000000e+02
1.005000000000000000e+03
1.153000000000000000e+03
1.338000000000000000e+03
1.547000000000000000e+03
1.759000000000000000e+03
2.034000000000000000e+03
2.373000000000000000e+03
2.734000000000000000e+03
3.153000000000000000e+03
3.638000000000000000e+03
4.230000000000000000e+03
4.900000000000000000e+03
5.682000000000000000e+03
6.557000000000000000e+03
7.555000000000000000e+03
8.752000000000000000e+03
1.017600000000000000e+04
1.177600000000000000e+04
1.361900000000000000e+04
1.570800000000000000e+04
1.828900000000000000e+04
2.118000000000000000e+04
2.446400000000000000e+04
2.826600000000000000e+04
3.268700000000000000e+04
3.790400000000000000e+04
4.373000000000000000e+04
5.058800000000000000e+04
5.856200000000000000e+04
