1.000000000000000000e+00
2.000000000000000000e+00
2.000000000000000000e+00
2.000000000000000000e+00
2.000000000000000000e+00
3.000000000000000000e+00
3.000000000000000000e+00
3.000000000000000000e+00
3.000000000000000000e+00
4.000000000000000000e+00
5.000000000000000000e+00
5.000000000000000000e+00
5.000000000000000000e+00
5.000000000000000000e+00
6.000000000000000000e+00
7.000000000000000000e+00
7.000000000000000000e+00
9.000000000000000000e+00
9.000000000000000000e+00
1.100000000000000000e+01
1.300000000000000000e+01
1.400000000000000000e+01
1.500000000000000000e+01
1.700000000000000000e+01
2.300000000000000000e+01
2.700000000000000000e+01
2.900000000000000000e+01
3.200000000000000000e+01
3.900000000000000000e+01
4.300000000000000000e+01
4.800000000000000000e+01
5.900000000000000000e+01
6.600000000000000000e+01
7.000000000000000000e+01
9.100000000000000000e+01
1.010000000000000000e+02
1.150000000000000000e+02
1.330000000000000000e+02
1.530000000000000000e+02
1.730000000000000000e+02
2.090000000000000000e+02
2.400000000000000000e+02
2.740000000000000000e+02
3.160000000000000000e+02
3.640000000000000000e+02
4.260000000000000000e+02
5.060000000000000000e+02
5.690000000000000000e+02
6.650000000000000000e+02
7.840000000000000000e+02
8.830000000000000000e+02
1.021000000000000000e+03
1.172000000000000000e+03
1.361000000000000000e+03
1.584000000000000000e+03
1.837000000000000000e+03
2.117000000000000000e+03
2.448000000000000000e+03
2.866000000000000000e+03
3.308000000000000000e+03
3.807000000000000000e+03
4.387000000000000000e+03
5.123000000000000000e+03
5.911000000000000000e+03
6.854000000000000000e+03
7.852000000000000000e+03
9.153000000000000000e+03
1.054800000000000000e+04
1.220200000000000000e+04
1.409200000000000000e+04
1.634200000000000000e+04
1.891500000000000000e+04
2.189300000000000000e+04
2.535900000000000000e+04
2.935900000000000000e+04
3.397100000000000000e+04
