1.000000000000000000e+00
2.000000000000000000e+00
2.000000000000000000e+00
2.000000000000000000e+00
2.000000000000000000e+00
2.000000000000000000e+00
2.000000000000000000e+00
2.000000000000000000e+00
2.000000000000000000e+00
2.000000000000000000e+00
2.000000000000000000e+00
2.000000000000000000e+00
2.000000000000000000e+00
2.000000000000000000e+00
2.000000000000000000e+00
2.000000000000000000e+00
2.000000000000000000e+00
2.000000000000000000e+00
2.000000000000000000e+00
2.000000000000000000e+00
2.000000000000000000e+00
2.000000000000000000e+00
2.000000000000000000e+00
2.000000000000000000e+00
2.000000000000000000e+00
2.000000000000000000e+00
2.000000000000000000e+00
2.000000000000000000e+00
2.000000000000000000e+00
2.000000000000000000e+00
2.000000000000000000e+00
2.000000000000000000e+00
2.000000000000000000e+00
2.000000000000000000e+00
2.000000000000000000e+00
2.000000000000000000e+00
2.000000000000000000e+00
2.000000000000000000e+00
2.000000000000000000e+00
2.000000000000000000e+00
2.000000000000000000e+00
2.000000000000000000e+00
2.000000000000000000e+00
2.000000000000000000e+00
2.000000000000000000e+00
2.000000000000000000e+00
2.000000000000000000e+00
2.000000000000000000e+00
2.000000000000000000e+00
2.000000000000000000e+00
2.000000000000000000e+00
2.000000000000000000e+00
2.000000000000000000e+00
2.000000000000000000e+00
2.000000000000000000e+00
2.000000000000000000e+00
2.000000000000000000e+00
2.000000000000000000e+00
2.000000000000000000e+00
2.000000000000000000e+00
2.000000000000000000e+00
2.000000000000000000e+00
2.000000000000000000e+00
2.000000000000000000e+00
2.000000000000000000e+00
2.000000000000000000e+00
2.000000000000000000e+00
2.000000000000000000e+00
2.000000000000000000e+00
2.000000000000000000e+00
2.000000000000000000e+00
2.000000000000000000e+00
2.000000000000000000e+00
2.000000000000000000e+00
2.000000000000000000e+00
2.000000000000000000e+00
2.000000000000000000e+00
2.000000000000000000e+00
2.000000000000000000e+00
2.000000000000000000e+00
2.000000000000000000e+00
2.000000000000000000e+00
2.000000000000000000e+00
2.000000000000000000e+00
2.000000000000000000e+00
2.000000000000000000e+00
2.000000000000000000e+00
2.000000000000000000e+00
2.000000000000000000e+00
2.000000000000000000e+00
2.000000000000000000e+00
2.000000000000000000e+00
2.000000000000000000e+00
2.000000000000000000e+00
2.000000000000000000e+00
2.000000000000000000e+00
2.000000000000000000e+00
2.000000000000000000e+00
2.000000000000000000e+00
2.000000000000000000e+00
2.000000000000000000e+00
2.000000000000000000e+00
2.000000000000000000e+00
2.000000000000000000e+00
2.000000000000000000e+00
2.000000000000000000e+00
2.000000000000000000e+00
2.000000000000000000e+00
2.000000000000000000e+00
2.000000000000000000e+00
2.000000000000000000e+00
2.000000000000000000e+00
2.000000000000000000e+00
3.000000000000000000e+00
3.000000000000000000e+00
3.000000000000000000e+00
3.000000000000000000e+00
3.000000000000000000e+00
3.000000000000000000e+00
3.000000000000000000e+00
3.000000000000000000e+00
3.000000000000000000e+00
3.000000000000000000e+00
3.000000000000000000e+00
3.000000000000000000e+00
3.000000000000000000e+00
3.000000000000000000e+00
3.000000000000000000e+00
3.000000000000000000e+00
3.000000000000000000e+00
3.000000000000000000e+00
3.000000000000000000e+00
3.000000000000000000e+00
3.000000000000000000e+00
3.000000000000000000e+00
3.000000000000000000e+00
3.000000000000000000e+00
3.000000000000000000e+00
3.000000000000000000e+00
3.000000000000000000e+00
3.000000000000000000e+00
3.000000000000000000e+00
3.000000000000000000e+00
3.000000000000000000e+00
3.000000000000000000e+00
3.000000000000000000e+00
3.000000000000000000e+00
3.000000000000000000e+00
3.000000000000000000e+00
3.000000000000000000e+00
3.000000000000000000e+00
3.000000000000000000e+00
3.000000000000000000e+00
3.000000000000000000e+00
3.000000000000000000e+00
3.000000000000000000e+00
3.000000000000000000e+00
3.000000000000000000e+00
3.000000000000000000e+00
3.000000000000000000e+00
3.000000000000000000e+00
3.000000000000000000e+00
3.000000000000000000e+00
3.000000000000000000e+00
3.000000000000000000e+00
3.000000000000000000e+00
3.000000000000000000e+00
3.000000000000000000e+00
3.000000000000000000e+00
3.000000000000000000e+00
3.000000000000000000e+00
3.000000000000000000e+00
3.000000000000000000e+00
3.000000000000000000e+00
3.000000000000000000e+00
3.000000000000000000e+00
3.000000000000000000e+00
3.000000000000000000e+00
3.000000000000000000e+00
3.000000000000000000e+00
3.000000000000000000e+00
3.000000000000000000e+00
3.000000000000000000e+00
3.000000000000000000e+00
3.000000000000000000e+00
3.000000000000000000e+00
3.000000000000000000e+00
3.000000000000000000e+00
3.000000000000000000e+00
3.000000000000000000e+00
3.000000000000000000e+00
3.000000000000000000e+00
3.000000000000000000e+00
3.000000000000000000e+00
3.000000000000000000e+00
3.000000000000000000e+00
3.000000000000000000e+00
3.000000000000000000e+00
3.000000000000000000e+00
3.000000000000000000e+00
3.000000000000000000e+00
3.000000000000000000e+00
3.000000000000000000e+00
3.000000000000000000e+00
3.000000000000000000e+00
3.000000000000000000e+00
3.000000000000000000e+00
3.000000000000000000e+00
3.000000000000000000e+00
3.000000000000000000e+00
3.000000000000000000e+00
3.000000000000000000e+00
3.000000000000000000e+00
3.000000000000000000e+00
4.000000000000000000e+00
4.000000000000000000e+00
4.000000000000000000e+00
4.000000000000000000e+00
4.000000000000000000e+00
4.000000000000000000e+00
4.000000000000000000e+00
4.000000000000000000e+00
4.000000000000000000e+00
4.000000000000000000e+00
4.000000000000000000e+00
4.000000000000000000e+00
4.000000000000000000e+00
4.000000000000000000e+00
4.000000000000000000e+00
4.000000000000000000e+00
4.000000000000000000e+00
4.000000000000000000e+00
4.000000000000000000e+00
4.000000000000000000e+00
4.000000000000000000e+00
4.000000000000000000e+00
4.000000000000000000e+00
4.000000000000000000e+00
4.000000000000000000e+00
4.000000000000000000e+00
4.000000000000000000e+00
4.000000000000000000e+00
4.000000000000000000e+00
4.000000000000000000e+00
4.000000000000000000e+00
4.000000000000000000e+00
4.000000000000000000e+00
4.000000000000000000e+00
5.000000000000000000e+00
5.000000000000000000e+00
5.000000000000000000e+00
5.000000000000000000e+00
5.000000000000000000e+00
5.000000000000000000e+00
5.000000000000000000e+00
5.000000000000000000e+00
5.000000000000000000e+00
5.000000000000000000e+00
6.000000000000000000e+00
6.000000000000000000e+00
6.000000000000000000e+00
6.000000000000000000e+00
6.000000000000000000e+00
6.000000000000000000e+00
6.000000000000000000e+00
6.000000000000000000e+00
6.000000000000000000e+00
6.000000000000000000e+00
6.000000000000000000e+00
6.000000000000000000e+00
6.000000000000000000e+00
6.000000000000000000e+00
6.000000000000000000e+00
6.000000000000000000e+00
6.000000000000000000e+00
6.000000000000000000e+00
6.000000000000000000e+00
6.000000000000000000e+00
6.000000000000000000e+00
6.000000000000000000e+00
6.000000000000000000e+00
6.000000000000000000e+00
6.000000000000000000e+00
7.000000000000000000e+00
7.000000000000000000e+00
7.000000000000000000e+00
7.000000000000000000e+00
7.000000000000000000e+00
8.000000000000000000e+00
8.000000000000000000e+00
8.000000000000000000e+00
8.000000000000000000e+00
8.000000000000000000e+00
8.000000000000000000e+00
8.000000000000000000e+00
8.000000000000000000e+00
8.000000000000000000e+00
8.000000000000000000e+00
8.000000000000000000e+00
8.000000000000000000e+00
8.000000000000000000e+00
8.000000000000000000e+00
8.000000000000000000e+00
8.000000000000000000e+00
8.000000000000000000e+00
8.000000000000000000e+00
8.000000000000000000e+00
8.000000000000000000e+00
8.000000000000000000e+00
8.000000000000000000e+00
8.000000000000000000e+00
8.000000000000000000e+00
8.000000000000000000e+00
8.000000000000000000e+00
8.000000000000000000e+00
8.000000000000000000e+00
8.000000000000000000e+00
8.000000000000000000e+00
8.000000000000000000e+00
8.000000000000000000e+00
8.000000000000000000e+00
8.000000000000000000e+00
8.000000000000000000e+00
9.000000000000000000e+00
9.000000000000000000e+00
9.000000000000000000e+00
9.000000000000000000e+00
9.000000000000000000e+00
9.000000000000000000e+00
9.000000000000000000e+00
9.000000000000000000e+00
9.000000000000000000e+00
9.000000000000000000e+00
9.000000000000000000e+00
9.000000000000000000e+00
9.000000000000000000e+00
9.000000000000000000e+00
9.000000000000000000e+00
9.000000000000000000e+00
9.000000000000000000e+00
9.000000000000000000e+00
9.000000000000000000e+00
9.000000000000000000e+00
9.000000000000000000e+00
9.000000000000000000e+00
9.000000000000000000e+00
9.000000000000000000e+00
9.000000000000000000e+00
9.000000000000000000e+00
9.000000000000000000e+00
9.000000000000000000e+00
9.000000000000000000e+00
9.000000000000000000e+00
9.000000000000000000e+00
9.000000000000000000e+00
9.000000000000000000e+00
9.000000000000000000e+00
9.000000000000000000e+00
1.000000000000000000e+01
1.000000000000000000e+01
1.000000000000000000e+01
1.000000000000000000e+01
1.000000000000000000e+01
1.000000000000000000e+01
1.000000000000000000e+01
1.000000000000000000e+01
1.100000000000000000e+01
1.100000000000000000e+01
1.100000000000000000e+01
1.100000000000000000e+01
1.100000000000000000e+01
1.200000000000000000e+01
1.200000000000000000e+01
1.200000000000000000e+01
1.200000000000000000e+01
1.200000000000000000e+01
1.200000000000000000e+01
1.200000000000000000e+01
1.200000000000000000e+01
1.200000000000000000e+01
1.200000000000000000e+01
1.200000000000000000e+01
1.200000000000000000e+01
1.200000000000000000e+01
1.300000000000000000e+01
1.300000000000000000e+01
1.300000000000000000e+01
1.300000000000000000e+01
1.300000000000000000e+01
1.300000000000000000e+01
1.300000000000000000e+01
1.400000000000000000e+01
1.500000000000000000e+01
1.500000000000000000e+01
1.500000000000000000e+01
1.500000000000000000e+01
1.500000000000000000e+01
1.500000000000000000e+01
1.500000000000000000e+01
1.500000000000000000e+01
1.500000000000000000e+01
1.500000000000000000e+01
1.500000000000000000e+01
1.500000000000000000e+01
1.500000000000000000e+01
1.500000000000000000e+01
1.500000000000000000e+01
1.500000000000000000e+01
1.500000000000000000e+01
1.500000000000000000e+01
1.600000000000000000e+01
1.600000000000000000e+01
1.700000000000000000e+01
1.700000000000000000e+01
1.700000000000000000e+01
1.700000000000000000e+01
1.700000000000000000e+01
1.700000000000000000e+01
1.700000000000000000e+01
1.700000000000000000e+01
1.700000000000000000e+01
1.700000000000000000e+01
1.700000000000000000e+01
1.800000000000000000e+01
1.800000000000000000e+01
1.800000000000000000e+01
1.800000000000000000e+01
1.800000000000000000e+01
1.800000000000000000e+01
1.900000000000000000e+01
1.900000000000000000e+01
1.900000000000000000e+01
1.900000000000000000e+01
1.900000000000000000e+01
1.900000000000000000e+01
1.900000000000000000e+01
1.900000000000000000e+01
1.900000000000000000e+01
2.000000000000000000e+01
2.000000000000000000e+01
2.000000000000000000e+01
2.000000000000000000e+01
2.000000000000000000e+01
2.000000000000000000e+01
2.000000000000000000e+01
2.000000000000000000e+01
2.000000000000000000e+01
2.000000000000000000e+01
2.000000000000000000e+01
2.000000000000000000e+01
2.000000000000000000e+01
2.000000000000000000e+01
2.000000000000000000e+01
2.000000000000000000e+01
2.000000000000000000e+01
2.000000000000000000e+01
2.100000000000000000e+01
2.100000000000000000e+01
2.100000000000000000e+01
2.200000000000000000e+01
2.200000000000000000e+01
2.200000000000000000e+01
2.200000000000000000e+01
2.200000000000000000e+01
2.200000000000000000e+01
2.400000000000000000e+01
2.400000000000000000e+01
2.400000000000000000e+01
2.400000000000000000e+01
2.500000000000000000e+01
2.500000000000000000e+01
2.600000000000000000e+01
2.700000000000000000e+01
2.700000000000000000e+01
2.700000000000000000e+01
2.700000000000000000e+01
2.700000000000000000e+01
2.700000000000000000e+01
2.700000000000000000e+01
2.700000000000000000e+01
2.800000000000000000e+01
2.800000000000000000e+01
2.800000000000000000e+01
2.800000000000000000e+01
2.800000000000000000e+01
2.800000000000000000e+01
2.800000000000000000e+01
2.800000000000000000e+01
2.800000000000000000e+01
2.800000000000000000e+01
2.800000000000000000e+01
2.800000000000000000e+01
2.800000000000000000e+01
2.800000000000000000e+01
2.800000000000000000e+01
2.800000000000000000e+01
2.800000000000000000e+01
2.800000000000000000e+01
2.800000000000000000e+01
2.800000000000000000e+01
2.900000000000000000e+01
2.900000000000000000e+01
2.900000000000000000e+01
2.900000000000000000e+01
2.900000000000000000e+01
2.900000000000000000e+01
2.900000000000000000e+01
2.900000000000000000e+01
2.900000000000000000e+01
2.900000000000000000e+01
3.100000000000000000e+01
3.100000000000000000e+01
3.100000000000000000e+01
3.200000000000000000e+01
3.200000000000000000e+01
3.400000000000000000e+01
3.500000000000000000e+01
3.500000000000000000e+01
3.500000000000000000e+01
3.700000000000000000e+01
3.700000000000000000e+01
3.700000000000000000e+01
3.700000000000000000e+01
3.700000000000000000e+01
3.700000000000000000e+01
3.700000000000000000e+01
3.700000000000000000e+01
3.700000000000000000e+01
3.700000000000000000e+01
3.700000000000000000e+01
4.000000000000000000e+01
4.000000000000000000e+01
4.000000000000000000e+01
4.000000000000000000e+01
4.000000000000000000e+01
4.000000000000000000e+01
4.000000000000000000e+01
4.100000000000000000e+01
4.100000000000000000e+01
4.100000000000000000e+01
4.100000000000000000e+01
4.100000000000000000e+01
4.100000000000000000e+01
4.100000000000000000e+01
4.100000000000000000e+01
4.200000000000000000e+01
4.200000000000000000e+01
4.200000000000000000e+01
4.200000000000000000e+01
4.400000000000000000e+01
4.400000000000000000e+01
4.400000000000000000e+01
4.500000000000000000e+01
4.500000000000000000e+01
4.500000000000000000e+01
4.600000000000000000e+01
4.600000000000000000e+01
4.800000000000000000e+01
4.800000000000000000e+01
4.900000000000000000e+01
4.900000000000000000e+01
5.000000000000000000e+01
5.000000000000000000e+01
5.100000000000000000e+01
5.100000000000000000e+01
5.100000000000000000e+01
5.100000000000000000e+01
5.100000000000000000e+01
5.100000000000000000e+01
5.100000000000000000e+01
5.100000000000000000e+01
5.300000000000000000e+01
5.300000000000000000e+01
5.300000000000000000e+01
5.300000000000000000e+01
5.300000000000000000e+01
5.300000000000000000e+01
5.400000000000000000e+01
5.400000000000000000e+01
5.400000000000000000e+01
5.400000000000000000e+01
5.400000000000000000e+01
5.400000000000000000e+01
5.400000000000000000e+01
5.500000000000000000e+01
5.500000000000000000e+01
5.600000000000000000e+01
5.800000000000000000e+01
5.800000000000000000e+01
5.900000000000000000e+01
5.900000000000000000e+01
5.900000000000000000e+01
5.900000000000000000e+01
5.900000000000000000e+01
5.900000000000000000e+01
5.900000000000000000e+01
6.000000000000000000e+01
6.000000000000000000e+01
6.000000000000000000e+01
6.000000000000000000e+01
6.000000000000000000e+01
6.000000000000000000e+01
6.200000000000000000e+01
6.300000000000000000e+01
6.400000000000000000e+01
6.400000000000000000e+01
6.500000000000000000e+01
6.500000000000000000e+01
6.500000000000000000e+01
6.600000000000000000e+01
6.600000000000000000e+01
6.700000000000000000e+01
6.800000000000000000e+01
6.800000000000000000e+01
6.800000000000000000e+01
6.900000000000000000e+01
6.900000000000000000e+01
6.900000000000000000e+01
7.100000000000000000e+01
7.100000000000000000e+01
7.200000000000000000e+01
7.200000000000000000e+01
7.300000000000000000e+01
7.300000000000000000e+01
7.300000000000000000e+01
7.400000000000000000e+01
7.400000000000000000e+01
7.500000000000000000e+01
7.700000000000000000e+01
7.700000000000000000e+01
7.800000000000000000e+01
7.800000000000000000e+01
7.800000000000000000e+01
7.800000000000000000e+01
8.000000000000000000e+01
8.100000000000000000e+01
8.100000000000000000e+01
8.100000000000000000e+01
8.200000000000000000e+01
8.300000000000000000e+01
8.500000000000000000e+01
8.500000000000000000e+01
8.600000000000000000e+01
8.600000000000000000e+01
8.700000000000000000e+01
8.800000000000000000e+01
8.800000000000000000e+01
8.900000000000000000e+01
8.900000000000000000e+01
9.000000000000000000e+01
9.000000000000000000e+01
9.000000000000000000e+01
9.100000000000000000e+01
9.200000000000000000e+01
9.300000000000000000e+01
9.500000000000000000e+01
9.600000000000000000e+01
9.600000000000000000e+01
9.700000000000000000e+01
9.700000000000000000e+01
9.700000000000000000e+01
9.700000000000000000e+01
9.800000000000000000e+01
9.800000000000000000e+01
9.800000000000000000e+01
9.900000000000000000e+01
9.900000000000000000e+01
9.900000000000000000e+01
1.000000000000000000e+02
1.020000000000000000e+02
1.030000000000000000e+02
1.030000000000000000e+02
1.030000000000000000e+02
1.030000000000000000e+02
1.030000000000000000e+02
1.030000000000000000e+02
1.030000000000000000e+02
1.030000000000000000e+02
1.040000000000000000e+02
1.050000000000000000e+02
1.070000000000000000e+02
1.070000000000000000e+02
1.100000000000000000e+02
1.110000000000000000e+02
1.110000000000000000e+02
1.110000000000000000e+02
1.130000000000000000e+02
1.150000000000000000e+02
1.170000000000000000e+02
1.170000000000000000e+02
1.180000000000000000e+02
1.180000000000000000e+02
1.180000000000000000e+02
1.180000000000000000e+02
1.190000000000000000e+02
1.200000000000000000e+02
1.200000000000000000e+02
1.200000000000000000e+02
1.220000000000000000e+02
1.240000000000000000e+02
1.250000000000000000e+02
1.260000000000000000e+02
1.260000000000000000e+02
1.280000000000000000e+02
1.280000000000000000e+02
1.290000000000000000e+02
1.310000000000000000e+02
1.330000000000000000e+02
1.350000000000000000e+02
1.360000000000000000e+02
1.380000000000000000e+02
1.380000000000000000e+02
1.390000000000000000e+02
1.430000000000000000e+02
1.430000000000000000e+02
1.450000000000000000e+02
1.450000000000000000e+02
1.460000000000000000e+02
1.480000000000000000e+02
1.480000000000000000e+02
1.500000000000000000e+02
1.510000000000000000e+02
1.510000000000000000e+02
1.530000000000000000e+02
1.540000000000000000e+02
1.550000000000000000e+02
1.550000000000000000e+02
1.560000000000000000e+02
1.570000000000000000e+02
1.610000000000000000e+02
1.620000000000000000e+02
1.640000000000000000e+02
1.670000000000000000e+02
1.710000000000000000e+02
1.730000000000000000e+02
1.730000000000000000e+02
1.740000000000000000e+02
1.740000000000000000e+02
1.750000000000000000e+02
1.760000000000000000e+02
1.790000000000000000e+02
1.790000000000000000e+02
1.810000000000000000e+02
1.840000000000000000e+02
1.860000000000000000e+02
1.890000000000000000e+02
1.900000000000000000e+02
1.900000000000000000e+02
1.930000000000000000e+02
1.940000000000000000e+02
1.950000000000000000e+02
1.960000000000000000e+02
1.960000000000000000e+02
1.970000000000000000e+02
1.970000000000000000e+02
1.980000000000000000e+02
1.990000000000000000e+02
2.010000000000000000e+02
2.020000000000000000e+02
2.020000000000000000e+02
2.020000000000000000e+02
2.030000000000000000e+02
2.040000000000000000e+02
2.050000000000000000e+02
2.090000000000000000e+02
2.110000000000000000e+02
2.130000000000000000e+02
2.160000000000000000e+02
2.180000000000000000e+02
2.210000000000000000e+02
2.210000000000000000e+02
2.220000000000000000e+02
2.220000000000000000e+02
2.220000000000000000e+02
2.240000000000000000e+02
2.260000000000000000e+02
2.280000000000000000e+02
2.310000000000000000e+02
2.310000000000000000e+02
2.320000000000000000e+02
2.350000000000000000e+02
2.350000000000000000e+02
2.360000000000000000e+02
2.370000000000000000e+02
2.390000000000000000e+02
2.420000000000000000e+02
2.430000000000000000e+02
2.430000000000000000e+02
2.440000000000000000e+02
2.460000000000000000e+02
2.470000000000000000e+02
2.480000000000000000e+02
2.510000000000000000e+02
2.540000000000000000e+02
2.550000000000000000e+02
2.560000000000000000e+02
2.590000000000000000e+02
2.610000000000000000e+02
2.630000000000000000e+02
2.660000000000000000e+02
2.670000000000000000e+02
2.680000000000000000e+02
2.700000000000000000e+02
2.740000000000000000e+02
2.790000000000000000e+02
2.810000000000000000e+02
2.840000000000000000e+02
2.880000000000000000e+02
2.880000000000000000e+02
2.910000000000000000e+02
2.920000000000000000e+02
2.930000000000000000e+02
2.940000000000000000e+02
2.940000000000000000e+02
2.950000000000000000e+02
2.970000000000000000e+02
3.020000000000000000e+02
3.050000000000000000e+02
3.090000000000000000e+02
3.130000000000000000e+02
3.130000000000000000e+02
3.150000000000000000e+02
3.180000000000000000e+02
3.200000000000000000e+02
3.240000000000000000e+02
3.250000000000000000e+02
3.270000000000000000e+02
3.300000000000000000e+02
3.310000000000000000e+02
3.350000000000000000e+02
3.380000000000000000e+02
3.410000000000000000e+02
3.430000000000000000e+02
3.430000000000000000e+02
3.460000000000000000e+02
3.490000000000000000e+02
3.500000000000000000e+02
3.520000000000000000e+02
3.570000000000000000e+02
3.590000000000000000e+02
3.610000000000000000e+02
3.650000000000000000e+02
3.690000000000000000e+02
3.700000000000000000e+02
3.730000000000000000e+02
3.790000000000000000e+02
3.790000000000000000e+02
3.830000000000000000e+02
3.830000000000000000e+02
3.890000000000000000e+02
3.910000000000000000e+02
3.970000000000000000e+02
4.000000000000000000e+02
4.010000000000000000e+02
4.020000000000000000e+02
4.020000000000000000e+02
4.040000000000000000e+02
4.070000000000000000e+02
4.130000000000000000e+02
4.190000000000000000e+02
4.210000000000000000e+02
4.270000000000000000e+02
4.290000000000000000e+02
4.340000000000000000e+02
4.360000000000000000e+02
4.410000000000000000e+02
4.410000000000000000e+02
4.450000000000000000e+02
4.450000000000000000e+02
4.480000000000000000e+02
4.510000000000000000e+02
4.520000000000000000e+02
4.570000000000000000e+02
4.620000000000000000e+02
4.650000000000000000e+02
4.660000000000000000e+02
4.720000000000000000e+02
4.770000000000000000e+02
4.830000000000000000e+02
4.850000000000000000e+02
4.860000000000000000e+02
4.870000000000000000e+02
4.900000000000000000e+02
4.940000000000000000e+02
5.000000000000000000e+02
5.010000000000000000e+02
5.040000000000000000e+02
5.070000000000000000e+02
5.100000000000000000e+02
5.140000000000000000e+02
5.150000000000000000e+02
5.150000000000000000e+02
5.190000000000000000e+02
5.190000000000000000e+02
5.200000000000000000e+02
5.260000000000000000e+02
5.280000000000000000e+02
5.300000000000000000e+02
5.330000000000000000e+02
5.370000000000000000e+02
5.420000000000000000e+02
5.430000000000000000e+02
5.470000000000000000e+02
5.510000000000000000e+02
5.540000000000000000e+02
5.600000000000000000e+02
5.680000000000000000e+02
5.700000000000000000e+02
5.770000000000000000e+02
5.810000000000000000e+02
5.870000000000000000e+02
5.910000000000000000e+02
5.940000000000000000e+02
5.980000000000000000e+02
6.070000000000000000e+02
6.130000000000000000e+02
6.250000000000000000e+02
6.330000000000000000e+02
6.420000000000000000e+02
6.470000000000000000e+02
6.540000000000000000e+02
6.560000000000000000e+02
6.600000000000000000e+02
6.670000000000000000e+02
6.750000000000000000e+02
6.800000000000000000e+02
6.820000000000000000e+02
6.850000000000000000e+02
6.890000000000000000e+02
6.920000000000000000e+02
6.950000000000000000e+02
6.970000000000000000e+02
7.020000000000000000e+02
7.080000000000000000e+02
7.150000000000000000e+02
7.180000000000000000e+02
7.230000000000000000e+02
7.240000000000000000e+02
7.320000000000000000e+02
7.360000000000000000e+02
7.440000000000000000e+02
7.470000000000000000e+02
7.530000000000000000e+02
7.570000000000000000e+02
7.620000000000000000e+02
7.660000000000000000e+02
7.750000000000000000e+02
7.790000000000000000e+02
7.840000000000000000e+02
7.890000000000000000e+02
7.960000000000000000e+02
7.990000000000000000e+02
8.090000000000000000e+02
8.150000000000000000e+02
8.240000000000000000e+02
8.370000000000000000e+02
8.460000000000000000e+02
8.490000000000000000e+02
8.570000000000000000e+02
8.630000000000000000e+02
8.680000000000000000e+02
8.690000000000000000e+02
8.720000000000000000e+02
8.760000000000000000e+02
8.800000000000000000e+02
8.880000000000000000e+02
8.940000000000000000e+02
9.010000000000000000e+02
9.080000000000000000e+02
9.200000000000000000e+02
9.260000000000000000e+02
9.310000000000000000e+02
9.410000000000000000e+02
9.480000000000000000e+02
9.530000000000000000e+02
9.610000000000000000e+02
9.690000000000000000e+02
9.820000000000000000e+02
9.880000000000000000e+02
9.960000000000000000e+02
1.003000000000000000e+03
1.007000000000000000e+03
1.015000000000000000e+03
1.024000000000000000e+03
1.035000000000000000e+03
1.041000000000000000e+03
1.048000000000000000e+03
1.054000000000000000e+03
1.061000000000000000e+03
1.067000000000000000e+03
1.077000000000000000e+03
1.087000000000000000e+03
1.098000000000000000e+03
1.102000000000000000e+03
1.107000000000000000e+03
1.110000000000000000e+03
1.125000000000000000e+03
1.130000000000000000e+03
1.143000000000000000e+03
1.152000000000000000e+03
1.165000000000000000e+03
1.172000000000000000e+03
1.178000000000000000e+03
1.187000000000000000e+03
1.197000000000000000e+03
1.203000000000000000e+03
1.210000000000000000e+03
1.218000000000000000e+03
1.231000000000000000e+03
1.237000000000000000e+03
1.244000000000000000e+03
1.253000000000000000e+03
1.262000000000000000e+03
1.273000000000000000e+03
1.278000000000000000e+03
1.288000000000000000e+03
1.298000000000000000e+03
1.308000000000000000e+03
1.320000000000000000e+03
1.334000000000000000e+03
1.346000000000000000e+03
1.354000000000000000e+03
1.365000000000000000e+03
1.373000000000000000e+03
1.385000000000000000e+03
1.395000000000000000e+03
1.409000000000000000e+03
1.421000000000000000e+03
1.434000000000000000e+03
1.440000000000000000e+03
1.447000000000000000e+03
1.454000000000000000e+03
1.465000000000000000e+03
1.474000000000000000e+03
1.489000000000000000e+03
1.503000000000000000e+03
1.516000000000000000e+03
1.530000000000000000e+03
1.546000000000000000e+03
1.554000000000000000e+03
1.566000000000000000e+03
1.575000000000000000e+03
1.587000000000000000e+03
1.605000000000000000e+03
1.612000000000000000e+03
1.620000000000000000e+03
1.629000000000000000e+03
1.639000000000000000e+03
1.652000000000000000e+03
1.664000000000000000e+03
1.682000000000000000e+03
1.694000000000000000e+03
1.705000000000000000e+03
1.712000000000000000e+03
1.722000000000000000e+03
1.732000000000000000e+03
1.738000000000000000e+03
1.758000000000000000e+03
1.777000000000000000e+03
1.793000000000000000e+03
1.808000000000000000e+03
1.815000000000000000e+03
1.834000000000000000e+03
1.844000000000000000e+03
1.856000000000000000e+03
1.867000000000000000e+03
1.878000000000000000e+03
1.890000000000000000e+03
1.902000000000000000e+03
1.916000000000000000e+03
1.926000000000000000e+03
1.942000000000000000e+03
1.952000000000000000e+03
1.962000000000000000e+03
1.985000000000000000e+03
1.998000000000000000e+03
2.013000000000000000e+03
2.033000000000000000e+03
2.049000000000000000e+03
2.070000000000000000e+03
2.088000000000000000e+03
2.096000000000000000e+03
2.111000000000000000e+03
2.126000000000000000e+03
2.149000000000000000e+03
2.165000000000000000e+03
2.183000000000000000e+03
2.199000000000000000e+03
2.219000000000000000e+03
2.230000000000000000e+03
2.252000000000000000e+03
2.266000000000000000e+03
2.286000000000000000e+03
2.300000000000000000e+03
2.316000000000000000e+03
2.333000000000000000e+03
2.349000000000000000e+03
2.370000000000000000e+03
2.381000000000000000e+03
2.397000000000000000e+03
2.414000000000000000e+03
2.429000000000000000e+03
2.448000000000000000e+03
2.456000000000000000e+03
2.476000000000000000e+03
2.501000000000000000e+03
2.518000000000000000e+03
2.532000000000000000e+03
2.556000000000000000e+03
2.573000000000000000e+03
2.593000000000000000e+03
2.615000000000000000e+03
2.638000000000000000e+03
2.657000000000000000e+03
2.675000000000000000e+03
2.694000000000000000e+03
2.711000000000000000e+03
2.727000000000000000e+03
2.755000000000000000e+03
2.776000000000000000e+03
2.805000000000000000e+03
2.826000000000000000e+03
2.851000000000000000e+03
2.868000000000000000e+03
2.890000000000000000e+03
2.914000000000000000e+03
2.937000000000000000e+03
2.966000000000000000e+03
2.992000000000000000e+03
2.999000000000000000e+03
3.024000000000000000e+03
3.047000000000000000e+03
3.080000000000000000e+03
3.107000000000000000e+03
3.126000000000000000e+03
3.141000000000000000e+03
3.167000000000000000e+03
3.185000000000000000e+03
3.211000000000000000e+03
3.229000000000000000e+03
3.248000000000000000e+03
3.270000000000000000e+03
3.290000000000000000e+03
3.308000000000000000e+03
3.341000000000000000e+03
3.371000000000000000e+03
3.391000000000000000e+03
3.410000000000000000e+03
3.435000000000000000e+03
3.452000000000000000e+03
3.472000000000000000e+03
3.501000000000000000e+03
3.518000000000000000e+03
3.541000000000000000e+03
3.558000000000000000e+03
3.591000000000000000e+03
3.626000000000000000e+03
3.657000000000000000e+03
3.686000000000000000e+03
3.717000000000000000e+03
3.747000000000000000e+03
3.788000000000000000e+03
3.817000000000000000e+03
3.845000000000000000e+03
3.883000000000000000e+03
3.909000000000000000e+03
3.930000000000000000e+03
3.952000000000000000e+03
3.976000000000000000e+03
4.002000000000000000e+03
4.036000000000000000e+03
4.070000000000000000e+03
4.091000000000000000e+03
4.119000000000000000e+03
4.147000000000000000e+03
4.178000000000000000e+03
4.215000000000000000e+03
4.246000000000000000e+03
4.276000000000000000e+03
4.312000000000000000e+03
4.337000000000000000e+03
4.368000000000000000e+03
4.399000000000000000e+03
4.433000000000000000e+03
4.468000000000000000e+03
4.498000000000000000e+03
4.520000000000000000e+03
4.558000000000000000e+03
4.599000000000000000e+03
4.640000000000000000e+03
4.660000000000000000e+03
4.695000000000000000e+03
4.737000000000000000e+03
4.772000000000000000e+03
4.817000000000000000e+03
4.857000000000000000e+03
4.898000000000000000e+03
4.932000000000000000e+03
4.972000000000000000e+03
5.012000000000000000e+03
5.053000000000000000e+03
5.084000000000000000e+03
5.123000000000000000e+03
5.170000000000000000e+03
5.205000000000000000e+03
5.252000000000000000e+03
5.293000000000000000e+03
5.333000000000000000e+03
5.378000000000000000e+03
5.424000000000000000e+03
5.470000000000000000e+03
5.501000000000000000e+03
5.542000000000000000e+03
5.576000000000000000e+03
5.615000000000000000e+03
5.645000000000000000e+03
5.676000000000000000e+03
5.712000000000000000e+03
5.762000000000000000e+03
5.812000000000000000e+03
5.855000000000000000e+03
5.909000000000000000e+03
5.948000000000000000e+03
5.983000000000000000e+03
6.024000000000000000e+03
6.063000000000000000e+03
6.110000000000000000e+03
6.144000000000000000e+03
6.180000000000000000e+03
6.222000000000000000e+03
6.269000000000000000e+03
6.303000000000000000e+03
6.350000000000000000e+03
6.398000000000000000e+03
6.447000000000000000e+03
6.496000000000000000e+03
6.548000000000000000e+03
6.600000000000000000e+03
6.651000000000000000e+03
6.707000000000000000e+03
6.745000000000000000e+03
6.796000000000000000e+03
6.835000000000000000e+03
6.884000000000000000e+03
6.936000000000000000e+03
6.988000000000000000e+03
7.043000000000000000e+03
7.101000000000000000e+03
7.153000000000000000e+03
7.197000000000000000e+03
7.251000000000000000e+03
7.319000000000000000e+03
7.371000000000000000e+03
7.426000000000000000e+03
7.479000000000000000e+03
7.539000000000000000e+03
7.596000000000000000e+03
7.663000000000000000e+03
7.705000000000000000e+03
7.778000000000000000e+03
7.838000000000000000e+03
7.896000000000000000e+03
7.964000000000000000e+03
8.045000000000000000e+03
8.109000000000000000e+03
8.173000000000000000e+03
8.227000000000000000e+03
8.292000000000000000e+03
8.351000000000000000e+03
8.412000000000000000e+03
8.479000000000000000e+03
8.536000000000000000e+03
8.605000000000000000e+03
8.664000000000000000e+03
8.726000000000000000e+03
8.801000000000000000e+03
8.858000000000000000e+03
8.932000000000000000e+03
8.997000000000000000e+03
9.064000000000000000e+03
9.128000000000000000e+03
9.200000000000000000e+03
9.271000000000000000e+03
9.320000000000000000e+03
9.395000000000000000e+03
9.463000000000000000e+03
9.524000000000000000e+03
9.595000000000000000e+03
9.660000000000000000e+03
9.721000000000000000e+03
9.785000000000000000e+03
9.864000000000000000e+03
9.944000000000000000e+03
1.001300000000000000e+04
1.009600000000000000e+04
1.016900000000000000e+04
1.024300000000000000e+04
1.032400000000000000e+04
1.040800000000000000e+04
1.047300000000000000e+04
1.053700000000000000e+04
1.061400000000000000e+04
1.067300000000000000e+04
1.073400000000000000e+04
1.081000000000000000e+04
1.089200000000000000e+04
1.098000000000000000e+04
1.106300000000000000e+04
1.114600000000000000e+04
1.121400000000000000e+04
1.130100000000000000e+04
1.137400000000000000e+04
1.146500000000000000e+04
1.154100000000000000e+04
1.162100000000000000e+04
1.170200000000000000e+04
1.178200000000000000e+04
1.187300000000000000e+04
1.195900000000000000e+04
1.203800000000000000e+04
1.211200000000000000e+04
1.220100000000000000e+04
1.229100000000000000e+04
1.239000000000000000e+04
1.247100000000000000e+04
1.255500000000000000e+04
1.264900000000000000e+04
1.273100000000000000e+04
1.285700000000000000e+04
1.295400000000000000e+04
1.303300000000000000e+04
1.312100000000000000e+04
1.320400000000000000e+04
1.330800000000000000e+04
1.340200000000000000e+04
1.350200000000000000e+04
1.360500000000000000e+04
1.370400000000000000e+04
1.381200000000000000e+04
1.390100000000000000e+04
1.400300000000000000e+04
1.412100000000000000e+04
1.422300000000000000e+04
1.432900000000000000e+04
1.443600000000000000e+04
1.454200000000000000e+04
1.464200000000000000e+04
1.474800000000000000e+04
1.486400000000000000e+04
1.497200000000000000e+04
1.507500000000000000e+04
1.517800000000000000e+04
1.528400000000000000e+04
1.539500000000000000e+04
1.552800000000000000e+04
1.563300000000000000e+04
1.572800000000000000e+04
1.585100000000000000e+04
1.597900000000000000e+04
1.611500000000000000e+04
1.623400000000000000e+04
1.634200000000000000e+04
1.645000000000000000e+04
1.658400000000000000e+04
1.670400000000000000e+04
1.681700000000000000e+04
1.695300000000000000e+04
1.707900000000000000e+04
1.720100000000000000e+04
1.733600000000000000e+04
1.746400000000000000e+04
1.759300000000000000e+04
1.770100000000000000e+04
1.783900000000000000e+04
1.796900000000000000e+04
1.810200000000000000e+04
1.823300000000000000e+04
1.836500000000000000e+04
1.848300000000000000e+04
1.860800000000000000e+04
1.875000000000000000e+04
1.889400000000000000e+04
1.903500000000000000e+04
1.918100000000000000e+04
1.932900000000000000e+04
1.947000000000000000e+04
1.960400000000000000e+04
1.977300000000000000e+04
1.992300000000000000e+04
2.006500000000000000e+04
2.023200000000000000e+04
2.039200000000000000e+04
2.053800000000000000e+04
2.069100000000000000e+04
2.084800000000000000e+04
2.101000000000000000e+04
2.116900000000000000e+04
2.133200000000000000e+04
2.149100000000000000e+04
2.164100000000000000e+04
2.179900000000000000e+04
