1.000000000000000000e+00
2.000000000000000000e+00
2.000000000000000000e+00
2.000000000000000000e+00
3.000000000000000000e+00
3.000000000000000000e+00
3.000000000000000000e+00
3.000000000000000000e+00
3.000000000000000000e+00
4.000000000000000000e+00
5.000000000000000000e+00
5.000000000000000000e+00
5.000000000000000000e+00
5.000000000000000000e+00
6.000000000000000000e+00
8.000000000000000000e+00
9.000000000000000000e+00
1.000000000000000000e+01
1.100000000000000000e+01
1.300000000000000000e+01
1.600000000000000000e+01
1.800000000000000000e+01
2.000000000000000000e+01
2.300000000000000000e+01
3.000000000000000000e+01
3.200000000000000000e+01
3.700000000000000000e+01
4.300000000000000000e+01
4.800000000000000000e+01
5.800000000000000000e+01
6.900000000000000000e+01
7.700000000000000000e+01
8.600000000000000000e+01
1.050000000000000000e+02
1.210000000000000000e+02
1.330000000000000000e+02
1.620000000000000000e+02
1.890000000000000000e+02
2.210000000000000000e+02
2.500000000000000000e+02
2.850000000000000000e+02
3.280000000000000000e+02
3.880000000000000000e+02
4.470000000000000000e+02
5.070000000000000000e+02
5.950000000000000000e+02
6.890000000000000000e+02
7.960000000000000000e+02
9.150000000000000000e+02
1.067000000000000000e+03
1.243000000000000000e+03
1.441000000000000000e+03
1.654000000000000000e+03
1.899000000000000000e+03
2.221000000000000000e+03
2.562000000000000000e+03
2.950000000000000000e+03
3.425000000000000000e+03
3.969000000000000000e+03
4.588000000000000000e+03
5.288000000000000000e+03
6.102000000000000000e+03
7.074000000000000000e+03
8.160000000000000000e+03
9.511000000000000000e+03
1.099800000000000000e+04
1.269000000000000000e+04
1.464600000000000000e+04
1.694700000000000000e+04
1.960100000000000000e+04
2.272400000000000000e+04
2.627400000000000000e+04
3.045000000000000000e+04
3.527700000000000000e+04
4.080900000000000000e+04
4.718800000000000000e+04
