1.000000000000000000e+00
2.000000000000000000e+00
2.000000000000000000e+00
2.000000000000000000e+00
2.000000000000000000e+00
2.000000000000000000e+00
3.000000000000000000e+00
3.000000000000000000e+00
3.000000000000000000e+00
3.000000000000000000e+00
3.000000000000000000e+00
4.000000000000000000e+00
4.000000000000000000e+00
5.000000000000000000e+00
5.000000000000000000e+00
7.000000000000000000e+00
7.000000000000000000e+00
9.000000000000000000e+00
1.000000000000000000e+01
1.200000000000000000e+01
1.300000000000000000e+01
1.400000000000000000e+01
1.600000000000000000e+01
2.000000000000000000e+01
2.200000000000000000e+01
2.500000000000000000e+01
2.800000000000000000e+01
3.500000000000000000e+01
4.000000000000000000e+01
4.300000000000000000e+01
5.100000000000000000e+01
5.900000000000000000e+01
7.100000000000000000e+01
8.100000000000000000e+01
9.200000000000000000e+01
1.030000000000000000e+02
1.170000000000000000e+02
1.390000000000000000e+02
1.700000000000000000e+02
1.960000000000000000e+02
2.220000000000000000e+02
2.480000000000000000e+02
2.950000000000000000e+02
3.480000000000000000e+02
3.980000000000000000e+02
4.610000000000000000e+02
5.280000000000000000e+02
6.270000000000000000e+02
7.310000000000000000e+02
8.510000000000000000e+02
9.650000000000000000e+02
1.131000000000000000e+03
1.311000000000000000e+03
1.525000000000000000e+03
1.757000000000000000e+03
2.020000000000000000e+03
2.332000000000000000e+03
2.682000000000000000e+03
3.100000000000000000e+03
3.613000000000000000e+03
4.179000000000000000e+03
4.814000000000000000e+03
5.572000000000000000e+03
6.490000000000000000e+03
7.499000000000000000e+03
8.610000000000000000e+03
1.002700000000000000e+04
1.155400000000000000e+04
1.343800000000000000e+04
1.555800000000000000e+04
1.798900000000000000e+04
2.084600000000000000e+04
2.408500000000000000e+04
2.790200000000000000e+04
3.230600000000000000e+04
3.745500000000000000e+04
