1.000000000000000000e+00
2.000000000000000000e+00
2.000000000000000000e+00
3.000000000000000000e+00
3.000000000000000000e+00
3.000000000000000000e+00
3.000000000000000000e+00
4.000000000000000000e+00
5.000000000000000000e+00
5.000000000000000000e+00
5.000000000000000000e+00
6.000000000000000000e+00
6.000000000000000000e+00
8.000000000000000000e+00
8.000000000000000000e+00
9.000000000000000000e+00
1.100000000000000000e+01
1.200000000000000000e+01
1.300000000000000000e+01
1.600000000000000000e+01
2.100000000000000000e+01
2.200000000000000000e+01
2.200000000000000000e+01
2.800000000000000000e+01
3.500000000000000000e+01
3.700000000000000000e+01
4.000000000000000000e+01
4.700000000000000000e+01
5.500000000000000000e+01
6.600000000000000000e+01
7.700000000000000000e+01
8.800000000000000000e+01
1.010000000000000000e+02
1.160000000000000000e+02
1.410000000000000000e+02
1.610000000000000000e+02
1.820000000000000000e+02
2.160000000000000000e+02
2.500000000000000000e+02
2.870000000000000000e+02
3.400000000000000000e+02
3.790000000000000000e+02
4.420000000000000000e+02
5.110000000000000000e+02
5.870000000000000000e+02
6.830000000000000000e+02
7.840000000000000000e+02
9.120000000000000000e+02
1.054000000000000000e+03
1.198000000000000000e+03
1.409000000000000000e+03
1.631000000000000000e+03
1.872000000000000000e+03
2.186000000000000000e+03
2.527000000000000000e+03
2.913000000000000000e+03
3.375000000000000000e+03
3.932000000000000000e+03
4.538000000000000000e+03
5.269000000000000000e+03
6.039000000000000000e+03
6.992000000000000000e+03
8.087000000000000000e+03
9.379000000000000000e+03
1.084700000000000000e+04
1.253400000000000000e+04
1.458800000000000000e+04
1.682800000000000000e+04
1.950100000000000000e+04
2.255600000000000000e+04
2.603900000000000000e+04
3.019500000000000000e+04
3.498500000000000000e+04
4.045100000000000000e+04
4.684800000000000000e+04
5.422400000000000000e+04
