1.000000000000000000e+00
2.000000000000000000e+00
2.000000000000000000e+00
2.000000000000000000e+00
2.000000000000000000e+00
2.000000000000000000e+00
2.000000000000000000e+00
2.000000000000000000e+00
2.000000000000000000e+00
2.000000000000000000e+00
2.000000000000000000e+00
2.000000000000000000e+00
2.000000000000000000e+00
2.000000000000000000e+00
2.000000000000000000e+00
2.000000000000000000e+00
2.000000000000000000e+00
2.000000000000000000e+00
2.000000000000000000e+00
2.000000000000000000e+00
2.000000000000000000e+00
2.000000000000000000e+00
2.000000000000000000e+00
2.000000000000000000e+00
2.000000000000000000e+00
2.000000000000000000e+00
2.000000000000000000e+00
2.000000000000000000e+00
2.000000000000000000e+00
2.000000000000000000e+00
2.000000000000000000e+00
2.000000000000000000e+00
2.000000000000000000e+00
2.000000000000000000e+00
2.000000000000000000e+00
2.000000000000000000e+00
2.000000000000000000e+00
2.000000000000000000e+00
2.000000000000000000e+00
2.000000000000000000e+00
2.000000000000000000e+00
2.000000000000000000e+00
2.000000000000000000e+00
2.000000000000000000e+00
3.000000000000000000e+00
3.000000000000000000e+00
3.000000000000000000e+00
3.000000000000000000e+00
3.000000000000000000e+00
3.000000000000000000e+00
3.000000000000000000e+00
3.000000000000000000e+00
3.000000000000000000e+00
3.000000000000000000e+00
3.000000000000000000e+00
3.000000000000000000e+00
3.000000000000000000e+00
3.000000000000000000e+00
3.000000000000000000e+00
3.000000000000000000e+00
3.000000000000000000e+00
3.000000000000000000e+00
3.000000000000000000e+00
3.000000000000000000e+00
3.000000000000000000e+00
3.000000000000000000e+00
3.000000000000000000e+00
3.000000000000000000e+00
3.000000000000000000e+00
3.000000000000000000e+00
3.000000000000000000e+00
3.000000000000000000e+00
3.000000000000000000e+00
3.000000000000000000e+00
3.000000000000000000e+00
3.000000000000000000e+00
3.000000000000000000e+00
3.000000000000000000e+00
3.000000000000000000e+00
3.000000000000000000e+00
3.000000000000000000e+00
3.000000000000000000e+00
3.000000000000000000e+00
3.000000000000000000e+00
3.000000000000000000e+00
3.000000000000000000e+00
3.000000000000000000e+00
3.000000000000000000e+00
3.000000000000000000e+00
3.000000000000000000e+00
3.000000000000000000e+00
3.000000000000000000e+00
3.000000000000000000e+00
3.000000000000000000e+00
3.000000000000000000e+00
3.000000000000000000e+00
3.000000000000000000e+00
3.000000000000000000e+00
3.000000000000000000e+00
3.000000000000000000e+00
3.000000000000000000e+00
3.000000000000000000e+00
3.000000000000000000e+00
3.000000000000000000e+00
3.000000000000000000e+00
3.000000000000000000e+00
3.000000000000000000e+00
3.000000000000000000e+00
4.000000000000000000e+00
4.000000000000000000e+00
4.000000000000000000e+00
4.000000000000000000e+00
4.000000000000000000e+00
4.000000000000000000e+00
4.000000000000000000e+00
4.000000000000000000e+00
4.000000000000000000e+00
4.000000000000000000e+00
4.000000000000000000e+00
4.000000000000000000e+00
4.000000000000000000e+00
4.000000000000000000e+00
4.000000000000000000e+00
4.000000000000000000e+00
4.000000000000000000e+00
4.000000000000000000e+00
4.000000000000000000e+00
4.000000000000000000e+00
4.000000000000000000e+00
4.000000000000000000e+00
4.000000000000000000e+00
5.000000000000000000e+00
5.000000000000000000e+00
5.000000000000000000e+00
5.000000000000000000e+00
5.000000000000000000e+00
5.000000000000000000e+00
5.000000000000000000e+00
5.000000000000000000e+00
5.000000000000000000e+00
5.000000000000000000e+00
5.000000000000000000e+00
5.000000000000000000e+00
5.000000000000000000e+00
5.000000000000000000e+00
5.000000000000000000e+00
5.000000000000000000e+00
5.000000000000000000e+00
5.000000000000000000e+00
5.000000000000000000e+00
5.000000000000000000e+00
5.000000000000000000e+00
5.000000000000000000e+00
5.000000000000000000e+00
5.000000000000000000e+00
6.000000000000000000e+00
6.000000000000000000e+00
6.000000000000000000e+00
6.000000000000000000e+00
6.000000000000000000e+00
6.000000000000000000e+00
6.000000000000000000e+00
6.000000000000000000e+00
6.000000000000000000e+00
6.000000000000000000e+00
6.000000000000000000e+00
6.000000000000000000e+00
6.000000000000000000e+00
6.000000000000000000e+00
6.000000000000000000e+00
6.000000000000000000e+00
6.000000000000000000e+00
6.000000000000000000e+00
6.000000000000000000e+00
6.000000000000000000e+00
6.000000000000000000e+00
6.000000000000000000e+00
6.000000000000000000e+00
6.000000000000000000e+00
6.000000000000000000e+00
6.000000000000000000e+00
6.000000000000000000e+00
6.000000000000000000e+00
6.000000000000000000e+00
6.000000000000000000e+00
7.000000000000000000e+00
7.000000000000000000e+00
7.000000000000000000e+00
7.000000000000000000e+00
7.000000000000000000e+00
7.000000000000000000e+00
7.000000000000000000e+00
7.000000000000000000e+00
7.000000000000000000e+00
7.000000000000000000e+00
7.000000000000000000e+00
7.000000000000000000e+00
7.000000000000000000e+00
7.000000000000000000e+00
7.000000000000000000e+00
7.000000000000000000e+00
7.000000000000000000e+00
7.000000000000000000e+00
7.000000000000000000e+00
7.000000000000000000e+00
7.000000000000000000e+00
7.000000000000000000e+00
7.000000000000000000e+00
7.000000000000000000e+00
7.000000000000000000e+00
7.000000000000000000e+00
7.000000000000000000e+00
7.000000000000000000e+00
7.000000000000000000e+00
7.000000000000000000e+00
7.000000000000000000e+00
7.000000000000000000e+00
7.000000000000000000e+00
7.000000000000000000e+00
7.000000000000000000e+00
7.000000000000000000e+00
7.000000000000000000e+00
7.000000000000000000e+00
7.000000000000000000e+00
7.000000000000000000e+00
7.000000000000000000e+00
7.000000000000000000e+00
7.000000000000000000e+00
7.000000000000000000e+00
7.000000000000000000e+00
7.000000000000000000e+00
7.000000000000000000e+00
7.000000000000000000e+00
8.000000000000000000e+00
8.000000000000000000e+00
8.000000000000000000e+00
8.000000000000000000e+00
8.000000000000000000e+00
8.000000000000000000e+00
8.000000000000000000e+00
8.000000000000000000e+00
8.000000000000000000e+00
8.000000000000000000e+00
9.000000000000000000e+00
9.000000000000000000e+00
9.000000000000000000e+00
9.000000000000000000e+00
9.000000000000000000e+00
1.000000000000000000e+01
1.000000000000000000e+01
1.000000000000000000e+01
1.000000000000000000e+01
1.000000000000000000e+01
1.000000000000000000e+01
1.000000000000000000e+01
1.000000000000000000e+01
1.000000000000000000e+01
1.000000000000000000e+01
1.000000000000000000e+01
1.000000000000000000e+01
1.000000000000000000e+01
1.000000000000000000e+01
1.000000000000000000e+01
1.000000000000000000e+01
1.000000000000000000e+01
1.000000000000000000e+01
1.000000000000000000e+01
1.000000000000000000e+01
1.000000000000000000e+01
1.000000000000000000e+01
1.000000000000000000e+01
1.000000000000000000e+01
1.000000000000000000e+01
1.000000000000000000e+01
1.000000000000000000e+01
1.000000000000000000e+01
1.000000000000000000e+01
1.000000000000000000e+01
1.000000000000000000e+01
1.000000000000000000e+01
1.100000000000000000e+01
1.100000000000000000e+01
1.100000000000000000e+01
1.100000000000000000e+01
1.200000000000000000e+01
1.200000000000000000e+01
1.200000000000000000e+01
1.200000000000000000e+01
1.200000000000000000e+01
1.200000000000000000e+01
1.200000000000000000e+01
1.200000000000000000e+01
1.200000000000000000e+01
1.200000000000000000e+01
1.300000000000000000e+01
1.300000000000000000e+01
1.300000000000000000e+01
1.300000000000000000e+01
1.300000000000000000e+01
1.300000000000000000e+01
1.300000000000000000e+01
1.300000000000000000e+01
1.400000000000000000e+01
1.400000000000000000e+01
1.400000000000000000e+01
1.400000000000000000e+01
1.400000000000000000e+01
1.400000000000000000e+01
1.400000000000000000e+01
1.400000000000000000e+01
1.400000000000000000e+01
1.500000000000000000e+01
1.500000000000000000e+01
1.500000000000000000e+01
1.500000000000000000e+01
1.500000000000000000e+01
1.500000000000000000e+01
1.500000000000000000e+01
1.500000000000000000e+01
1.500000000000000000e+01
1.500000000000000000e+01
1.500000000000000000e+01
1.500000000000000000e+01
1.500000000000000000e+01
1.600000000000000000e+01
1.600000000000000000e+01
1.600000000000000000e+01
1.600000000000000000e+01
1.600000000000000000e+01
1.600000000000000000e+01
1.600000000000000000e+01
1.600000000000000000e+01
1.600000000000000000e+01
1.600000000000000000e+01
1.600000000000000000e+01
1.600000000000000000e+01
1.600000000000000000e+01
1.600000000000000000e+01
1.600000000000000000e+01
1.600000000000000000e+01
1.600000000000000000e+01
1.600000000000000000e+01
1.600000000000000000e+01
1.600000000000000000e+01
1.600000000000000000e+01
1.600000000000000000e+01
1.600000000000000000e+01
1.700000000000000000e+01
1.700000000000000000e+01
1.800000000000000000e+01
1.800000000000000000e+01
1.800000000000000000e+01
1.800000000000000000e+01
1.800000000000000000e+01
1.800000000000000000e+01
1.800000000000000000e+01
1.800000000000000000e+01
1.800000000000000000e+01
1.900000000000000000e+01
1.900000000000000000e+01
1.900000000000000000e+01
1.900000000000000000e+01
1.900000000000000000e+01
2.000000000000000000e+01
2.100000000000000000e+01
2.100000000000000000e+01
2.100000000000000000e+01
2.100000000000000000e+01
2.100000000000000000e+01
2.100000000000000000e+01
2.100000000000000000e+01
2.100000000000000000e+01
2.100000000000000000e+01
2.100000000000000000e+01
2.100000000000000000e+01
2.100000000000000000e+01
2.100000000000000000e+01
2.100000000000000000e+01
2.100000000000000000e+01
2.100000000000000000e+01
2.100000000000000000e+01
2.200000000000000000e+01
2.200000000000000000e+01
2.200000000000000000e+01
2.200000000000000000e+01
2.200000000000000000e+01
2.200000000000000000e+01
2.200000000000000000e+01
2.200000000000000000e+01
2.200000000000000000e+01
2.200000000000000000e+01
2.300000000000000000e+01
2.300000000000000000e+01
2.400000000000000000e+01
2.400000000000000000e+01
2.400000000000000000e+01
2.400000000000000000e+01
2.400000000000000000e+01
2.500000000000000000e+01
2.500000000000000000e+01
2.500000000000000000e+01
2.500000000000000000e+01
2.500000000000000000e+01
2.500000000000000000e+01
2.500000000000000000e+01
2.500000000000000000e+01
2.600000000000000000e+01
2.600000000000000000e+01
2.600000000000000000e+01
2.600000000000000000e+01
2.600000000000000000e+01
2.600000000000000000e+01
2.600000000000000000e+01
2.600000000000000000e+01
2.600000000000000000e+01
2.600000000000000000e+01
2.600000000000000000e+01
2.600000000000000000e+01
2.600000000000000000e+01
2.600000000000000000e+01
2.600000000000000000e+01
2.600000000000000000e+01
2.600000000000000000e+01
2.700000000000000000e+01
2.700000000000000000e+01
2.700000000000000000e+01
2.700000000000000000e+01
2.700000000000000000e+01
2.800000000000000000e+01
2.800000000000000000e+01
2.800000000000000000e+01
2.800000000000000000e+01
3.000000000000000000e+01
3.000000000000000000e+01
3.000000000000000000e+01
3.100000000000000000e+01
3.100000000000000000e+01
3.100000000000000000e+01
3.100000000000000000e+01
3.100000000000000000e+01
3.100000000000000000e+01
3.100000000000000000e+01
3.100000000000000000e+01
3.200000000000000000e+01
3.200000000000000000e+01
3.200000000000000000e+01
3.200000000000000000e+01
3.200000000000000000e+01
3.200000000000000000e+01
3.300000000000000000e+01
3.300000000000000000e+01
3.500000000000000000e+01
3.500000000000000000e+01
3.500000000000000000e+01
3.500000000000000000e+01
3.500000000000000000e+01
3.500000000000000000e+01
3.500000000000000000e+01
3.500000000000000000e+01
3.500000000000000000e+01
3.600000000000000000e+01
3.600000000000000000e+01
3.600000000000000000e+01
3.600000000000000000e+01
3.700000000000000000e+01
3.800000000000000000e+01
3.800000000000000000e+01
3.800000000000000000e+01
3.800000000000000000e+01
3.800000000000000000e+01
3.800000000000000000e+01
3.800000000000000000e+01
4.000000000000000000e+01
4.000000000000000000e+01
4.100000000000000000e+01
4.100000000000000000e+01
4.100000000000000000e+01
4.100000000000000000e+01
4.100000000000000000e+01
4.100000000000000000e+01
4.100000000000000000e+01
4.100000000000000000e+01
4.200000000000000000e+01
4.200000000000000000e+01
4.200000000000000000e+01
4.200000000000000000e+01
4.400000000000000000e+01
4.400000000000000000e+01
4.500000000000000000e+01
4.500000000000000000e+01
4.500000000000000000e+01
4.500000000000000000e+01
4.500000000000000000e+01
4.500000000000000000e+01
4.500000000000000000e+01
4.500000000000000000e+01
4.500000000000000000e+01
4.600000000000000000e+01
4.600000000000000000e+01
4.700000000000000000e+01
4.900000000000000000e+01
4.900000000000000000e+01
4.900000000000000000e+01
4.900000000000000000e+01
4.900000000000000000e+01
4.900000000000000000e+01
5.000000000000000000e+01
5.000000000000000000e+01
5.000000000000000000e+01
5.000000000000000000e+01
5.100000000000000000e+01
5.200000000000000000e+01
5.300000000000000000e+01
5.300000000000000000e+01
5.300000000000000000e+01
5.400000000000000000e+01
5.400000000000000000e+01
5.600000000000000000e+01
5.600000000000000000e+01
5.800000000000000000e+01
5.800000000000000000e+01
5.800000000000000000e+01
5.800000000000000000e+01
5.800000000000000000e+01
5.800000000000000000e+01
5.800000000000000000e+01
5.800000000000000000e+01
5.800000000000000000e+01
5.800000000000000000e+01
5.900000000000000000e+01
5.900000000000000000e+01
6.000000000000000000e+01
6.100000000000000000e+01
6.100000000000000000e+01
6.200000000000000000e+01
6.200000000000000000e+01
6.200000000000000000e+01
6.300000000000000000e+01
6.300000000000000000e+01
6.300000000000000000e+01
6.300000000000000000e+01
6.400000000000000000e+01
6.500000000000000000e+01
6.500000000000000000e+01
6.500000000000000000e+01
6.500000000000000000e+01
6.500000000000000000e+01
6.600000000000000000e+01
6.700000000000000000e+01
6.800000000000000000e+01
6.900000000000000000e+01
6.900000000000000000e+01
6.900000000000000000e+01
6.900000000000000000e+01
6.900000000000000000e+01
7.000000000000000000e+01
7.000000000000000000e+01
7.100000000000000000e+01
7.200000000000000000e+01
7.200000000000000000e+01
7.200000000000000000e+01
7.400000000000000000e+01
7.400000000000000000e+01
7.400000000000000000e+01
7.600000000000000000e+01
7.600000000000000000e+01
7.700000000000000000e+01
7.800000000000000000e+01
8.000000000000000000e+01
8.000000000000000000e+01
8.100000000000000000e+01
8.200000000000000000e+01
8.200000000000000000e+01
8.200000000000000000e+01
8.400000000000000000e+01
8.400000000000000000e+01
8.400000000000000000e+01
8.400000000000000000e+01
8.500000000000000000e+01
8.600000000000000000e+01
8.600000000000000000e+01
8.600000000000000000e+01
8.600000000000000000e+01
8.800000000000000000e+01
8.900000000000000000e+01
8.900000000000000000e+01
9.000000000000000000e+01
9.100000000000000000e+01
9.100000000000000000e+01
9.100000000000000000e+01
9.200000000000000000e+01
9.200000000000000000e+01
9.200000000000000000e+01
9.200000000000000000e+01
9.300000000000000000e+01
9.500000000000000000e+01
9.600000000000000000e+01
9.600000000000000000e+01
9.700000000000000000e+01
9.800000000000000000e+01
9.800000000000000000e+01
9.800000000000000000e+01
1.000000000000000000e+02
1.000000000000000000e+02
1.000000000000000000e+02
1.000000000000000000e+02
1.010000000000000000e+02
1.020000000000000000e+02
1.020000000000000000e+02
1.020000000000000000e+02
1.030000000000000000e+02
1.040000000000000000e+02
1.040000000000000000e+02
1.040000000000000000e+02
1.050000000000000000e+02
1.050000000000000000e+02
1.070000000000000000e+02
1.080000000000000000e+02
1.090000000000000000e+02
1.090000000000000000e+02
1.110000000000000000e+02
1.110000000000000000e+02
1.140000000000000000e+02
1.140000000000000000e+02
1.160000000000000000e+02
1.160000000000000000e+02
1.190000000000000000e+02
1.190000000000000000e+02
1.200000000000000000e+02
1.200000000000000000e+02
1.200000000000000000e+02
1.210000000000000000e+02
1.220000000000000000e+02
1.220000000000000000e+02
1.220000000000000000e+02
1.220000000000000000e+02
1.240000000000000000e+02
1.250000000000000000e+02
1.260000000000000000e+02
1.270000000000000000e+02
1.270000000000000000e+02
1.290000000000000000e+02
1.290000000000000000e+02
1.290000000000000000e+02
1.300000000000000000e+02
1.300000000000000000e+02
1.300000000000000000e+02
1.310000000000000000e+02
1.330000000000000000e+02
1.340000000000000000e+02
1.360000000000000000e+02
1.400000000000000000e+02
1.430000000000000000e+02
1.440000000000000000e+02
1.450000000000000000e+02
1.450000000000000000e+02
1.470000000000000000e+02
1.490000000000000000e+02
1.530000000000000000e+02
1.550000000000000000e+02
1.580000000000000000e+02
1.600000000000000000e+02
1.600000000000000000e+02
1.640000000000000000e+02
1.650000000000000000e+02
1.670000000000000000e+02
1.670000000000000000e+02
1.670000000000000000e+02
1.680000000000000000e+02
1.690000000000000000e+02
1.710000000000000000e+02
1.710000000000000000e+02
1.720000000000000000e+02
1.730000000000000000e+02
1.780000000000000000e+02
1.780000000000000000e+02
1.800000000000000000e+02
1.800000000000000000e+02
1.800000000000000000e+02
1.810000000000000000e+02
1.810000000000000000e+02
1.820000000000000000e+02
1.820000000000000000e+02
1.840000000000000000e+02
1.850000000000000000e+02
1.880000000000000000e+02
1.910000000000000000e+02
1.940000000000000000e+02
1.950000000000000000e+02
1.960000000000000000e+02
1.970000000000000000e+02
2.010000000000000000e+02
2.010000000000000000e+02
2.010000000000000000e+02
2.020000000000000000e+02
2.030000000000000000e+02
2.030000000000000000e+02
2.030000000000000000e+02
2.030000000000000000e+02
2.050000000000000000e+02
2.080000000000000000e+02
2.080000000000000000e+02
2.100000000000000000e+02
2.120000000000000000e+02
2.130000000000000000e+02
2.140000000000000000e+02
2.150000000000000000e+02
2.160000000000000000e+02
2.160000000000000000e+02
2.180000000000000000e+02
2.210000000000000000e+02
2.210000000000000000e+02
2.220000000000000000e+02
2.230000000000000000e+02
2.240000000000000000e+02
2.250000000000000000e+02
2.260000000000000000e+02
2.270000000000000000e+02
2.280000000000000000e+02
2.300000000000000000e+02
2.310000000000000000e+02
2.320000000000000000e+02
2.350000000000000000e+02
2.400000000000000000e+02
2.450000000000000000e+02
2.460000000000000000e+02
2.460000000000000000e+02
2.470000000000000000e+02
2.500000000000000000e+02
2.510000000000000000e+02
2.530000000000000000e+02
2.540000000000000000e+02
2.560000000000000000e+02
2.580000000000000000e+02
2.610000000000000000e+02
2.630000000000000000e+02
2.630000000000000000e+02
2.640000000000000000e+02
2.660000000000000000e+02
2.670000000000000000e+02
2.670000000000000000e+02
2.690000000000000000e+02
2.730000000000000000e+02
2.780000000000000000e+02
2.790000000000000000e+02
2.820000000000000000e+02
2.860000000000000000e+02
2.880000000000000000e+02
2.910000000000000000e+02
2.930000000000000000e+02
2.980000000000000000e+02
3.020000000000000000e+02
3.020000000000000000e+02
3.050000000000000000e+02
3.080000000000000000e+02
3.080000000000000000e+02
3.090000000000000000e+02
3.100000000000000000e+02
3.110000000000000000e+02
3.140000000000000000e+02
3.150000000000000000e+02
3.190000000000000000e+02
3.220000000000000000e+02
3.260000000000000000e+02
3.290000000000000000e+02
3.310000000000000000e+02
3.340000000000000000e+02
3.350000000000000000e+02
3.400000000000000000e+02
3.430000000000000000e+02
3.480000000000000000e+02
3.510000000000000000e+02
3.540000000000000000e+02
3.570000000000000000e+02
3.600000000000000000e+02
3.650000000000000000e+02
3.660000000000000000e+02
3.690000000000000000e+02
3.710000000000000000e+02
3.760000000000000000e+02
3.790000000000000000e+02
3.820000000000000000e+02
3.850000000000000000e+02
3.900000000000000000e+02
3.920000000000000000e+02
3.950000000000000000e+02
3.990000000000000000e+02
4.000000000000000000e+02
4.000000000000000000e+02
4.000000000000000000e+02
4.020000000000000000e+02
4.030000000000000000e+02
4.080000000000000000e+02
4.090000000000000000e+02
4.100000000000000000e+02
4.120000000000000000e+02
4.120000000000000000e+02
4.150000000000000000e+02
4.170000000000000000e+02
4.180000000000000000e+02
4.200000000000000000e+02
4.240000000000000000e+02
4.260000000000000000e+02
4.300000000000000000e+02
4.340000000000000000e+02
4.360000000000000000e+02
4.360000000000000000e+02
4.390000000000000000e+02
4.460000000000000000e+02
4.490000000000000000e+02
4.530000000000000000e+02
4.590000000000000000e+02
4.630000000000000000e+02
4.690000000000000000e+02
4.740000000000000000e+02
4.760000000000000000e+02
4.780000000000000000e+02
4.840000000000000000e+02
4.880000000000000000e+02
4.900000000000000000e+02
4.950000000000000000e+02
4.980000000000000000e+02
5.010000000000000000e+02
5.020000000000000000e+02
5.060000000000000000e+02
5.100000000000000000e+02
5.180000000000000000e+02
5.190000000000000000e+02
5.220000000000000000e+02
5.250000000000000000e+02
5.310000000000000000e+02
5.350000000000000000e+02
5.380000000000000000e+02
5.430000000000000000e+02
5.460000000000000000e+02
5.520000000000000000e+02
5.590000000000000000e+02
5.610000000000000000e+02
5.670000000000000000e+02
5.690000000000000000e+02
5.700000000000000000e+02
5.730000000000000000e+02
5.780000000000000000e+02
5.820000000000000000e+02
5.870000000000000000e+02
5.890000000000000000e+02
5.940000000000000000e+02
5.970000000000000000e+02
6.010000000000000000e+02
6.040000000000000000e+02
6.110000000000000000e+02
6.160000000000000000e+02
6.220000000000000000e+02
6.270000000000000000e+02
6.310000000000000000e+02
6.360000000000000000e+02
6.380000000000000000e+02
6.400000000000000000e+02
6.450000000000000000e+02
6.500000000000000000e+02
6.570000000000000000e+02
6.620000000000000000e+02
6.690000000000000000e+02
6.730000000000000000e+02
6.740000000000000000e+02
6.810000000000000000e+02
6.850000000000000000e+02
6.920000000000000000e+02
6.940000000000000000e+02
6.970000000000000000e+02
7.070000000000000000e+02
7.100000000000000000e+02
7.190000000000000000e+02
7.270000000000000000e+02
7.340000000000000000e+02
7.400000000000000000e+02
7.430000000000000000e+02
7.470000000000000000e+02
7.520000000000000000e+02
7.600000000000000000e+02
7.660000000000000000e+02
7.780000000000000000e+02
7.820000000000000000e+02
7.870000000000000000e+02
7.930000000000000000e+02
7.980000000000000000e+02
8.010000000000000000e+02
8.090000000000000000e+02
8.120000000000000000e+02
8.180000000000000000e+02
8.270000000000000000e+02
8.310000000000000000e+02
8.350000000000000000e+02
8.420000000000000000e+02
8.430000000000000000e+02
8.530000000000000000e+02
8.580000000000000000e+02
8.670000000000000000e+02
8.760000000000000000e+02
8.820000000000000000e+02
8.910000000000000000e+02
8.970000000000000000e+02
9.040000000000000000e+02
9.110000000000000000e+02
9.150000000000000000e+02
9.190000000000000000e+02
9.260000000000000000e+02
9.310000000000000000e+02
9.390000000000000000e+02
9.450000000000000000e+02
9.530000000000000000e+02
9.570000000000000000e+02
9.640000000000000000e+02
9.690000000000000000e+02
9.720000000000000000e+02
9.820000000000000000e+02
9.820000000000000000e+02
9.860000000000000000e+02
9.950000000000000000e+02
1.001000000000000000e+03
1.006000000000000000e+03
1.017000000000000000e+03
1.020000000000000000e+03
1.026000000000000000e+03
1.033000000000000000e+03
1.041000000000000000e+03
1.047000000000000000e+03
1.057000000000000000e+03
1.066000000000000000e+03
1.071000000000000000e+03
1.077000000000000000e+03
1.090000000000000000e+03
1.101000000000000000e+03
1.108000000000000000e+03
1.113000000000000000e+03
1.121000000000000000e+03
1.128000000000000000e+03
1.136000000000000000e+03
1.143000000000000000e+03
1.148000000000000000e+03
1.160000000000000000e+03
1.168000000000000000e+03
1.176000000000000000e+03
1.184000000000000000e+03
1.193000000000000000e+03
1.204000000000000000e+03
1.212000000000000000e+03
1.217000000000000000e+03
1.221000000000000000e+03
1.235000000000000000e+03
1.241000000000000000e+03
1.249000000000000000e+03
1.260000000000000000e+03
1.268000000000000000e+03
1.285000000000000000e+03
1.299000000000000000e+03
1.311000000000000000e+03
1.331000000000000000e+03
1.342000000000000000e+03
1.350000000000000000e+03
1.360000000000000000e+03
1.372000000000000000e+03
1.386000000000000000e+03
1.394000000000000000e+03
1.405000000000000000e+03
1.420000000000000000e+03
1.431000000000000000e+03
1.436000000000000000e+03
1.444000000000000000e+03
1.454000000000000000e+03
1.465000000000000000e+03
1.479000000000000000e+03
1.493000000000000000e+03
1.504000000000000000e+03
1.514000000000000000e+03
1.526000000000000000e+03
1.531000000000000000e+03
1.541000000000000000e+03
1.549000000000000000e+03
1.562000000000000000e+03
1.576000000000000000e+03
1.584000000000000000e+03
1.599000000000000000e+03
1.611000000000000000e+03
1.619000000000000000e+03
1.632000000000000000e+03
1.645000000000000000e+03
1.658000000000000000e+03
1.665000000000000000e+03
1.675000000000000000e+03
1.684000000000000000e+03
1.697000000000000000e+03
1.704000000000000000e+03
1.716000000000000000e+03
1.728000000000000000e+03
1.737000000000000000e+03
1.745000000000000000e+03
1.756000000000000000e+03
1.772000000000000000e+03
1.787000000000000000e+03
1.799000000000000000e+03
1.816000000000000000e+03
1.833000000000000000e+03
1.845000000000000000e+03
1.862000000000000000e+03
1.871000000000000000e+03
1.885000000000000000e+03
1.904000000000000000e+03
1.915000000000000000e+03
1.927000000000000000e+03
1.937000000000000000e+03
1.955000000000000000e+03
1.973000000000000000e+03
1.985000000000000000e+03
2.012000000000000000e+03
2.031000000000000000e+03
2.046000000000000000e+03
2.058000000000000000e+03
2.067000000000000000e+03
2.075000000000000000e+03
2.092000000000000000e+03
2.104000000000000000e+03
2.116000000000000000e+03
2.132000000000000000e+03
2.145000000000000000e+03
2.164000000000000000e+03
2.181000000000000000e+03
2.191000000000000000e+03
2.206000000000000000e+03
2.218000000000000000e+03
2.236000000000000000e+03
2.252000000000000000e+03
2.272000000000000000e+03
2.283000000000000000e+03
2.299000000000000000e+03
2.312000000000000000e+03
2.330000000000000000e+03
2.355000000000000000e+03
2.371000000000000000e+03
2.395000000000000000e+03
2.419000000000000000e+03
2.434000000000000000e+03
2.450000000000000000e+03
2.465000000000000000e+03
2.482000000000000000e+03
2.506000000000000000e+03
2.523000000000000000e+03
2.537000000000000000e+03
2.553000000000000000e+03
2.569000000000000000e+03
2.583000000000000000e+03
2.598000000000000000e+03
2.618000000000000000e+03
2.639000000000000000e+03
2.655000000000000000e+03
2.676000000000000000e+03
2.690000000000000000e+03
2.711000000000000000e+03
2.730000000000000000e+03
2.752000000000000000e+03
2.772000000000000000e+03
2.795000000000000000e+03
2.815000000000000000e+03
2.831000000000000000e+03
2.851000000000000000e+03
2.872000000000000000e+03
2.901000000000000000e+03
2.927000000000000000e+03
2.948000000000000000e+03
2.968000000000000000e+03
2.990000000000000000e+03
3.019000000000000000e+03
3.045000000000000000e+03
3.068000000000000000e+03
3.086000000000000000e+03
3.113000000000000000e+03
3.136000000000000000e+03
3.157000000000000000e+03
3.185000000000000000e+03
3.207000000000000000e+03
3.231000000000000000e+03
3.252000000000000000e+03
3.273000000000000000e+03
3.304000000000000000e+03
3.324000000000000000e+03
3.347000000000000000e+03
3.371000000000000000e+03
3.393000000000000000e+03
3.416000000000000000e+03
3.431000000000000000e+03
3.457000000000000000e+03
3.484000000000000000e+03
3.511000000000000000e+03
3.538000000000000000e+03
3.569000000000000000e+03
3.601000000000000000e+03
3.624000000000000000e+03
3.651000000000000000e+03
3.669000000000000000e+03
3.704000000000000000e+03
3.727000000000000000e+03
3.757000000000000000e+03
3.781000000000000000e+03
3.818000000000000000e+03
3.857000000000000000e+03
3.881000000000000000e+03
3.905000000000000000e+03
3.944000000000000000e+03
3.974000000000000000e+03
4.006000000000000000e+03
4.037000000000000000e+03
4.069000000000000000e+03
4.109000000000000000e+03
4.132000000000000000e+03
4.151000000000000000e+03
4.190000000000000000e+03
4.217000000000000000e+03
4.247000000000000000e+03
4.271000000000000000e+03
4.298000000000000000e+03
4.331000000000000000e+03
4.358000000000000000e+03
4.394000000000000000e+03
4.435000000000000000e+03
4.471000000000000000e+03
4.499000000000000000e+03
4.529000000000000000e+03
4.571000000000000000e+03
4.596000000000000000e+03
4.624000000000000000e+03
4.650000000000000000e+03
4.695000000000000000e+03
4.734000000000000000e+03
4.760000000000000000e+03
4.797000000000000000e+03
4.821000000000000000e+03
4.863000000000000000e+03
4.903000000000000000e+03
4.942000000000000000e+03
4.976000000000000000e+03
5.000000000000000000e+03
5.039000000000000000e+03
5.073000000000000000e+03
5.108000000000000000e+03
5.140000000000000000e+03
5.183000000000000000e+03
5.213000000000000000e+03
5.257000000000000000e+03
5.295000000000000000e+03
5.330000000000000000e+03
5.371000000000000000e+03
5.404000000000000000e+03
5.446000000000000000e+03
5.479000000000000000e+03
5.517000000000000000e+03
5.564000000000000000e+03
5.606000000000000000e+03
5.650000000000000000e+03
5.697000000000000000e+03
5.744000000000000000e+03
5.780000000000000000e+03
5.821000000000000000e+03
5.865000000000000000e+03
5.911000000000000000e+03
5.953000000000000000e+03
6.001000000000000000e+03
6.047000000000000000e+03
6.096000000000000000e+03
6.134000000000000000e+03
6.175000000000000000e+03
6.221000000000000000e+03
6.273000000000000000e+03
6.320000000000000000e+03
6.370000000000000000e+03
6.415000000000000000e+03
6.458000000000000000e+03
6.492000000000000000e+03
6.542000000000000000e+03
6.588000000000000000e+03
6.641000000000000000e+03
6.687000000000000000e+03
6.729000000000000000e+03
6.777000000000000000e+03
6.838000000000000000e+03
6.889000000000000000e+03
6.936000000000000000e+03
6.992000000000000000e+03
7.043000000000000000e+03
7.081000000000000000e+03
7.137000000000000000e+03
7.177000000000000000e+03
7.233000000000000000e+03
7.285000000000000000e+03
7.336000000000000000e+03
7.386000000000000000e+03
7.440000000000000000e+03
7.503000000000000000e+03
7.567000000000000000e+03
7.623000000000000000e+03
7.683000000000000000e+03
7.752000000000000000e+03
7.819000000000000000e+03
7.887000000000000000e+03
7.941000000000000000e+03
8.011000000000000000e+03
8.070000000000000000e+03
8.134000000000000000e+03
8.195000000000000000e+03
8.253000000000000000e+03
8.319000000000000000e+03
8.387000000000000000e+03
8.442000000000000000e+03
8.500000000000000000e+03
8.576000000000000000e+03
8.636000000000000000e+03
8.695000000000000000e+03
8.754000000000000000e+03
8.807000000000000000e+03
8.858000000000000000e+03
8.925000000000000000e+03
8.993000000000000000e+03
9.065000000000000000e+03
9.138000000000000000e+03
9.211000000000000000e+03
9.266000000000000000e+03
9.342000000000000000e+03
9.402000000000000000e+03
9.474000000000000000e+03
9.551000000000000000e+03
9.625000000000000000e+03
9.694000000000000000e+03
9.753000000000000000e+03
9.818000000000000000e+03
9.888000000000000000e+03
9.955000000000000000e+03
1.003500000000000000e+04
1.010400000000000000e+04
1.017100000000000000e+04
1.024600000000000000e+04
1.031600000000000000e+04
1.040500000000000000e+04
1.048200000000000000e+04
1.056100000000000000e+04
1.064100000000000000e+04
1.072100000000000000e+04
1.081000000000000000e+04
1.088900000000000000e+04
1.096700000000000000e+04
1.104400000000000000e+04
1.112800000000000000e+04
1.122100000000000000e+04
1.129800000000000000e+04
1.136200000000000000e+04
1.143300000000000000e+04
1.150800000000000000e+04
1.160200000000000000e+04
1.170100000000000000e+04
1.179300000000000000e+04
1.188800000000000000e+04
1.197300000000000000e+04
1.204900000000000000e+04
1.214300000000000000e+04
1.223700000000000000e+04
1.230800000000000000e+04
1.239100000000000000e+04
1.247000000000000000e+04
1.255300000000000000e+04
1.265500000000000000e+04
1.276200000000000000e+04
1.286100000000000000e+04
1.295400000000000000e+04
1.304000000000000000e+04
1.313900000000000000e+04
1.323900000000000000e+04
1.334400000000000000e+04
1.343700000000000000e+04
1.353900000000000000e+04
1.364800000000000000e+04
1.375000000000000000e+04
1.384400000000000000e+04
1.393600000000000000e+04
1.405300000000000000e+04
1.414400000000000000e+04
1.423600000000000000e+04
1.433500000000000000e+04
1.443600000000000000e+04
1.455300000000000000e+04
1.466000000000000000e+04
1.474400000000000000e+04
1.486500000000000000e+04
1.496900000000000000e+04
1.508200000000000000e+04
1.518800000000000000e+04
1.530800000000000000e+04
1.541800000000000000e+04
1.553200000000000000e+04
1.564600000000000000e+04
1.576900000000000000e+04
1.589200000000000000e+04
1.600400000000000000e+04
1.611300000000000000e+04
1.622700000000000000e+04
1.633500000000000000e+04
1.646200000000000000e+04
1.657200000000000000e+04
1.669800000000000000e+04
1.682600000000000000e+04
1.694100000000000000e+04
1.708700000000000000e+04
1.720100000000000000e+04
1.730400000000000000e+04
1.745100000000000000e+04
1.757000000000000000e+04
1.768100000000000000e+04
1.780200000000000000e+04
1.794000000000000000e+04
1.808200000000000000e+04
1.822800000000000000e+04
1.836900000000000000e+04
1.849900000000000000e+04
1.863400000000000000e+04
1.878400000000000000e+04
1.891100000000000000e+04
1.904900000000000000e+04
1.919000000000000000e+04
1.932400000000000000e+04
1.946300000000000000e+04
1.963300000000000000e+04
1.977700000000000000e+04
1.993100000000000000e+04
2.006500000000000000e+04
2.022400000000000000e+04
2.036600000000000000e+04
2.051700000000000000e+04
2.068800000000000000e+04
2.083800000000000000e+04
2.100000000000000000e+04
2.116000000000000000e+04
2.131800000000000000e+04
2.147900000000000000e+04
2.163600000000000000e+04
2.178700000000000000e+04
2.195300000000000000e+04
2.212100000000000000e+04
2.230300000000000000e+04
2.246400000000000000e+04
2.264300000000000000e+04
2.280600000000000000e+04
2.298900000000000000e+04
2.315500000000000000e+04
2.335000000000000000e+04
2.354300000000000000e+04
2.370500000000000000e+04
2.389900000000000000e+04
2.410100000000000000e+04
2.429800000000000000e+04
2.446600000000000000e+04
2.465200000000000000e+04
2.486100000000000000e+04
2.505000000000000000e+04
2.522800000000000000e+04
2.540600000000000000e+04
2.560400000000000000e+04
2.577600000000000000e+04
2.598300000000000000e+04
2.620200000000000000e+04
2.638300000000000000e+04
2.657100000000000000e+04
2.676800000000000000e+04
2.698500000000000000e+04
2.716900000000000000e+04
2.736700000000000000e+04
2.754500000000000000e+04
2.771100000000000000e+04
2.790200000000000000e+04
2.807700000000000000e+04
2.827500000000000000e+04
2.848800000000000000e+04
2.868100000000000000e+04
2.888600000000000000e+04
2.909100000000000000e+04
2.930700000000000000e+04
2.954800000000000000e+04
2.973800000000000000e+04
2.994800000000000000e+04
3.017300000000000000e+04
3.038700000000000000e+04
3.062500000000000000e+04
3.082800000000000000e+04
3.104200000000000000e+04
3.125700000000000000e+04
3.146900000000000000e+04
3.169700000000000000e+04
3.191200000000000000e+04
3.213900000000000000e+04
3.237000000000000000e+04
3.258800000000000000e+04
3.281900000000000000e+04
3.305200000000000000e+04
3.327100000000000000e+04
3.353600000000000000e+04
