1.000000000000000000e+00
2.000000000000000000e+00
2.000000000000000000e+00
2.000000000000000000e+00
2.000000000000000000e+00
3.000000000000000000e+00
3.000000000000000000e+00
3.000000000000000000e+00
4.000000000000000000e+00
4.000000000000000000e+00
5.000000000000000000e+00
5.000000000000000000e+00
6.000000000000000000e+00
7.000000000000000000e+00
8.000000000000000000e+00
1.100000000000000000e+01
1.200000000000000000e+01
1.300000000000000000e+01
1.800000000000000000e+01
1.900000000000000000e+01
2.200000000000000000e+01
2.400000000000000000e+01
2.700000000000000000e+01
3.300000000000000000e+01
3.800000000000000000e+01
4.400000000000000000e+01
5.100000000000000000e+01
5.700000000000000000e+01
7.100000000000000000e+01
7.700000000000000000e+01
8.700000000000000000e+01
1.010000000000000000e+02
1.180000000000000000e+02
1.350000000000000000e+02
1.570000000000000000e+02
1.870000000000000000e+02
2.080000000000000000e+02
2.410000000000000000e+02
2.840000000000000000e+02
3.400000000000000000e+02
3.940000000000000000e+02
4.530000000000000000e+02
5.160000000000000000e+02
6.030000000000000000e+02
6.960000000000000000e+02
8.000000000000000000e+02
9.310000000000000000e+02
1.072000000000000000e+03
1.237000000000000000e+03
1.419000000000000000e+03
1.658000000000000000e+03
1.922000000000000000e+03
2.228000000000000000e+03
2.566000000000000000e+03
2.964000000000000000e+03
3.431000000000000000e+03
3.934000000000000000e+03
4.577000000000000000e+03
5.263000000000000000e+03
6.063000000000000000e+03
7.003000000000000000e+03
8.141000000000000000e+03
9.422000000000000000e+03
1.092000000000000000e+04
1.261900000000000000e+04
1.462000000000000000e+04
1.686200000000000000e+04
1.947700000000000000e+04
2.261400000000000000e+04
2.612800000000000000e+04
3.030200000000000000e+04
3.497000000000000000e+04
4.044200000000000000e+04
4.673700000000000000e+04
5.406900000000000000e+04
6.266400000000000000e+04
