1.000000000000000000e+00
2.000000000000000000e+00
2.000000000000000000e+00
3.000000000000000000e+00
3.000000000000000000e+00
4.000000000000000000e+00
4.000000000000000000e+00
4.000000000000000000e+00
4.000000000000000000e+00
5.000000000000000000e+00
6.000000000000000000e+00
7.000000000000000000e+00
8.000000000000000000e+00
8.000000000000000000e+00
9.000000000000000000e+00
9.000000000000000000e+00
1.000000000000000000e+01
1.200000000000000000e+01
1.400000000000000000e+01
1.400000000000000000e+01
1.900000000000000000e+01
2.100000000000000000e+01
2.500000000000000000e+01
2.700000000000000000e+01
3.000000000000000000e+01
3.500000000000000000e+01
4.400000000000000000e+01
4.900000000000000000e+01
5.400000000000000000e+01
6.100000000000000000e+01
7.100000000000000000e+01
8.700000000000000000e+01
9.800000000000000000e+01
1.180000000000000000e+02
1.320000000000000000e+02
1.520000000000000000e+02
1.770000000000000000e+02
2.110000000000000000e+02
2.450000000000000000e+02
2.750000000000000000e+02
3.330000000000000000e+02
3.720000000000000000e+02
4.240000000000000000e+02
4.960000000000000000e+02
5.820000000000000000e+02
6.820000000000000000e+02
7.930000000000000000e+02
9.290000000000000000e+02
1.035000000000000000e+03
1.214000000000000000e+03
1.433000000000000000e+03
1.658000000000000000e+03
1.918000000000000000e+03
2.209000000000000000e+03
2.549000000000000000e+03
2.939000000000000000e+03
3.415000000000000000e+03
3.948000000000000000e+03
4.598000000000000000e+03
5.252000000000000000e+03
6.092000000000000000e+03
7.070000000000000000e+03
8.207000000000000000e+03
9.453000000000000000e+03
1.095400000000000000e+04
1.271000000000000000e+04
1.464400000000000000e+04
1.694700000000000000e+04
1.962200000000000000e+04
2.273000000000000000e+04
2.626000000000000000e+04
3.038100000000000000e+04
3.518500000000000000e+04
4.066900000000000000e+04
4.711700000000000000e+04
5.453500000000000000e+04
