1.000000000000000000e+00
2.000000000000000000e+00
2.000000000000000000e+00
2.000000000000000000e+00
2.000000000000000000e+00
3.000000000000000000e+00
3.000000000000000000e+00
3.000000000000000000e+00
3.000000000000000000e+00
3.000000000000000000e+00
4.000000000000000000e+00
5.000000000000000000e+00
5.000000000000000000e+00
5.000000000000000000e+00
6.000000000000000000e+00
7.000000000000000000e+00
9.000000000000000000e+00
1.000000000000000000e+01
1.100000000000000000e+01
1.200000000000000000e+01
1.400000000000000000e+01
1.600000000000000000e+01
1.700000000000000000e+01
2.000000000000000000e+01
2.200000000000000000e+01
2.600000000000000000e+01
3.100000000000000000e+01
3.500000000000000000e+01
4.300000000000000000e+01
4.600000000000000000e+01
5.500000000000000000e+01
6.500000000000000000e+01
7.400000000000000000e+01
8.500000000000000000e+01
1.010000000000000000e+02
1.140000000000000000e+02
1.350000000000000000e+02
1.510000000000000000e+02
1.760000000000000000e+02
2.040000000000000000e+02
2.360000000000000000e+02
2.700000000000000000e+02
3.180000000000000000e+02
3.610000000000000000e+02
4.260000000000000000e+02
4.830000000000000000e+02
5.540000000000000000e+02
6.580000000000000000e+02
7.610000000000000000e+02
8.830000000000000000e+02
1.021000000000000000e+03
1.173000000000000000e+03
1.366000000000000000e+03
1.579000000000000000e+03
1.841000000000000000e+03
2.096000000000000000e+03
2.436000000000000000e+03
2.809000000000000000e+03
3.281000000000000000e+03
3.824000000000000000e+03
4.386000000000000000e+03
5.027000000000000000e+03
5.841000000000000000e+03
6.766000000000000000e+03
7.815000000000000000e+03
9.084000000000000000e+03
1.049200000000000000e+04
1.209500000000000000e+04
1.399500000000000000e+04
1.619700000000000000e+04
1.867400000000000000e+04
2.170200000000000000e+04
2.510400000000000000e+04
2.902700000000000000e+04
3.364300000000000000e+04
3.891900000000000000e+04
