1.000000000000000000e+00
2.000000000000000000e+00
2.000000000000000000e+00
2.000000000000000000e+00
2.000000000000000000e+00
3.000000000000000000e+00
3.000000000000000000e+00
3.000000000000000000e+00
3.000000000000000000e+00
3.000000000000000000e+00
5.000000000000000000e+00
5.000000000000000000e+00
5.000000000000000000e+00
6.000000000000000000e+00
7.000000000000000000e+00
7.000000000000000000e+00
9.000000000000000000e+00
1.000000000000000000e+01
1.100000000000000000e+01
1.300000000000000000e+01
1.400000000000000000e+01
1.500000000000000000e+01
1.900000000000000000e+01
2.100000000000000000e+01
2.400000000000000000e+01
2.700000000000000000e+01
3.100000000000000000e+01
4.000000000000000000e+01
4.600000000000000000e+01
5.300000000000000000e+01
5.800000000000000000e+01
7.300000000000000000e+01
8.300000000000000000e+01
9.700000000000000000e+01
1.110000000000000000e+02
1.280000000000000000e+02
1.500000000000000000e+02
1.640000000000000000e+02
1.950000000000000000e+02
2.260000000000000000e+02
2.640000000000000000e+02
3.100000000000000000e+02
3.500000000000000000e+02
3.900000000000000000e+02
4.520000000000000000e+02
5.230000000000000000e+02
6.270000000000000000e+02
7.230000000000000000e+02
8.080000000000000000e+02
9.410000000000000000e+02
1.088000000000000000e+03
1.280000000000000000e+03
1.509000000000000000e+03
1.746000000000000000e+03
1.984000000000000000e+03
2.269000000000000000e+03
2.660000000000000000e+03
3.092000000000000000e+03
3.597000000000000000e+03
4.166000000000000000e+03
4.780000000000000000e+03
5.534000000000000000e+03
6.401000000000000000e+03
7.434000000000000000e+03
8.652000000000000000e+03
9.916000000000000000e+03
1.141600000000000000e+04
1.317400000000000000e+04
1.526100000000000000e+04
1.770700000000000000e+04
2.050100000000000000e+04
2.363900000000000000e+04
2.728400000000000000e+04
3.156900000000000000e+04
3.661100000000000000e+04
4.227700000000000000e+04
