1.000000000000000000e+00
2.000000000000000000e+00
2.000000000000000000e+00
2.000000000000000000e+00
2.000000000000000000e+00
3.000000000000000000e+00
3.000000000000000000e+00
3.000000000000000000e+00
3.000000000000000000e+00
3.000000000000000000e+00
4.000000000000000000e+00
4.000000000000000000e+00
5.000000000000000000e+00
6.000000000000000000e+00
6.000000000000000000e+00
7.000000000000000000e+00
7.000000000000000000e+00
9.000000000000000000e+00
1.000000000000000000e+01
1.300000000000000000e+01
1.300000000000000000e+01
1.500000000000000000e+01
1.700000000000000000e+01
2.400000000000000000e+01
2.700000000000000000e+01
2.800000000000000000e+01
3.400000000000000000e+01
4.100000000000000000e+01
5.000000000000000000e+01
5.200000000000000000e+01
6.300000000000000000e+01
7.000000000000000000e+01
8.300000000000000000e+01
1.000000000000000000e+02
1.140000000000000000e+02
1.260000000000000000e+02
1.460000000000000000e+02
1.660000000000000000e+02
1.970000000000000000e+02
2.360000000000000000e+02
2.670000000000000000e+02
3.110000000000000000e+02
3.660000000000000000e+02
4.160000000000000000e+02
4.880000000000000000e+02
5.670000000000000000e+02
6.650000000000000000e+02
7.630000000000000000e+02
8.770000000000000000e+02
1.020000000000000000e+03
1.180000000000000000e+03
1.368000000000000000e+03
1.583000000000000000e+03
1.811000000000000000e+03
2.100000000000000000e+03
2.432000000000000000e+03
2.807000000000000000e+03
3.258000000000000000e+03
3.764000000000000000e+03
4.341000000000000000e+03
5.024000000000000000e+03
5.837000000000000000e+03
6.774000000000000000e+03
7.798000000000000000e+03
9.028000000000000000e+03
1.046900000000000000e+04
1.216200000000000000e+04
1.402000000000000000e+04
1.614200000000000000e+04
1.878400000000000000e+04
2.172200000000000000e+04
2.514600000000000000e+04
2.902500000000000000e+04
3.362700000000000000e+04
3.887900000000000000e+04
4.500800000000000000e+04
