1.000000000000000000e+00
2.000000000000000000e+00
2.000000000000000000e+00
2.000000000000000000e+00
2.000000000000000000e+00
2.000000000000000000e+00
2.000000000000000000e+00
3.000000000000000000e+00
3.000000000000000000e+00
3.000000000000000000e+00
3.000000000000000000e+00
4.000000000000000000e+00
5.000000000000000000e+00
5.000000000000000000e+00
5.000000000000000000e+00
5.000000000000000000e+00
8.000000000000000000e+00
8.000000000000000000e+00
8.000000000000000000e+00
9.000000000000000000e+00
1.100000000000000000e+01
1.200000000000000000e+01
1.200000000000000000e+01
1.500000000000000000e+01
1.800000000000000000e+01
1.900000000000000000e+01
2.300000000000000000e+01
3.100000000000000000e+01
3.200000000000000000e+01
3.700000000000000000e+01
4.700000000000000000e+01
5.300000000000000000e+01
6.000000000000000000e+01
6.700000000000000000e+01
7.900000000000000000e+01
9.000000000000000000e+01
1.020000000000000000e+02
1.220000000000000000e+02
1.430000000000000000e+02
1.610000000000000000e+02
1.910000000000000000e+02
2.220000000000000000e+02
2.640000000000000000e+02
3.060000000000000000e+02
3.500000000000000000e+02
3.970000000000000000e+02
4.700000000000000000e+02
5.580000000000000000e+02
6.410000000000000000e+02
7.330000000000000000e+02
8.340000000000000000e+02
9.800000000000000000e+02
1.135000000000000000e+03
1.335000000000000000e+03
1.517000000000000000e+03
1.768000000000000000e+03
1.998000000000000000e+03
2.310000000000000000e+03
2.735000000000000000e+03
3.168000000000000000e+03
3.630000000000000000e+03
4.158000000000000000e+03
4.829000000000000000e+03
5.651000000000000000e+03
6.519000000000000000e+03
7.514000000000000000e+03
8.679000000000000000e+03
1.001800000000000000e+04
1.160400000000000000e+04
1.346800000000000000e+04
1.556500000000000000e+04
1.796500000000000000e+04
2.072400000000000000e+04
2.405400000000000000e+04
2.780100000000000000e+04
3.219200000000000000e+04
