1.000000000000000000e+00
2.000000000000000000e+00
2.000000000000000000e+00
2.000000000000000000e+00
2.000000000000000000e+00
2.000000000000000000e+00
3.000000000000000000e+00
3.000000000000000000e+00
4.000000000000000000e+00
4.000000000000000000e+00
6.000000000000000000e+00
6.000000000000000000e+00
6.000000000000000000e+00
6.000000000000000000e+00
7.000000000000000000e+00
7.000000000000000000e+00
1.000000000000000000e+01
1.100000000000000000e+01
1.100000000000000000e+01
1.400000000000000000e+01
1.500000000000000000e+01
1.700000000000000000e+01
2.000000000000000000e+01
2.300000000000000000e+01
2.500000000000000000e+01
2.600000000000000000e+01
3.400000000000000000e+01
4.000000000000000000e+01
4.500000000000000000e+01
4.800000000000000000e+01
5.200000000000000000e+01
6.500000000000000000e+01
7.900000000000000000e+01
9.100000000000000000e+01
1.000000000000000000e+02
1.140000000000000000e+02
1.400000000000000000e+02
1.580000000000000000e+02
1.800000000000000000e+02
2.020000000000000000e+02
2.440000000000000000e+02
2.830000000000000000e+02
3.280000000000000000e+02
3.810000000000000000e+02
4.400000000000000000e+02
4.990000000000000000e+02
5.840000000000000000e+02
6.720000000000000000e+02
7.870000000000000000e+02
9.100000000000000000e+02
1.042000000000000000e+03
1.215000000000000000e+03
1.397000000000000000e+03
1.626000000000000000e+03
1.888000000000000000e+03
2.172000000000000000e+03
2.505000000000000000e+03
2.889000000000000000e+03
3.377000000000000000e+03
3.895000000000000000e+03
4.503000000000000000e+03
5.192000000000000000e+03
6.022000000000000000e+03
6.974000000000000000e+03
8.115000000000000000e+03
9.323000000000000000e+03
1.078400000000000000e+04
1.244100000000000000e+04
1.443700000000000000e+04
1.672000000000000000e+04
1.938700000000000000e+04
2.237900000000000000e+04
2.593400000000000000e+04
2.995500000000000000e+04
3.461800000000000000e+04
4.015500000000000000e+04
