1.000000000000000000e+00
2.000000000000000000e+00
2.000000000000000000e+00
2.000000000000000000e+00
2.000000000000000000e+00
2.000000000000000000e+00
3.000000000000000000e+00
3.000000000000000000e+00
3.000000000000000000e+00
4.000000000000000000e+00
4.000000000000000000e+00
6.000000000000000000e+00
6.000000000000000000e+00
6.000000000000000000e+00
7.000000000000000000e+00
1.000000000000000000e+01
1.000000000000000000e+01
1.000000000000000000e+01
1.300000000000000000e+01
1.400000000000000000e+01
1.700000000000000000e+01
1.900000000000000000e+01
2.200000000000000000e+01
2.500000000000000000e+01
2.700000000000000000e+01
3.200000000000000000e+01
3.800000000000000000e+01
4.200000000000000000e+01
4.900000000000000000e+01
5.500000000000000000e+01
6.300000000000000000e+01
7.600000000000000000e+01
8.800000000000000000e+01
9.800000000000000000e+01
1.120000000000000000e+02
1.300000000000000000e+02
1.520000000000000000e+02
1.790000000000000000e+02
2.090000000000000000e+02
2.400000000000000000e+02
2.680000000000000000e+02
3.120000000000000000e+02
3.560000000000000000e+02
4.150000000000000000e+02
5.020000000000000000e+02
5.700000000000000000e+02
6.490000000000000000e+02
7.480000000000000000e+02
8.520000000000000000e+02
9.890000000000000000e+02
1.165000000000000000e+03
1.327000000000000000e+03
1.541000000000000000e+03
1.784000000000000000e+03
2.055000000000000000e+03
2.392000000000000000e+03
2.765000000000000000e+03
3.202000000000000000e+03
3.703000000000000000e+03
4.308000000000000000e+03
4.995000000000000000e+03
5.730000000000000000e+03
6.661000000000000000e+03
7.660000000000000000e+03
8.812000000000000000e+03
1.023100000000000000e+04
1.189100000000000000e+04
1.370800000000000000e+04
1.590000000000000000e+04
1.836700000000000000e+04
2.127000000000000000e+04
2.459200000000000000e+04
2.849200000000000000e+04
3.293300000000000000e+04
3.809600000000000000e+04
4.405300000000000000e+04
