1.000000000000000000e+00
2.000000000000000000e+00
2.000000000000000000e+00
2.000000000000000000e+00
2.000000000000000000e+00
3.000000000000000000e+00
3.000000000000000000e+00
3.000000000000000000e+00
3.000000000000000000e+00
3.000000000000000000e+00
5.000000000000000000e+00
5.000000000000000000e+00
5.000000000000000000e+00
5.000000000000000000e+00
6.000000000000000000e+00
7.000000000000000000e+00
7.000000000000000000e+00
1.000000000000000000e+01
1.100000000000000000e+01
1.100000000000000000e+01
1.300000000000000000e+01
1.400000000000000000e+01
2.000000000000000000e+01
2.200000000000000000e+01
2.200000000000000000e+01
2.400000000000000000e+01
3.000000000000000000e+01
3.400000000000000000e+01
4.000000000000000000e+01
4.900000000000000000e+01
4.900000000000000000e+01
5.400000000000000000e+01
6.700000000000000000e+01
8.100000000000000000e+01
9.500000000000000000e+01
1.060000000000000000e+02
1.140000000000000000e+02
1.330000000000000000e+02
1.580000000000000000e+02
1.840000000000000000e+02
2.140000000000000000e+02
2.500000000000000000e+02
2.840000000000000000e+02
3.240000000000000000e+02
3.710000000000000000e+02
4.380000000000000000e+02
5.110000000000000000e+02
5.850000000000000000e+02
6.750000000000000000e+02
7.810000000000000000e+02
9.000000000000000000e+02
1.046000000000000000e+03
1.190000000000000000e+03
1.394000000000000000e+03
1.604000000000000000e+03
1.856000000000000000e+03
2.124000000000000000e+03
2.464000000000000000e+03
2.847000000000000000e+03
3.306000000000000000e+03
3.822000000000000000e+03
4.409000000000000000e+03
5.122000000000000000e+03
5.892000000000000000e+03
6.859000000000000000e+03
7.867000000000000000e+03
9.095000000000000000e+03
1.059200000000000000e+04
1.221500000000000000e+04
1.414000000000000000e+04
1.631100000000000000e+04
1.882000000000000000e+04
2.191700000000000000e+04
2.524600000000000000e+04
2.923200000000000000e+04
3.385600000000000000e+04
