1.000000000000000000e+00
2.000000000000000000e+00
2.000000000000000000e+00
2.000000000000000000e+00
2.000000000000000000e+00
2.000000000000000000e+00
2.000000000000000000e+00
2.000000000000000000e+00
2.000000000000000000e+00
2.000000000000000000e+00
2.000000000000000000e+00
2.000000000000000000e+00
2.000000000000000000e+00
2.000000000000000000e+00
2.000000000000000000e+00
2.000000000000000000e+00
2.000000000000000000e+00
2.000000000000000000e+00
2.000000000000000000e+00
2.000000000000000000e+00
2.000000000000000000e+00
2.000000000000000000e+00
2.000000000000000000e+00
2.000000000000000000e+00
2.000000000000000000e+00
2.000000000000000000e+00
2.000000000000000000e+00
2.000000000000000000e+00
2.000000000000000000e+00
2.000000000000000000e+00
2.000000000000000000e+00
2.000000000000000000e+00
2.000000000000000000e+00
2.000000000000000000e+00
2.000000000000000000e+00
2.000000000000000000e+00
2.000000000000000000e+00
2.000000000000000000e+00
2.000000000000000000e+00
2.000000000000000000e+00
2.000000000000000000e+00
2.000000000000000000e+00
2.000000000000000000e+00
2.000000000000000000e+00
2.000000000000000000e+00
2.000000000000000000e+00
2.000000000000000000e+00
2.000000000000000000e+00
2.000000000000000000e+00
2.000000000000000000e+00
2.000000000000000000e+00
2.000000000000000000e+00
2.000000000000000000e+00
2.000000000000000000e+00
2.000000000000000000e+00
2.000000000000000000e+00
2.000000000000000000e+00
2.000000000000000000e+00
2.000000000000000000e+00
2.000000000000000000e+00
2.000000000000000000e+00
2.000000000000000000e+00
2.000000000000000000e+00
2.000000000000000000e+00
2.000000000000000000e+00
2.000000000000000000e+00
2.000000000000000000e+00
2.000000000000000000e+00
2.000000000000000000e+00
2.000000000000000000e+00
2.000000000000000000e+00
2.000000000000000000e+00
2.000000000000000000e+00
2.000000000000000000e+00
2.000000000000000000e+00
2.000000000000000000e+00
2.000000000000000000e+00
2.000000000000000000e+00
2.000000000000000000e+00
2.000000000000000000e+00
2.000000000000000000e+00
2.000000000000000000e+00
2.000000000000000000e+00
2.000000000000000000e+00
2.000000000000000000e+00
2.000000000000000000e+00
2.000000000000000000e+00
2.000000000000000000e+00
2.000000000000000000e+00
2.000000000000000000e+00
2.000000000000000000e+00
2.000000000000000000e+00
2.000000000000000000e+00
2.000000000000000000e+00
3.000000000000000000e+00
3.000000000000000000e+00
3.000000000000000000e+00
3.000000000000000000e+00
3.000000000000000000e+00
3.000000000000000000e+00
3.000000000000000000e+00
3.000000000000000000e+00
3.000000000000000000e+00
3.000000000000000000e+00
3.000000000000000000e+00
3.000000000000000000e+00
3.000000000000000000e+00
3.000000000000000000e+00
3.000000000000000000e+00
3.000000000000000000e+00
3.000000000000000000e+00
3.000000000000000000e+00
3.000000000000000000e+00
3.000000000000000000e+00
3.000000000000000000e+00
3.000000000000000000e+00
3.000000000000000000e+00
3.000000000000000000e+00
3.000000000000000000e+00
3.000000000000000000e+00
3.000000000000000000e+00
3.000000000000000000e+00
3.000000000000000000e+00
3.000000000000000000e+00
3.000000000000000000e+00
3.000000000000000000e+00
3.000000000000000000e+00
3.000000000000000000e+00
3.000000000000000000e+00
3.000000000000000000e+00
3.000000000000000000e+00
3.000000000000000000e+00
3.000000000000000000e+00
3.000000000000000000e+00
3.000000000000000000e+00
3.000000000000000000e+00
3.000000000000000000e+00
3.000000000000000000e+00
3.000000000000000000e+00
3.000000000000000000e+00
4.000000000000000000e+00
4.000000000000000000e+00
4.000000000000000000e+00
4.000000000000000000e+00
4.000000000000000000e+00
4.000000000000000000e+00
4.000000000000000000e+00
4.000000000000000000e+00
4.000000000000000000e+00
4.000000000000000000e+00
4.000000000000000000e+00
4.000000000000000000e+00
4.000000000000000000e+00
4.000000000000000000e+00
4.000000000000000000e+00
4.000000000000000000e+00
4.000000000000000000e+00
4.000000000000000000e+00
4.000000000000000000e+00
4.000000000000000000e+00
4.000000000000000000e+00
4.000000000000000000e+00
4.000000000000000000e+00
4.000000000000000000e+00
4.000000000000000000e+00
4.000000000000000000e+00
4.000000000000000000e+00
4.000000000000000000e+00
4.000000000000000000e+00
4.000000000000000000e+00
4.000000000000000000e+00
4.000000000000000000e+00
4.000000000000000000e+00
4.000000000000000000e+00
5.000000000000000000e+00
5.000000000000000000e+00
5.000000000000000000e+00
5.000000000000000000e+00
5.000000000000000000e+00
5.000000000000000000e+00
6.000000000000000000e+00
6.000000000000000000e+00
6.000000000000000000e+00
6.000000000000000000e+00
6.000000000000000000e+00
6.000000000000000000e+00
6.000000000000000000e+00
6.000000000000000000e+00
6.000000000000000000e+00
6.000000000000000000e+00
6.000000000000000000e+00
6.000000000000000000e+00
6.000000000000000000e+00
6.000000000000000000e+00
6.000000000000000000e+00
6.000000000000000000e+00
6.000000000000000000e+00
6.000000000000000000e+00
6.000000000000000000e+00
6.000000000000000000e+00
6.000000000000000000e+00
6.000000000000000000e+00
6.000000000000000000e+00
6.000000000000000000e+00
6.000000000000000000e+00
6.000000000000000000e+00
6.000000000000000000e+00
6.000000000000000000e+00
6.000000000000000000e+00
6.000000000000000000e+00
6.000000000000000000e+00
6.000000000000000000e+00
6.000000000000000000e+00
6.000000000000000000e+00
6.000000000000000000e+00
6.000000000000000000e+00
6.000000000000000000e+00
6.000000000000000000e+00
6.000000000000000000e+00
6.000000000000000000e+00
6.000000000000000000e+00
6.000000000000000000e+00
6.000000000000000000e+00
6.000000000000000000e+00
6.000000000000000000e+00
6.000000000000000000e+00
6.000000000000000000e+00
6.000000000000000000e+00
6.000000000000000000e+00
6.000000000000000000e+00
6.000000000000000000e+00
6.000000000000000000e+00
7.000000000000000000e+00
7.000000000000000000e+00
7.000000000000000000e+00
7.000000000000000000e+00
7.000000000000000000e+00
7.000000000000000000e+00
7.000000000000000000e+00
7.000000000000000000e+00
7.000000000000000000e+00
7.000000000000000000e+00
7.000000000000000000e+00
8.000000000000000000e+00
8.000000000000000000e+00
9.000000000000000000e+00
9.000000000000000000e+00
9.000000000000000000e+00
9.000000000000000000e+00
9.000000000000000000e+00
9.000000000000000000e+00
9.000000000000000000e+00
9.000000000000000000e+00
9.000000000000000000e+00
9.000000000000000000e+00
9.000000000000000000e+00
9.000000000000000000e+00
9.000000000000000000e+00
9.000000000000000000e+00
9.000000000000000000e+00
1.000000000000000000e+01
1.000000000000000000e+01
1.000000000000000000e+01
1.000000000000000000e+01
1.000000000000000000e+01
1.000000000000000000e+01
1.000000000000000000e+01
1.100000000000000000e+01
1.100000000000000000e+01
1.100000000000000000e+01
1.100000000000000000e+01
1.100000000000000000e+01
1.100000000000000000e+01
1.100000000000000000e+01
1.100000000000000000e+01
1.100000000000000000e+01
1.100000000000000000e+01
1.100000000000000000e+01
1.100000000000000000e+01
1.100000000000000000e+01
1.100000000000000000e+01
1.100000000000000000e+01
1.200000000000000000e+01
1.200000000000000000e+01
1.200000000000000000e+01
1.200000000000000000e+01
1.200000000000000000e+01
1.200000000000000000e+01
1.200000000000000000e+01
1.200000000000000000e+01
1.200000000000000000e+01
1.200000000000000000e+01
1.200000000000000000e+01
1.200000000000000000e+01
1.200000000000000000e+01
1.200000000000000000e+01
1.200000000000000000e+01
1.200000000000000000e+01
1.200000000000000000e+01
1.200000000000000000e+01
1.300000000000000000e+01
1.300000000000000000e+01
1.300000000000000000e+01
1.300000000000000000e+01
1.300000000000000000e+01
1.300000000000000000e+01
1.400000000000000000e+01
1.400000000000000000e+01
1.400000000000000000e+01
1.400000000000000000e+01
1.400000000000000000e+01
1.500000000000000000e+01
1.500000000000000000e+01
1.500000000000000000e+01
1.500000000000000000e+01
1.500000000000000000e+01
1.500000000000000000e+01
1.500000000000000000e+01
1.600000000000000000e+01
1.600000000000000000e+01
1.600000000000000000e+01
1.600000000000000000e+01
1.600000000000000000e+01
1.600000000000000000e+01
1.600000000000000000e+01
1.600000000000000000e+01
1.600000000000000000e+01
1.600000000000000000e+01
1.600000000000000000e+01
1.600000000000000000e+01
1.700000000000000000e+01
1.700000000000000000e+01
1.700000000000000000e+01
1.700000000000000000e+01
1.700000000000000000e+01
1.700000000000000000e+01
1.700000000000000000e+01
1.700000000000000000e+01
1.700000000000000000e+01
1.700000000000000000e+01
1.700000000000000000e+01
1.700000000000000000e+01
1.800000000000000000e+01
1.800000000000000000e+01
1.800000000000000000e+01
1.800000000000000000e+01
1.900000000000000000e+01
1.900000000000000000e+01
1.900000000000000000e+01
1.900000000000000000e+01
1.900000000000000000e+01
2.000000000000000000e+01
2.000000000000000000e+01
2.000000000000000000e+01
2.000000000000000000e+01
2.100000000000000000e+01
2.100000000000000000e+01
2.100000000000000000e+01
2.100000000000000000e+01
2.100000000000000000e+01
2.100000000000000000e+01
2.100000000000000000e+01
2.100000000000000000e+01
2.100000000000000000e+01
2.300000000000000000e+01
2.300000000000000000e+01
2.300000000000000000e+01
2.300000000000000000e+01
2.300000000000000000e+01
2.300000000000000000e+01
2.300000000000000000e+01
2.300000000000000000e+01
2.300000000000000000e+01
2.300000000000000000e+01
2.300000000000000000e+01
2.300000000000000000e+01
2.300000000000000000e+01
2.300000000000000000e+01
2.400000000000000000e+01
2.400000000000000000e+01
2.400000000000000000e+01
2.400000000000000000e+01
2.400000000000000000e+01
2.500000000000000000e+01
2.500000000000000000e+01
2.500000000000000000e+01
2.500000000000000000e+01
2.500000000000000000e+01
2.500000000000000000e+01
2.600000000000000000e+01
2.600000000000000000e+01
2.600000000000000000e+01
2.600000000000000000e+01
2.600000000000000000e+01
2.600000000000000000e+01
2.600000000000000000e+01
2.600000000000000000e+01
2.700000000000000000e+01
2.700000000000000000e+01
2.700000000000000000e+01
2.700000000000000000e+01
2.700000000000000000e+01
2.700000000000000000e+01
2.700000000000000000e+01
2.700000000000000000e+01
2.700000000000000000e+01
2.700000000000000000e+01
2.700000000000000000e+01
2.700000000000000000e+01
2.700000000000000000e+01
2.800000000000000000e+01
2.800000000000000000e+01
2.800000000000000000e+01
2.800000000000000000e+01
2.900000000000000000e+01
3.000000000000000000e+01
3.000000000000000000e+01
3.000000000000000000e+01
3.000000000000000000e+01
3.000000000000000000e+01
3.000000000000000000e+01
3.000000000000000000e+01
3.000000000000000000e+01
3.100000000000000000e+01
3.200000000000000000e+01
3.200000000000000000e+01
3.300000000000000000e+01
3.300000000000000000e+01
3.400000000000000000e+01
3.400000000000000000e+01
3.500000000000000000e+01
3.500000000000000000e+01
3.500000000000000000e+01
3.600000000000000000e+01
3.600000000000000000e+01
3.600000000000000000e+01
3.600000000000000000e+01
3.600000000000000000e+01
3.600000000000000000e+01
3.600000000000000000e+01
3.600000000000000000e+01
3.600000000000000000e+01
3.600000000000000000e+01
3.600000000000000000e+01
3.600000000000000000e+01
3.600000000000000000e+01
3.700000000000000000e+01
3.800000000000000000e+01
4.000000000000000000e+01
4.000000000000000000e+01
4.000000000000000000e+01
4.000000000000000000e+01
4.100000000000000000e+01
4.100000000000000000e+01
4.100000000000000000e+01
4.200000000000000000e+01
4.200000000000000000e+01
4.300000000000000000e+01
4.300000000000000000e+01
4.300000000000000000e+01
4.300000000000000000e+01
4.500000000000000000e+01
4.600000000000000000e+01
4.600000000000000000e+01
4.600000000000000000e+01
4.600000000000000000e+01
4.600000000000000000e+01
4.600000000000000000e+01
4.600000000000000000e+01
4.600000000000000000e+01
4.700000000000000000e+01
4.700000000000000000e+01
4.700000000000000000e+01
4.700000000000000000e+01
4.800000000000000000e+01
4.800000000000000000e+01
4.800000000000000000e+01
4.800000000000000000e+01
4.800000000000000000e+01
4.800000000000000000e+01
4.800000000000000000e+01
4.900000000000000000e+01
5.000000000000000000e+01
5.000000000000000000e+01
5.000000000000000000e+01
5.000000000000000000e+01
5.100000000000000000e+01
5.100000000000000000e+01
5.100000000000000000e+01
5.100000000000000000e+01
5.100000000000000000e+01
5.200000000000000000e+01
5.200000000000000000e+01
5.200000000000000000e+01
5.300000000000000000e+01
5.300000000000000000e+01
5.400000000000000000e+01
5.400000000000000000e+01
5.500000000000000000e+01
5.500000000000000000e+01
5.600000000000000000e+01
5.700000000000000000e+01
5.800000000000000000e+01
5.800000000000000000e+01
5.900000000000000000e+01
5.900000000000000000e+01
5.900000000000000000e+01
5.900000000000000000e+01
5.900000000000000000e+01
5.900000000000000000e+01
6.100000000000000000e+01
6.300000000000000000e+01
6.400000000000000000e+01
6.600000000000000000e+01
6.700000000000000000e+01
6.800000000000000000e+01
6.800000000000000000e+01
6.800000000000000000e+01
6.800000000000000000e+01
6.900000000000000000e+01
6.900000000000000000e+01
6.900000000000000000e+01
6.900000000000000000e+01
6.900000000000000000e+01
6.900000000000000000e+01
6.900000000000000000e+01
7.000000000000000000e+01
7.000000000000000000e+01
7.000000000000000000e+01
7.000000000000000000e+01
7.100000000000000000e+01
7.100000000000000000e+01
7.200000000000000000e+01
7.300000000000000000e+01
7.300000000000000000e+01
7.300000000000000000e+01
7.300000000000000000e+01
7.300000000000000000e+01
7.400000000000000000e+01
7.500000000000000000e+01
7.500000000000000000e+01
7.500000000000000000e+01
7.500000000000000000e+01
7.600000000000000000e+01
7.600000000000000000e+01
7.700000000000000000e+01
7.800000000000000000e+01
8.000000000000000000e+01
8.000000000000000000e+01
8.100000000000000000e+01
8.100000000000000000e+01
8.100000000000000000e+01
8.100000000000000000e+01
8.200000000000000000e+01
8.200000000000000000e+01
8.200000000000000000e+01
8.200000000000000000e+01
8.300000000000000000e+01
8.400000000000000000e+01
8.500000000000000000e+01
8.600000000000000000e+01
8.700000000000000000e+01
8.800000000000000000e+01
8.800000000000000000e+01
9.000000000000000000e+01
9.000000000000000000e+01
9.000000000000000000e+01
9.000000000000000000e+01
9.100000000000000000e+01
9.100000000000000000e+01
9.300000000000000000e+01
9.400000000000000000e+01
9.500000000000000000e+01
9.500000000000000000e+01
9.600000000000000000e+01
9.700000000000000000e+01
9.700000000000000000e+01
9.700000000000000000e+01
9.800000000000000000e+01
9.800000000000000000e+01
9.800000000000000000e+01
9.800000000000000000e+01
9.900000000000000000e+01
1.000000000000000000e+02
1.000000000000000000e+02
1.010000000000000000e+02
1.020000000000000000e+02
1.030000000000000000e+02
1.040000000000000000e+02
1.050000000000000000e+02
1.050000000000000000e+02
1.060000000000000000e+02
1.080000000000000000e+02
1.090000000000000000e+02
1.100000000000000000e+02
1.110000000000000000e+02
1.130000000000000000e+02
1.130000000000000000e+02
1.130000000000000000e+02
1.150000000000000000e+02
1.170000000000000000e+02
1.190000000000000000e+02
1.190000000000000000e+02
1.200000000000000000e+02
1.200000000000000000e+02
1.210000000000000000e+02
1.210000000000000000e+02
1.220000000000000000e+02
1.230000000000000000e+02
1.240000000000000000e+02
1.240000000000000000e+02
1.250000000000000000e+02
1.260000000000000000e+02
1.270000000000000000e+02
1.280000000000000000e+02
1.290000000000000000e+02
1.290000000000000000e+02
1.300000000000000000e+02
1.300000000000000000e+02
1.300000000000000000e+02
1.310000000000000000e+02
1.320000000000000000e+02
1.340000000000000000e+02
1.360000000000000000e+02
1.360000000000000000e+02
1.370000000000000000e+02
1.370000000000000000e+02
1.390000000000000000e+02
1.400000000000000000e+02
1.410000000000000000e+02
1.410000000000000000e+02
1.420000000000000000e+02
1.420000000000000000e+02
1.420000000000000000e+02
1.420000000000000000e+02
1.420000000000000000e+02
1.440000000000000000e+02
1.460000000000000000e+02
1.470000000000000000e+02
1.480000000000000000e+02
1.480000000000000000e+02
1.510000000000000000e+02
1.530000000000000000e+02
1.540000000000000000e+02
1.540000000000000000e+02
1.560000000000000000e+02
1.560000000000000000e+02
1.570000000000000000e+02
1.590000000000000000e+02
1.590000000000000000e+02
1.630000000000000000e+02
1.640000000000000000e+02
1.640000000000000000e+02
1.640000000000000000e+02
1.670000000000000000e+02
1.670000000000000000e+02
1.670000000000000000e+02
1.690000000000000000e+02
1.690000000000000000e+02
1.720000000000000000e+02
1.720000000000000000e+02
1.730000000000000000e+02
1.730000000000000000e+02
1.730000000000000000e+02
1.740000000000000000e+02
1.740000000000000000e+02
1.750000000000000000e+02
1.800000000000000000e+02
1.820000000000000000e+02
1.840000000000000000e+02
1.870000000000000000e+02
1.910000000000000000e+02
1.920000000000000000e+02
1.920000000000000000e+02
1.920000000000000000e+02
1.950000000000000000e+02
1.990000000000000000e+02
2.000000000000000000e+02
2.030000000000000000e+02
2.040000000000000000e+02
2.050000000000000000e+02
2.050000000000000000e+02
2.050000000000000000e+02
2.060000000000000000e+02
2.060000000000000000e+02
2.070000000000000000e+02
2.100000000000000000e+02
2.140000000000000000e+02
2.150000000000000000e+02
2.160000000000000000e+02
2.190000000000000000e+02
2.220000000000000000e+02
2.250000000000000000e+02
2.280000000000000000e+02
2.300000000000000000e+02
2.310000000000000000e+02
2.320000000000000000e+02
2.330000000000000000e+02
2.350000000000000000e+02
2.350000000000000000e+02
2.370000000000000000e+02
2.390000000000000000e+02
2.400000000000000000e+02
2.400000000000000000e+02
2.410000000000000000e+02
2.430000000000000000e+02
2.430000000000000000e+02
2.440000000000000000e+02
2.440000000000000000e+02
2.460000000000000000e+02
2.480000000000000000e+02
2.500000000000000000e+02
2.500000000000000000e+02
2.510000000000000000e+02
2.530000000000000000e+02
2.590000000000000000e+02
2.610000000000000000e+02
2.620000000000000000e+02
2.660000000000000000e+02
2.680000000000000000e+02
2.700000000000000000e+02
2.710000000000000000e+02
2.720000000000000000e+02
2.730000000000000000e+02
2.770000000000000000e+02
2.780000000000000000e+02
2.780000000000000000e+02
2.800000000000000000e+02
2.850000000000000000e+02
2.870000000000000000e+02
2.870000000000000000e+02
2.880000000000000000e+02
2.900000000000000000e+02
2.920000000000000000e+02
2.970000000000000000e+02
2.980000000000000000e+02
3.000000000000000000e+02
3.010000000000000000e+02
3.040000000000000000e+02
3.070000000000000000e+02
3.070000000000000000e+02
3.100000000000000000e+02
3.120000000000000000e+02
3.140000000000000000e+02
3.190000000000000000e+02
3.220000000000000000e+02
3.240000000000000000e+02
3.270000000000000000e+02
3.290000000000000000e+02
3.340000000000000000e+02
3.390000000000000000e+02
3.410000000000000000e+02
3.420000000000000000e+02
3.450000000000000000e+02
3.510000000000000000e+02
3.560000000000000000e+02
3.580000000000000000e+02
3.610000000000000000e+02
3.630000000000000000e+02
3.650000000000000000e+02
3.700000000000000000e+02
3.750000000000000000e+02
3.830000000000000000e+02
3.870000000000000000e+02
3.880000000000000000e+02
3.910000000000000000e+02
3.920000000000000000e+02
3.930000000000000000e+02
3.970000000000000000e+02
4.010000000000000000e+02
4.010000000000000000e+02
4.030000000000000000e+02
4.060000000000000000e+02
4.090000000000000000e+02
4.110000000000000000e+02
4.130000000000000000e+02
4.140000000000000000e+02
4.170000000000000000e+02
4.200000000000000000e+02
4.220000000000000000e+02
4.240000000000000000e+02
4.290000000000000000e+02
4.320000000000000000e+02
4.330000000000000000e+02
4.350000000000000000e+02
4.350000000000000000e+02
4.380000000000000000e+02
4.420000000000000000e+02
4.470000000000000000e+02
4.480000000000000000e+02
4.510000000000000000e+02
4.560000000000000000e+02
4.570000000000000000e+02
4.590000000000000000e+02
4.640000000000000000e+02
4.680000000000000000e+02
4.720000000000000000e+02
4.770000000000000000e+02
4.810000000000000000e+02
4.870000000000000000e+02
4.890000000000000000e+02
4.930000000000000000e+02
4.970000000000000000e+02
5.000000000000000000e+02
5.030000000000000000e+02
5.070000000000000000e+02
5.130000000000000000e+02
5.170000000000000000e+02
5.220000000000000000e+02
5.230000000000000000e+02
5.240000000000000000e+02
5.300000000000000000e+02
5.330000000000000000e+02
5.390000000000000000e+02
5.440000000000000000e+02
5.470000000000000000e+02
5.490000000000000000e+02
5.560000000000000000e+02
5.610000000000000000e+02
5.640000000000000000e+02
5.700000000000000000e+02
5.740000000000000000e+02
5.770000000000000000e+02
5.830000000000000000e+02
5.870000000000000000e+02
5.920000000000000000e+02
5.970000000000000000e+02
6.010000000000000000e+02
6.040000000000000000e+02
6.080000000000000000e+02
6.140000000000000000e+02
6.200000000000000000e+02
6.230000000000000000e+02
6.260000000000000000e+02
6.310000000000000000e+02
6.360000000000000000e+02
6.410000000000000000e+02
6.450000000000000000e+02
6.500000000000000000e+02
6.560000000000000000e+02
6.590000000000000000e+02
6.630000000000000000e+02
6.710000000000000000e+02
6.730000000000000000e+02
6.750000000000000000e+02
6.800000000000000000e+02
6.850000000000000000e+02
6.870000000000000000e+02
6.930000000000000000e+02
6.980000000000000000e+02
7.010000000000000000e+02
7.060000000000000000e+02
7.110000000000000000e+02
7.180000000000000000e+02
7.230000000000000000e+02
7.260000000000000000e+02
7.290000000000000000e+02
7.330000000000000000e+02
7.420000000000000000e+02
7.460000000000000000e+02
7.530000000000000000e+02
7.580000000000000000e+02
7.640000000000000000e+02
7.710000000000000000e+02
7.790000000000000000e+02
7.830000000000000000e+02
7.880000000000000000e+02
7.880000000000000000e+02
7.980000000000000000e+02
8.040000000000000000e+02
8.090000000000000000e+02
8.160000000000000000e+02
8.210000000000000000e+02
8.310000000000000000e+02
8.370000000000000000e+02
8.430000000000000000e+02
8.470000000000000000e+02
8.540000000000000000e+02
8.620000000000000000e+02
8.700000000000000000e+02
8.810000000000000000e+02
8.890000000000000000e+02
9.000000000000000000e+02
9.070000000000000000e+02
9.170000000000000000e+02
9.210000000000000000e+02
9.330000000000000000e+02
9.380000000000000000e+02
9.480000000000000000e+02
9.550000000000000000e+02
9.600000000000000000e+02
9.710000000000000000e+02
9.740000000000000000e+02
9.810000000000000000e+02
9.840000000000000000e+02
9.910000000000000000e+02
9.960000000000000000e+02
1.007000000000000000e+03
1.012000000000000000e+03
1.019000000000000000e+03
1.024000000000000000e+03
1.029000000000000000e+03
1.038000000000000000e+03
1.047000000000000000e+03
1.058000000000000000e+03
1.066000000000000000e+03
1.077000000000000000e+03
1.087000000000000000e+03
1.095000000000000000e+03
1.100000000000000000e+03
1.111000000000000000e+03
1.121000000000000000e+03
1.128000000000000000e+03
1.135000000000000000e+03
1.141000000000000000e+03
1.146000000000000000e+03
1.151000000000000000e+03
1.158000000000000000e+03
1.161000000000000000e+03
1.170000000000000000e+03
1.183000000000000000e+03
1.188000000000000000e+03
1.197000000000000000e+03
1.205000000000000000e+03
1.217000000000000000e+03
1.226000000000000000e+03
1.233000000000000000e+03
1.240000000000000000e+03
1.249000000000000000e+03
1.258000000000000000e+03
1.265000000000000000e+03
1.274000000000000000e+03
1.286000000000000000e+03
1.300000000000000000e+03
1.308000000000000000e+03
1.316000000000000000e+03
1.327000000000000000e+03
1.339000000000000000e+03
1.352000000000000000e+03
1.363000000000000000e+03
1.371000000000000000e+03
1.373000000000000000e+03
1.386000000000000000e+03
1.398000000000000000e+03
1.406000000000000000e+03
1.418000000000000000e+03
1.421000000000000000e+03
1.429000000000000000e+03
1.442000000000000000e+03
1.451000000000000000e+03
1.461000000000000000e+03
1.470000000000000000e+03
1.476000000000000000e+03
1.492000000000000000e+03
1.503000000000000000e+03
1.510000000000000000e+03
1.527000000000000000e+03
1.541000000000000000e+03
1.550000000000000000e+03
1.560000000000000000e+03
1.571000000000000000e+03
1.583000000000000000e+03
1.592000000000000000e+03
1.605000000000000000e+03
1.623000000000000000e+03
1.636000000000000000e+03
1.646000000000000000e+03
1.658000000000000000e+03
1.671000000000000000e+03
1.678000000000000000e+03
1.689000000000000000e+03
1.704000000000000000e+03
1.717000000000000000e+03
1.731000000000000000e+03
1.744000000000000000e+03
1.758000000000000000e+03
1.776000000000000000e+03
1.785000000000000000e+03
1.799000000000000000e+03
1.809000000000000000e+03
1.828000000000000000e+03
1.841000000000000000e+03
1.852000000000000000e+03
1.866000000000000000e+03
1.875000000000000000e+03
1.892000000000000000e+03
1.914000000000000000e+03
1.926000000000000000e+03
1.940000000000000000e+03
1.960000000000000000e+03
1.969000000000000000e+03
1.982000000000000000e+03
1.992000000000000000e+03
2.001000000000000000e+03
2.013000000000000000e+03
2.032000000000000000e+03
2.052000000000000000e+03
2.070000000000000000e+03
2.087000000000000000e+03
2.103000000000000000e+03
2.118000000000000000e+03
2.131000000000000000e+03
2.142000000000000000e+03
2.161000000000000000e+03
2.179000000000000000e+03
2.197000000000000000e+03
2.213000000000000000e+03
2.225000000000000000e+03
2.238000000000000000e+03
2.252000000000000000e+03
2.268000000000000000e+03
2.280000000000000000e+03
2.297000000000000000e+03
2.317000000000000000e+03
2.335000000000000000e+03
2.355000000000000000e+03
2.376000000000000000e+03
2.388000000000000000e+03
2.412000000000000000e+03
2.436000000000000000e+03
2.449000000000000000e+03
2.467000000000000000e+03
2.483000000000000000e+03
2.500000000000000000e+03
2.518000000000000000e+03
2.537000000000000000e+03
2.559000000000000000e+03
2.577000000000000000e+03
2.595000000000000000e+03
2.613000000000000000e+03
2.635000000000000000e+03
2.653000000000000000e+03
2.669000000000000000e+03
2.697000000000000000e+03
2.717000000000000000e+03
2.736000000000000000e+03
2.763000000000000000e+03
2.779000000000000000e+03
2.792000000000000000e+03
2.815000000000000000e+03
2.842000000000000000e+03
2.863000000000000000e+03
2.878000000000000000e+03
2.897000000000000000e+03
2.911000000000000000e+03
2.930000000000000000e+03
2.959000000000000000e+03
2.978000000000000000e+03
2.996000000000000000e+03
3.015000000000000000e+03
3.043000000000000000e+03
3.065000000000000000e+03
3.101000000000000000e+03
3.126000000000000000e+03
3.148000000000000000e+03
3.162000000000000000e+03
3.182000000000000000e+03
3.205000000000000000e+03
3.223000000000000000e+03
3.248000000000000000e+03
3.273000000000000000e+03
3.293000000000000000e+03
3.312000000000000000e+03
3.338000000000000000e+03
3.364000000000000000e+03
3.383000000000000000e+03
3.412000000000000000e+03
3.437000000000000000e+03
3.452000000000000000e+03
3.478000000000000000e+03
3.497000000000000000e+03
3.525000000000000000e+03
3.550000000000000000e+03
3.573000000000000000e+03
3.596000000000000000e+03
3.617000000000000000e+03
3.653000000000000000e+03
3.678000000000000000e+03
3.700000000000000000e+03
3.722000000000000000e+03
3.747000000000000000e+03
3.782000000000000000e+03
3.818000000000000000e+03
3.841000000000000000e+03
3.875000000000000000e+03
3.903000000000000000e+03
3.936000000000000000e+03
3.964000000000000000e+03
3.992000000000000000e+03
4.025000000000000000e+03
4.058000000000000000e+03
4.095000000000000000e+03
4.130000000000000000e+03
4.164000000000000000e+03
4.199000000000000000e+03
4.226000000000000000e+03
4.252000000000000000e+03
4.281000000000000000e+03
4.314000000000000000e+03
4.338000000000000000e+03
4.366000000000000000e+03
4.399000000000000000e+03
4.439000000000000000e+03
4.458000000000000000e+03
4.490000000000000000e+03
4.517000000000000000e+03
4.554000000000000000e+03
4.585000000000000000e+03
4.622000000000000000e+03
4.655000000000000000e+03
4.691000000000000000e+03
4.726000000000000000e+03
4.766000000000000000e+03
4.799000000000000000e+03
4.828000000000000000e+03
4.869000000000000000e+03
4.899000000000000000e+03
4.940000000000000000e+03
4.971000000000000000e+03
5.008000000000000000e+03
5.037000000000000000e+03
5.067000000000000000e+03
5.125000000000000000e+03
5.152000000000000000e+03
5.181000000000000000e+03
5.228000000000000000e+03
5.272000000000000000e+03
5.311000000000000000e+03
5.353000000000000000e+03
5.394000000000000000e+03
5.439000000000000000e+03
5.480000000000000000e+03
5.512000000000000000e+03
5.556000000000000000e+03
5.592000000000000000e+03
5.615000000000000000e+03
5.658000000000000000e+03
5.690000000000000000e+03
5.745000000000000000e+03
5.779000000000000000e+03
5.824000000000000000e+03
5.866000000000000000e+03
5.915000000000000000e+03
5.956000000000000000e+03
6.002000000000000000e+03
6.037000000000000000e+03
6.081000000000000000e+03
6.120000000000000000e+03
6.165000000000000000e+03
6.208000000000000000e+03
6.256000000000000000e+03
6.294000000000000000e+03
6.349000000000000000e+03
6.409000000000000000e+03
6.443000000000000000e+03
6.488000000000000000e+03
6.539000000000000000e+03
6.583000000000000000e+03
6.636000000000000000e+03
6.688000000000000000e+03
6.736000000000000000e+03
6.788000000000000000e+03
6.838000000000000000e+03
6.892000000000000000e+03
6.948000000000000000e+03
6.992000000000000000e+03
7.040000000000000000e+03
7.089000000000000000e+03
7.122000000000000000e+03
7.159000000000000000e+03
7.209000000000000000e+03
7.259000000000000000e+03
7.327000000000000000e+03
7.369000000000000000e+03
7.431000000000000000e+03
7.482000000000000000e+03
7.534000000000000000e+03
7.598000000000000000e+03
7.650000000000000000e+03
7.717000000000000000e+03
7.773000000000000000e+03
7.843000000000000000e+03
7.893000000000000000e+03
7.958000000000000000e+03
8.023000000000000000e+03
8.089000000000000000e+03
8.145000000000000000e+03
8.209000000000000000e+03
8.269000000000000000e+03
8.339000000000000000e+03
8.390000000000000000e+03
8.455000000000000000e+03
8.512000000000000000e+03
8.564000000000000000e+03
8.626000000000000000e+03
8.684000000000000000e+03
8.741000000000000000e+03
8.813000000000000000e+03
8.873000000000000000e+03
8.939000000000000000e+03
9.005000000000000000e+03
9.072000000000000000e+03
9.141000000000000000e+03
9.199000000000000000e+03
9.274000000000000000e+03
9.342000000000000000e+03
9.402000000000000000e+03
9.458000000000000000e+03
9.534000000000000000e+03
9.603000000000000000e+03
9.670000000000000000e+03
9.744000000000000000e+03
9.806000000000000000e+03
9.893000000000000000e+03
9.967000000000000000e+03
1.004400000000000000e+04
1.010500000000000000e+04
1.016600000000000000e+04
1.023400000000000000e+04
1.030200000000000000e+04
1.039300000000000000e+04
1.046800000000000000e+04
1.054600000000000000e+04
1.062800000000000000e+04
1.070800000000000000e+04
1.078400000000000000e+04
1.088800000000000000e+04
1.096700000000000000e+04
1.105400000000000000e+04
1.113300000000000000e+04
1.121500000000000000e+04
1.128800000000000000e+04
1.136300000000000000e+04
1.144900000000000000e+04
1.152600000000000000e+04
1.160900000000000000e+04
1.168800000000000000e+04
1.176400000000000000e+04
1.185300000000000000e+04
1.194400000000000000e+04
1.202600000000000000e+04
1.210600000000000000e+04
1.221000000000000000e+04
1.230400000000000000e+04
1.240200000000000000e+04
1.249700000000000000e+04
1.259000000000000000e+04
1.267700000000000000e+04
1.276200000000000000e+04
1.285000000000000000e+04
1.295700000000000000e+04
1.303900000000000000e+04
1.313600000000000000e+04
1.324300000000000000e+04
1.332200000000000000e+04
1.341500000000000000e+04
1.350400000000000000e+04
1.361400000000000000e+04
1.372200000000000000e+04
1.383400000000000000e+04
1.394700000000000000e+04
1.404600000000000000e+04
1.415600000000000000e+04
1.427100000000000000e+04
1.438000000000000000e+04
1.448600000000000000e+04
1.459600000000000000e+04
1.470700000000000000e+04
1.481200000000000000e+04
1.490200000000000000e+04
1.502200000000000000e+04
1.513500000000000000e+04
1.527100000000000000e+04
1.538600000000000000e+04
1.548900000000000000e+04
1.558200000000000000e+04
1.572100000000000000e+04
1.584100000000000000e+04
1.596200000000000000e+04
1.609100000000000000e+04
1.619600000000000000e+04
1.632600000000000000e+04
1.645500000000000000e+04
1.657400000000000000e+04
1.671500000000000000e+04
1.683900000000000000e+04
1.693700000000000000e+04
1.707900000000000000e+04
1.719700000000000000e+04
1.733300000000000000e+04
1.743700000000000000e+04
1.754200000000000000e+04
1.766200000000000000e+04
1.778600000000000000e+04
1.792400000000000000e+04
1.804600000000000000e+04
1.817800000000000000e+04
1.831500000000000000e+04
1.842300000000000000e+04
1.854200000000000000e+04
1.867200000000000000e+04
1.879900000000000000e+04
1.891900000000000000e+04
1.906400000000000000e+04
1.918800000000000000e+04
1.932500000000000000e+04
1.948900000000000000e+04
1.963400000000000000e+04
1.978300000000000000e+04
1.991300000000000000e+04
2.002500000000000000e+04
2.017400000000000000e+04
2.034400000000000000e+04
2.049300000000000000e+04
2.065400000000000000e+04
2.079400000000000000e+04
2.095300000000000000e+04
2.110100000000000000e+04
2.124500000000000000e+04
2.140600000000000000e+04
2.154500000000000000e+04
2.171600000000000000e+04
2.186300000000000000e+04
2.203800000000000000e+04
2.220200000000000000e+04
2.237500000000000000e+04
2.255400000000000000e+04
2.270700000000000000e+04
2.287800000000000000e+04
2.304600000000000000e+04
2.320800000000000000e+04
2.339800000000000000e+04
2.356400000000000000e+04
2.373600000000000000e+04
2.390000000000000000e+04
2.406600000000000000e+04
2.425700000000000000e+04
2.444100000000000000e+04
2.458300000000000000e+04
2.475200000000000000e+04
2.494000000000000000e+04
2.514600000000000000e+04
2.534900000000000000e+04
2.553100000000000000e+04
2.571600000000000000e+04
2.589700000000000000e+04
2.608000000000000000e+04
2.625900000000000000e+04
2.646600000000000000e+04
2.665600000000000000e+04
2.686400000000000000e+04
2.708100000000000000e+04
2.729100000000000000e+04
2.749800000000000000e+04
2.768100000000000000e+04
2.788600000000000000e+04
2.809900000000000000e+04
2.827600000000000000e+04
2.848800000000000000e+04
2.871500000000000000e+04
2.892300000000000000e+04
2.916600000000000000e+04
2.938000000000000000e+04
2.959700000000000000e+04
2.981300000000000000e+04
3.002400000000000000e+04
3.025400000000000000e+04
3.048100000000000000e+04
3.071800000000000000e+04
3.094700000000000000e+04
3.116000000000000000e+04
3.138600000000000000e+04
3.163700000000000000e+04
3.188500000000000000e+04
3.212100000000000000e+04
3.234300000000000000e+04
3.257300000000000000e+04
3.284100000000000000e+04
3.304300000000000000e+04
3.329700000000000000e+04
3.356300000000000000e+04
3.383200000000000000e+04
3.404500000000000000e+04
3.429200000000000000e+04
3.454300000000000000e+04
3.481200000000000000e+04
3.506100000000000000e+04
3.530200000000000000e+04
3.552500000000000000e+04
3.578700000000000000e+04
3.604900000000000000e+04
3.633500000000000000e+04
3.661200000000000000e+04
3.686000000000000000e+04
3.716100000000000000e+04
3.745300000000000000e+04
3.774200000000000000e+04
3.801700000000000000e+04
3.827000000000000000e+04
3.854700000000000000e+04
3.882000000000000000e+04
