1.000000000000000000e+00
2.000000000000000000e+00
2.000000000000000000e+00
2.000000000000000000e+00
2.000000000000000000e+00
2.000000000000000000e+00
3.000000000000000000e+00
3.000000000000000000e+00
3.000000000000000000e+00
3.000000000000000000e+00
5.000000000000000000e+00
5.000000000000000000e+00
5.000000000000000000e+00
7.000000000000000000e+00
7.000000000000000000e+00
8.000000000000000000e+00
1.000000000000000000e+01
1.100000000000000000e+01
1.200000000000000000e+01
1.600000000000000000e+01
1.700000000000000000e+01
1.900000000000000000e+01
1.900000000000000000e+01
2.300000000000000000e+01
3.000000000000000000e+01
3.000000000000000000e+01
3.600000000000000000e+01
4.000000000000000000e+01
5.000000000000000000e+01
5.500000000000000000e+01
6.300000000000000000e+01
7.400000000000000000e+01
8.300000000000000000e+01
9.600000000000000000e+01
1.050000000000000000e+02
1.250000000000000000e+02
1.490000000000000000e+02
1.680000000000000000e+02
1.980000000000000000e+02
2.240000000000000000e+02
2.570000000000000000e+02
2.980000000000000000e+02
3.380000000000000000e+02
3.970000000000000000e+02
4.590000000000000000e+02
5.230000000000000000e+02
6.090000000000000000e+02
7.000000000000000000e+02
8.170000000000000000e+02
9.380000000000000000e+02
1.091000000000000000e+03
1.248000000000000000e+03
1.431000000000000000e+03
1.653000000000000000e+03
1.914000000000000000e+03
2.242000000000000000e+03
2.571000000000000000e+03
2.991000000000000000e+03
3.448000000000000000e+03
4.013000000000000000e+03
4.622000000000000000e+03
5.355000000000000000e+03
6.226000000000000000e+03
7.213000000000000000e+03
8.371000000000000000e+03
9.593000000000000000e+03
1.110400000000000000e+04
1.282300000000000000e+04
1.487300000000000000e+04
1.717300000000000000e+04
1.986400000000000000e+04
2.290700000000000000e+04
2.654900000000000000e+04
3.075300000000000000e+04
3.548300000000000000e+04
4.115500000000000000e+04
