1.000000000000000000e+00
2.000000000000000000e+00
2.000000000000000000e+00
2.000000000000000000e+00
2.000000000000000000e+00
2.000000000000000000e+00
2.000000000000000000e+00
3.000000000000000000e+00
3.000000000000000000e+00
3.000000000000000000e+00
3.000000000000000000e+00
3.000000000000000000e+00
4.000000000000000000e+00
4.000000000000000000e+00
5.000000000000000000e+00
6.000000000000000000e+00
6.000000000000000000e+00
7.000000000000000000e+00
9.000000000000000000e+00
1.000000000000000000e+01
1.100000000000000000e+01
1.200000000000000000e+01
1.400000000000000000e+01
1.800000000000000000e+01
1.900000000000000000e+01
2.000000000000000000e+01
2.500000000000000000e+01
2.900000000000000000e+01
3.400000000000000000e+01
3.700000000000000000e+01
4.300000000000000000e+01
5.100000000000000000e+01
5.800000000000000000e+01
6.800000000000000000e+01
7.600000000000000000e+01
8.700000000000000000e+01
1.040000000000000000e+02
1.230000000000000000e+02
1.420000000000000000e+02
1.620000000000000000e+02
1.900000000000000000e+02
2.150000000000000000e+02
2.450000000000000000e+02
2.890000000000000000e+02
3.410000000000000000e+02
4.020000000000000000e+02
4.540000000000000000e+02
5.270000000000000000e+02
6.170000000000000000e+02
7.220000000000000000e+02
8.350000000000000000e+02
9.510000000000000000e+02
1.100000000000000000e+03
1.289000000000000000e+03
1.499000000000000000e+03
1.716000000000000000e+03
2.000000000000000000e+03
2.288000000000000000e+03
2.665000000000000000e+03
3.077000000000000000e+03
3.594000000000000000e+03
4.143000000000000000e+03
4.755000000000000000e+03
5.555000000000000000e+03
6.387000000000000000e+03
7.424000000000000000e+03
8.584000000000000000e+03
9.922000000000000000e+03
1.152900000000000000e+04
1.337000000000000000e+04
1.540100000000000000e+04
1.778100000000000000e+04
2.063400000000000000e+04
2.386900000000000000e+04
2.755700000000000000e+04
3.189800000000000000e+04
