1.000000000000000000e+00
2.000000000000000000e+00
2.000000000000000000e+00
2.000000000000000000e+00
2.000000000000000000e+00
2.000000000000000000e+00
2.000000000000000000e+00
3.000000000000000000e+00
3.000000000000000000e+00
3.000000000000000000e+00
4.000000000000000000e+00
5.000000000000000000e+00
5.000000000000000000e+00
6.000000000000000000e+00
7.000000000000000000e+00
8.000000000000000000e+00
8.000000000000000000e+00
1.000000000000000000e+01
1.100000000000000000e+01
1.200000000000000000e+01
1.500000000000000000e+01
1.600000000000000000e+01
2.000000000000000000e+01
2.200000000000000000e+01
2.300000000000000000e+01
2.900000000000000000e+01
3.400000000000000000e+01
4.000000000000000000e+01
4.600000000000000000e+01
4.700000000000000000e+01
5.900000000000000000e+01
7.000000000000000000e+01
8.500000000000000000e+01
9.700000000000000000e+01
1.080000000000000000e+02
1.260000000000000000e+02
1.490000000000000000e+02
1.700000000000000000e+02
1.970000000000000000e+02
2.300000000000000000e+02
2.620000000000000000e+02
2.900000000000000000e+02
3.440000000000000000e+02
4.050000000000000000e+02
4.710000000000000000e+02
5.450000000000000000e+02
6.250000000000000000e+02
7.180000000000000000e+02
8.370000000000000000e+02
9.610000000000000000e+02
1.107000000000000000e+03
1.298000000000000000e+03
1.486000000000000000e+03
1.736000000000000000e+03
1.990000000000000000e+03
2.307000000000000000e+03
2.669000000000000000e+03
3.080000000000000000e+03
3.550000000000000000e+03
4.144000000000000000e+03
4.778000000000000000e+03
5.540000000000000000e+03
6.398000000000000000e+03
7.379000000000000000e+03
8.509000000000000000e+03
9.837000000000000000e+03
1.141200000000000000e+04
1.323600000000000000e+04
1.535200000000000000e+04
1.770800000000000000e+04
2.043800000000000000e+04
2.369100000000000000e+04
2.739600000000000000e+04
3.174800000000000000e+04
3.680400000000000000e+04
4.254600000000000000e+04
