1.000000000000000000e+00
2.000000000000000000e+00
2.000000000000000000e+00
2.000000000000000000e+00
2.000000000000000000e+00
2.000000000000000000e+00
3.000000000000000000e+00
3.000000000000000000e+00
3.000000000000000000e+00
3.000000000000000000e+00
4.000000000000000000e+00
4.000000000000000000e+00
4.000000000000000000e+00
4.000000000000000000e+00
5.000000000000000000e+00
7.000000000000000000e+00
7.000000000000000000e+00
7.000000000000000000e+00
8.000000000000000000e+00
1.000000000000000000e+01
1.200000000000000000e+01
1.300000000000000000e+01
1.500000000000000000e+01
1.500000000000000000e+01
2.000000000000000000e+01
2.200000000000000000e+01
2.500000000000000000e+01
2.700000000000000000e+01
3.000000000000000000e+01
3.800000000000000000e+01
4.300000000000000000e+01
5.200000000000000000e+01
6.300000000000000000e+01
7.100000000000000000e+01
8.100000000000000000e+01
9.300000000000000000e+01
1.110000000000000000e+02
1.280000000000000000e+02
1.480000000000000000e+02
1.620000000000000000e+02
1.870000000000000000e+02
2.200000000000000000e+02
2.580000000000000000e+02
2.930000000000000000e+02
3.420000000000000000e+02
3.940000000000000000e+02
4.510000000000000000e+02
5.230000000000000000e+02
6.050000000000000000e+02
6.990000000000000000e+02
8.040000000000000000e+02
9.320000000000000000e+02
1.078000000000000000e+03
1.268000000000000000e+03
1.450000000000000000e+03
1.677000000000000000e+03
1.927000000000000000e+03
2.252000000000000000e+03
2.595000000000000000e+03
2.978000000000000000e+03
3.453000000000000000e+03
3.989000000000000000e+03
4.614000000000000000e+03
5.325000000000000000e+03
6.122000000000000000e+03
7.112000000000000000e+03
8.233000000000000000e+03
9.498000000000000000e+03
1.102200000000000000e+04
1.271300000000000000e+04
1.473600000000000000e+04
1.703800000000000000e+04
1.967500000000000000e+04
2.268500000000000000e+04
2.640400000000000000e+04
3.051200000000000000e+04
