1.000000000000000000e+00
2.000000000000000000e+00
2.000000000000000000e+00
2.000000000000000000e+00
2.000000000000000000e+00
2.000000000000000000e+00
4.000000000000000000e+00
4.000000000000000000e+00
4.000000000000000000e+00
4.000000000000000000e+00
6.000000000000000000e+00
7.000000000000000000e+00
7.000000000000000000e+00
7.000000000000000000e+00
7.000000000000000000e+00
8.000000000000000000e+00
1.000000000000000000e+01
1.400000000000000000e+01
1.400000000000000000e+01
1.400000000000000000e+01
1.900000000000000000e+01
2.300000000000000000e+01
2.600000000000000000e+01
3.000000000000000000e+01
3.300000000000000000e+01
3.600000000000000000e+01
4.300000000000000000e+01
5.100000000000000000e+01
6.000000000000000000e+01
6.900000000000000000e+01
7.500000000000000000e+01
9.200000000000000000e+01
1.060000000000000000e+02
1.180000000000000000e+02
1.350000000000000000e+02
1.570000000000000000e+02
1.820000000000000000e+02
2.100000000000000000e+02
2.440000000000000000e+02
2.790000000000000000e+02
3.280000000000000000e+02
3.760000000000000000e+02
4.260000000000000000e+02
4.960000000000000000e+02
5.830000000000000000e+02
6.800000000000000000e+02
7.800000000000000000e+02
8.950000000000000000e+02
1.041000000000000000e+03
1.201000000000000000e+03
1.413000000000000000e+03
1.623000000000000000e+03
1.864000000000000000e+03
2.185000000000000000e+03
2.543000000000000000e+03
2.936000000000000000e+03
3.395000000000000000e+03
3.905000000000000000e+03
4.555000000000000000e+03
5.273000000000000000e+03
6.080000000000000000e+03
7.048000000000000000e+03
8.129000000000000000e+03
9.403000000000000000e+03
1.089500000000000000e+04
1.258400000000000000e+04
1.453300000000000000e+04
1.678400000000000000e+04
1.943400000000000000e+04
2.251600000000000000e+04
2.595000000000000000e+04
3.000600000000000000e+04
3.490400000000000000e+04
4.030400000000000000e+04
4.651600000000000000e+04
5.379800000000000000e+04
