1.000000000000000000e+00
2.000000000000000000e+00
2.000000000000000000e+00
2.000000000000000000e+00
2.000000000000000000e+00
3.000000000000000000e+00
3.000000000000000000e+00
3.000000000000000000e+00
3.000000000000000000e+00
5.000000000000000000e+00
5.000000000000000000e+00
5.000000000000000000e+00
5.000000000000000000e+00
5.000000000000000000e+00
7.000000000000000000e+00
9.000000000000000000e+00
9.000000000000000000e+00
1.100000000000000000e+01
1.100000000000000000e+01
1.300000000000000000e+01
1.500000000000000000e+01
1.800000000000000000e+01
2.100000000000000000e+01
2.300000000000000000e+01
2.400000000000000000e+01
3.100000000000000000e+01
3.600000000000000000e+01
4.100000000000000000e+01
4.700000000000000000e+01
5.500000000000000000e+01
6.500000000000000000e+01
7.000000000000000000e+01
8.700000000000000000e+01
9.900000000000000000e+01
1.090000000000000000e+02
1.280000000000000000e+02
1.470000000000000000e+02
1.680000000000000000e+02
1.950000000000000000e+02
2.210000000000000000e+02
2.640000000000000000e+02
3.070000000000000000e+02
3.440000000000000000e+02
4.050000000000000000e+02
4.700000000000000000e+02
5.440000000000000000e+02
6.260000000000000000e+02
7.260000000000000000e+02
8.470000000000000000e+02
9.670000000000000000e+02
1.135000000000000000e+03
1.331000000000000000e+03
1.530000000000000000e+03
1.747000000000000000e+03
2.036000000000000000e+03
2.384000000000000000e+03
2.729000000000000000e+03
3.164000000000000000e+03
3.647000000000000000e+03
4.204000000000000000e+03
4.849000000000000000e+03
5.614000000000000000e+03
6.498000000000000000e+03
7.536000000000000000e+03
8.715000000000000000e+03
1.013300000000000000e+04
1.171100000000000000e+04
1.351700000000000000e+04
1.565900000000000000e+04
1.810000000000000000e+04
2.098500000000000000e+04
2.429200000000000000e+04
2.809800000000000000e+04
3.248600000000000000e+04
3.758700000000000000e+04
4.343400000000000000e+04
