1.000000000000000000e+00
2.000000000000000000e+00
2.000000000000000000e+00
2.000000000000000000e+00
2.000000000000000000e+00
2.000000000000000000e+00
2.000000000000000000e+00
2.000000000000000000e+00
2.000000000000000000e+00
2.000000000000000000e+00
2.000000000000000000e+00
2.000000000000000000e+00
2.000000000000000000e+00
2.000000000000000000e+00
2.000000000000000000e+00
2.000000000000000000e+00
2.000000000000000000e+00
2.000000000000000000e+00
2.000000000000000000e+00
2.000000000000000000e+00
2.000000000000000000e+00
2.000000000000000000e+00
2.000000000000000000e+00
2.000000000000000000e+00
2.000000000000000000e+00
2.000000000000000000e+00
2.000000000000000000e+00
2.000000000000000000e+00
2.000000000000000000e+00
2.000000000000000000e+00
2.000000000000000000e+00
2.000000000000000000e+00
2.000000000000000000e+00
2.000000000000000000e+00
2.000000000000000000e+00
2.000000000000000000e+00
2.000000000000000000e+00
2.000000000000000000e+00
2.000000000000000000e+00
2.000000000000000000e+00
2.000000000000000000e+00
2.000000000000000000e+00
2.000000000000000000e+00
2.000000000000000000e+00
2.000000000000000000e+00
2.000000000000000000e+00
2.000000000000000000e+00
2.000000000000000000e+00
2.000000000000000000e+00
2.000000000000000000e+00
2.000000000000000000e+00
2.000000000000000000e+00
2.000000000000000000e+00
2.000000000000000000e+00
2.000000000000000000e+00
2.000000000000000000e+00
2.000000000000000000e+00
2.000000000000000000e+00
2.000000000000000000e+00
2.000000000000000000e+00
2.000000000000000000e+00
2.000000000000000000e+00
2.000000000000000000e+00
2.000000000000000000e+00
2.000000000000000000e+00
2.000000000000000000e+00
2.000000000000000000e+00
2.000000000000000000e+00
2.000000000000000000e+00
2.000000000000000000e+00
2.000000000000000000e+00
2.000000000000000000e+00
2.000000000000000000e+00
2.000000000000000000e+00
2.000000000000000000e+00
2.000000000000000000e+00
2.000000000000000000e+00
2.000000000000000000e+00
2.000000000000000000e+00
2.000000000000000000e+00
2.000000000000000000e+00
2.000000000000000000e+00
2.000000000000000000e+00
2.000000000000000000e+00
2.000000000000000000e+00
2.000000000000000000e+00
2.000000000000000000e+00
2.000000000000000000e+00
2.000000000000000000e+00
2.000000000000000000e+00
2.000000000000000000e+00
2.000000000000000000e+00
2.000000000000000000e+00
2.000000000000000000e+00
3.000000000000000000e+00
3.000000000000000000e+00
3.000000000000000000e+00
3.000000000000000000e+00
3.000000000000000000e+00
3.000000000000000000e+00
3.000000000000000000e+00
3.000000000000000000e+00
3.000000000000000000e+00
3.000000000000000000e+00
3.000000000000000000e+00
3.000000000000000000e+00
3.000000000000000000e+00
3.000000000000000000e+00
3.000000000000000000e+00
3.000000000000000000e+00
3.000000000000000000e+00
3.000000000000000000e+00
3.000000000000000000e+00
3.000000000000000000e+00
3.000000000000000000e+00
3.000000000000000000e+00
3.000000000000000000e+00
3.000000000000000000e+00
3.000000000000000000e+00
3.000000000000000000e+00
3.000000000000000000e+00
3.000000000000000000e+00
3.000000000000000000e+00
3.000000000000000000e+00
3.000000000000000000e+00
3.000000000000000000e+00
3.000000000000000000e+00
3.000000000000000000e+00
3.000000000000000000e+00
4.000000000000000000e+00
4.000000000000000000e+00
4.000000000000000000e+00
4.000000000000000000e+00
4.000000000000000000e+00
4.000000000000000000e+00
4.000000000000000000e+00
4.000000000000000000e+00
4.000000000000000000e+00
4.000000000000000000e+00
4.000000000000000000e+00
4.000000000000000000e+00
4.000000000000000000e+00
4.000000000000000000e+00
4.000000000000000000e+00
4.000000000000000000e+00
4.000000000000000000e+00
4.000000000000000000e+00
4.000000000000000000e+00
4.000000000000000000e+00
4.000000000000000000e+00
4.000000000000000000e+00
4.000000000000000000e+00
4.000000000000000000e+00
4.000000000000000000e+00
4.000000000000000000e+00
4.000000000000000000e+00
4.000000000000000000e+00
4.000000000000000000e+00
4.000000000000000000e+00
4.000000000000000000e+00
4.000000000000000000e+00
4.000000000000000000e+00
4.000000000000000000e+00
4.000000000000000000e+00
4.000000000000000000e+00
5.000000000000000000e+00
5.000000000000000000e+00
5.000000000000000000e+00
5.000000000000000000e+00
5.000000000000000000e+00
5.000000000000000000e+00
5.000000000000000000e+00
5.000000000000000000e+00
5.000000000000000000e+00
5.000000000000000000e+00
5.000000000000000000e+00
5.000000000000000000e+00
5.000000000000000000e+00
5.000000000000000000e+00
5.000000000000000000e+00
5.000000000000000000e+00
5.000000000000000000e+00
5.000000000000000000e+00
5.000000000000000000e+00
5.000000000000000000e+00
5.000000000000000000e+00
5.000000000000000000e+00
5.000000000000000000e+00
5.000000000000000000e+00
5.000000000000000000e+00
5.000000000000000000e+00
5.000000000000000000e+00
5.000000000000000000e+00
5.000000000000000000e+00
6.000000000000000000e+00
6.000000000000000000e+00
6.000000000000000000e+00
6.000000000000000000e+00
6.000000000000000000e+00
6.000000000000000000e+00
6.000000000000000000e+00
6.000000000000000000e+00
6.000000000000000000e+00
6.000000000000000000e+00
6.000000000000000000e+00
6.000000000000000000e+00
6.000000000000000000e+00
6.000000000000000000e+00
6.000000000000000000e+00
6.000000000000000000e+00
6.000000000000000000e+00
6.000000000000000000e+00
6.000000000000000000e+00
6.000000000000000000e+00
6.000000000000000000e+00
6.000000000000000000e+00
6.000000000000000000e+00
6.000000000000000000e+00
6.000000000000000000e+00
6.000000000000000000e+00
6.000000000000000000e+00
6.000000000000000000e+00
6.000000000000000000e+00
6.000000000000000000e+00
6.000000000000000000e+00
6.000000000000000000e+00
6.000000000000000000e+00
6.000000000000000000e+00
6.000000000000000000e+00
6.000000000000000000e+00
6.000000000000000000e+00
6.000000000000000000e+00
6.000000000000000000e+00
6.000000000000000000e+00
6.000000000000000000e+00
6.000000000000000000e+00
6.000000000000000000e+00
6.000000000000000000e+00
6.000000000000000000e+00
6.000000000000000000e+00
6.000000000000000000e+00
6.000000000000000000e+00
6.000000000000000000e+00
6.000000000000000000e+00
6.000000000000000000e+00
6.000000000000000000e+00
7.000000000000000000e+00
7.000000000000000000e+00
8.000000000000000000e+00
8.000000000000000000e+00
8.000000000000000000e+00
8.000000000000000000e+00
9.000000000000000000e+00
9.000000000000000000e+00
9.000000000000000000e+00
9.000000000000000000e+00
9.000000000000000000e+00
9.000000000000000000e+00
9.000000000000000000e+00
9.000000000000000000e+00
9.000000000000000000e+00
9.000000000000000000e+00
1.000000000000000000e+01
1.000000000000000000e+01
1.000000000000000000e+01
1.000000000000000000e+01
1.000000000000000000e+01
1.000000000000000000e+01
1.000000000000000000e+01
1.000000000000000000e+01
1.000000000000000000e+01
1.000000000000000000e+01
1.000000000000000000e+01
1.000000000000000000e+01
1.000000000000000000e+01
1.000000000000000000e+01
1.000000000000000000e+01
1.000000000000000000e+01
1.000000000000000000e+01
1.000000000000000000e+01
1.000000000000000000e+01
1.000000000000000000e+01
1.000000000000000000e+01
1.000000000000000000e+01
1.000000000000000000e+01
1.000000000000000000e+01
1.000000000000000000e+01
1.000000000000000000e+01
1.000000000000000000e+01
1.000000000000000000e+01
1.000000000000000000e+01
1.000000000000000000e+01
1.000000000000000000e+01
1.000000000000000000e+01
1.000000000000000000e+01
1.000000000000000000e+01
1.000000000000000000e+01
1.000000000000000000e+01
1.000000000000000000e+01
1.000000000000000000e+01
1.000000000000000000e+01
1.000000000000000000e+01
1.000000000000000000e+01
1.000000000000000000e+01
1.000000000000000000e+01
1.000000000000000000e+01
1.000000000000000000e+01
1.000000000000000000e+01
1.000000000000000000e+01
1.000000000000000000e+01
1.000000000000000000e+01
1.000000000000000000e+01
1.000000000000000000e+01
1.000000000000000000e+01
1.000000000000000000e+01
1.100000000000000000e+01
1.100000000000000000e+01
1.100000000000000000e+01
1.100000000000000000e+01
1.100000000000000000e+01
1.100000000000000000e+01
1.100000000000000000e+01
1.100000000000000000e+01
1.100000000000000000e+01
1.100000000000000000e+01
1.100000000000000000e+01
1.100000000000000000e+01
1.100000000000000000e+01
1.100000000000000000e+01
1.200000000000000000e+01
1.200000000000000000e+01
1.200000000000000000e+01
1.200000000000000000e+01
1.200000000000000000e+01
1.200000000000000000e+01
1.200000000000000000e+01
1.200000000000000000e+01
1.200000000000000000e+01
1.200000000000000000e+01
1.200000000000000000e+01
1.200000000000000000e+01
1.200000000000000000e+01
1.200000000000000000e+01
1.200000000000000000e+01
1.200000000000000000e+01
1.200000000000000000e+01
1.400000000000000000e+01
1.400000000000000000e+01
1.400000000000000000e+01
1.400000000000000000e+01
1.400000000000000000e+01
1.400000000000000000e+01
1.400000000000000000e+01
1.400000000000000000e+01
1.400000000000000000e+01
1.400000000000000000e+01
1.400000000000000000e+01
1.400000000000000000e+01
1.400000000000000000e+01
1.400000000000000000e+01
1.400000000000000000e+01
1.400000000000000000e+01
1.400000000000000000e+01
1.500000000000000000e+01
1.500000000000000000e+01
1.500000000000000000e+01
1.500000000000000000e+01
1.600000000000000000e+01
1.600000000000000000e+01
1.600000000000000000e+01
1.600000000000000000e+01
1.600000000000000000e+01
1.600000000000000000e+01
1.600000000000000000e+01
1.600000000000000000e+01
1.600000000000000000e+01
1.600000000000000000e+01
1.600000000000000000e+01
1.600000000000000000e+01
1.600000000000000000e+01
1.700000000000000000e+01
1.800000000000000000e+01
1.800000000000000000e+01
1.800000000000000000e+01
1.800000000000000000e+01
1.800000000000000000e+01
1.900000000000000000e+01
1.900000000000000000e+01
1.900000000000000000e+01
1.900000000000000000e+01
1.900000000000000000e+01
1.900000000000000000e+01
1.900000000000000000e+01
1.900000000000000000e+01
2.000000000000000000e+01
2.000000000000000000e+01
2.000000000000000000e+01
2.000000000000000000e+01
2.000000000000000000e+01
2.000000000000000000e+01
2.100000000000000000e+01
2.100000000000000000e+01
2.100000000000000000e+01
2.100000000000000000e+01
2.100000000000000000e+01
2.100000000000000000e+01
2.100000000000000000e+01
2.200000000000000000e+01
2.200000000000000000e+01
2.300000000000000000e+01
2.300000000000000000e+01
2.300000000000000000e+01
2.300000000000000000e+01
2.300000000000000000e+01
2.300000000000000000e+01
2.300000000000000000e+01
2.300000000000000000e+01
2.300000000000000000e+01
2.300000000000000000e+01
2.300000000000000000e+01
2.300000000000000000e+01
2.300000000000000000e+01
2.300000000000000000e+01
2.300000000000000000e+01
2.400000000000000000e+01
2.400000000000000000e+01
2.400000000000000000e+01
2.400000000000000000e+01
2.500000000000000000e+01
2.500000000000000000e+01
2.500000000000000000e+01
2.600000000000000000e+01
2.600000000000000000e+01
2.600000000000000000e+01
2.600000000000000000e+01
2.600000000000000000e+01
2.600000000000000000e+01
2.600000000000000000e+01
2.600000000000000000e+01
2.600000000000000000e+01
2.600000000000000000e+01
2.600000000000000000e+01
2.700000000000000000e+01
2.700000000000000000e+01
2.700000000000000000e+01
2.700000000000000000e+01
2.700000000000000000e+01
2.700000000000000000e+01
2.700000000000000000e+01
2.700000000000000000e+01
2.700000000000000000e+01
2.700000000000000000e+01
2.700000000000000000e+01
2.700000000000000000e+01
2.700000000000000000e+01
2.700000000000000000e+01
2.800000000000000000e+01
2.800000000000000000e+01
2.800000000000000000e+01
2.800000000000000000e+01
2.800000000000000000e+01
2.800000000000000000e+01
2.800000000000000000e+01
2.800000000000000000e+01
2.800000000000000000e+01
2.800000000000000000e+01
2.800000000000000000e+01
2.800000000000000000e+01
2.800000000000000000e+01
2.800000000000000000e+01
2.900000000000000000e+01
2.900000000000000000e+01
2.900000000000000000e+01
3.000000000000000000e+01
3.000000000000000000e+01
3.000000000000000000e+01
3.000000000000000000e+01
3.000000000000000000e+01
3.000000000000000000e+01
3.000000000000000000e+01
3.100000000000000000e+01
3.100000000000000000e+01
3.100000000000000000e+01
3.100000000000000000e+01
3.100000000000000000e+01
3.100000000000000000e+01
3.100000000000000000e+01
3.100000000000000000e+01
3.300000000000000000e+01
3.300000000000000000e+01
3.300000000000000000e+01
3.300000000000000000e+01
3.300000000000000000e+01
3.500000000000000000e+01
3.500000000000000000e+01
3.600000000000000000e+01
3.600000000000000000e+01
3.700000000000000000e+01
3.700000000000000000e+01
3.700000000000000000e+01
3.700000000000000000e+01
3.700000000000000000e+01
3.700000000000000000e+01
3.700000000000000000e+01
3.700000000000000000e+01
3.700000000000000000e+01
3.700000000000000000e+01
3.900000000000000000e+01
3.900000000000000000e+01
3.900000000000000000e+01
3.900000000000000000e+01
4.000000000000000000e+01
4.000000000000000000e+01
4.100000000000000000e+01
4.100000000000000000e+01
4.200000000000000000e+01
4.200000000000000000e+01
4.200000000000000000e+01
4.300000000000000000e+01
4.400000000000000000e+01
4.500000000000000000e+01
4.500000000000000000e+01
4.500000000000000000e+01
4.600000000000000000e+01
4.600000000000000000e+01
4.600000000000000000e+01
4.600000000000000000e+01
4.600000000000000000e+01
4.600000000000000000e+01
4.600000000000000000e+01
4.700000000000000000e+01
4.700000000000000000e+01
4.700000000000000000e+01
4.800000000000000000e+01
4.800000000000000000e+01
4.900000000000000000e+01
4.900000000000000000e+01
4.900000000000000000e+01
4.900000000000000000e+01
4.900000000000000000e+01
4.900000000000000000e+01
4.900000000000000000e+01
4.900000000000000000e+01
4.900000000000000000e+01
4.900000000000000000e+01
4.900000000000000000e+01
4.900000000000000000e+01
4.900000000000000000e+01
5.000000000000000000e+01
5.000000000000000000e+01
5.100000000000000000e+01
5.100000000000000000e+01
5.100000000000000000e+01
5.100000000000000000e+01
5.100000000000000000e+01
5.200000000000000000e+01
5.300000000000000000e+01
5.400000000000000000e+01
5.400000000000000000e+01
5.400000000000000000e+01
5.500000000000000000e+01
5.500000000000000000e+01
5.500000000000000000e+01
5.500000000000000000e+01
5.500000000000000000e+01
5.500000000000000000e+01
5.500000000000000000e+01
5.500000000000000000e+01
5.500000000000000000e+01
5.500000000000000000e+01
5.600000000000000000e+01
5.700000000000000000e+01
5.700000000000000000e+01
5.700000000000000000e+01
5.900000000000000000e+01
6.000000000000000000e+01
6.000000000000000000e+01
6.100000000000000000e+01
6.100000000000000000e+01
6.100000000000000000e+01
6.100000000000000000e+01
6.100000000000000000e+01
6.200000000000000000e+01
6.200000000000000000e+01
6.400000000000000000e+01
6.400000000000000000e+01
6.500000000000000000e+01
6.600000000000000000e+01
6.600000000000000000e+01
6.700000000000000000e+01
6.800000000000000000e+01
6.800000000000000000e+01
6.900000000000000000e+01
6.900000000000000000e+01
6.900000000000000000e+01
6.900000000000000000e+01
7.000000000000000000e+01
7.000000000000000000e+01
7.000000000000000000e+01
7.000000000000000000e+01
7.000000000000000000e+01
7.000000000000000000e+01
7.200000000000000000e+01
7.300000000000000000e+01
7.300000000000000000e+01
7.500000000000000000e+01
7.500000000000000000e+01
7.500000000000000000e+01
7.500000000000000000e+01
7.500000000000000000e+01
7.500000000000000000e+01
7.500000000000000000e+01
7.500000000000000000e+01
7.600000000000000000e+01
7.600000000000000000e+01
7.700000000000000000e+01
7.700000000000000000e+01
8.000000000000000000e+01
8.100000000000000000e+01
8.100000000000000000e+01
8.100000000000000000e+01
8.100000000000000000e+01
8.200000000000000000e+01
8.300000000000000000e+01
8.500000000000000000e+01
8.500000000000000000e+01
8.600000000000000000e+01
8.600000000000000000e+01
8.700000000000000000e+01
8.800000000000000000e+01
8.800000000000000000e+01
8.900000000000000000e+01
9.100000000000000000e+01
9.100000000000000000e+01
9.300000000000000000e+01
9.300000000000000000e+01
9.300000000000000000e+01
9.300000000000000000e+01
9.400000000000000000e+01
9.500000000000000000e+01
9.500000000000000000e+01
9.600000000000000000e+01
9.800000000000000000e+01
9.900000000000000000e+01
1.010000000000000000e+02
1.010000000000000000e+02
1.010000000000000000e+02
1.010000000000000000e+02
1.010000000000000000e+02
1.010000000000000000e+02
1.010000000000000000e+02
1.010000000000000000e+02
1.010000000000000000e+02
1.030000000000000000e+02
1.050000000000000000e+02
1.050000000000000000e+02
1.050000000000000000e+02
1.050000000000000000e+02
1.060000000000000000e+02
1.060000000000000000e+02
1.070000000000000000e+02
1.080000000000000000e+02
1.100000000000000000e+02
1.110000000000000000e+02
1.110000000000000000e+02
1.120000000000000000e+02
1.130000000000000000e+02
1.140000000000000000e+02
1.140000000000000000e+02
1.140000000000000000e+02
1.140000000000000000e+02
1.140000000000000000e+02
1.160000000000000000e+02
1.160000000000000000e+02
1.160000000000000000e+02
1.160000000000000000e+02
1.170000000000000000e+02
1.170000000000000000e+02
1.170000000000000000e+02
1.170000000000000000e+02
1.180000000000000000e+02
1.190000000000000000e+02
1.220000000000000000e+02
1.220000000000000000e+02
1.230000000000000000e+02
1.250000000000000000e+02
1.250000000000000000e+02
1.290000000000000000e+02
1.300000000000000000e+02
1.340000000000000000e+02
1.340000000000000000e+02
1.340000000000000000e+02
1.360000000000000000e+02
1.370000000000000000e+02
1.380000000000000000e+02
1.430000000000000000e+02
1.430000000000000000e+02
1.440000000000000000e+02
1.460000000000000000e+02
1.470000000000000000e+02
1.480000000000000000e+02
1.490000000000000000e+02
1.490000000000000000e+02
1.500000000000000000e+02
1.510000000000000000e+02
1.530000000000000000e+02
1.530000000000000000e+02
1.530000000000000000e+02
1.550000000000000000e+02
1.570000000000000000e+02
1.580000000000000000e+02
1.590000000000000000e+02
1.600000000000000000e+02
1.630000000000000000e+02
1.630000000000000000e+02
1.640000000000000000e+02
1.650000000000000000e+02
1.660000000000000000e+02
1.690000000000000000e+02
1.690000000000000000e+02
1.720000000000000000e+02
1.720000000000000000e+02
1.730000000000000000e+02
1.750000000000000000e+02
1.770000000000000000e+02
1.780000000000000000e+02
1.800000000000000000e+02
1.800000000000000000e+02
1.810000000000000000e+02
1.830000000000000000e+02
1.830000000000000000e+02
1.840000000000000000e+02
1.850000000000000000e+02
1.870000000000000000e+02
1.890000000000000000e+02
1.910000000000000000e+02
1.920000000000000000e+02
1.930000000000000000e+02
1.940000000000000000e+02
1.950000000000000000e+02
1.970000000000000000e+02
1.990000000000000000e+02
2.030000000000000000e+02
2.030000000000000000e+02
2.040000000000000000e+02
2.050000000000000000e+02
2.070000000000000000e+02
2.130000000000000000e+02
2.150000000000000000e+02
2.150000000000000000e+02
2.160000000000000000e+02
2.170000000000000000e+02
2.200000000000000000e+02
2.200000000000000000e+02
2.220000000000000000e+02
2.230000000000000000e+02
2.230000000000000000e+02
2.230000000000000000e+02
2.240000000000000000e+02
2.250000000000000000e+02
2.270000000000000000e+02
2.270000000000000000e+02
2.270000000000000000e+02
2.290000000000000000e+02
2.310000000000000000e+02
2.320000000000000000e+02
2.330000000000000000e+02
2.350000000000000000e+02
2.380000000000000000e+02
2.410000000000000000e+02
2.410000000000000000e+02
2.410000000000000000e+02
2.430000000000000000e+02
2.450000000000000000e+02
2.480000000000000000e+02
2.490000000000000000e+02
2.530000000000000000e+02
2.540000000000000000e+02
2.540000000000000000e+02
2.550000000000000000e+02
2.570000000000000000e+02
2.570000000000000000e+02
2.580000000000000000e+02
2.610000000000000000e+02
2.640000000000000000e+02
2.650000000000000000e+02
2.670000000000000000e+02
2.710000000000000000e+02
2.720000000000000000e+02
2.750000000000000000e+02
2.760000000000000000e+02
2.790000000000000000e+02
2.820000000000000000e+02
2.830000000000000000e+02
2.860000000000000000e+02
2.870000000000000000e+02
2.910000000000000000e+02
2.930000000000000000e+02
2.940000000000000000e+02
2.950000000000000000e+02
2.950000000000000000e+02
2.950000000000000000e+02
2.980000000000000000e+02
2.990000000000000000e+02
3.030000000000000000e+02
3.040000000000000000e+02
3.060000000000000000e+02
3.090000000000000000e+02
3.100000000000000000e+02
3.120000000000000000e+02
3.140000000000000000e+02
3.160000000000000000e+02
3.180000000000000000e+02
3.200000000000000000e+02
3.230000000000000000e+02
3.280000000000000000e+02
3.300000000000000000e+02
3.320000000000000000e+02
3.340000000000000000e+02
3.350000000000000000e+02
3.380000000000000000e+02
3.420000000000000000e+02
3.470000000000000000e+02
3.530000000000000000e+02
3.550000000000000000e+02
3.600000000000000000e+02
3.640000000000000000e+02
3.690000000000000000e+02
3.690000000000000000e+02
3.720000000000000000e+02
3.730000000000000000e+02
3.780000000000000000e+02
3.820000000000000000e+02
3.860000000000000000e+02
3.890000000000000000e+02
3.940000000000000000e+02
3.970000000000000000e+02
3.990000000000000000e+02
3.990000000000000000e+02
4.020000000000000000e+02
4.090000000000000000e+02
4.110000000000000000e+02
4.140000000000000000e+02
4.200000000000000000e+02
4.240000000000000000e+02
4.260000000000000000e+02
4.280000000000000000e+02
4.310000000000000000e+02
4.330000000000000000e+02
4.370000000000000000e+02
4.400000000000000000e+02
4.440000000000000000e+02
4.440000000000000000e+02
4.460000000000000000e+02
4.490000000000000000e+02
4.550000000000000000e+02
4.580000000000000000e+02
4.600000000000000000e+02
4.640000000000000000e+02
4.670000000000000000e+02
4.680000000000000000e+02
4.700000000000000000e+02
4.760000000000000000e+02
4.770000000000000000e+02
4.810000000000000000e+02
4.860000000000000000e+02
4.880000000000000000e+02
4.910000000000000000e+02
4.940000000000000000e+02
5.000000000000000000e+02
5.060000000000000000e+02
5.080000000000000000e+02
5.090000000000000000e+02
5.120000000000000000e+02
5.160000000000000000e+02
5.220000000000000000e+02
5.240000000000000000e+02
5.260000000000000000e+02
5.290000000000000000e+02
5.310000000000000000e+02
5.310000000000000000e+02
5.340000000000000000e+02
5.380000000000000000e+02
5.400000000000000000e+02
5.450000000000000000e+02
5.560000000000000000e+02
5.590000000000000000e+02
5.640000000000000000e+02
5.670000000000000000e+02
5.680000000000000000e+02
5.700000000000000000e+02
5.750000000000000000e+02
5.790000000000000000e+02
5.810000000000000000e+02
5.840000000000000000e+02
5.900000000000000000e+02
5.960000000000000000e+02
6.000000000000000000e+02
6.070000000000000000e+02
6.130000000000000000e+02
6.190000000000000000e+02
6.240000000000000000e+02
6.260000000000000000e+02
6.330000000000000000e+02
6.350000000000000000e+02
6.440000000000000000e+02
6.520000000000000000e+02
6.540000000000000000e+02
6.590000000000000000e+02
6.660000000000000000e+02
6.700000000000000000e+02
6.750000000000000000e+02
6.760000000000000000e+02
6.800000000000000000e+02
6.820000000000000000e+02
6.860000000000000000e+02
6.930000000000000000e+02
6.970000000000000000e+02
7.000000000000000000e+02
7.130000000000000000e+02
7.240000000000000000e+02
7.330000000000000000e+02
7.410000000000000000e+02
7.440000000000000000e+02
7.490000000000000000e+02
7.550000000000000000e+02
7.570000000000000000e+02
7.620000000000000000e+02
7.680000000000000000e+02
7.750000000000000000e+02
7.790000000000000000e+02
7.840000000000000000e+02
7.880000000000000000e+02
7.940000000000000000e+02
7.970000000000000000e+02
8.100000000000000000e+02
8.170000000000000000e+02
8.210000000000000000e+02
8.300000000000000000e+02
8.390000000000000000e+02
8.440000000000000000e+02
8.490000000000000000e+02
8.540000000000000000e+02
8.620000000000000000e+02
8.690000000000000000e+02
8.740000000000000000e+02
8.800000000000000000e+02
8.870000000000000000e+02
8.900000000000000000e+02
8.970000000000000000e+02
9.050000000000000000e+02
9.160000000000000000e+02
9.190000000000000000e+02
9.200000000000000000e+02
9.280000000000000000e+02
9.310000000000000000e+02
9.360000000000000000e+02
9.400000000000000000e+02
9.470000000000000000e+02
9.550000000000000000e+02
9.610000000000000000e+02
9.680000000000000000e+02
9.750000000000000000e+02
9.790000000000000000e+02
9.850000000000000000e+02
9.940000000000000000e+02
1.002000000000000000e+03
1.008000000000000000e+03
1.014000000000000000e+03
1.020000000000000000e+03
1.029000000000000000e+03
1.035000000000000000e+03
1.043000000000000000e+03
1.047000000000000000e+03
1.055000000000000000e+03
1.062000000000000000e+03
1.070000000000000000e+03
1.084000000000000000e+03
1.090000000000000000e+03
1.096000000000000000e+03
1.111000000000000000e+03
1.123000000000000000e+03
1.134000000000000000e+03
1.143000000000000000e+03
1.152000000000000000e+03
1.163000000000000000e+03
1.173000000000000000e+03
1.179000000000000000e+03
1.189000000000000000e+03
1.196000000000000000e+03
1.204000000000000000e+03
1.210000000000000000e+03
1.218000000000000000e+03
1.229000000000000000e+03
1.241000000000000000e+03
1.250000000000000000e+03
1.258000000000000000e+03
1.267000000000000000e+03
1.279000000000000000e+03
1.288000000000000000e+03
1.299000000000000000e+03
1.309000000000000000e+03
1.315000000000000000e+03
1.329000000000000000e+03
1.339000000000000000e+03
1.345000000000000000e+03
1.354000000000000000e+03
1.371000000000000000e+03
1.382000000000000000e+03
1.388000000000000000e+03
1.395000000000000000e+03
1.403000000000000000e+03
1.415000000000000000e+03
1.420000000000000000e+03
1.436000000000000000e+03
1.443000000000000000e+03
1.452000000000000000e+03
1.464000000000000000e+03
1.469000000000000000e+03
1.479000000000000000e+03
1.487000000000000000e+03
1.498000000000000000e+03
1.509000000000000000e+03
1.517000000000000000e+03
1.524000000000000000e+03
1.534000000000000000e+03
1.548000000000000000e+03
1.562000000000000000e+03
1.575000000000000000e+03
1.591000000000000000e+03
1.603000000000000000e+03
1.623000000000000000e+03
1.639000000000000000e+03
1.658000000000000000e+03
1.671000000000000000e+03
1.688000000000000000e+03
1.695000000000000000e+03
1.707000000000000000e+03
1.726000000000000000e+03
1.733000000000000000e+03
1.745000000000000000e+03
1.760000000000000000e+03
1.771000000000000000e+03
1.781000000000000000e+03
1.789000000000000000e+03
1.804000000000000000e+03
1.820000000000000000e+03
1.838000000000000000e+03
1.846000000000000000e+03
1.857000000000000000e+03
1.869000000000000000e+03
1.883000000000000000e+03
1.891000000000000000e+03
1.907000000000000000e+03
1.920000000000000000e+03
1.936000000000000000e+03
1.945000000000000000e+03
1.962000000000000000e+03
1.976000000000000000e+03
1.990000000000000000e+03
2.005000000000000000e+03
2.015000000000000000e+03
2.026000000000000000e+03
2.041000000000000000e+03
2.059000000000000000e+03
2.073000000000000000e+03
2.083000000000000000e+03
2.111000000000000000e+03
2.123000000000000000e+03
2.145000000000000000e+03
2.164000000000000000e+03
2.176000000000000000e+03
2.186000000000000000e+03
2.202000000000000000e+03
2.218000000000000000e+03
2.235000000000000000e+03
2.253000000000000000e+03
2.273000000000000000e+03
2.285000000000000000e+03
2.303000000000000000e+03
2.312000000000000000e+03
2.333000000000000000e+03
2.344000000000000000e+03
2.364000000000000000e+03
2.384000000000000000e+03
2.408000000000000000e+03
2.425000000000000000e+03
2.445000000000000000e+03
2.460000000000000000e+03
2.476000000000000000e+03
2.499000000000000000e+03
2.507000000000000000e+03
2.518000000000000000e+03
2.536000000000000000e+03
2.552000000000000000e+03
2.573000000000000000e+03
2.589000000000000000e+03
2.598000000000000000e+03
2.622000000000000000e+03
2.640000000000000000e+03
2.657000000000000000e+03
2.682000000000000000e+03
2.704000000000000000e+03
2.725000000000000000e+03
2.746000000000000000e+03
2.765000000000000000e+03
2.785000000000000000e+03
2.799000000000000000e+03
2.819000000000000000e+03
2.847000000000000000e+03
2.865000000000000000e+03
2.890000000000000000e+03
2.909000000000000000e+03
2.928000000000000000e+03
2.962000000000000000e+03
2.984000000000000000e+03
3.014000000000000000e+03
3.040000000000000000e+03
3.060000000000000000e+03
3.076000000000000000e+03
3.102000000000000000e+03
3.116000000000000000e+03
3.145000000000000000e+03
3.166000000000000000e+03
3.193000000000000000e+03
3.211000000000000000e+03
3.241000000000000000e+03
3.273000000000000000e+03
3.291000000000000000e+03
3.315000000000000000e+03
3.342000000000000000e+03
3.364000000000000000e+03
3.381000000000000000e+03
3.400000000000000000e+03
3.424000000000000000e+03
3.452000000000000000e+03
3.482000000000000000e+03
3.513000000000000000e+03
3.537000000000000000e+03
3.568000000000000000e+03
3.599000000000000000e+03
3.621000000000000000e+03
3.647000000000000000e+03
3.673000000000000000e+03
3.702000000000000000e+03
3.726000000000000000e+03
3.747000000000000000e+03
3.771000000000000000e+03
3.793000000000000000e+03
3.818000000000000000e+03
3.843000000000000000e+03
3.867000000000000000e+03
3.902000000000000000e+03
3.932000000000000000e+03
3.952000000000000000e+03
3.978000000000000000e+03
4.007000000000000000e+03
4.037000000000000000e+03
4.071000000000000000e+03
4.104000000000000000e+03
4.130000000000000000e+03
4.167000000000000000e+03
4.191000000000000000e+03
4.217000000000000000e+03
4.245000000000000000e+03
4.275000000000000000e+03
4.309000000000000000e+03
4.339000000000000000e+03
4.371000000000000000e+03
4.394000000000000000e+03
4.422000000000000000e+03
4.453000000000000000e+03
4.487000000000000000e+03
4.522000000000000000e+03
4.562000000000000000e+03
4.592000000000000000e+03
4.615000000000000000e+03
4.647000000000000000e+03
4.679000000000000000e+03
4.711000000000000000e+03
4.743000000000000000e+03
4.779000000000000000e+03
4.810000000000000000e+03
4.848000000000000000e+03
4.887000000000000000e+03
4.923000000000000000e+03
4.959000000000000000e+03
5.005000000000000000e+03
5.032000000000000000e+03
5.071000000000000000e+03
5.109000000000000000e+03
5.148000000000000000e+03
5.195000000000000000e+03
5.243000000000000000e+03
5.278000000000000000e+03
5.320000000000000000e+03
5.348000000000000000e+03
5.388000000000000000e+03
5.432000000000000000e+03
5.470000000000000000e+03
5.514000000000000000e+03
5.558000000000000000e+03
5.586000000000000000e+03
5.634000000000000000e+03
5.677000000000000000e+03
5.724000000000000000e+03
5.766000000000000000e+03
5.809000000000000000e+03
5.851000000000000000e+03
5.904000000000000000e+03
5.946000000000000000e+03
5.984000000000000000e+03
6.026000000000000000e+03
6.076000000000000000e+03
6.121000000000000000e+03
6.166000000000000000e+03
6.208000000000000000e+03
6.259000000000000000e+03
6.312000000000000000e+03
6.369000000000000000e+03
6.422000000000000000e+03
6.465000000000000000e+03
6.519000000000000000e+03
6.557000000000000000e+03
6.613000000000000000e+03
6.668000000000000000e+03
6.722000000000000000e+03
6.770000000000000000e+03
6.810000000000000000e+03
6.861000000000000000e+03
6.904000000000000000e+03
6.952000000000000000e+03
6.999000000000000000e+03
7.060000000000000000e+03
7.107000000000000000e+03
7.163000000000000000e+03
7.222000000000000000e+03
7.272000000000000000e+03
7.331000000000000000e+03
7.388000000000000000e+03
7.437000000000000000e+03
7.497000000000000000e+03
7.557000000000000000e+03
7.617000000000000000e+03
7.673000000000000000e+03
7.719000000000000000e+03
7.770000000000000000e+03
7.827000000000000000e+03
7.875000000000000000e+03
7.949000000000000000e+03
8.017000000000000000e+03
8.058000000000000000e+03
8.110000000000000000e+03
8.170000000000000000e+03
8.223000000000000000e+03
8.273000000000000000e+03
8.334000000000000000e+03
8.408000000000000000e+03
8.462000000000000000e+03
8.528000000000000000e+03
8.603000000000000000e+03
8.652000000000000000e+03
8.709000000000000000e+03
8.778000000000000000e+03
8.849000000000000000e+03
8.910000000000000000e+03
8.974000000000000000e+03
9.038000000000000000e+03
9.120000000000000000e+03
9.180000000000000000e+03
9.233000000000000000e+03
9.296000000000000000e+03
9.362000000000000000e+03
9.428000000000000000e+03
9.492000000000000000e+03
9.570000000000000000e+03
9.639000000000000000e+03
9.707000000000000000e+03
9.777000000000000000e+03
9.848000000000000000e+03
9.918000000000000000e+03
1.000400000000000000e+04
1.008600000000000000e+04
1.015100000000000000e+04
1.022900000000000000e+04
1.030100000000000000e+04
1.037400000000000000e+04
1.044100000000000000e+04
1.050800000000000000e+04
1.058100000000000000e+04
1.066300000000000000e+04
1.074300000000000000e+04
1.082300000000000000e+04
1.090700000000000000e+04
1.099000000000000000e+04
1.106900000000000000e+04
1.115100000000000000e+04
1.122900000000000000e+04
1.131400000000000000e+04
1.140400000000000000e+04
1.148300000000000000e+04
1.156800000000000000e+04
1.165000000000000000e+04
1.174500000000000000e+04
1.182300000000000000e+04
1.191300000000000000e+04
1.200300000000000000e+04
1.210000000000000000e+04
1.218700000000000000e+04
1.227500000000000000e+04
1.237000000000000000e+04
1.246700000000000000e+04
1.257000000000000000e+04
1.265500000000000000e+04
1.273900000000000000e+04
1.282600000000000000e+04
1.291400000000000000e+04
1.298700000000000000e+04
1.308400000000000000e+04
1.317100000000000000e+04
1.326100000000000000e+04
1.336000000000000000e+04
1.346700000000000000e+04
1.355900000000000000e+04
1.367300000000000000e+04
1.378900000000000000e+04
1.390200000000000000e+04
1.401800000000000000e+04
1.411900000000000000e+04
1.423600000000000000e+04
1.433600000000000000e+04
1.442800000000000000e+04
1.455500000000000000e+04
1.467000000000000000e+04
1.478500000000000000e+04
1.488700000000000000e+04
1.499900000000000000e+04
1.510700000000000000e+04
1.522200000000000000e+04
1.534300000000000000e+04
1.544500000000000000e+04
1.557600000000000000e+04
1.567700000000000000e+04
1.579000000000000000e+04
1.591300000000000000e+04
1.602700000000000000e+04
1.614800000000000000e+04
1.625900000000000000e+04
1.637000000000000000e+04
1.649100000000000000e+04
1.660100000000000000e+04
1.669600000000000000e+04
1.682900000000000000e+04
1.696000000000000000e+04
1.708200000000000000e+04
1.718500000000000000e+04
1.730500000000000000e+04
1.742400000000000000e+04
1.757100000000000000e+04
1.768100000000000000e+04
1.780800000000000000e+04
1.795200000000000000e+04
1.808200000000000000e+04
1.821600000000000000e+04
1.834000000000000000e+04
1.844800000000000000e+04
1.858800000000000000e+04
1.873400000000000000e+04
1.885800000000000000e+04
1.897500000000000000e+04
1.911400000000000000e+04
1.928600000000000000e+04
1.941700000000000000e+04
1.956200000000000000e+04
1.970000000000000000e+04
1.984400000000000000e+04
1.998100000000000000e+04
2.011000000000000000e+04
2.024800000000000000e+04
2.039900000000000000e+04
2.053100000000000000e+04
2.070700000000000000e+04
2.087200000000000000e+04
2.102800000000000000e+04
2.119800000000000000e+04
2.136200000000000000e+04
2.149200000000000000e+04
2.166100000000000000e+04
2.181900000000000000e+04
2.197100000000000000e+04
2.214400000000000000e+04
2.230300000000000000e+04
2.246300000000000000e+04
2.264100000000000000e+04
2.281400000000000000e+04
2.296500000000000000e+04
2.312600000000000000e+04
2.330600000000000000e+04
2.347900000000000000e+04
2.363400000000000000e+04
2.381000000000000000e+04
