1.000000000000000000e+00
2.000000000000000000e+00
2.000000000000000000e+00
2.000000000000000000e+00
2.000000000000000000e+00
2.000000000000000000e+00
2.000000000000000000e+00
3.000000000000000000e+00
4.000000000000000000e+00
4.000000000000000000e+00
4.000000000000000000e+00
4.000000000000000000e+00
5.000000000000000000e+00
5.000000000000000000e+00
7.000000000000000000e+00
8.000000000000000000e+00
8.000000000000000000e+00
1.100000000000000000e+01
1.300000000000000000e+01
1.400000000000000000e+01
1.500000000000000000e+01
1.800000000000000000e+01
2.100000000000000000e+01
2.300000000000000000e+01
2.500000000000000000e+01
2.900000000000000000e+01
3.500000000000000000e+01
4.100000000000000000e+01
4.900000000000000000e+01
5.400000000000000000e+01
6.200000000000000000e+01
7.000000000000000000e+01
8.300000000000000000e+01
9.400000000000000000e+01
1.050000000000000000e+02
1.240000000000000000e+02
1.430000000000000000e+02
1.630000000000000000e+02
1.950000000000000000e+02
2.290000000000000000e+02
2.600000000000000000e+02
3.060000000000000000e+02
3.510000000000000000e+02
4.040000000000000000e+02
4.670000000000000000e+02
5.450000000000000000e+02
6.410000000000000000e+02
7.290000000000000000e+02
8.330000000000000000e+02
9.660000000000000000e+02
1.101000000000000000e+03
1.319000000000000000e+03
1.518000000000000000e+03
1.738000000000000000e+03
2.016000000000000000e+03
2.317000000000000000e+03
2.669000000000000000e+03
3.136000000000000000e+03
3.621000000000000000e+03
4.183000000000000000e+03
4.827000000000000000e+03
5.576000000000000000e+03
6.413000000000000000e+03
7.458000000000000000e+03
8.594000000000000000e+03
9.948000000000000000e+03
1.151500000000000000e+04
1.328300000000000000e+04
1.535500000000000000e+04
1.781900000000000000e+04
2.059300000000000000e+04
2.379500000000000000e+04
2.764900000000000000e+04
3.196100000000000000e+04
3.699200000000000000e+04
4.278700000000000000e+04
