1.000000000000000000e+00
2.000000000000000000e+00
2.000000000000000000e+00
2.000000000000000000e+00
3.000000000000000000e+00
3.000000000000000000e+00
3.000000000000000000e+00
3.000000000000000000e+00
3.000000000000000000e+00
4.000000000000000000e+00
4.000000000000000000e+00
5.000000000000000000e+00
6.000000000000000000e+00
7.000000000000000000e+00
8.000000000000000000e+00
1.000000000000000000e+01
1.000000000000000000e+01
1.300000000000000000e+01
1.300000000000000000e+01
1.500000000000000000e+01
1.700000000000000000e+01
2.200000000000000000e+01
2.300000000000000000e+01
2.700000000000000000e+01
2.900000000000000000e+01
3.400000000000000000e+01
3.800000000000000000e+01
4.700000000000000000e+01
5.400000000000000000e+01
6.200000000000000000e+01
7.100000000000000000e+01
7.900000000000000000e+01
9.200000000000000000e+01
1.110000000000000000e+02
1.260000000000000000e+02
1.430000000000000000e+02
1.660000000000000000e+02
1.930000000000000000e+02
2.330000000000000000e+02
2.630000000000000000e+02
3.010000000000000000e+02
3.480000000000000000e+02
3.940000000000000000e+02
4.580000000000000000e+02
5.370000000000000000e+02
6.220000000000000000e+02
7.090000000000000000e+02
8.180000000000000000e+02
9.620000000000000000e+02
1.118000000000000000e+03
1.284000000000000000e+03
1.495000000000000000e+03
1.739000000000000000e+03
2.009000000000000000e+03
2.315000000000000000e+03
2.686000000000000000e+03
3.116000000000000000e+03
3.608000000000000000e+03
4.158000000000000000e+03
4.812000000000000000e+03
5.585000000000000000e+03
6.477000000000000000e+03
7.461000000000000000e+03
8.630000000000000000e+03
1.001900000000000000e+04
1.156700000000000000e+04
1.332500000000000000e+04
1.549300000000000000e+04
1.789900000000000000e+04
2.064500000000000000e+04
2.389100000000000000e+04
2.767000000000000000e+04
3.200700000000000000e+04
3.705900000000000000e+04
4.280600000000000000e+04
4.963100000000000000e+04
