1.000000000000000000e+00
2.000000000000000000e+00
2.000000000000000000e+00
2.000000000000000000e+00
2.000000000000000000e+00
2.000000000000000000e+00
3.000000000000000000e+00
3.000000000000000000e+00
3.000000000000000000e+00
3.000000000000000000e+00
3.000000000000000000e+00
4.000000000000000000e+00
5.000000000000000000e+00
5.000000000000000000e+00
6.000000000000000000e+00
7.000000000000000000e+00
8.000000000000000000e+00
9.000000000000000000e+00
1.000000000000000000e+01
1.200000000000000000e+01
1.300000000000000000e+01
1.700000000000000000e+01
2.000000000000000000e+01
2.000000000000000000e+01
2.200000000000000000e+01
2.600000000000000000e+01
3.000000000000000000e+01
3.500000000000000000e+01
4.400000000000000000e+01
4.800000000000000000e+01
5.800000000000000000e+01
6.200000000000000000e+01
7.400000000000000000e+01
8.600000000000000000e+01
1.000000000000000000e+02
1.170000000000000000e+02
1.320000000000000000e+02
1.560000000000000000e+02
1.860000000000000000e+02
2.140000000000000000e+02
2.420000000000000000e+02
2.820000000000000000e+02
3.250000000000000000e+02
3.820000000000000000e+02
4.410000000000000000e+02
5.080000000000000000e+02
5.900000000000000000e+02
6.790000000000000000e+02
7.900000000000000000e+02
9.220000000000000000e+02
1.059000000000000000e+03
1.230000000000000000e+03
1.411000000000000000e+03
1.660000000000000000e+03
1.909000000000000000e+03
2.219000000000000000e+03
2.545000000000000000e+03
2.955000000000000000e+03
3.402000000000000000e+03
3.940000000000000000e+03
4.542000000000000000e+03
5.277000000000000000e+03
6.077000000000000000e+03
7.011000000000000000e+03
8.102000000000000000e+03
9.417000000000000000e+03
1.093400000000000000e+04
1.259800000000000000e+04
1.460200000000000000e+04
1.686200000000000000e+04
1.951500000000000000e+04
2.261500000000000000e+04
2.618100000000000000e+04
3.021900000000000000e+04
3.498000000000000000e+04
4.050300000000000000e+04
