1.000000000000000000e+00
2.000000000000000000e+00
2.000000000000000000e+00
2.000000000000000000e+00
2.000000000000000000e+00
2.000000000000000000e+00
2.000000000000000000e+00
3.000000000000000000e+00
3.000000000000000000e+00
3.000000000000000000e+00
4.000000000000000000e+00
4.000000000000000000e+00
5.000000000000000000e+00
5.000000000000000000e+00
6.000000000000000000e+00
8.000000000000000000e+00
8.000000000000000000e+00
8.000000000000000000e+00
9.000000000000000000e+00
1.200000000000000000e+01
1.200000000000000000e+01
1.400000000000000000e+01
1.600000000000000000e+01
1.800000000000000000e+01
2.100000000000000000e+01
2.100000000000000000e+01
2.300000000000000000e+01
2.700000000000000000e+01
3.400000000000000000e+01
3.700000000000000000e+01
4.200000000000000000e+01
5.200000000000000000e+01
5.700000000000000000e+01
6.200000000000000000e+01
7.700000000000000000e+01
8.900000000000000000e+01
1.060000000000000000e+02
1.170000000000000000e+02
1.330000000000000000e+02
1.540000000000000000e+02
1.870000000000000000e+02
2.100000000000000000e+02
2.350000000000000000e+02
2.630000000000000000e+02
3.120000000000000000e+02
3.640000000000000000e+02
4.210000000000000000e+02
4.940000000000000000e+02
5.620000000000000000e+02
6.430000000000000000e+02
7.600000000000000000e+02
8.820000000000000000e+02
1.004000000000000000e+03
1.148000000000000000e+03
1.337000000000000000e+03
1.561000000000000000e+03
1.796000000000000000e+03
2.084000000000000000e+03
2.422000000000000000e+03
2.794000000000000000e+03
3.249000000000000000e+03
3.804000000000000000e+03
4.356000000000000000e+03
5.041000000000000000e+03
5.853000000000000000e+03
6.753000000000000000e+03
7.793000000000000000e+03
9.000000000000000000e+03
1.043900000000000000e+04
1.212100000000000000e+04
1.398700000000000000e+04
1.618700000000000000e+04
1.873200000000000000e+04
2.175000000000000000e+04
2.516400000000000000e+04
2.914500000000000000e+04
