1.000000000000000000e+00
2.000000000000000000e+00
2.000000000000000000e+00
2.000000000000000000e+00
2.000000000000000000e+00
3.000000000000000000e+00
3.000000000000000000e+00
3.000000000000000000e+00
4.000000000000000000e+00
4.000000000000000000e+00
5.000000000000000000e+00
5.000000000000000000e+00
6.000000000000000000e+00
6.000000000000000000e+00
7.000000000000000000e+00
1.000000000000000000e+01
1.000000000000000000e+01
1.100000000000000000e+01
1.400000000000000000e+01
1.500000000000000000e+01
1.700000000000000000e+01
1.700000000000000000e+01
1.800000000000000000e+01
2.400000000000000000e+01
2.800000000000000000e+01
3.000000000000000000e+01
3.500000000000000000e+01
3.900000000000000000e+01
4.600000000000000000e+01
5.600000000000000000e+01
6.300000000000000000e+01
7.100000000000000000e+01
8.100000000000000000e+01
9.200000000000000000e+01
1.090000000000000000e+02
1.220000000000000000e+02
1.460000000000000000e+02
1.690000000000000000e+02
1.900000000000000000e+02
2.240000000000000000e+02
2.540000000000000000e+02
2.860000000000000000e+02
3.540000000000000000e+02
3.970000000000000000e+02
4.630000000000000000e+02
5.200000000000000000e+02
6.090000000000000000e+02
7.030000000000000000e+02
8.210000000000000000e+02
9.560000000000000000e+02
1.109000000000000000e+03
1.276000000000000000e+03
1.464000000000000000e+03
1.727000000000000000e+03
2.003000000000000000e+03
2.304000000000000000e+03
2.683000000000000000e+03
3.115000000000000000e+03
3.598000000000000000e+03
4.164000000000000000e+03
4.848000000000000000e+03
5.573000000000000000e+03
6.458000000000000000e+03
7.481000000000000000e+03
8.699000000000000000e+03
1.002400000000000000e+04
1.158200000000000000e+04
1.341300000000000000e+04
1.557800000000000000e+04
1.801300000000000000e+04
2.081800000000000000e+04
2.409700000000000000e+04
2.784700000000000000e+04
3.227600000000000000e+04
3.733800000000000000e+04
4.313500000000000000e+04
