1.000000000000000000e+00
2.000000000000000000e+00
2.000000000000000000e+00
2.000000000000000000e+00
3.000000000000000000e+00
3.000000000000000000e+00
3.000000000000000000e+00
3.000000000000000000e+00
3.000000000000000000e+00
5.000000000000000000e+00
5.000000000000000000e+00
5.000000000000000000e+00
5.000000000000000000e+00
6.000000000000000000e+00
8.000000000000000000e+00
8.000000000000000000e+00
9.000000000000000000e+00
9.000000000000000000e+00
1.000000000000000000e+01
1.200000000000000000e+01
1.300000000000000000e+01
1.600000000000000000e+01
1.800000000000000000e+01
1.900000000000000000e+01
2.300000000000000000e+01
2.600000000000000000e+01
2.800000000000000000e+01
3.600000000000000000e+01
4.400000000000000000e+01
4.700000000000000000e+01
5.500000000000000000e+01
6.300000000000000000e+01
7.600000000000000000e+01
8.100000000000000000e+01
9.100000000000000000e+01
1.130000000000000000e+02
1.280000000000000000e+02
1.480000000000000000e+02
1.760000000000000000e+02
2.010000000000000000e+02
2.270000000000000000e+02
2.590000000000000000e+02
3.070000000000000000e+02
3.590000000000000000e+02
4.100000000000000000e+02
4.740000000000000000e+02
5.400000000000000000e+02
6.240000000000000000e+02
7.200000000000000000e+02
8.440000000000000000e+02
9.790000000000000000e+02
1.107000000000000000e+03
1.279000000000000000e+03
1.493000000000000000e+03
1.700000000000000000e+03
1.986000000000000000e+03
2.315000000000000000e+03
2.652000000000000000e+03
3.062000000000000000e+03
3.555000000000000000e+03
4.119000000000000000e+03
4.755000000000000000e+03
5.505000000000000000e+03
6.385000000000000000e+03
7.416000000000000000e+03
8.534000000000000000e+03
9.894000000000000000e+03
1.148800000000000000e+04
1.321800000000000000e+04
1.530500000000000000e+04
1.763900000000000000e+04
2.050200000000000000e+04
2.368100000000000000e+04
2.736200000000000000e+04
3.175600000000000000e+04
3.664000000000000000e+04
