1.000000000000000000e+00
2.000000000000000000e+00
2.000000000000000000e+00
2.000000000000000000e+00
2.000000000000000000e+00
2.000000000000000000e+00
3.000000000000000000e+00
3.000000000000000000e+00
3.000000000000000000e+00
3.000000000000000000e+00
4.000000000000000000e+00
4.000000000000000000e+00
5.000000000000000000e+00
5.000000000000000000e+00
5.000000000000000000e+00
6.000000000000000000e+00
6.000000000000000000e+00
6.000000000000000000e+00
7.000000000000000000e+00
9.000000000000000000e+00
1.100000000000000000e+01
1.200000000000000000e+01
1.200000000000000000e+01
1.700000000000000000e+01
1.800000000000000000e+01
2.400000000000000000e+01
2.800000000000000000e+01
3.000000000000000000e+01
3.400000000000000000e+01
3.900000000000000000e+01
4.900000000000000000e+01
5.500000000000000000e+01
6.200000000000000000e+01
6.800000000000000000e+01
8.300000000000000000e+01
9.800000000000000000e+01
1.150000000000000000e+02
1.230000000000000000e+02
1.440000000000000000e+02
1.680000000000000000e+02
2.030000000000000000e+02
2.320000000000000000e+02
2.580000000000000000e+02
3.000000000000000000e+02
3.560000000000000000e+02
4.220000000000000000e+02
4.860000000000000000e+02
5.520000000000000000e+02
6.370000000000000000e+02
7.470000000000000000e+02
8.650000000000000000e+02
1.000000000000000000e+03
1.151000000000000000e+03
1.334000000000000000e+03
1.555000000000000000e+03
1.786000000000000000e+03
2.073000000000000000e+03
2.395000000000000000e+03
2.800000000000000000e+03
3.220000000000000000e+03
3.748000000000000000e+03
4.365000000000000000e+03
5.051000000000000000e+03
5.804000000000000000e+03
6.761000000000000000e+03
7.788000000000000000e+03
9.005000000000000000e+03
1.045200000000000000e+04
1.210700000000000000e+04
1.401500000000000000e+04
1.626000000000000000e+04
1.880200000000000000e+04
2.169600000000000000e+04
2.517900000000000000e+04
2.909200000000000000e+04
3.377600000000000000e+04
