1.000000000000000000e+00
2.000000000000000000e+00
2.000000000000000000e+00
2.000000000000000000e+00
2.000000000000000000e+00
3.000000000000000000e+00
3.000000000000000000e+00
3.000000000000000000e+00
3.000000000000000000e+00
4.000000000000000000e+00
4.000000000000000000e+00
4.000000000000000000e+00
4.000000000000000000e+00
6.000000000000000000e+00
7.000000000000000000e+00
8.000000000000000000e+00
8.000000000000000000e+00
1.000000000000000000e+01
1.000000000000000000e+01
1.300000000000000000e+01
1.400000000000000000e+01
1.500000000000000000e+01
1.700000000000000000e+01
1.900000000000000000e+01
2.400000000000000000e+01
2.700000000000000000e+01
3.200000000000000000e+01
3.400000000000000000e+01
4.300000000000000000e+01
4.900000000000000000e+01
5.800000000000000000e+01
6.800000000000000000e+01
7.500000000000000000e+01
8.800000000000000000e+01
1.040000000000000000e+02
1.220000000000000000e+02
1.430000000000000000e+02
1.600000000000000000e+02
1.880000000000000000e+02
2.130000000000000000e+02
2.490000000000000000e+02
2.960000000000000000e+02
3.460000000000000000e+02
3.990000000000000000e+02
4.590000000000000000e+02
5.200000000000000000e+02
6.080000000000000000e+02
7.110000000000000000e+02
8.270000000000000000e+02
9.560000000000000000e+02
1.096000000000000000e+03
1.279000000000000000e+03
1.479000000000000000e+03
1.728000000000000000e+03
1.994000000000000000e+03
2.309000000000000000e+03
2.682000000000000000e+03
3.091000000000000000e+03
3.547000000000000000e+03
4.118000000000000000e+03
4.807000000000000000e+03
5.578000000000000000e+03
6.401000000000000000e+03
7.398000000000000000e+03
8.608000000000000000e+03
9.982000000000000000e+03
1.150200000000000000e+04
1.326800000000000000e+04
1.542600000000000000e+04
1.787600000000000000e+04
2.068600000000000000e+04
2.384800000000000000e+04
2.760500000000000000e+04
3.201500000000000000e+04
3.702800000000000000e+04
4.278400000000000000e+04
