1.000000000000000000e+00
2.000000000000000000e+00
2.000000000000000000e+00
2.000000000000000000e+00
2.000000000000000000e+00
2.000000000000000000e+00
3.000000000000000000e+00
3.000000000000000000e+00
3.000000000000000000e+00
3.000000000000000000e+00
3.000000000000000000e+00
3.000000000000000000e+00
3.000000000000000000e+00
5.000000000000000000e+00
5.000000000000000000e+00
5.000000000000000000e+00
6.000000000000000000e+00
6.000000000000000000e+00
7.000000000000000000e+00
8.000000000000000000e+00
8.000000000000000000e+00
1.100000000000000000e+01
1.300000000000000000e+01
1.400000000000000000e+01
1.800000000000000000e+01
2.100000000000000000e+01
2.200000000000000000e+01
2.400000000000000000e+01
2.800000000000000000e+01
3.300000000000000000e+01
3.800000000000000000e+01
4.400000000000000000e+01
5.100000000000000000e+01
6.000000000000000000e+01
6.600000000000000000e+01
7.800000000000000000e+01
9.000000000000000000e+01
1.040000000000000000e+02
1.180000000000000000e+02
1.370000000000000000e+02
1.570000000000000000e+02
1.800000000000000000e+02
2.090000000000000000e+02
2.390000000000000000e+02
2.780000000000000000e+02
3.130000000000000000e+02
3.580000000000000000e+02
4.250000000000000000e+02
4.850000000000000000e+02
5.550000000000000000e+02
6.430000000000000000e+02
7.380000000000000000e+02
8.710000000000000000e+02
1.007000000000000000e+03
1.162000000000000000e+03
1.339000000000000000e+03
1.516000000000000000e+03
1.747000000000000000e+03
2.061000000000000000e+03
2.395000000000000000e+03
2.762000000000000000e+03
3.162000000000000000e+03
3.639000000000000000e+03
4.238000000000000000e+03
4.890000000000000000e+03
5.663000000000000000e+03
6.535000000000000000e+03
7.563000000000000000e+03
8.736000000000000000e+03
1.006400000000000000e+04
1.164000000000000000e+04
1.341800000000000000e+04
1.556800000000000000e+04
1.801100000000000000e+04
2.090100000000000000e+04
2.418500000000000000e+04
