1.000000000000000000e+00
2.000000000000000000e+00
2.000000000000000000e+00
2.000000000000000000e+00
3.000000000000000000e+00
3.000000000000000000e+00
4.000000000000000000e+00
4.000000000000000000e+00
4.000000000000000000e+00
4.000000000000000000e+00
5.000000000000000000e+00
7.000000000000000000e+00
8.000000000000000000e+00
1.000000000000000000e+01
1.000000000000000000e+01
1.300000000000000000e+01
1.700000000000000000e+01
1.900000000000000000e+01
2.000000000000000000e+01
2.500000000000000000e+01
2.900000000000000000e+01
3.200000000000000000e+01
4.500000000000000000e+01
5.400000000000000000e+01
5.600000000000000000e+01
6.100000000000000000e+01
7.600000000000000000e+01
9.000000000000000000e+01
1.030000000000000000e+02
1.180000000000000000e+02
1.340000000000000000e+02
1.520000000000000000e+02
1.770000000000000000e+02
2.010000000000000000e+02
2.350000000000000000e+02
2.820000000000000000e+02
3.190000000000000000e+02
3.640000000000000000e+02
4.180000000000000000e+02
4.910000000000000000e+02
5.840000000000000000e+02
6.600000000000000000e+02
7.540000000000000000e+02
8.750000000000000000e+02
1.027000000000000000e+03
1.191000000000000000e+03
1.368000000000000000e+03
1.587000000000000000e+03
1.823000000000000000e+03
2.112000000000000000e+03
2.416000000000000000e+03
2.782000000000000000e+03
3.226000000000000000e+03
3.708000000000000000e+03
4.296000000000000000e+03
4.984000000000000000e+03
5.777000000000000000e+03
6.661000000000000000e+03
7.701000000000000000e+03
8.920000000000000000e+03
1.026500000000000000e+04
1.182600000000000000e+04
1.374700000000000000e+04
1.595900000000000000e+04
1.835000000000000000e+04
2.123400000000000000e+04
2.457300000000000000e+04
2.836800000000000000e+04
3.278400000000000000e+04
3.794900000000000000e+04
4.388200000000000000e+04
5.083500000000000000e+04
5.880400000000000000e+04
6.799400000000000000e+04
7.864700000000000000e+04
9.086500000000000000e+04
