1.000000000000000000e+00
2.000000000000000000e+00
2.000000000000000000e+00
2.000000000000000000e+00
2.000000000000000000e+00
2.000000000000000000e+00
3.000000000000000000e+00
3.000000000000000000e+00
3.000000000000000000e+00
3.000000000000000000e+00
4.000000000000000000e+00
4.000000000000000000e+00
5.000000000000000000e+00
5.000000000000000000e+00
5.000000000000000000e+00
6.000000000000000000e+00
7.000000000000000000e+00
8.000000000000000000e+00
9.000000000000000000e+00
9.000000000000000000e+00
1.100000000000000000e+01
1.200000000000000000e+01
1.600000000000000000e+01
1.700000000000000000e+01
2.000000000000000000e+01
2.400000000000000000e+01
2.600000000000000000e+01
3.000000000000000000e+01
3.600000000000000000e+01
3.800000000000000000e+01
4.400000000000000000e+01
5.600000000000000000e+01
6.100000000000000000e+01
6.900000000000000000e+01
7.700000000000000000e+01
8.900000000000000000e+01
1.110000000000000000e+02
1.240000000000000000e+02
1.380000000000000000e+02
1.680000000000000000e+02
1.970000000000000000e+02
2.230000000000000000e+02
2.510000000000000000e+02
2.860000000000000000e+02
3.270000000000000000e+02
3.950000000000000000e+02
4.530000000000000000e+02
5.230000000000000000e+02
6.160000000000000000e+02
6.930000000000000000e+02
8.020000000000000000e+02
9.490000000000000000e+02
1.085000000000000000e+03
1.254000000000000000e+03
1.448000000000000000e+03
1.704000000000000000e+03
1.970000000000000000e+03
2.274000000000000000e+03
2.610000000000000000e+03
3.043000000000000000e+03
3.560000000000000000e+03
4.083000000000000000e+03
4.697000000000000000e+03
5.435000000000000000e+03
6.321000000000000000e+03
7.280000000000000000e+03
8.422000000000000000e+03
9.696000000000000000e+03
1.122900000000000000e+04
1.298200000000000000e+04
1.499900000000000000e+04
1.738200000000000000e+04
2.010100000000000000e+04
2.324000000000000000e+04
2.684100000000000000e+04
3.111900000000000000e+04
