1.000000000000000000e+00
2.000000000000000000e+00
2.000000000000000000e+00
2.000000000000000000e+00
2.000000000000000000e+00
2.000000000000000000e+00
2.000000000000000000e+00
3.000000000000000000e+00
3.000000000000000000e+00
3.000000000000000000e+00
3.000000000000000000e+00
3.000000000000000000e+00
3.000000000000000000e+00
4.000000000000000000e+00
5.000000000000000000e+00
5.000000000000000000e+00
5.000000000000000000e+00
5.000000000000000000e+00
5.000000000000000000e+00
6.000000000000000000e+00
6.000000000000000000e+00
8.000000000000000000e+00
9.000000000000000000e+00
9.000000000000000000e+00
9.000000000000000000e+00
1.300000000000000000e+01
1.400000000000000000e+01
1.500000000000000000e+01
1.700000000000000000e+01
2.100000000000000000e+01
2.300000000000000000e+01
2.600000000000000000e+01
3.200000000000000000e+01
3.500000000000000000e+01
4.100000000000000000e+01
4.700000000000000000e+01
5.200000000000000000e+01
6.200000000000000000e+01
7.000000000000000000e+01
8.400000000000000000e+01
9.600000000000000000e+01
1.120000000000000000e+02
1.350000000000000000e+02
1.540000000000000000e+02
1.820000000000000000e+02
2.120000000000000000e+02
2.450000000000000000e+02
2.850000000000000000e+02
3.210000000000000000e+02
3.850000000000000000e+02
4.440000000000000000e+02
5.250000000000000000e+02
6.090000000000000000e+02
7.040000000000000000e+02
8.170000000000000000e+02
9.230000000000000000e+02
1.064000000000000000e+03
1.265000000000000000e+03
1.456000000000000000e+03
1.706000000000000000e+03
1.917000000000000000e+03
2.237000000000000000e+03
2.614000000000000000e+03
3.038000000000000000e+03
3.506000000000000000e+03
4.030000000000000000e+03
4.688000000000000000e+03
5.455000000000000000e+03
6.336000000000000000e+03
7.280000000000000000e+03
8.375000000000000000e+03
9.699000000000000000e+03
1.124200000000000000e+04
1.298700000000000000e+04
1.506700000000000000e+04
1.741000000000000000e+04
