1.000000000000000000e+00
2.000000000000000000e+00
2.000000000000000000e+00
2.000000000000000000e+00
2.000000000000000000e+00
2.000000000000000000e+00
2.000000000000000000e+00
3.000000000000000000e+00
3.000000000000000000e+00
3.000000000000000000e+00
3.000000000000000000e+00
5.000000000000000000e+00
5.000000000000000000e+00
5.000000000000000000e+00
6.000000000000000000e+00
7.000000000000000000e+00
9.000000000000000000e+00
1.000000000000000000e+01
1.000000000000000000e+01
1.000000000000000000e+01
1.300000000000000000e+01
1.600000000000000000e+01
2.000000000000000000e+01
2.100000000000000000e+01
2.300000000000000000e+01
2.700000000000000000e+01
3.300000000000000000e+01
3.900000000000000000e+01
4.400000000000000000e+01
4.900000000000000000e+01
5.900000000000000000e+01
6.800000000000000000e+01
8.200000000000000000e+01
9.400000000000000000e+01
1.090000000000000000e+02
1.250000000000000000e+02
1.410000000000000000e+02
1.700000000000000000e+02
1.920000000000000000e+02
2.230000000000000000e+02
2.610000000000000000e+02
2.990000000000000000e+02
3.390000000000000000e+02
3.880000000000000000e+02
4.570000000000000000e+02
5.360000000000000000e+02
6.170000000000000000e+02
7.000000000000000000e+02
8.070000000000000000e+02
9.340000000000000000e+02
1.072000000000000000e+03
1.238000000000000000e+03
1.440000000000000000e+03
1.668000000000000000e+03
1.918000000000000000e+03
2.221000000000000000e+03
2.565000000000000000e+03
2.961000000000000000e+03
3.449000000000000000e+03
4.004000000000000000e+03
4.631000000000000000e+03
5.323000000000000000e+03
6.162000000000000000e+03
7.165000000000000000e+03
8.285000000000000000e+03
9.570000000000000000e+03
1.110300000000000000e+04
1.284100000000000000e+04
1.481700000000000000e+04
1.710800000000000000e+04
1.992300000000000000e+04
2.298800000000000000e+04
2.655700000000000000e+04
3.074800000000000000e+04
3.561400000000000000e+04
4.111600000000000000e+04
