1.000000000000000000e+00
2.000000000000000000e+00
2.000000000000000000e+00
2.000000000000000000e+00
2.000000000000000000e+00
3.000000000000000000e+00
3.000000000000000000e+00
3.000000000000000000e+00
3.000000000000000000e+00
3.000000000000000000e+00
5.000000000000000000e+00
5.000000000000000000e+00
5.000000000000000000e+00
5.000000000000000000e+00
7.000000000000000000e+00
9.000000000000000000e+00
9.000000000000000000e+00
1.000000000000000000e+01
1.100000000000000000e+01
1.400000000000000000e+01
1.500000000000000000e+01
1.900000000000000000e+01
2.100000000000000000e+01
2.400000000000000000e+01
2.800000000000000000e+01
3.400000000000000000e+01
4.000000000000000000e+01
4.700000000000000000e+01
5.400000000000000000e+01
6.400000000000000000e+01
7.700000000000000000e+01
9.100000000000000000e+01
9.900000000000000000e+01
1.190000000000000000e+02
1.320000000000000000e+02
1.570000000000000000e+02
1.850000000000000000e+02
2.160000000000000000e+02
2.440000000000000000e+02
2.860000000000000000e+02
3.440000000000000000e+02
3.910000000000000000e+02
4.420000000000000000e+02
5.190000000000000000e+02
5.990000000000000000e+02
6.850000000000000000e+02
8.020000000000000000e+02
9.240000000000000000e+02
1.066000000000000000e+03
1.231000000000000000e+03
1.424000000000000000e+03
1.656000000000000000e+03
1.927000000000000000e+03
2.222000000000000000e+03
2.562000000000000000e+03
2.961000000000000000e+03
3.445000000000000000e+03
3.971000000000000000e+03
4.566000000000000000e+03
5.262000000000000000e+03
6.089000000000000000e+03
7.062000000000000000e+03
8.234000000000000000e+03
9.499000000000000000e+03
1.097000000000000000e+04
1.269200000000000000e+04
1.466900000000000000e+04
1.698600000000000000e+04
1.971600000000000000e+04
2.291600000000000000e+04
2.641200000000000000e+04
3.050900000000000000e+04
3.530500000000000000e+04
4.084500000000000000e+04
4.729800000000000000e+04
5.474000000000000000e+04
