1.000000000000000000e+00
2.000000000000000000e+00
2.000000000000000000e+00
2.000000000000000000e+00
2.000000000000000000e+00
2.000000000000000000e+00
2.000000000000000000e+00
3.000000000000000000e+00
3.000000000000000000e+00
3.000000000000000000e+00
3.000000000000000000e+00
4.000000000000000000e+00
5.000000000000000000e+00
5.000000000000000000e+00
6.000000000000000000e+00
6.000000000000000000e+00
8.000000000000000000e+00
9.000000000000000000e+00
1.200000000000000000e+01
1.300000000000000000e+01
1.500000000000000000e+01
1.800000000000000000e+01
1.900000000000000000e+01
2.200000000000000000e+01
2.800000000000000000e+01
3.300000000000000000e+01
3.300000000000000000e+01
4.200000000000000000e+01
4.500000000000000000e+01
5.500000000000000000e+01
6.400000000000000000e+01
7.200000000000000000e+01
8.300000000000000000e+01
9.600000000000000000e+01
1.110000000000000000e+02
1.360000000000000000e+02
1.550000000000000000e+02
1.750000000000000000e+02
1.980000000000000000e+02
2.340000000000000000e+02
2.730000000000000000e+02
3.110000000000000000e+02
3.580000000000000000e+02
4.090000000000000000e+02
4.750000000000000000e+02
5.480000000000000000e+02
6.320000000000000000e+02
7.220000000000000000e+02
8.420000000000000000e+02
9.770000000000000000e+02
1.151000000000000000e+03
1.319000000000000000e+03
1.517000000000000000e+03
1.744000000000000000e+03
2.038000000000000000e+03
2.380000000000000000e+03
2.727000000000000000e+03
3.157000000000000000e+03
3.643000000000000000e+03
4.206000000000000000e+03
4.903000000000000000e+03
5.673000000000000000e+03
6.572000000000000000e+03
7.589000000000000000e+03
8.781000000000000000e+03
1.019200000000000000e+04
1.174000000000000000e+04
1.362600000000000000e+04
1.579200000000000000e+04
1.831600000000000000e+04
2.109700000000000000e+04
2.440700000000000000e+04
2.828700000000000000e+04
3.281300000000000000e+04
3.787100000000000000e+04
4.372500000000000000e+04
