1.000000000000000000e+00
2.000000000000000000e+00
2.000000000000000000e+00
2.000000000000000000e+00
3.000000000000000000e+00
3.000000000000000000e+00
3.000000000000000000e+00
3.000000000000000000e+00
3.000000000000000000e+00
3.000000000000000000e+00
5.000000000000000000e+00
5.000000000000000000e+00
5.000000000000000000e+00
6.000000000000000000e+00
6.000000000000000000e+00
8.000000000000000000e+00
8.000000000000000000e+00
1.000000000000000000e+01
1.100000000000000000e+01
1.300000000000000000e+01
1.500000000000000000e+01
1.800000000000000000e+01
2.000000000000000000e+01
2.300000000000000000e+01
2.500000000000000000e+01
2.900000000000000000e+01
3.400000000000000000e+01
4.200000000000000000e+01
4.600000000000000000e+01
5.100000000000000000e+01
6.000000000000000000e+01
6.900000000000000000e+01
7.800000000000000000e+01
9.100000000000000000e+01
1.000000000000000000e+02
1.190000000000000000e+02
1.350000000000000000e+02
1.640000000000000000e+02
1.820000000000000000e+02
2.160000000000000000e+02
2.460000000000000000e+02
2.820000000000000000e+02
3.220000000000000000e+02
3.750000000000000000e+02
4.370000000000000000e+02
5.010000000000000000e+02
5.860000000000000000e+02
6.760000000000000000e+02
7.720000000000000000e+02
9.060000000000000000e+02
1.043000000000000000e+03
1.223000000000000000e+03
1.393000000000000000e+03
1.606000000000000000e+03
1.876000000000000000e+03
2.156000000000000000e+03
2.507000000000000000e+03
2.899000000000000000e+03
3.352000000000000000e+03
3.878000000000000000e+03
4.481000000000000000e+03
5.136000000000000000e+03
5.985000000000000000e+03
6.934000000000000000e+03
8.041000000000000000e+03
9.290000000000000000e+03
1.073600000000000000e+04
1.243700000000000000e+04
1.439900000000000000e+04
1.663600000000000000e+04
1.926300000000000000e+04
2.233100000000000000e+04
2.579900000000000000e+04
2.982100000000000000e+04
3.450500000000000000e+04
3.984600000000000000e+04
