1.000000000000000000e+00
2.000000000000000000e+00
2.000000000000000000e+00
2.000000000000000000e+00
2.000000000000000000e+00
2.000000000000000000e+00
3.000000000000000000e+00
3.000000000000000000e+00
3.000000000000000000e+00
3.000000000000000000e+00
3.000000000000000000e+00
3.000000000000000000e+00
4.000000000000000000e+00
5.000000000000000000e+00
5.000000000000000000e+00
5.000000000000000000e+00
6.000000000000000000e+00
6.000000000000000000e+00
9.000000000000000000e+00
9.000000000000000000e+00
1.000000000000000000e+01
1.100000000000000000e+01
1.100000000000000000e+01
1.300000000000000000e+01
1.500000000000000000e+01
1.800000000000000000e+01
2.100000000000000000e+01
2.400000000000000000e+01
2.600000000000000000e+01
3.000000000000000000e+01
3.600000000000000000e+01
4.400000000000000000e+01
4.900000000000000000e+01
5.400000000000000000e+01
6.000000000000000000e+01
7.200000000000000000e+01
8.800000000000000000e+01
1.030000000000000000e+02
1.190000000000000000e+02
1.350000000000000000e+02
1.550000000000000000e+02
1.750000000000000000e+02
2.090000000000000000e+02
2.440000000000000000e+02
2.810000000000000000e+02
3.280000000000000000e+02
3.750000000000000000e+02
4.250000000000000000e+02
4.940000000000000000e+02
5.750000000000000000e+02
6.660000000000000000e+02
7.720000000000000000e+02
8.770000000000000000e+02
1.018000000000000000e+03
1.188000000000000000e+03
1.369000000000000000e+03
1.566000000000000000e+03
1.815000000000000000e+03
2.090000000000000000e+03
2.430000000000000000e+03
2.805000000000000000e+03
3.256000000000000000e+03
3.772000000000000000e+03
4.355000000000000000e+03
5.013000000000000000e+03
5.779000000000000000e+03
6.745000000000000000e+03
7.801000000000000000e+03
8.963000000000000000e+03
1.038900000000000000e+04
1.206700000000000000e+04
1.393800000000000000e+04
1.620000000000000000e+04
1.870400000000000000e+04
2.155500000000000000e+04
2.498500000000000000e+04
