1.000000000000000000e+00
2.000000000000000000e+00
2.000000000000000000e+00
2.000000000000000000e+00
2.000000000000000000e+00
3.000000000000000000e+00
3.000000000000000000e+00
3.000000000000000000e+00
3.000000000000000000e+00
3.000000000000000000e+00
4.000000000000000000e+00
5.000000000000000000e+00
5.000000000000000000e+00
6.000000000000000000e+00
6.000000000000000000e+00
6.000000000000000000e+00
7.000000000000000000e+00
7.000000000000000000e+00
1.000000000000000000e+01
1.100000000000000000e+01
1.200000000000000000e+01
1.600000000000000000e+01
1.900000000000000000e+01
2.000000000000000000e+01
2.300000000000000000e+01
2.700000000000000000e+01
3.000000000000000000e+01
3.600000000000000000e+01
4.100000000000000000e+01
5.000000000000000000e+01
5.300000000000000000e+01
6.200000000000000000e+01
7.800000000000000000e+01
8.800000000000000000e+01
9.800000000000000000e+01
1.160000000000000000e+02
1.280000000000000000e+02
1.520000000000000000e+02
1.780000000000000000e+02
2.000000000000000000e+02
2.370000000000000000e+02
2.750000000000000000e+02
3.210000000000000000e+02
3.720000000000000000e+02
4.270000000000000000e+02
4.850000000000000000e+02
5.490000000000000000e+02
6.540000000000000000e+02
7.480000000000000000e+02
8.660000000000000000e+02
1.000000000000000000e+03
1.149000000000000000e+03
1.317000000000000000e+03
1.521000000000000000e+03
1.751000000000000000e+03
2.050000000000000000e+03
2.367000000000000000e+03
2.703000000000000000e+03
3.164000000000000000e+03
3.670000000000000000e+03
4.240000000000000000e+03
4.882000000000000000e+03
5.679000000000000000e+03
6.567000000000000000e+03
7.601000000000000000e+03
8.832000000000000000e+03
1.018700000000000000e+04
1.176600000000000000e+04
1.360700000000000000e+04
1.579600000000000000e+04
1.828900000000000000e+04
2.112500000000000000e+04
2.442100000000000000e+04
2.817100000000000000e+04
3.268500000000000000e+04
3.794100000000000000e+04
