1.000000000000000000e+00
2.000000000000000000e+00
2.000000000000000000e+00
2.000000000000000000e+00
2.000000000000000000e+00
3.000000000000000000e+00
3.000000000000000000e+00
4.000000000000000000e+00
4.000000000000000000e+00
4.000000000000000000e+00
5.000000000000000000e+00
5.000000000000000000e+00
6.000000000000000000e+00
6.000000000000000000e+00
6.000000000000000000e+00
8.000000000000000000e+00
9.000000000000000000e+00
9.000000000000000000e+00
1.000000000000000000e+01
1.200000000000000000e+01
1.400000000000000000e+01
1.700000000000000000e+01
1.900000000000000000e+01
2.200000000000000000e+01
2.700000000000000000e+01
2.900000000000000000e+01
3.400000000000000000e+01
4.300000000000000000e+01
4.900000000000000000e+01
5.400000000000000000e+01
6.300000000000000000e+01
8.000000000000000000e+01
9.200000000000000000e+01
1.040000000000000000e+02
1.180000000000000000e+02
1.310000000000000000e+02
1.510000000000000000e+02
1.730000000000000000e+02
2.010000000000000000e+02
2.310000000000000000e+02
2.670000000000000000e+02
3.170000000000000000e+02
3.530000000000000000e+02
4.090000000000000000e+02
4.710000000000000000e+02
5.490000000000000000e+02
6.400000000000000000e+02
7.410000000000000000e+02
8.380000000000000000e+02
9.580000000000000000e+02
1.122000000000000000e+03
1.298000000000000000e+03
1.498000000000000000e+03
1.738000000000000000e+03
2.023000000000000000e+03
2.338000000000000000e+03
2.695000000000000000e+03
3.105000000000000000e+03
3.601000000000000000e+03
4.168000000000000000e+03
4.837000000000000000e+03
5.602000000000000000e+03
6.434000000000000000e+03
7.465000000000000000e+03
8.621000000000000000e+03
1.000100000000000000e+04
1.157800000000000000e+04
1.333900000000000000e+04
1.546200000000000000e+04
1.784200000000000000e+04
2.068900000000000000e+04
2.395000000000000000e+04
2.762900000000000000e+04
3.196000000000000000e+04
3.696400000000000000e+04
4.274500000000000000e+04
