1.000000000000000000e+00
2.000000000000000000e+00
2.000000000000000000e+00
2.000000000000000000e+00
3.000000000000000000e+00
3.000000000000000000e+00
3.000000000000000000e+00
3.000000000000000000e+00
3.000000000000000000e+00
5.000000000000000000e+00
5.000000000000000000e+00
5.000000000000000000e+00
7.000000000000000000e+00
8.000000000000000000e+00
8.000000000000000000e+00
1.100000000000000000e+01
1.400000000000000000e+01
1.700000000000000000e+01
1.700000000000000000e+01
1.800000000000000000e+01
2.400000000000000000e+01
2.500000000000000000e+01
3.200000000000000000e+01
3.500000000000000000e+01
3.900000000000000000e+01
4.500000000000000000e+01
5.300000000000000000e+01
6.000000000000000000e+01
6.900000000000000000e+01
8.100000000000000000e+01
9.900000000000000000e+01
1.120000000000000000e+02
1.280000000000000000e+02
1.460000000000000000e+02
1.690000000000000000e+02
1.960000000000000000e+02
2.220000000000000000e+02
2.580000000000000000e+02
3.060000000000000000e+02
3.530000000000000000e+02
4.030000000000000000e+02
4.650000000000000000e+02
5.270000000000000000e+02
6.200000000000000000e+02
7.160000000000000000e+02
8.430000000000000000e+02
9.710000000000000000e+02
1.121000000000000000e+03
1.288000000000000000e+03
1.487000000000000000e+03
1.757000000000000000e+03
2.013000000000000000e+03
2.316000000000000000e+03
2.691000000000000000e+03
3.163000000000000000e+03
3.658000000000000000e+03
4.203000000000000000e+03
4.837000000000000000e+03
5.583000000000000000e+03
6.511000000000000000e+03
7.547000000000000000e+03
8.679000000000000000e+03
1.004700000000000000e+04
1.162100000000000000e+04
1.344800000000000000e+04
1.561600000000000000e+04
1.801200000000000000e+04
2.084600000000000000e+04
2.416400000000000000e+04
2.791400000000000000e+04
3.230500000000000000e+04
3.726300000000000000e+04
4.306100000000000000e+04
4.984300000000000000e+04
5.776000000000000000e+04
6.689200000000000000e+04
