1.000000000000000000e+00
2.000000000000000000e+00
2.000000000000000000e+00
2.000000000000000000e+00
2.000000000000000000e+00
2.000000000000000000e+00
3.000000000000000000e+00
3.000000000000000000e+00
3.000000000000000000e+00
4.000000000000000000e+00
4.000000000000000000e+00
5.000000000000000000e+00
5.000000000000000000e+00
7.000000000000000000e+00
7.000000000000000000e+00
9.000000000000000000e+00
1.000000000000000000e+01
1.100000000000000000e+01
1.400000000000000000e+01
1.400000000000000000e+01
1.900000000000000000e+01
2.100000000000000000e+01
2.600000000000000000e+01
2.800000000000000000e+01
3.300000000000000000e+01
3.900000000000000000e+01
4.500000000000000000e+01
4.900000000000000000e+01
6.100000000000000000e+01
6.900000000000000000e+01
8.200000000000000000e+01
9.500000000000000000e+01
1.100000000000000000e+02
1.250000000000000000e+02
1.430000000000000000e+02
1.680000000000000000e+02
2.030000000000000000e+02
2.400000000000000000e+02
2.700000000000000000e+02
3.020000000000000000e+02
3.600000000000000000e+02
4.160000000000000000e+02
4.850000000000000000e+02
5.680000000000000000e+02
6.620000000000000000e+02
7.570000000000000000e+02
8.660000000000000000e+02
1.003000000000000000e+03
1.162000000000000000e+03
1.346000000000000000e+03
1.548000000000000000e+03
1.794000000000000000e+03
2.099000000000000000e+03
2.423000000000000000e+03
2.780000000000000000e+03
3.240000000000000000e+03
3.758000000000000000e+03
4.346000000000000000e+03
5.021000000000000000e+03
5.833000000000000000e+03
6.742000000000000000e+03
7.814000000000000000e+03
9.011000000000000000e+03
1.044600000000000000e+04
1.207800000000000000e+04
1.400100000000000000e+04
1.618900000000000000e+04
1.871800000000000000e+04
2.164700000000000000e+04
2.501400000000000000e+04
2.899200000000000000e+04
3.358200000000000000e+04
3.891900000000000000e+04
4.489700000000000000e+04
5.197200000000000000e+04
6.018100000000000000e+04
