1.000000000000000000e+00
2.000000000000000000e+00
2.000000000000000000e+00
2.000000000000000000e+00
2.000000000000000000e+00
2.000000000000000000e+00
2.000000000000000000e+00
3.000000000000000000e+00
3.000000000000000000e+00
3.000000000000000000e+00
3.000000000000000000e+00
4.000000000000000000e+00
5.000000000000000000e+00
5.000000000000000000e+00
5.000000000000000000e+00
6.000000000000000000e+00
7.000000000000000000e+00
8.000000000000000000e+00
8.000000000000000000e+00
1.000000000000000000e+01
1.100000000000000000e+01
1.200000000000000000e+01
1.400000000000000000e+01
1.700000000000000000e+01
1.900000000000000000e+01
1.900000000000000000e+01
2.300000000000000000e+01
2.500000000000000000e+01
3.000000000000000000e+01
3.500000000000000000e+01
3.800000000000000000e+01
4.500000000000000000e+01
5.100000000000000000e+01
6.200000000000000000e+01
7.300000000000000000e+01
8.300000000000000000e+01
9.200000000000000000e+01
1.090000000000000000e+02
1.320000000000000000e+02
1.480000000000000000e+02
1.690000000000000000e+02
1.950000000000000000e+02
2.360000000000000000e+02
2.660000000000000000e+02
3.050000000000000000e+02
3.590000000000000000e+02
4.180000000000000000e+02
4.860000000000000000e+02
5.560000000000000000e+02
6.210000000000000000e+02
7.260000000000000000e+02
8.470000000000000000e+02
9.850000000000000000e+02
1.123000000000000000e+03
1.289000000000000000e+03
1.482000000000000000e+03
1.737000000000000000e+03
2.004000000000000000e+03
2.322000000000000000e+03
2.666000000000000000e+03
3.078000000000000000e+03
3.575000000000000000e+03
4.114000000000000000e+03
4.812000000000000000e+03
5.562000000000000000e+03
6.389000000000000000e+03
7.356000000000000000e+03
8.555000000000000000e+03
9.923000000000000000e+03
1.150800000000000000e+04
1.326700000000000000e+04
1.539600000000000000e+04
1.780200000000000000e+04
2.062700000000000000e+04
2.385200000000000000e+04
2.758500000000000000e+04
