1.000000000000000000e+00
2.000000000000000000e+00
2.000000000000000000e+00
2.000000000000000000e+00
2.000000000000000000e+00
2.000000000000000000e+00
3.000000000000000000e+00
3.000000000000000000e+00
3.000000000000000000e+00
3.000000000000000000e+00
3.000000000000000000e+00
3.000000000000000000e+00
4.000000000000000000e+00
5.000000000000000000e+00
5.000000000000000000e+00
5.000000000000000000e+00
6.000000000000000000e+00
6.000000000000000000e+00
8.000000000000000000e+00
8.000000000000000000e+00
1.000000000000000000e+01
1.200000000000000000e+01
1.300000000000000000e+01
1.500000000000000000e+01
1.700000000000000000e+01
2.100000000000000000e+01
2.100000000000000000e+01
2.600000000000000000e+01
3.100000000000000000e+01
3.400000000000000000e+01
4.300000000000000000e+01
4.600000000000000000e+01
5.700000000000000000e+01
6.700000000000000000e+01
7.600000000000000000e+01
9.100000000000000000e+01
1.020000000000000000e+02
1.250000000000000000e+02
1.410000000000000000e+02
1.540000000000000000e+02
1.820000000000000000e+02
2.110000000000000000e+02
2.510000000000000000e+02
2.860000000000000000e+02
3.300000000000000000e+02
3.810000000000000000e+02
4.510000000000000000e+02
5.160000000000000000e+02
6.000000000000000000e+02
6.980000000000000000e+02
8.000000000000000000e+02
9.070000000000000000e+02
1.071000000000000000e+03
1.224000000000000000e+03
1.427000000000000000e+03
1.659000000000000000e+03
1.900000000000000000e+03
2.199000000000000000e+03
2.545000000000000000e+03
2.944000000000000000e+03
3.400000000000000000e+03
3.981000000000000000e+03
4.609000000000000000e+03
5.331000000000000000e+03
6.158000000000000000e+03
7.100000000000000000e+03
8.260000000000000000e+03
9.546000000000000000e+03
1.102900000000000000e+04
1.271500000000000000e+04
1.469500000000000000e+04
1.700200000000000000e+04
1.968500000000000000e+04
2.274200000000000000e+04
2.627900000000000000e+04
3.046300000000000000e+04
