1.000000000000000000e+00
2.000000000000000000e+00
2.000000000000000000e+00
2.000000000000000000e+00
2.000000000000000000e+00
3.000000000000000000e+00
3.000000000000000000e+00
3.000000000000000000e+00
3.000000000000000000e+00
4.000000000000000000e+00
5.000000000000000000e+00
5.000000000000000000e+00
5.000000000000000000e+00
5.000000000000000000e+00
7.000000000000000000e+00
7.000000000000000000e+00
1.000000000000000000e+01
1.100000000000000000e+01
1.100000000000000000e+01
1.300000000000000000e+01
1.900000000000000000e+01
2.100000000000000000e+01
2.500000000000000000e+01
2.700000000000000000e+01
3.200000000000000000e+01
3.900000000000000000e+01
4.300000000000000000e+01
4.800000000000000000e+01
5.600000000000000000e+01
6.400000000000000000e+01
7.300000000000000000e+01
8.700000000000000000e+01
9.600000000000000000e+01
1.110000000000000000e+02
1.280000000000000000e+02
1.460000000000000000e+02
1.780000000000000000e+02
1.920000000000000000e+02
2.250000000000000000e+02
2.600000000000000000e+02
3.060000000000000000e+02
3.500000000000000000e+02
4.180000000000000000e+02
4.860000000000000000e+02
5.520000000000000000e+02
6.340000000000000000e+02
7.330000000000000000e+02
8.530000000000000000e+02
9.930000000000000000e+02
1.168000000000000000e+03
1.322000000000000000e+03
1.534000000000000000e+03
1.779000000000000000e+03
2.040000000000000000e+03
2.404000000000000000e+03
2.777000000000000000e+03
3.205000000000000000e+03
3.696000000000000000e+03
4.286000000000000000e+03
4.924000000000000000e+03
5.682000000000000000e+03
6.596000000000000000e+03
7.671000000000000000e+03
8.897000000000000000e+03
1.026900000000000000e+04
1.185200000000000000e+04
1.372900000000000000e+04
1.589200000000000000e+04
1.841900000000000000e+04
2.130100000000000000e+04
2.463900000000000000e+04
2.844500000000000000e+04
3.300300000000000000e+04
3.819000000000000000e+04
4.419200000000000000e+04
5.117700000000000000e+04
