1.000000000000000000e+00
2.000000000000000000e+00
2.000000000000000000e+00
2.000000000000000000e+00
2.000000000000000000e+00
3.000000000000000000e+00
3.000000000000000000e+00
3.000000000000000000e+00
3.000000000000000000e+00
3.000000000000000000e+00
3.000000000000000000e+00
5.000000000000000000e+00
5.000000000000000000e+00
5.000000000000000000e+00
6.000000000000000000e+00
7.000000000000000000e+00
8.000000000000000000e+00
8.000000000000000000e+00
8.000000000000000000e+00
1.000000000000000000e+01
1.000000000000000000e+01
1.500000000000000000e+01
1.700000000000000000e+01
1.700000000000000000e+01
1.700000000000000000e+01
1.900000000000000000e+01
2.200000000000000000e+01
2.900000000000000000e+01
3.100000000000000000e+01
3.500000000000000000e+01
3.800000000000000000e+01
4.500000000000000000e+01
4.800000000000000000e+01
5.700000000000000000e+01
7.000000000000000000e+01
7.800000000000000000e+01
8.600000000000000000e+01
9.600000000000000000e+01
1.140000000000000000e+02
1.290000000000000000e+02
1.490000000000000000e+02
1.720000000000000000e+02
1.960000000000000000e+02
2.270000000000000000e+02
2.620000000000000000e+02
2.990000000000000000e+02
3.570000000000000000e+02
4.080000000000000000e+02
4.680000000000000000e+02
5.310000000000000000e+02
6.230000000000000000e+02
7.390000000000000000e+02
8.520000000000000000e+02
9.870000000000000000e+02
1.126000000000000000e+03
1.313000000000000000e+03
1.512000000000000000e+03
1.755000000000000000e+03
2.031000000000000000e+03
2.340000000000000000e+03
2.720000000000000000e+03
3.140000000000000000e+03
3.607000000000000000e+03
4.216000000000000000e+03
4.847000000000000000e+03
5.589000000000000000e+03
6.512000000000000000e+03
7.549000000000000000e+03
8.726000000000000000e+03
1.010400000000000000e+04
1.171400000000000000e+04
1.345700000000000000e+04
1.569700000000000000e+04
1.815400000000000000e+04
2.099600000000000000e+04
2.427400000000000000e+04
