1.000000000000000000e+00
2.000000000000000000e+00
2.000000000000000000e+00
2.000000000000000000e+00
3.000000000000000000e+00
3.000000000000000000e+00
3.000000000000000000e+00
3.000000000000000000e+00
4.000000000000000000e+00
4.000000000000000000e+00
5.000000000000000000e+00
6.000000000000000000e+00
6.000000000000000000e+00
8.000000000000000000e+00
8.000000000000000000e+00
9.000000000000000000e+00
9.000000000000000000e+00
1.300000000000000000e+01
1.400000000000000000e+01
1.500000000000000000e+01
1.700000000000000000e+01
2.100000000000000000e+01
2.400000000000000000e+01
3.100000000000000000e+01
3.300000000000000000e+01
4.200000000000000000e+01
4.800000000000000000e+01
5.500000000000000000e+01
6.300000000000000000e+01
7.300000000000000000e+01
8.600000000000000000e+01
1.010000000000000000e+02
1.120000000000000000e+02
1.320000000000000000e+02
1.530000000000000000e+02
1.750000000000000000e+02
2.140000000000000000e+02
2.410000000000000000e+02
2.800000000000000000e+02
3.160000000000000000e+02
3.640000000000000000e+02
4.270000000000000000e+02
4.980000000000000000e+02
5.740000000000000000e+02
6.680000000000000000e+02
7.710000000000000000e+02
8.850000000000000000e+02
1.041000000000000000e+03
1.221000000000000000e+03
1.392000000000000000e+03
1.594000000000000000e+03
1.862000000000000000e+03
2.159000000000000000e+03
2.495000000000000000e+03
2.892000000000000000e+03
3.320000000000000000e+03
3.855000000000000000e+03
4.463000000000000000e+03
5.153000000000000000e+03
6.011000000000000000e+03
6.918000000000000000e+03
7.950000000000000000e+03
9.155000000000000000e+03
1.067200000000000000e+04
1.235200000000000000e+04
1.429700000000000000e+04
1.657400000000000000e+04
1.917100000000000000e+04
2.220500000000000000e+04
2.560200000000000000e+04
2.958100000000000000e+04
3.433100000000000000e+04
3.970100000000000000e+04
4.596600000000000000e+04
5.312300000000000000e+04
6.155900000000000000e+04
