1.000000000000000000e+00
2.000000000000000000e+00
2.000000000000000000e+00
2.000000000000000000e+00
2.000000000000000000e+00
2.000000000000000000e+00
3.000000000000000000e+00
3.000000000000000000e+00
3.000000000000000000e+00
4.000000000000000000e+00
5.000000000000000000e+00
5.000000000000000000e+00
5.000000000000000000e+00
5.000000000000000000e+00
6.000000000000000000e+00
8.000000000000000000e+00
8.000000000000000000e+00
9.000000000000000000e+00
9.000000000000000000e+00
1.100000000000000000e+01
1.600000000000000000e+01
1.700000000000000000e+01
1.800000000000000000e+01
2.000000000000000000e+01
2.200000000000000000e+01
3.100000000000000000e+01
3.400000000000000000e+01
3.500000000000000000e+01
4.000000000000000000e+01
4.900000000000000000e+01
5.500000000000000000e+01
6.600000000000000000e+01
7.200000000000000000e+01
8.200000000000000000e+01
9.500000000000000000e+01
1.110000000000000000e+02
1.260000000000000000e+02
1.510000000000000000e+02
1.710000000000000000e+02
1.910000000000000000e+02
2.240000000000000000e+02
2.610000000000000000e+02
3.050000000000000000e+02
3.500000000000000000e+02
3.950000000000000000e+02
4.630000000000000000e+02
5.410000000000000000e+02
6.330000000000000000e+02
7.330000000000000000e+02
8.370000000000000000e+02
9.710000000000000000e+02
1.109000000000000000e+03
1.284000000000000000e+03
1.509000000000000000e+03
1.757000000000000000e+03
2.009000000000000000e+03
2.316000000000000000e+03
2.681000000000000000e+03
3.115000000000000000e+03
3.620000000000000000e+03
4.141000000000000000e+03
4.799000000000000000e+03
5.567000000000000000e+03
6.399000000000000000e+03
7.408000000000000000e+03
8.564000000000000000e+03
9.969000000000000000e+03
1.151800000000000000e+04
1.327300000000000000e+04
1.531000000000000000e+04
1.773200000000000000e+04
2.050100000000000000e+04
2.378700000000000000e+04
2.744000000000000000e+04
3.177800000000000000e+04
3.669600000000000000e+04
