1.000000000000000000e+00
2.000000000000000000e+00
2.000000000000000000e+00
2.000000000000000000e+00
2.000000000000000000e+00
2.000000000000000000e+00
2.000000000000000000e+00
2.000000000000000000e+00
3.000000000000000000e+00
3.000000000000000000e+00
3.000000000000000000e+00
3.000000000000000000e+00
4.000000000000000000e+00
5.000000000000000000e+00
5.000000000000000000e+00
5.000000000000000000e+00
5.000000000000000000e+00
7.000000000000000000e+00
8.000000000000000000e+00
9.000000000000000000e+00
1.100000000000000000e+01
1.200000000000000000e+01
1.200000000000000000e+01
1.500000000000000000e+01
1.900000000000000000e+01
2.100000000000000000e+01
2.200000000000000000e+01
2.600000000000000000e+01
3.200000000000000000e+01
3.500000000000000000e+01
4.100000000000000000e+01
4.600000000000000000e+01
5.400000000000000000e+01
6.400000000000000000e+01
7.200000000000000000e+01
8.500000000000000000e+01
9.300000000000000000e+01
1.080000000000000000e+02
1.250000000000000000e+02
1.500000000000000000e+02
1.670000000000000000e+02
1.900000000000000000e+02
2.250000000000000000e+02
2.630000000000000000e+02
3.010000000000000000e+02
3.560000000000000000e+02
4.110000000000000000e+02
4.650000000000000000e+02
5.370000000000000000e+02
6.260000000000000000e+02
7.190000000000000000e+02
8.350000000000000000e+02
9.560000000000000000e+02
1.101000000000000000e+03
1.287000000000000000e+03
1.478000000000000000e+03
1.705000000000000000e+03
1.978000000000000000e+03
2.296000000000000000e+03
2.655000000000000000e+03
3.071000000000000000e+03
3.565000000000000000e+03
4.113000000000000000e+03
4.729000000000000000e+03
5.509000000000000000e+03
6.343000000000000000e+03
7.311000000000000000e+03
8.536000000000000000e+03
9.864000000000000000e+03
1.138900000000000000e+04
1.316800000000000000e+04
1.523200000000000000e+04
1.766900000000000000e+04
2.044900000000000000e+04
2.362600000000000000e+04
2.733400000000000000e+04
