1.000000000000000000e+00
2.000000000000000000e+00
2.000000000000000000e+00
2.000000000000000000e+00
2.000000000000000000e+00
2.000000000000000000e+00
2.000000000000000000e+00
3.000000000000000000e+00
3.000000000000000000e+00
3.000000000000000000e+00
3.000000000000000000e+00
4.000000000000000000e+00
4.000000000000000000e+00
5.000000000000000000e+00
5.000000000000000000e+00
6.000000000000000000e+00
7.000000000000000000e+00
8.000000000000000000e+00
9.000000000000000000e+00
9.000000000000000000e+00
1.000000000000000000e+01
1.100000000000000000e+01
1.400000000000000000e+01
1.800000000000000000e+01
1.800000000000000000e+01
1.900000000000000000e+01
2.200000000000000000e+01
2.800000000000000000e+01
3.100000000000000000e+01
3.500000000000000000e+01
4.200000000000000000e+01
4.900000000000000000e+01
5.300000000000000000e+01
6.100000000000000000e+01
7.000000000000000000e+01
8.000000000000000000e+01
9.300000000000000000e+01
1.060000000000000000e+02
1.300000000000000000e+02
1.450000000000000000e+02
1.680000000000000000e+02
1.900000000000000000e+02
2.250000000000000000e+02
2.730000000000000000e+02
3.200000000000000000e+02
3.560000000000000000e+02
4.120000000000000000e+02
4.810000000000000000e+02
5.560000000000000000e+02
6.540000000000000000e+02
7.580000000000000000e+02
8.740000000000000000e+02
1.011000000000000000e+03
1.153000000000000000e+03
1.350000000000000000e+03
1.562000000000000000e+03
1.802000000000000000e+03
2.100000000000000000e+03
2.428000000000000000e+03
2.781000000000000000e+03
3.238000000000000000e+03
3.769000000000000000e+03
4.364000000000000000e+03
5.015000000000000000e+03
5.773000000000000000e+03
6.654000000000000000e+03
7.716000000000000000e+03
8.914000000000000000e+03
1.037400000000000000e+04
1.196200000000000000e+04
1.381600000000000000e+04
1.598100000000000000e+04
1.847400000000000000e+04
2.131000000000000000e+04
2.475300000000000000e+04
2.860900000000000000e+04
