1.000000000000000000e+00
2.000000000000000000e+00
2.000000000000000000e+00
2.000000000000000000e+00
2.000000000000000000e+00
2.000000000000000000e+00
3.000000000000000000e+00
3.000000000000000000e+00
3.000000000000000000e+00
4.000000000000000000e+00
4.000000000000000000e+00
4.000000000000000000e+00
5.000000000000000000e+00
5.000000000000000000e+00
6.000000000000000000e+00
7.000000000000000000e+00
7.000000000000000000e+00
7.000000000000000000e+00
9.000000000000000000e+00
1.100000000000000000e+01
1.200000000000000000e+01
1.300000000000000000e+01
1.400000000000000000e+01
2.000000000000000000e+01
2.100000000000000000e+01
2.200000000000000000e+01
2.600000000000000000e+01
3.000000000000000000e+01
3.600000000000000000e+01
3.900000000000000000e+01
4.600000000000000000e+01
5.000000000000000000e+01
5.600000000000000000e+01
7.000000000000000000e+01
8.200000000000000000e+01
9.400000000000000000e+01
1.050000000000000000e+02
1.240000000000000000e+02
1.390000000000000000e+02
1.600000000000000000e+02
1.870000000000000000e+02
2.160000000000000000e+02
2.470000000000000000e+02
2.900000000000000000e+02
3.350000000000000000e+02
3.800000000000000000e+02
4.430000000000000000e+02
5.230000000000000000e+02
5.840000000000000000e+02
6.770000000000000000e+02
7.840000000000000000e+02
9.170000000000000000e+02
1.055000000000000000e+03
1.213000000000000000e+03
1.406000000000000000e+03
1.629000000000000000e+03
1.888000000000000000e+03
2.169000000000000000e+03
2.510000000000000000e+03
2.917000000000000000e+03
3.388000000000000000e+03
3.894000000000000000e+03
4.496000000000000000e+03
5.249000000000000000e+03
6.066000000000000000e+03
7.000000000000000000e+03
8.066000000000000000e+03
9.374000000000000000e+03
1.093600000000000000e+04
1.260200000000000000e+04
1.462200000000000000e+04
1.694000000000000000e+04
1.955000000000000000e+04
2.259100000000000000e+04
2.619300000000000000e+04
3.045200000000000000e+04
