1.000000000000000000e+00
2.000000000000000000e+00
2.000000000000000000e+00
2.000000000000000000e+00
2.000000000000000000e+00
2.000000000000000000e+00
3.000000000000000000e+00
3.000000000000000000e+00
3.000000000000000000e+00
3.000000000000000000e+00
5.000000000000000000e+00
5.000000000000000000e+00
5.000000000000000000e+00
5.000000000000000000e+00
6.000000000000000000e+00
7.000000000000000000e+00
8.000000000000000000e+00
9.000000000000000000e+00
9.000000000000000000e+00
1.100000000000000000e+01
1.200000000000000000e+01
1.500000000000000000e+01
1.500000000000000000e+01
1.900000000000000000e+01
2.200000000000000000e+01
2.500000000000000000e+01
2.800000000000000000e+01
3.000000000000000000e+01
3.400000000000000000e+01
3.600000000000000000e+01
4.500000000000000000e+01
5.300000000000000000e+01
6.200000000000000000e+01
7.000000000000000000e+01
7.800000000000000000e+01
9.200000000000000000e+01
1.090000000000000000e+02
1.260000000000000000e+02
1.440000000000000000e+02
1.650000000000000000e+02
1.900000000000000000e+02
2.250000000000000000e+02
2.570000000000000000e+02
3.050000000000000000e+02
3.450000000000000000e+02
3.950000000000000000e+02
4.660000000000000000e+02
5.360000000000000000e+02
6.170000000000000000e+02
7.180000000000000000e+02
8.340000000000000000e+02
9.620000000000000000e+02
1.118000000000000000e+03
1.271000000000000000e+03
1.481000000000000000e+03
1.725000000000000000e+03
1.997000000000000000e+03
2.317000000000000000e+03
2.676000000000000000e+03
3.071000000000000000e+03
3.555000000000000000e+03
4.117000000000000000e+03
4.788000000000000000e+03
5.489000000000000000e+03
6.337000000000000000e+03
7.328000000000000000e+03
8.520000000000000000e+03
9.846000000000000000e+03
1.138300000000000000e+04
1.317900000000000000e+04
1.524400000000000000e+04
1.758700000000000000e+04
2.040900000000000000e+04
2.365000000000000000e+04
2.731700000000000000e+04
3.154800000000000000e+04
