1.000000000000000000e+00
2.000000000000000000e+00
2.000000000000000000e+00
2.000000000000000000e+00
2.000000000000000000e+00
2.000000000000000000e+00
2.000000000000000000e+00
2.000000000000000000e+00
3.000000000000000000e+00
3.000000000000000000e+00
3.000000000000000000e+00
4.000000000000000000e+00
4.000000000000000000e+00
5.000000000000000000e+00
5.000000000000000000e+00
6.000000000000000000e+00
7.000000000000000000e+00
7.000000000000000000e+00
9.000000000000000000e+00
1.000000000000000000e+01
1.100000000000000000e+01
1.200000000000000000e+01
1.500000000000000000e+01
1.700000000000000000e+01
2.100000000000000000e+01
2.400000000000000000e+01
2.600000000000000000e+01
2.900000000000000000e+01
3.100000000000000000e+01
3.800000000000000000e+01
4.700000000000000000e+01
5.400000000000000000e+01
6.600000000000000000e+01
7.300000000000000000e+01
8.600000000000000000e+01
9.400000000000000000e+01
1.120000000000000000e+02
1.270000000000000000e+02
1.580000000000000000e+02
1.890000000000000000e+02
2.140000000000000000e+02
2.440000000000000000e+02
2.840000000000000000e+02
3.320000000000000000e+02
3.870000000000000000e+02
4.350000000000000000e+02
5.190000000000000000e+02
5.940000000000000000e+02
6.810000000000000000e+02
7.900000000000000000e+02
9.050000000000000000e+02
1.055000000000000000e+03
1.228000000000000000e+03
1.427000000000000000e+03
1.632000000000000000e+03
1.860000000000000000e+03
2.160000000000000000e+03
2.527000000000000000e+03
2.933000000000000000e+03
3.362000000000000000e+03
3.890000000000000000e+03
4.506000000000000000e+03
5.228000000000000000e+03
6.044000000000000000e+03
7.035000000000000000e+03
8.143000000000000000e+03
9.353000000000000000e+03
1.084500000000000000e+04
1.252500000000000000e+04
1.450000000000000000e+04
1.687100000000000000e+04
1.951700000000000000e+04
2.249600000000000000e+04
2.606100000000000000e+04
3.018900000000000000e+04
3.500600000000000000e+04
