1.000000000000000000e+00
2.000000000000000000e+00
2.000000000000000000e+00
2.000000000000000000e+00
2.000000000000000000e+00
2.000000000000000000e+00
2.000000000000000000e+00
2.000000000000000000e+00
2.000000000000000000e+00
2.000000000000000000e+00
2.000000000000000000e+00
2.000000000000000000e+00
2.000000000000000000e+00
2.000000000000000000e+00
2.000000000000000000e+00
2.000000000000000000e+00
2.000000000000000000e+00
2.000000000000000000e+00
2.000000000000000000e+00
2.000000000000000000e+00
2.000000000000000000e+00
2.000000000000000000e+00
2.000000000000000000e+00
2.000000000000000000e+00
2.000000000000000000e+00
2.000000000000000000e+00
2.000000000000000000e+00
2.000000000000000000e+00
2.000000000000000000e+00
2.000000000000000000e+00
2.000000000000000000e+00
2.000000000000000000e+00
2.000000000000000000e+00
2.000000000000000000e+00
2.000000000000000000e+00
2.000000000000000000e+00
2.000000000000000000e+00
2.000000000000000000e+00
2.000000000000000000e+00
2.000000000000000000e+00
2.000000000000000000e+00
2.000000000000000000e+00
2.000000000000000000e+00
2.000000000000000000e+00
2.000000000000000000e+00
2.000000000000000000e+00
2.000000000000000000e+00
2.000000000000000000e+00
2.000000000000000000e+00
3.000000000000000000e+00
3.000000000000000000e+00
3.000000000000000000e+00
3.000000000000000000e+00
3.000000000000000000e+00
3.000000000000000000e+00
3.000000000000000000e+00
3.000000000000000000e+00
3.000000000000000000e+00
3.000000000000000000e+00
3.000000000000000000e+00
3.000000000000000000e+00
3.000000000000000000e+00
3.000000000000000000e+00
3.000000000000000000e+00
3.000000000000000000e+00
3.000000000000000000e+00
3.000000000000000000e+00
3.000000000000000000e+00
3.000000000000000000e+00
3.000000000000000000e+00
3.000000000000000000e+00
3.000000000000000000e+00
3.000000000000000000e+00
3.000000000000000000e+00
3.000000000000000000e+00
3.000000000000000000e+00
3.000000000000000000e+00
3.000000000000000000e+00
3.000000000000000000e+00
3.000000000000000000e+00
3.000000000000000000e+00
3.000000000000000000e+00
3.000000000000000000e+00
3.000000000000000000e+00
3.000000000000000000e+00
3.000000000000000000e+00
3.000000000000000000e+00
3.000000000000000000e+00
3.000000000000000000e+00
3.000000000000000000e+00
3.000000000000000000e+00
3.000000000000000000e+00
3.000000000000000000e+00
3.000000000000000000e+00
3.000000000000000000e+00
3.000000000000000000e+00
3.000000000000000000e+00
3.000000000000000000e+00
3.000000000000000000e+00
3.000000000000000000e+00
3.000000000000000000e+00
3.000000000000000000e+00
3.000000000000000000e+00
3.000000000000000000e+00
4.000000000000000000e+00
4.000000000000000000e+00
4.000000000000000000e+00
4.000000000000000000e+00
4.000000000000000000e+00
4.000000000000000000e+00
4.000000000000000000e+00
4.000000000000000000e+00
4.000000000000000000e+00
4.000000000000000000e+00
4.000000000000000000e+00
4.000000000000000000e+00
4.000000000000000000e+00
4.000000000000000000e+00
4.000000000000000000e+00
4.000000000000000000e+00
4.000000000000000000e+00
4.000000000000000000e+00
4.000000000000000000e+00
4.000000000000000000e+00
4.000000000000000000e+00
4.000000000000000000e+00
4.000000000000000000e+00
4.000000000000000000e+00
4.000000000000000000e+00
4.000000000000000000e+00
4.000000000000000000e+00
4.000000000000000000e+00
4.000000000000000000e+00
4.000000000000000000e+00
4.000000000000000000e+00
4.000000000000000000e+00
4.000000000000000000e+00
5.000000000000000000e+00
5.000000000000000000e+00
5.000000000000000000e+00
5.000000000000000000e+00
5.000000000000000000e+00
5.000000000000000000e+00
5.000000000000000000e+00
5.000000000000000000e+00
5.000000000000000000e+00
5.000000000000000000e+00
5.000000000000000000e+00
5.000000000000000000e+00
5.000000000000000000e+00
5.000000000000000000e+00
5.000000000000000000e+00
5.000000000000000000e+00
5.000000000000000000e+00
5.000000000000000000e+00
5.000000000000000000e+00
5.000000000000000000e+00
5.000000000000000000e+00
5.000000000000000000e+00
5.000000000000000000e+00
5.000000000000000000e+00
5.000000000000000000e+00
5.000000000000000000e+00
5.000000000000000000e+00
5.000000000000000000e+00
5.000000000000000000e+00
5.000000000000000000e+00
5.000000000000000000e+00
5.000000000000000000e+00
5.000000000000000000e+00
5.000000000000000000e+00
5.000000000000000000e+00
5.000000000000000000e+00
5.000000000000000000e+00
5.000000000000000000e+00
5.000000000000000000e+00
5.000000000000000000e+00
5.000000000000000000e+00
5.000000000000000000e+00
5.000000000000000000e+00
5.000000000000000000e+00
5.000000000000000000e+00
5.000000000000000000e+00
5.000000000000000000e+00
5.000000000000000000e+00
5.000000000000000000e+00
5.000000000000000000e+00
5.000000000000000000e+00
5.000000000000000000e+00
5.000000000000000000e+00
5.000000000000000000e+00
5.000000000000000000e+00
5.000000000000000000e+00
5.000000000000000000e+00
5.000000000000000000e+00
5.000000000000000000e+00
5.000000000000000000e+00
5.000000000000000000e+00
5.000000000000000000e+00
5.000000000000000000e+00
5.000000000000000000e+00
5.000000000000000000e+00
5.000000000000000000e+00
5.000000000000000000e+00
5.000000000000000000e+00
6.000000000000000000e+00
6.000000000000000000e+00
6.000000000000000000e+00
6.000000000000000000e+00
6.000000000000000000e+00
6.000000000000000000e+00
6.000000000000000000e+00
6.000000000000000000e+00
6.000000000000000000e+00
6.000000000000000000e+00
6.000000000000000000e+00
6.000000000000000000e+00
6.000000000000000000e+00
6.000000000000000000e+00
7.000000000000000000e+00
7.000000000000000000e+00
7.000000000000000000e+00
7.000000000000000000e+00
7.000000000000000000e+00
7.000000000000000000e+00
7.000000000000000000e+00
7.000000000000000000e+00
7.000000000000000000e+00
7.000000000000000000e+00
7.000000000000000000e+00
7.000000000000000000e+00
7.000000000000000000e+00
7.000000000000000000e+00
7.000000000000000000e+00
7.000000000000000000e+00
7.000000000000000000e+00
7.000000000000000000e+00
7.000000000000000000e+00
7.000000000000000000e+00
7.000000000000000000e+00
7.000000000000000000e+00
7.000000000000000000e+00
7.000000000000000000e+00
7.000000000000000000e+00
7.000000000000000000e+00
7.000000000000000000e+00
7.000000000000000000e+00
7.000000000000000000e+00
7.000000000000000000e+00
7.000000000000000000e+00
7.000000000000000000e+00
7.000000000000000000e+00
7.000000000000000000e+00
7.000000000000000000e+00
7.000000000000000000e+00
7.000000000000000000e+00
7.000000000000000000e+00
7.000000000000000000e+00
7.000000000000000000e+00
7.000000000000000000e+00
7.000000000000000000e+00
7.000000000000000000e+00
7.000000000000000000e+00
7.000000000000000000e+00
7.000000000000000000e+00
7.000000000000000000e+00
8.000000000000000000e+00
8.000000000000000000e+00
8.000000000000000000e+00
8.000000000000000000e+00
8.000000000000000000e+00
8.000000000000000000e+00
8.000000000000000000e+00
8.000000000000000000e+00
8.000000000000000000e+00
8.000000000000000000e+00
8.000000000000000000e+00
9.000000000000000000e+00
9.000000000000000000e+00
9.000000000000000000e+00
9.000000000000000000e+00
9.000000000000000000e+00
9.000000000000000000e+00
9.000000000000000000e+00
9.000000000000000000e+00
9.000000000000000000e+00
9.000000000000000000e+00
1.000000000000000000e+01
1.000000000000000000e+01
1.000000000000000000e+01
1.100000000000000000e+01
1.100000000000000000e+01
1.100000000000000000e+01
1.100000000000000000e+01
1.100000000000000000e+01
1.100000000000000000e+01
1.200000000000000000e+01
1.200000000000000000e+01
1.200000000000000000e+01
1.200000000000000000e+01
1.200000000000000000e+01
1.200000000000000000e+01
1.200000000000000000e+01
1.300000000000000000e+01
1.300000000000000000e+01
1.300000000000000000e+01
1.300000000000000000e+01
1.300000000000000000e+01
1.300000000000000000e+01
1.300000000000000000e+01
1.300000000000000000e+01
1.300000000000000000e+01
1.300000000000000000e+01
1.300000000000000000e+01
1.300000000000000000e+01
1.300000000000000000e+01
1.300000000000000000e+01
1.300000000000000000e+01
1.300000000000000000e+01
1.300000000000000000e+01
1.300000000000000000e+01
1.300000000000000000e+01
1.300000000000000000e+01
1.300000000000000000e+01
1.300000000000000000e+01
1.400000000000000000e+01
1.400000000000000000e+01
1.400000000000000000e+01
1.400000000000000000e+01
1.400000000000000000e+01
1.400000000000000000e+01
1.400000000000000000e+01
1.400000000000000000e+01
1.400000000000000000e+01
1.400000000000000000e+01
1.400000000000000000e+01
1.400000000000000000e+01
1.400000000000000000e+01
1.400000000000000000e+01
1.400000000000000000e+01
1.400000000000000000e+01
1.400000000000000000e+01
1.400000000000000000e+01
1.400000000000000000e+01
1.400000000000000000e+01
1.400000000000000000e+01
1.400000000000000000e+01
1.400000000000000000e+01
1.500000000000000000e+01
1.600000000000000000e+01
1.600000000000000000e+01
1.600000000000000000e+01
1.600000000000000000e+01
1.600000000000000000e+01
1.600000000000000000e+01
1.800000000000000000e+01
1.800000000000000000e+01
1.800000000000000000e+01
1.800000000000000000e+01
1.800000000000000000e+01
1.800000000000000000e+01
1.800000000000000000e+01
1.800000000000000000e+01
1.800000000000000000e+01
1.800000000000000000e+01
1.800000000000000000e+01
1.900000000000000000e+01
1.900000000000000000e+01
1.900000000000000000e+01
2.000000000000000000e+01
2.000000000000000000e+01
2.000000000000000000e+01
2.000000000000000000e+01
2.100000000000000000e+01
2.100000000000000000e+01
2.100000000000000000e+01
2.100000000000000000e+01
2.100000000000000000e+01
2.100000000000000000e+01
2.100000000000000000e+01
2.100000000000000000e+01
2.100000000000000000e+01
2.100000000000000000e+01
2.100000000000000000e+01
2.100000000000000000e+01
2.100000000000000000e+01
2.200000000000000000e+01
2.200000000000000000e+01
2.300000000000000000e+01
2.300000000000000000e+01
2.300000000000000000e+01
2.300000000000000000e+01
2.400000000000000000e+01
2.400000000000000000e+01
2.400000000000000000e+01
2.500000000000000000e+01
2.500000000000000000e+01
2.500000000000000000e+01
2.500000000000000000e+01
2.500000000000000000e+01
2.500000000000000000e+01
2.500000000000000000e+01
2.500000000000000000e+01
2.500000000000000000e+01
2.500000000000000000e+01
2.500000000000000000e+01
2.600000000000000000e+01
2.700000000000000000e+01
2.700000000000000000e+01
2.700000000000000000e+01
2.800000000000000000e+01
2.800000000000000000e+01
2.800000000000000000e+01
2.800000000000000000e+01
2.800000000000000000e+01
2.800000000000000000e+01
2.900000000000000000e+01
2.900000000000000000e+01
3.000000000000000000e+01
3.000000000000000000e+01
3.000000000000000000e+01
3.000000000000000000e+01
3.000000000000000000e+01
3.000000000000000000e+01
3.000000000000000000e+01
3.100000000000000000e+01
3.200000000000000000e+01
3.200000000000000000e+01
3.200000000000000000e+01
3.200000000000000000e+01
3.200000000000000000e+01
3.200000000000000000e+01
3.200000000000000000e+01
3.200000000000000000e+01
3.200000000000000000e+01
3.200000000000000000e+01
3.200000000000000000e+01
3.200000000000000000e+01
3.400000000000000000e+01
3.400000000000000000e+01
3.400000000000000000e+01
3.500000000000000000e+01
3.500000000000000000e+01
3.600000000000000000e+01
3.600000000000000000e+01
3.700000000000000000e+01
3.800000000000000000e+01
3.800000000000000000e+01
4.000000000000000000e+01
4.000000000000000000e+01
4.000000000000000000e+01
4.000000000000000000e+01
4.000000000000000000e+01
4.000000000000000000e+01
4.100000000000000000e+01
4.100000000000000000e+01
4.100000000000000000e+01
4.100000000000000000e+01
4.100000000000000000e+01
4.100000000000000000e+01
4.100000000000000000e+01
4.100000000000000000e+01
4.100000000000000000e+01
4.100000000000000000e+01
4.200000000000000000e+01
4.200000000000000000e+01
4.200000000000000000e+01
4.300000000000000000e+01
4.300000000000000000e+01
4.300000000000000000e+01
4.400000000000000000e+01
4.400000000000000000e+01
4.400000000000000000e+01
4.400000000000000000e+01
4.500000000000000000e+01
4.500000000000000000e+01
4.500000000000000000e+01
4.500000000000000000e+01
4.600000000000000000e+01
4.600000000000000000e+01
4.700000000000000000e+01
4.700000000000000000e+01
4.700000000000000000e+01
4.700000000000000000e+01
4.700000000000000000e+01
4.700000000000000000e+01
4.700000000000000000e+01
4.700000000000000000e+01
4.700000000000000000e+01
4.800000000000000000e+01
4.800000000000000000e+01
4.800000000000000000e+01
4.800000000000000000e+01
5.000000000000000000e+01
5.000000000000000000e+01
5.100000000000000000e+01
5.200000000000000000e+01
5.200000000000000000e+01
5.200000000000000000e+01
5.300000000000000000e+01
5.300000000000000000e+01
5.300000000000000000e+01
5.400000000000000000e+01
5.500000000000000000e+01
5.500000000000000000e+01
5.500000000000000000e+01
5.600000000000000000e+01
5.600000000000000000e+01
5.700000000000000000e+01
5.800000000000000000e+01
5.900000000000000000e+01
5.900000000000000000e+01
6.000000000000000000e+01
6.100000000000000000e+01
6.200000000000000000e+01
6.300000000000000000e+01
6.400000000000000000e+01
6.400000000000000000e+01
6.500000000000000000e+01
6.800000000000000000e+01
6.900000000000000000e+01
6.900000000000000000e+01
7.000000000000000000e+01
7.000000000000000000e+01
7.000000000000000000e+01
7.000000000000000000e+01
7.000000000000000000e+01
7.000000000000000000e+01
7.100000000000000000e+01
7.100000000000000000e+01
7.100000000000000000e+01
7.100000000000000000e+01
7.100000000000000000e+01
7.100000000000000000e+01
7.100000000000000000e+01
7.200000000000000000e+01
7.200000000000000000e+01
7.200000000000000000e+01
7.400000000000000000e+01
7.500000000000000000e+01
7.500000000000000000e+01
7.500000000000000000e+01
7.600000000000000000e+01
7.600000000000000000e+01
7.600000000000000000e+01
7.600000000000000000e+01
7.700000000000000000e+01
7.700000000000000000e+01
7.700000000000000000e+01
7.700000000000000000e+01
7.800000000000000000e+01
7.900000000000000000e+01
7.900000000000000000e+01
7.900000000000000000e+01
8.000000000000000000e+01
8.100000000000000000e+01
8.300000000000000000e+01
8.500000000000000000e+01
8.500000000000000000e+01
8.500000000000000000e+01
8.500000000000000000e+01
8.500000000000000000e+01
8.500000000000000000e+01
8.500000000000000000e+01
8.600000000000000000e+01
8.600000000000000000e+01
8.600000000000000000e+01
8.700000000000000000e+01
8.700000000000000000e+01
8.800000000000000000e+01
8.900000000000000000e+01
9.000000000000000000e+01
9.100000000000000000e+01
9.200000000000000000e+01
9.300000000000000000e+01
9.300000000000000000e+01
9.400000000000000000e+01
9.400000000000000000e+01
9.400000000000000000e+01
9.400000000000000000e+01
9.600000000000000000e+01
9.600000000000000000e+01
9.600000000000000000e+01
9.700000000000000000e+01
9.700000000000000000e+01
9.900000000000000000e+01
9.900000000000000000e+01
1.000000000000000000e+02
1.010000000000000000e+02
1.020000000000000000e+02
1.050000000000000000e+02
1.060000000000000000e+02
1.060000000000000000e+02
1.070000000000000000e+02
1.070000000000000000e+02
1.070000000000000000e+02
1.070000000000000000e+02
1.080000000000000000e+02
1.080000000000000000e+02
1.080000000000000000e+02
1.080000000000000000e+02
1.090000000000000000e+02
1.100000000000000000e+02
1.120000000000000000e+02
1.130000000000000000e+02
1.170000000000000000e+02
1.190000000000000000e+02
1.190000000000000000e+02
1.190000000000000000e+02
1.210000000000000000e+02
1.220000000000000000e+02
1.230000000000000000e+02
1.230000000000000000e+02
1.230000000000000000e+02
1.240000000000000000e+02
1.240000000000000000e+02
1.240000000000000000e+02
1.250000000000000000e+02
1.260000000000000000e+02
1.260000000000000000e+02
1.280000000000000000e+02
1.300000000000000000e+02
1.320000000000000000e+02
1.340000000000000000e+02
1.350000000000000000e+02
1.390000000000000000e+02
1.390000000000000000e+02
1.390000000000000000e+02
1.400000000000000000e+02
1.410000000000000000e+02
1.430000000000000000e+02
1.440000000000000000e+02
1.460000000000000000e+02
1.460000000000000000e+02
1.460000000000000000e+02
1.460000000000000000e+02
1.470000000000000000e+02
1.470000000000000000e+02
1.500000000000000000e+02
1.500000000000000000e+02
1.500000000000000000e+02
1.500000000000000000e+02
1.510000000000000000e+02
1.530000000000000000e+02
1.540000000000000000e+02
1.540000000000000000e+02
1.550000000000000000e+02
1.560000000000000000e+02
1.570000000000000000e+02
1.580000000000000000e+02
1.590000000000000000e+02
1.620000000000000000e+02
1.640000000000000000e+02
1.650000000000000000e+02
1.690000000000000000e+02
1.700000000000000000e+02
1.720000000000000000e+02
1.740000000000000000e+02
1.770000000000000000e+02
1.780000000000000000e+02
1.790000000000000000e+02
1.810000000000000000e+02
1.840000000000000000e+02
1.860000000000000000e+02
1.860000000000000000e+02
1.870000000000000000e+02
1.880000000000000000e+02
1.880000000000000000e+02
1.900000000000000000e+02
1.930000000000000000e+02
1.940000000000000000e+02
1.940000000000000000e+02
1.960000000000000000e+02
1.970000000000000000e+02
1.980000000000000000e+02
2.010000000000000000e+02
2.010000000000000000e+02
2.030000000000000000e+02
2.040000000000000000e+02
2.040000000000000000e+02
2.060000000000000000e+02
2.060000000000000000e+02
2.070000000000000000e+02
2.080000000000000000e+02
2.110000000000000000e+02
2.120000000000000000e+02
2.140000000000000000e+02
2.150000000000000000e+02
2.160000000000000000e+02
2.180000000000000000e+02
2.180000000000000000e+02
2.190000000000000000e+02
2.200000000000000000e+02
2.210000000000000000e+02
2.220000000000000000e+02
2.230000000000000000e+02
2.230000000000000000e+02
2.250000000000000000e+02
2.260000000000000000e+02
2.260000000000000000e+02
2.280000000000000000e+02
2.280000000000000000e+02
2.300000000000000000e+02
2.310000000000000000e+02
2.330000000000000000e+02
2.350000000000000000e+02
2.360000000000000000e+02
2.390000000000000000e+02
2.400000000000000000e+02
2.420000000000000000e+02
2.440000000000000000e+02
2.450000000000000000e+02
2.460000000000000000e+02
2.480000000000000000e+02
2.490000000000000000e+02
2.520000000000000000e+02
2.550000000000000000e+02
2.570000000000000000e+02
2.590000000000000000e+02
2.620000000000000000e+02
2.640000000000000000e+02
2.650000000000000000e+02
2.680000000000000000e+02
2.730000000000000000e+02
2.780000000000000000e+02
2.800000000000000000e+02
2.840000000000000000e+02
2.860000000000000000e+02
2.860000000000000000e+02
2.860000000000000000e+02
2.880000000000000000e+02
2.920000000000000000e+02
2.950000000000000000e+02
2.950000000000000000e+02
2.970000000000000000e+02
2.990000000000000000e+02
3.020000000000000000e+02
3.040000000000000000e+02
3.040000000000000000e+02
3.070000000000000000e+02
3.100000000000000000e+02
3.140000000000000000e+02
3.180000000000000000e+02
3.180000000000000000e+02
3.190000000000000000e+02
3.230000000000000000e+02
3.260000000000000000e+02
3.300000000000000000e+02
3.310000000000000000e+02
3.330000000000000000e+02
3.380000000000000000e+02
3.400000000000000000e+02
3.420000000000000000e+02
3.430000000000000000e+02
3.450000000000000000e+02
3.490000000000000000e+02
3.520000000000000000e+02
3.550000000000000000e+02
3.580000000000000000e+02
3.590000000000000000e+02
3.630000000000000000e+02
3.650000000000000000e+02
3.680000000000000000e+02
3.730000000000000000e+02
3.760000000000000000e+02
3.760000000000000000e+02
3.760000000000000000e+02
3.800000000000000000e+02
3.870000000000000000e+02
3.910000000000000000e+02
3.960000000000000000e+02
3.980000000000000000e+02
4.030000000000000000e+02
4.080000000000000000e+02
4.120000000000000000e+02
4.170000000000000000e+02
4.190000000000000000e+02
4.190000000000000000e+02
4.210000000000000000e+02
4.210000000000000000e+02
4.240000000000000000e+02
4.260000000000000000e+02
4.290000000000000000e+02
4.340000000000000000e+02
4.350000000000000000e+02
4.380000000000000000e+02
4.400000000000000000e+02
4.440000000000000000e+02
4.470000000000000000e+02
4.480000000000000000e+02
4.490000000000000000e+02
4.510000000000000000e+02
4.540000000000000000e+02
4.570000000000000000e+02
4.590000000000000000e+02
4.660000000000000000e+02
4.670000000000000000e+02
4.690000000000000000e+02
4.720000000000000000e+02
4.760000000000000000e+02
4.790000000000000000e+02
4.810000000000000000e+02
4.810000000000000000e+02
4.860000000000000000e+02
4.900000000000000000e+02
4.940000000000000000e+02
4.970000000000000000e+02
5.020000000000000000e+02
5.040000000000000000e+02
5.130000000000000000e+02
5.180000000000000000e+02
5.220000000000000000e+02
5.260000000000000000e+02
5.290000000000000000e+02
5.340000000000000000e+02
5.380000000000000000e+02
5.470000000000000000e+02
5.500000000000000000e+02
5.580000000000000000e+02
5.630000000000000000e+02
5.650000000000000000e+02
5.680000000000000000e+02
5.750000000000000000e+02
5.800000000000000000e+02
5.850000000000000000e+02
5.930000000000000000e+02
5.960000000000000000e+02
6.010000000000000000e+02
6.060000000000000000e+02
6.070000000000000000e+02
6.100000000000000000e+02
6.160000000000000000e+02
6.180000000000000000e+02
6.260000000000000000e+02
6.330000000000000000e+02
6.400000000000000000e+02
6.440000000000000000e+02
6.500000000000000000e+02
6.560000000000000000e+02
6.620000000000000000e+02
6.680000000000000000e+02
6.680000000000000000e+02
6.710000000000000000e+02
6.750000000000000000e+02
6.780000000000000000e+02
6.810000000000000000e+02
6.870000000000000000e+02
6.930000000000000000e+02
6.980000000000000000e+02
7.010000000000000000e+02
7.090000000000000000e+02
7.120000000000000000e+02
7.180000000000000000e+02
7.230000000000000000e+02
7.270000000000000000e+02
7.320000000000000000e+02
7.370000000000000000e+02
7.430000000000000000e+02
7.510000000000000000e+02
7.600000000000000000e+02
7.640000000000000000e+02
7.680000000000000000e+02
7.720000000000000000e+02
7.740000000000000000e+02
7.790000000000000000e+02
7.850000000000000000e+02
7.890000000000000000e+02
7.940000000000000000e+02
8.000000000000000000e+02
8.000000000000000000e+02
8.070000000000000000e+02
8.130000000000000000e+02
8.170000000000000000e+02
8.190000000000000000e+02
8.240000000000000000e+02
8.310000000000000000e+02
8.360000000000000000e+02
8.410000000000000000e+02
8.500000000000000000e+02
8.590000000000000000e+02
8.630000000000000000e+02
8.700000000000000000e+02
8.780000000000000000e+02
8.920000000000000000e+02
8.980000000000000000e+02
9.060000000000000000e+02
9.200000000000000000e+02
9.260000000000000000e+02
9.360000000000000000e+02
9.420000000000000000e+02
9.490000000000000000e+02
9.600000000000000000e+02
9.680000000000000000e+02
9.730000000000000000e+02
9.790000000000000000e+02
9.850000000000000000e+02
9.920000000000000000e+02
1.006000000000000000e+03
1.013000000000000000e+03
1.018000000000000000e+03
1.026000000000000000e+03
1.029000000000000000e+03
1.040000000000000000e+03
1.049000000000000000e+03
1.056000000000000000e+03
1.067000000000000000e+03
1.069000000000000000e+03
1.079000000000000000e+03
1.090000000000000000e+03
1.095000000000000000e+03
1.107000000000000000e+03
1.110000000000000000e+03
1.122000000000000000e+03
1.129000000000000000e+03
1.134000000000000000e+03
1.141000000000000000e+03
1.145000000000000000e+03
1.155000000000000000e+03
1.170000000000000000e+03
1.178000000000000000e+03
1.187000000000000000e+03
1.193000000000000000e+03
1.200000000000000000e+03
1.210000000000000000e+03
1.219000000000000000e+03
1.224000000000000000e+03
1.232000000000000000e+03
1.240000000000000000e+03
1.254000000000000000e+03
1.265000000000000000e+03
1.277000000000000000e+03
1.287000000000000000e+03
1.293000000000000000e+03
1.302000000000000000e+03
1.318000000000000000e+03
1.331000000000000000e+03
1.339000000000000000e+03
1.344000000000000000e+03
1.355000000000000000e+03
1.369000000000000000e+03
1.377000000000000000e+03
1.382000000000000000e+03
1.393000000000000000e+03
1.404000000000000000e+03
1.412000000000000000e+03
1.427000000000000000e+03
1.435000000000000000e+03
1.450000000000000000e+03
1.461000000000000000e+03
1.479000000000000000e+03
1.487000000000000000e+03
1.495000000000000000e+03
1.505000000000000000e+03
1.514000000000000000e+03
1.532000000000000000e+03
1.544000000000000000e+03
1.558000000000000000e+03
1.563000000000000000e+03
1.574000000000000000e+03
1.581000000000000000e+03
1.584000000000000000e+03
1.595000000000000000e+03
1.606000000000000000e+03
1.613000000000000000e+03
1.627000000000000000e+03
1.641000000000000000e+03
1.655000000000000000e+03
1.667000000000000000e+03
1.674000000000000000e+03
1.686000000000000000e+03
1.700000000000000000e+03
1.707000000000000000e+03
1.723000000000000000e+03
1.732000000000000000e+03
1.749000000000000000e+03
1.759000000000000000e+03
1.771000000000000000e+03
1.786000000000000000e+03
1.798000000000000000e+03
1.815000000000000000e+03
1.830000000000000000e+03
1.842000000000000000e+03
1.859000000000000000e+03
1.873000000000000000e+03
1.884000000000000000e+03
1.898000000000000000e+03
1.914000000000000000e+03
1.926000000000000000e+03
1.941000000000000000e+03
1.955000000000000000e+03
1.974000000000000000e+03
1.991000000000000000e+03
2.012000000000000000e+03
2.031000000000000000e+03
2.052000000000000000e+03
2.068000000000000000e+03
2.084000000000000000e+03
2.103000000000000000e+03
2.119000000000000000e+03
2.133000000000000000e+03
2.151000000000000000e+03
2.168000000000000000e+03
2.185000000000000000e+03
2.199000000000000000e+03
2.222000000000000000e+03
2.233000000000000000e+03
2.252000000000000000e+03
2.265000000000000000e+03
2.277000000000000000e+03
2.290000000000000000e+03
2.308000000000000000e+03
2.327000000000000000e+03
2.341000000000000000e+03
2.359000000000000000e+03
2.372000000000000000e+03
2.392000000000000000e+03
2.412000000000000000e+03
2.426000000000000000e+03
2.442000000000000000e+03
2.459000000000000000e+03
2.485000000000000000e+03
2.502000000000000000e+03
2.516000000000000000e+03
2.529000000000000000e+03
2.549000000000000000e+03
2.564000000000000000e+03
2.581000000000000000e+03
2.597000000000000000e+03
2.619000000000000000e+03
2.634000000000000000e+03
2.656000000000000000e+03
2.670000000000000000e+03
2.706000000000000000e+03
2.721000000000000000e+03
2.735000000000000000e+03
2.758000000000000000e+03
2.777000000000000000e+03
2.807000000000000000e+03
2.830000000000000000e+03
2.850000000000000000e+03
2.868000000000000000e+03
2.887000000000000000e+03
2.909000000000000000e+03
2.926000000000000000e+03
2.948000000000000000e+03
2.966000000000000000e+03
2.985000000000000000e+03
2.999000000000000000e+03
3.027000000000000000e+03
3.049000000000000000e+03
3.070000000000000000e+03
3.099000000000000000e+03
3.116000000000000000e+03
3.142000000000000000e+03
3.167000000000000000e+03
3.191000000000000000e+03
3.213000000000000000e+03
3.234000000000000000e+03
3.257000000000000000e+03
3.284000000000000000e+03
3.309000000000000000e+03
3.343000000000000000e+03
3.369000000000000000e+03
3.382000000000000000e+03
3.402000000000000000e+03
3.432000000000000000e+03
3.457000000000000000e+03
3.483000000000000000e+03
3.503000000000000000e+03
3.540000000000000000e+03
3.557000000000000000e+03
3.594000000000000000e+03
3.616000000000000000e+03
3.640000000000000000e+03
3.669000000000000000e+03
3.698000000000000000e+03
3.723000000000000000e+03
3.758000000000000000e+03
3.790000000000000000e+03
3.808000000000000000e+03
3.832000000000000000e+03
3.857000000000000000e+03
3.878000000000000000e+03
3.905000000000000000e+03
3.927000000000000000e+03
3.963000000000000000e+03
3.998000000000000000e+03
4.034000000000000000e+03
4.066000000000000000e+03
4.098000000000000000e+03
4.127000000000000000e+03
4.156000000000000000e+03
4.198000000000000000e+03
4.231000000000000000e+03
4.260000000000000000e+03
4.289000000000000000e+03
4.321000000000000000e+03
4.356000000000000000e+03
4.388000000000000000e+03
4.424000000000000000e+03
4.456000000000000000e+03
4.484000000000000000e+03
4.521000000000000000e+03
4.550000000000000000e+03
4.588000000000000000e+03
4.619000000000000000e+03
4.655000000000000000e+03
4.687000000000000000e+03
4.725000000000000000e+03
4.748000000000000000e+03
4.779000000000000000e+03
4.810000000000000000e+03
4.847000000000000000e+03
4.887000000000000000e+03
4.918000000000000000e+03
4.953000000000000000e+03
4.996000000000000000e+03
5.029000000000000000e+03
5.067000000000000000e+03
5.103000000000000000e+03
5.132000000000000000e+03
5.173000000000000000e+03
5.212000000000000000e+03
5.259000000000000000e+03
5.294000000000000000e+03
5.325000000000000000e+03
5.357000000000000000e+03
5.397000000000000000e+03
5.432000000000000000e+03
5.485000000000000000e+03
5.518000000000000000e+03
5.551000000000000000e+03
5.594000000000000000e+03
5.639000000000000000e+03
5.683000000000000000e+03
5.717000000000000000e+03
5.753000000000000000e+03
5.794000000000000000e+03
5.838000000000000000e+03
5.872000000000000000e+03
5.913000000000000000e+03
5.948000000000000000e+03
6.007000000000000000e+03
6.065000000000000000e+03
6.116000000000000000e+03
6.164000000000000000e+03
6.208000000000000000e+03
6.266000000000000000e+03
6.305000000000000000e+03
6.365000000000000000e+03
6.403000000000000000e+03
6.455000000000000000e+03
6.510000000000000000e+03
6.566000000000000000e+03
6.611000000000000000e+03
6.667000000000000000e+03
6.717000000000000000e+03
6.759000000000000000e+03
6.807000000000000000e+03
6.848000000000000000e+03
6.883000000000000000e+03
6.926000000000000000e+03
6.980000000000000000e+03
7.024000000000000000e+03
7.088000000000000000e+03
7.155000000000000000e+03
7.205000000000000000e+03
7.274000000000000000e+03
7.321000000000000000e+03
7.380000000000000000e+03
7.420000000000000000e+03
7.473000000000000000e+03
7.529000000000000000e+03
7.584000000000000000e+03
7.640000000000000000e+03
7.702000000000000000e+03
7.758000000000000000e+03
7.808000000000000000e+03
7.865000000000000000e+03
7.930000000000000000e+03
7.985000000000000000e+03
8.028000000000000000e+03
8.082000000000000000e+03
8.145000000000000000e+03
8.193000000000000000e+03
8.260000000000000000e+03
8.333000000000000000e+03
8.384000000000000000e+03
8.443000000000000000e+03
8.499000000000000000e+03
8.572000000000000000e+03
8.629000000000000000e+03
8.696000000000000000e+03
8.757000000000000000e+03
8.813000000000000000e+03
8.872000000000000000e+03
8.948000000000000000e+03
9.018000000000000000e+03
9.088000000000000000e+03
9.158000000000000000e+03
9.223000000000000000e+03
9.300000000000000000e+03
9.368000000000000000e+03
9.443000000000000000e+03
9.515000000000000000e+03
9.592000000000000000e+03
9.660000000000000000e+03
9.728000000000000000e+03
9.800000000000000000e+03
9.854000000000000000e+03
9.921000000000000000e+03
9.992000000000000000e+03
1.006600000000000000e+04
1.013300000000000000e+04
1.019900000000000000e+04
1.026200000000000000e+04
1.034200000000000000e+04
1.041000000000000000e+04
1.048800000000000000e+04
1.056600000000000000e+04
1.064700000000000000e+04
1.073000000000000000e+04
1.081700000000000000e+04
1.089000000000000000e+04
1.097800000000000000e+04
1.107100000000000000e+04
1.115800000000000000e+04
1.123700000000000000e+04
1.130900000000000000e+04
1.137000000000000000e+04
1.144900000000000000e+04
1.153700000000000000e+04
1.163100000000000000e+04
1.171900000000000000e+04
1.180700000000000000e+04
1.190300000000000000e+04
1.200200000000000000e+04
1.207500000000000000e+04
1.216400000000000000e+04
1.226200000000000000e+04
1.234600000000000000e+04
1.243300000000000000e+04
1.250600000000000000e+04
1.257400000000000000e+04
1.265900000000000000e+04
1.275000000000000000e+04
1.283600000000000000e+04
1.292800000000000000e+04
1.302500000000000000e+04
1.313100000000000000e+04
1.322700000000000000e+04
1.333600000000000000e+04
1.344700000000000000e+04
1.353400000000000000e+04
1.362400000000000000e+04
1.374200000000000000e+04
1.383400000000000000e+04
1.393700000000000000e+04
1.403000000000000000e+04
1.413300000000000000e+04
1.424000000000000000e+04
1.434900000000000000e+04
1.445600000000000000e+04
1.455500000000000000e+04
1.465900000000000000e+04
1.477400000000000000e+04
1.486200000000000000e+04
1.495600000000000000e+04
1.508200000000000000e+04
1.519100000000000000e+04
1.529800000000000000e+04
1.542100000000000000e+04
1.554600000000000000e+04
1.565500000000000000e+04
1.576100000000000000e+04
1.590000000000000000e+04
1.603600000000000000e+04
1.615300000000000000e+04
1.627100000000000000e+04
1.639000000000000000e+04
1.650800000000000000e+04
1.660400000000000000e+04
1.672900000000000000e+04
1.686100000000000000e+04
1.696900000000000000e+04
1.708300000000000000e+04
1.720500000000000000e+04
1.732700000000000000e+04
1.744900000000000000e+04
1.759900000000000000e+04
1.773300000000000000e+04
1.785200000000000000e+04
1.797100000000000000e+04
1.811400000000000000e+04
1.826000000000000000e+04
1.839100000000000000e+04
1.854800000000000000e+04
1.867100000000000000e+04
1.881400000000000000e+04
1.895500000000000000e+04
1.911600000000000000e+04
1.924200000000000000e+04
1.936500000000000000e+04
1.949300000000000000e+04
1.965100000000000000e+04
1.979500000000000000e+04
1.993200000000000000e+04
2.008600000000000000e+04
2.023300000000000000e+04
2.038800000000000000e+04
2.054500000000000000e+04
2.069900000000000000e+04
2.086200000000000000e+04
2.099700000000000000e+04
2.114200000000000000e+04
2.129500000000000000e+04
2.146300000000000000e+04
2.161600000000000000e+04
2.175700000000000000e+04
2.188400000000000000e+04
2.206100000000000000e+04
2.222900000000000000e+04
2.240000000000000000e+04
2.257800000000000000e+04
2.273900000000000000e+04
2.291000000000000000e+04
2.308300000000000000e+04
2.325200000000000000e+04
2.340400000000000000e+04
2.355900000000000000e+04
2.369400000000000000e+04
2.387600000000000000e+04
2.407000000000000000e+04
2.425900000000000000e+04
2.444100000000000000e+04
2.461300000000000000e+04
2.480500000000000000e+04
2.496600000000000000e+04
2.511900000000000000e+04
2.529900000000000000e+04
2.543800000000000000e+04
2.561500000000000000e+04
2.581100000000000000e+04
2.600800000000000000e+04
2.620900000000000000e+04
2.639900000000000000e+04
2.660300000000000000e+04
2.678100000000000000e+04
2.697700000000000000e+04
2.718300000000000000e+04
2.737300000000000000e+04
2.757300000000000000e+04
2.777000000000000000e+04
2.797100000000000000e+04
2.815700000000000000e+04
2.838600000000000000e+04
2.861600000000000000e+04
2.881700000000000000e+04
2.904200000000000000e+04
2.926500000000000000e+04
2.948300000000000000e+04
2.970400000000000000e+04
2.991800000000000000e+04
3.014000000000000000e+04
3.037000000000000000e+04
3.058700000000000000e+04
3.081100000000000000e+04
3.103500000000000000e+04
3.126100000000000000e+04
3.150100000000000000e+04
3.174500000000000000e+04
3.196500000000000000e+04
3.220900000000000000e+04
3.248000000000000000e+04
3.273500000000000000e+04
3.297500000000000000e+04
3.320700000000000000e+04
3.343600000000000000e+04
3.368900000000000000e+04
3.392100000000000000e+04
3.413500000000000000e+04
3.438500000000000000e+04
3.460400000000000000e+04
3.487500000000000000e+04
3.510700000000000000e+04
3.536200000000000000e+04
3.561300000000000000e+04
3.589100000000000000e+04
3.613500000000000000e+04
3.639200000000000000e+04
3.664900000000000000e+04
3.691900000000000000e+04
3.719100000000000000e+04
3.748100000000000000e+04
3.776100000000000000e+04
3.806400000000000000e+04
3.835800000000000000e+04
3.864600000000000000e+04
3.894700000000000000e+04
3.922900000000000000e+04
3.952200000000000000e+04
