1.000000000000000000e+00
2.000000000000000000e+00
2.000000000000000000e+00
2.000000000000000000e+00
2.000000000000000000e+00
2.000000000000000000e+00
3.000000000000000000e+00
3.000000000000000000e+00
4.000000000000000000e+00
4.000000000000000000e+00
4.000000000000000000e+00
4.000000000000000000e+00
5.000000000000000000e+00
6.000000000000000000e+00
6.000000000000000000e+00
6.000000000000000000e+00
9.000000000000000000e+00
1.000000000000000000e+01
1.000000000000000000e+01
1.300000000000000000e+01
1.500000000000000000e+01
1.700000000000000000e+01
1.900000000000000000e+01
2.000000000000000000e+01
2.500000000000000000e+01
2.700000000000000000e+01
3.100000000000000000e+01
3.600000000000000000e+01
4.300000000000000000e+01
4.500000000000000000e+01
5.100000000000000000e+01
5.800000000000000000e+01
6.900000000000000000e+01
8.000000000000000000e+01
9.200000000000000000e+01
1.050000000000000000e+02
1.210000000000000000e+02
1.460000000000000000e+02
1.710000000000000000e+02
1.920000000000000000e+02
2.270000000000000000e+02
2.650000000000000000e+02
3.070000000000000000e+02
3.580000000000000000e+02
4.070000000000000000e+02
4.800000000000000000e+02
5.460000000000000000e+02
6.360000000000000000e+02
7.300000000000000000e+02
8.440000000000000000e+02
9.750000000000000000e+02
1.145000000000000000e+03
1.318000000000000000e+03
1.523000000000000000e+03
1.733000000000000000e+03
2.042000000000000000e+03
2.343000000000000000e+03
2.685000000000000000e+03
3.122000000000000000e+03
3.610000000000000000e+03
4.179000000000000000e+03
4.845000000000000000e+03
5.555000000000000000e+03
6.458000000000000000e+03
7.503000000000000000e+03
8.714000000000000000e+03
1.001900000000000000e+04
1.155400000000000000e+04
1.341300000000000000e+04
1.557300000000000000e+04
1.806700000000000000e+04
2.084300000000000000e+04
2.411100000000000000e+04
2.802300000000000000e+04
3.243400000000000000e+04
3.738600000000000000e+04
