1.000000000000000000e+00
2.000000000000000000e+00
2.000000000000000000e+00
2.000000000000000000e+00
2.000000000000000000e+00
3.000000000000000000e+00
3.000000000000000000e+00
3.000000000000000000e+00
3.000000000000000000e+00
3.000000000000000000e+00
3.000000000000000000e+00
4.000000000000000000e+00
5.000000000000000000e+00
5.000000000000000000e+00
5.000000000000000000e+00
5.000000000000000000e+00
7.000000000000000000e+00
7.000000000000000000e+00
9.000000000000000000e+00
9.000000000000000000e+00
1.000000000000000000e+01
1.100000000000000000e+01
1.300000000000000000e+01
1.500000000000000000e+01
1.900000000000000000e+01
2.000000000000000000e+01
2.600000000000000000e+01
3.000000000000000000e+01
3.200000000000000000e+01
3.700000000000000000e+01
4.300000000000000000e+01
4.800000000000000000e+01
5.900000000000000000e+01
6.700000000000000000e+01
8.100000000000000000e+01
8.700000000000000000e+01
1.070000000000000000e+02
1.220000000000000000e+02
1.360000000000000000e+02
1.560000000000000000e+02
1.810000000000000000e+02
2.140000000000000000e+02
2.440000000000000000e+02
2.740000000000000000e+02
3.300000000000000000e+02
3.770000000000000000e+02
4.360000000000000000e+02
5.100000000000000000e+02
5.980000000000000000e+02
6.860000000000000000e+02
7.900000000000000000e+02
9.170000000000000000e+02
1.076000000000000000e+03
1.260000000000000000e+03
1.454000000000000000e+03
1.681000000000000000e+03
1.922000000000000000e+03
2.239000000000000000e+03
2.591000000000000000e+03
2.992000000000000000e+03
3.447000000000000000e+03
3.980000000000000000e+03
4.628000000000000000e+03
5.313000000000000000e+03
6.186000000000000000e+03
7.141000000000000000e+03
8.241000000000000000e+03
9.598000000000000000e+03
1.110100000000000000e+04
1.282000000000000000e+04
1.478900000000000000e+04
1.712000000000000000e+04
1.982000000000000000e+04
2.295100000000000000e+04
2.647800000000000000e+04
3.060500000000000000e+04
