1.000000000000000000e+00
2.000000000000000000e+00
2.000000000000000000e+00
2.000000000000000000e+00
2.000000000000000000e+00
2.000000000000000000e+00
3.000000000000000000e+00
3.000000000000000000e+00
3.000000000000000000e+00
3.000000000000000000e+00
3.000000000000000000e+00
3.000000000000000000e+00
5.000000000000000000e+00
5.000000000000000000e+00
5.000000000000000000e+00
5.000000000000000000e+00
6.000000000000000000e+00
7.000000000000000000e+00
8.000000000000000000e+00
9.000000000000000000e+00
9.000000000000000000e+00
1.100000000000000000e+01
1.200000000000000000e+01
1.400000000000000000e+01
1.800000000000000000e+01
1.900000000000000000e+01
2.000000000000000000e+01
2.300000000000000000e+01
2.600000000000000000e+01
3.400000000000000000e+01
3.700000000000000000e+01
4.000000000000000000e+01
4.900000000000000000e+01
5.400000000000000000e+01
6.600000000000000000e+01
7.600000000000000000e+01
8.400000000000000000e+01
1.020000000000000000e+02
1.100000000000000000e+02
1.340000000000000000e+02
1.590000000000000000e+02
1.780000000000000000e+02
2.050000000000000000e+02
2.380000000000000000e+02
2.830000000000000000e+02
3.180000000000000000e+02
3.610000000000000000e+02
4.260000000000000000e+02
4.890000000000000000e+02
5.630000000000000000e+02
6.400000000000000000e+02
7.360000000000000000e+02
8.650000000000000000e+02
9.920000000000000000e+02
1.143000000000000000e+03
1.321000000000000000e+03
1.547000000000000000e+03
1.796000000000000000e+03
2.064000000000000000e+03
2.378000000000000000e+03
2.754000000000000000e+03
3.228000000000000000e+03
3.731000000000000000e+03
4.321000000000000000e+03
4.982000000000000000e+03
5.780000000000000000e+03
6.640000000000000000e+03
7.761000000000000000e+03
8.930000000000000000e+03
1.026800000000000000e+04
1.187900000000000000e+04
1.380200000000000000e+04
1.599300000000000000e+04
1.848600000000000000e+04
2.141900000000000000e+04
2.467700000000000000e+04
