1.000000000000000000e+00
2.000000000000000000e+00
2.000000000000000000e+00
2.000000000000000000e+00
2.000000000000000000e+00
2.000000000000000000e+00
3.000000000000000000e+00
3.000000000000000000e+00
3.000000000000000000e+00
4.000000000000000000e+00
4.000000000000000000e+00
4.000000000000000000e+00
5.000000000000000000e+00
6.000000000000000000e+00
6.000000000000000000e+00
6.000000000000000000e+00
7.000000000000000000e+00
1.000000000000000000e+01
1.200000000000000000e+01
1.300000000000000000e+01
1.300000000000000000e+01
1.500000000000000000e+01
1.700000000000000000e+01
1.900000000000000000e+01
2.500000000000000000e+01
2.800000000000000000e+01
3.100000000000000000e+01
3.700000000000000000e+01
4.300000000000000000e+01
4.600000000000000000e+01
5.600000000000000000e+01
6.400000000000000000e+01
7.500000000000000000e+01
8.600000000000000000e+01
9.700000000000000000e+01
1.090000000000000000e+02
1.350000000000000000e+02
1.530000000000000000e+02
1.710000000000000000e+02
1.960000000000000000e+02
2.310000000000000000e+02
2.750000000000000000e+02
3.160000000000000000e+02
3.720000000000000000e+02
4.290000000000000000e+02
4.860000000000000000e+02
5.690000000000000000e+02
6.670000000000000000e+02
7.730000000000000000e+02
8.960000000000000000e+02
1.027000000000000000e+03
1.181000000000000000e+03
1.350000000000000000e+03
1.593000000000000000e+03
1.861000000000000000e+03
2.111000000000000000e+03
2.447000000000000000e+03
2.825000000000000000e+03
3.304000000000000000e+03
3.787000000000000000e+03
4.397000000000000000e+03
5.123000000000000000e+03
5.901000000000000000e+03
6.856000000000000000e+03
7.937000000000000000e+03
9.182000000000000000e+03
1.062100000000000000e+04
1.228900000000000000e+04
1.421100000000000000e+04
1.648400000000000000e+04
1.900500000000000000e+04
2.199000000000000000e+04
2.552600000000000000e+04
2.956700000000000000e+04
3.420800000000000000e+04
3.954000000000000000e+04
