1.000000000000000000e+00
2.000000000000000000e+00
2.000000000000000000e+00
2.000000000000000000e+00
2.000000000000000000e+00
2.000000000000000000e+00
2.000000000000000000e+00
2.000000000000000000e+00
2.000000000000000000e+00
2.000000000000000000e+00
2.000000000000000000e+00
2.000000000000000000e+00
2.000000000000000000e+00
2.000000000000000000e+00
2.000000000000000000e+00
2.000000000000000000e+00
2.000000000000000000e+00
2.000000000000000000e+00
2.000000000000000000e+00
2.000000000000000000e+00
2.000000000000000000e+00
2.000000000000000000e+00
2.000000000000000000e+00
2.000000000000000000e+00
2.000000000000000000e+00
2.000000000000000000e+00
2.000000000000000000e+00
2.000000000000000000e+00
2.000000000000000000e+00
2.000000000000000000e+00
2.000000000000000000e+00
2.000000000000000000e+00
2.000000000000000000e+00
2.000000000000000000e+00
2.000000000000000000e+00
2.000000000000000000e+00
2.000000000000000000e+00
2.000000000000000000e+00
2.000000000000000000e+00
2.000000000000000000e+00
2.000000000000000000e+00
2.000000000000000000e+00
3.000000000000000000e+00
3.000000000000000000e+00
3.000000000000000000e+00
3.000000000000000000e+00
3.000000000000000000e+00
3.000000000000000000e+00
3.000000000000000000e+00
3.000000000000000000e+00
3.000000000000000000e+00
3.000000000000000000e+00
3.000000000000000000e+00
3.000000000000000000e+00
3.000000000000000000e+00
3.000000000000000000e+00
3.000000000000000000e+00
3.000000000000000000e+00
3.000000000000000000e+00
3.000000000000000000e+00
3.000000000000000000e+00
3.000000000000000000e+00
3.000000000000000000e+00
3.000000000000000000e+00
3.000000000000000000e+00
3.000000000000000000e+00
3.000000000000000000e+00
3.000000000000000000e+00
3.000000000000000000e+00
3.000000000000000000e+00
3.000000000000000000e+00
3.000000000000000000e+00
3.000000000000000000e+00
3.000000000000000000e+00
3.000000000000000000e+00
3.000000000000000000e+00
3.000000000000000000e+00
3.000000000000000000e+00
3.000000000000000000e+00
3.000000000000000000e+00
3.000000000000000000e+00
3.000000000000000000e+00
3.000000000000000000e+00
3.000000000000000000e+00
3.000000000000000000e+00
3.000000000000000000e+00
3.000000000000000000e+00
3.000000000000000000e+00
3.000000000000000000e+00
3.000000000000000000e+00
3.000000000000000000e+00
3.000000000000000000e+00
3.000000000000000000e+00
3.000000000000000000e+00
3.000000000000000000e+00
3.000000000000000000e+00
3.000000000000000000e+00
3.000000000000000000e+00
3.000000000000000000e+00
3.000000000000000000e+00
3.000000000000000000e+00
3.000000000000000000e+00
3.000000000000000000e+00
3.000000000000000000e+00
3.000000000000000000e+00
3.000000000000000000e+00
3.000000000000000000e+00
3.000000000000000000e+00
3.000000000000000000e+00
3.000000000000000000e+00
3.000000000000000000e+00
3.000000000000000000e+00
3.000000000000000000e+00
3.000000000000000000e+00
3.000000000000000000e+00
3.000000000000000000e+00
3.000000000000000000e+00
3.000000000000000000e+00
3.000000000000000000e+00
3.000000000000000000e+00
3.000000000000000000e+00
3.000000000000000000e+00
3.000000000000000000e+00
3.000000000000000000e+00
3.000000000000000000e+00
3.000000000000000000e+00
3.000000000000000000e+00
3.000000000000000000e+00
3.000000000000000000e+00
3.000000000000000000e+00
4.000000000000000000e+00
4.000000000000000000e+00
4.000000000000000000e+00
4.000000000000000000e+00
4.000000000000000000e+00
4.000000000000000000e+00
4.000000000000000000e+00
4.000000000000000000e+00
4.000000000000000000e+00
4.000000000000000000e+00
4.000000000000000000e+00
4.000000000000000000e+00
4.000000000000000000e+00
4.000000000000000000e+00
4.000000000000000000e+00
4.000000000000000000e+00
4.000000000000000000e+00
4.000000000000000000e+00
4.000000000000000000e+00
4.000000000000000000e+00
4.000000000000000000e+00
4.000000000000000000e+00
4.000000000000000000e+00
4.000000000000000000e+00
4.000000000000000000e+00
4.000000000000000000e+00
4.000000000000000000e+00
4.000000000000000000e+00
4.000000000000000000e+00
4.000000000000000000e+00
4.000000000000000000e+00
4.000000000000000000e+00
4.000000000000000000e+00
4.000000000000000000e+00
4.000000000000000000e+00
4.000000000000000000e+00
4.000000000000000000e+00
4.000000000000000000e+00
4.000000000000000000e+00
4.000000000000000000e+00
4.000000000000000000e+00
4.000000000000000000e+00
4.000000000000000000e+00
4.000000000000000000e+00
5.000000000000000000e+00
5.000000000000000000e+00
5.000000000000000000e+00
5.000000000000000000e+00
5.000000000000000000e+00
5.000000000000000000e+00
5.000000000000000000e+00
5.000000000000000000e+00
5.000000000000000000e+00
5.000000000000000000e+00
5.000000000000000000e+00
5.000000000000000000e+00
5.000000000000000000e+00
5.000000000000000000e+00
5.000000000000000000e+00
5.000000000000000000e+00
5.000000000000000000e+00
5.000000000000000000e+00
5.000000000000000000e+00
5.000000000000000000e+00
5.000000000000000000e+00
5.000000000000000000e+00
5.000000000000000000e+00
5.000000000000000000e+00
5.000000000000000000e+00
5.000000000000000000e+00
5.000000000000000000e+00
5.000000000000000000e+00
5.000000000000000000e+00
5.000000000000000000e+00
5.000000000000000000e+00
5.000000000000000000e+00
5.000000000000000000e+00
5.000000000000000000e+00
5.000000000000000000e+00
5.000000000000000000e+00
5.000000000000000000e+00
5.000000000000000000e+00
5.000000000000000000e+00
5.000000000000000000e+00
5.000000000000000000e+00
5.000000000000000000e+00
5.000000000000000000e+00
5.000000000000000000e+00
5.000000000000000000e+00
5.000000000000000000e+00
5.000000000000000000e+00
5.000000000000000000e+00
5.000000000000000000e+00
5.000000000000000000e+00
5.000000000000000000e+00
5.000000000000000000e+00
5.000000000000000000e+00
5.000000000000000000e+00
5.000000000000000000e+00
5.000000000000000000e+00
5.000000000000000000e+00
5.000000000000000000e+00
5.000000000000000000e+00
5.000000000000000000e+00
5.000000000000000000e+00
5.000000000000000000e+00
5.000000000000000000e+00
5.000000000000000000e+00
5.000000000000000000e+00
5.000000000000000000e+00
5.000000000000000000e+00
5.000000000000000000e+00
5.000000000000000000e+00
5.000000000000000000e+00
5.000000000000000000e+00
5.000000000000000000e+00
5.000000000000000000e+00
5.000000000000000000e+00
6.000000000000000000e+00
6.000000000000000000e+00
6.000000000000000000e+00
6.000000000000000000e+00
6.000000000000000000e+00
6.000000000000000000e+00
6.000000000000000000e+00
6.000000000000000000e+00
6.000000000000000000e+00
6.000000000000000000e+00
6.000000000000000000e+00
6.000000000000000000e+00
6.000000000000000000e+00
6.000000000000000000e+00
6.000000000000000000e+00
7.000000000000000000e+00
7.000000000000000000e+00
7.000000000000000000e+00
7.000000000000000000e+00
7.000000000000000000e+00
7.000000000000000000e+00
7.000000000000000000e+00
7.000000000000000000e+00
7.000000000000000000e+00
7.000000000000000000e+00
7.000000000000000000e+00
7.000000000000000000e+00
7.000000000000000000e+00
7.000000000000000000e+00
7.000000000000000000e+00
7.000000000000000000e+00
8.000000000000000000e+00
8.000000000000000000e+00
8.000000000000000000e+00
8.000000000000000000e+00
8.000000000000000000e+00
9.000000000000000000e+00
9.000000000000000000e+00
9.000000000000000000e+00
9.000000000000000000e+00
9.000000000000000000e+00
9.000000000000000000e+00
9.000000000000000000e+00
9.000000000000000000e+00
9.000000000000000000e+00
9.000000000000000000e+00
9.000000000000000000e+00
9.000000000000000000e+00
9.000000000000000000e+00
9.000000000000000000e+00
9.000000000000000000e+00
9.000000000000000000e+00
9.000000000000000000e+00
9.000000000000000000e+00
9.000000000000000000e+00
9.000000000000000000e+00
9.000000000000000000e+00
1.000000000000000000e+01
1.000000000000000000e+01
1.000000000000000000e+01
1.000000000000000000e+01
1.000000000000000000e+01
1.000000000000000000e+01
1.000000000000000000e+01
1.000000000000000000e+01
1.000000000000000000e+01
1.000000000000000000e+01
1.000000000000000000e+01
1.000000000000000000e+01
1.000000000000000000e+01
1.000000000000000000e+01
1.000000000000000000e+01
1.000000000000000000e+01
1.000000000000000000e+01
1.000000000000000000e+01
1.000000000000000000e+01
1.000000000000000000e+01
1.000000000000000000e+01
1.000000000000000000e+01
1.000000000000000000e+01
1.000000000000000000e+01
1.000000000000000000e+01
1.000000000000000000e+01
1.000000000000000000e+01
1.000000000000000000e+01
1.000000000000000000e+01
1.000000000000000000e+01
1.000000000000000000e+01
1.000000000000000000e+01
1.000000000000000000e+01
1.000000000000000000e+01
1.000000000000000000e+01
1.000000000000000000e+01
1.000000000000000000e+01
1.000000000000000000e+01
1.000000000000000000e+01
1.100000000000000000e+01
1.100000000000000000e+01
1.100000000000000000e+01
1.100000000000000000e+01
1.100000000000000000e+01
1.100000000000000000e+01
1.100000000000000000e+01
1.100000000000000000e+01
1.100000000000000000e+01
1.200000000000000000e+01
1.200000000000000000e+01
1.200000000000000000e+01
1.200000000000000000e+01
1.200000000000000000e+01
1.300000000000000000e+01
1.300000000000000000e+01
1.400000000000000000e+01
1.400000000000000000e+01
1.400000000000000000e+01
1.400000000000000000e+01
1.400000000000000000e+01
1.400000000000000000e+01
1.400000000000000000e+01
1.400000000000000000e+01
1.400000000000000000e+01
1.400000000000000000e+01
1.500000000000000000e+01
1.600000000000000000e+01
1.600000000000000000e+01
1.600000000000000000e+01
1.700000000000000000e+01
1.800000000000000000e+01
1.800000000000000000e+01
1.800000000000000000e+01
1.800000000000000000e+01
1.800000000000000000e+01
1.800000000000000000e+01
1.800000000000000000e+01
1.800000000000000000e+01
1.800000000000000000e+01
1.800000000000000000e+01
1.800000000000000000e+01
1.800000000000000000e+01
1.800000000000000000e+01
1.800000000000000000e+01
1.800000000000000000e+01
1.800000000000000000e+01
1.800000000000000000e+01
1.800000000000000000e+01
1.800000000000000000e+01
1.800000000000000000e+01
1.800000000000000000e+01
1.800000000000000000e+01
1.800000000000000000e+01
1.800000000000000000e+01
1.800000000000000000e+01
1.800000000000000000e+01
1.800000000000000000e+01
1.900000000000000000e+01
1.900000000000000000e+01
1.900000000000000000e+01
1.900000000000000000e+01
1.900000000000000000e+01
1.900000000000000000e+01
1.900000000000000000e+01
1.900000000000000000e+01
1.900000000000000000e+01
1.900000000000000000e+01
1.900000000000000000e+01
1.900000000000000000e+01
1.900000000000000000e+01
1.900000000000000000e+01
1.900000000000000000e+01
1.900000000000000000e+01
1.900000000000000000e+01
2.000000000000000000e+01
2.000000000000000000e+01
2.000000000000000000e+01
2.000000000000000000e+01
2.000000000000000000e+01
2.000000000000000000e+01
2.100000000000000000e+01
2.100000000000000000e+01
2.100000000000000000e+01
2.100000000000000000e+01
2.100000000000000000e+01
2.100000000000000000e+01
2.100000000000000000e+01
2.100000000000000000e+01
2.100000000000000000e+01
2.100000000000000000e+01
2.100000000000000000e+01
2.100000000000000000e+01
2.100000000000000000e+01
2.100000000000000000e+01
2.200000000000000000e+01
2.200000000000000000e+01
2.200000000000000000e+01
2.200000000000000000e+01
2.200000000000000000e+01
2.300000000000000000e+01
2.300000000000000000e+01
2.300000000000000000e+01
2.300000000000000000e+01
2.400000000000000000e+01
2.500000000000000000e+01
2.600000000000000000e+01
2.600000000000000000e+01
2.600000000000000000e+01
2.600000000000000000e+01
2.600000000000000000e+01
2.600000000000000000e+01
2.600000000000000000e+01
2.600000000000000000e+01
2.600000000000000000e+01
2.700000000000000000e+01
2.800000000000000000e+01
2.800000000000000000e+01
2.800000000000000000e+01
2.800000000000000000e+01
2.800000000000000000e+01
2.800000000000000000e+01
2.900000000000000000e+01
2.900000000000000000e+01
2.900000000000000000e+01
3.000000000000000000e+01
3.000000000000000000e+01
3.000000000000000000e+01
3.000000000000000000e+01
3.000000000000000000e+01
3.100000000000000000e+01
3.200000000000000000e+01
3.200000000000000000e+01
3.300000000000000000e+01
3.300000000000000000e+01
3.300000000000000000e+01
3.300000000000000000e+01
3.300000000000000000e+01
3.300000000000000000e+01
3.300000000000000000e+01
3.300000000000000000e+01
3.300000000000000000e+01
3.400000000000000000e+01
3.400000000000000000e+01
3.400000000000000000e+01
3.400000000000000000e+01
3.400000000000000000e+01
3.400000000000000000e+01
3.400000000000000000e+01
3.400000000000000000e+01
3.400000000000000000e+01
3.500000000000000000e+01
3.600000000000000000e+01
3.800000000000000000e+01
3.800000000000000000e+01
3.800000000000000000e+01
3.800000000000000000e+01
3.800000000000000000e+01
3.800000000000000000e+01
3.800000000000000000e+01
3.800000000000000000e+01
3.800000000000000000e+01
3.900000000000000000e+01
3.900000000000000000e+01
3.900000000000000000e+01
3.900000000000000000e+01
3.900000000000000000e+01
3.900000000000000000e+01
4.100000000000000000e+01
4.100000000000000000e+01
4.100000000000000000e+01
4.200000000000000000e+01
4.200000000000000000e+01
4.200000000000000000e+01
4.300000000000000000e+01
4.300000000000000000e+01
4.300000000000000000e+01
4.300000000000000000e+01
4.300000000000000000e+01
4.300000000000000000e+01
4.300000000000000000e+01
4.400000000000000000e+01
4.400000000000000000e+01
4.500000000000000000e+01
4.500000000000000000e+01
4.500000000000000000e+01
4.600000000000000000e+01
4.700000000000000000e+01
4.800000000000000000e+01
4.800000000000000000e+01
4.800000000000000000e+01
4.900000000000000000e+01
5.000000000000000000e+01
5.000000000000000000e+01
5.100000000000000000e+01
5.100000000000000000e+01
5.100000000000000000e+01
5.200000000000000000e+01
5.200000000000000000e+01
5.200000000000000000e+01
5.200000000000000000e+01
5.200000000000000000e+01
5.200000000000000000e+01
5.200000000000000000e+01
5.200000000000000000e+01
5.200000000000000000e+01
5.200000000000000000e+01
5.200000000000000000e+01
5.400000000000000000e+01
5.600000000000000000e+01
5.600000000000000000e+01
5.600000000000000000e+01
5.600000000000000000e+01
5.600000000000000000e+01
5.600000000000000000e+01
5.800000000000000000e+01
6.000000000000000000e+01
6.000000000000000000e+01
6.000000000000000000e+01
6.000000000000000000e+01
6.100000000000000000e+01
6.100000000000000000e+01
6.100000000000000000e+01
6.200000000000000000e+01
6.300000000000000000e+01
6.400000000000000000e+01
6.400000000000000000e+01
6.400000000000000000e+01
6.500000000000000000e+01
6.500000000000000000e+01
6.600000000000000000e+01
6.700000000000000000e+01
6.700000000000000000e+01
6.700000000000000000e+01
6.700000000000000000e+01
6.800000000000000000e+01
6.800000000000000000e+01
7.000000000000000000e+01
7.000000000000000000e+01
7.000000000000000000e+01
7.000000000000000000e+01
7.000000000000000000e+01
7.000000000000000000e+01
7.200000000000000000e+01
7.400000000000000000e+01
7.500000000000000000e+01
7.600000000000000000e+01
7.600000000000000000e+01
7.600000000000000000e+01
7.700000000000000000e+01
7.800000000000000000e+01
7.800000000000000000e+01
7.800000000000000000e+01
7.800000000000000000e+01
7.800000000000000000e+01
7.900000000000000000e+01
8.100000000000000000e+01
8.100000000000000000e+01
8.200000000000000000e+01
8.200000000000000000e+01
8.300000000000000000e+01
8.300000000000000000e+01
8.400000000000000000e+01
8.500000000000000000e+01
8.500000000000000000e+01
8.500000000000000000e+01
8.500000000000000000e+01
8.600000000000000000e+01
8.600000000000000000e+01
8.800000000000000000e+01
8.800000000000000000e+01
8.800000000000000000e+01
8.800000000000000000e+01
8.800000000000000000e+01
8.800000000000000000e+01
8.800000000000000000e+01
8.900000000000000000e+01
9.000000000000000000e+01
9.000000000000000000e+01
9.000000000000000000e+01
9.200000000000000000e+01
9.200000000000000000e+01
9.300000000000000000e+01
9.300000000000000000e+01
9.500000000000000000e+01
9.500000000000000000e+01
9.600000000000000000e+01
9.900000000000000000e+01
9.900000000000000000e+01
9.900000000000000000e+01
9.900000000000000000e+01
1.010000000000000000e+02
1.010000000000000000e+02
1.020000000000000000e+02
1.030000000000000000e+02
1.030000000000000000e+02
1.050000000000000000e+02
1.070000000000000000e+02
1.080000000000000000e+02
1.100000000000000000e+02
1.100000000000000000e+02
1.120000000000000000e+02
1.130000000000000000e+02
1.130000000000000000e+02
1.130000000000000000e+02
1.130000000000000000e+02
1.130000000000000000e+02
1.130000000000000000e+02
1.130000000000000000e+02
1.130000000000000000e+02
1.130000000000000000e+02
1.140000000000000000e+02
1.150000000000000000e+02
1.170000000000000000e+02
1.180000000000000000e+02
1.190000000000000000e+02
1.190000000000000000e+02
1.200000000000000000e+02
1.210000000000000000e+02
1.220000000000000000e+02
1.240000000000000000e+02
1.260000000000000000e+02
1.280000000000000000e+02
1.290000000000000000e+02
1.300000000000000000e+02
1.320000000000000000e+02
1.330000000000000000e+02
1.330000000000000000e+02
1.350000000000000000e+02
1.360000000000000000e+02
1.370000000000000000e+02
1.380000000000000000e+02
1.390000000000000000e+02
1.390000000000000000e+02
1.390000000000000000e+02
1.390000000000000000e+02
1.410000000000000000e+02
1.420000000000000000e+02
1.430000000000000000e+02
1.440000000000000000e+02
1.440000000000000000e+02
1.450000000000000000e+02
1.460000000000000000e+02
1.470000000000000000e+02
1.480000000000000000e+02
1.480000000000000000e+02
1.500000000000000000e+02
1.500000000000000000e+02
1.530000000000000000e+02
1.530000000000000000e+02
1.550000000000000000e+02
1.550000000000000000e+02
1.560000000000000000e+02
1.590000000000000000e+02
1.590000000000000000e+02
1.610000000000000000e+02
1.610000000000000000e+02
1.610000000000000000e+02
1.630000000000000000e+02
1.630000000000000000e+02
1.630000000000000000e+02
1.640000000000000000e+02
1.670000000000000000e+02
1.700000000000000000e+02
1.750000000000000000e+02
1.750000000000000000e+02
1.750000000000000000e+02
1.770000000000000000e+02
1.790000000000000000e+02
1.800000000000000000e+02
1.800000000000000000e+02
1.810000000000000000e+02
1.820000000000000000e+02
1.830000000000000000e+02
1.830000000000000000e+02
1.840000000000000000e+02
1.870000000000000000e+02
1.870000000000000000e+02
1.870000000000000000e+02
1.880000000000000000e+02
1.880000000000000000e+02
1.930000000000000000e+02
1.940000000000000000e+02
1.960000000000000000e+02
1.960000000000000000e+02
1.970000000000000000e+02
1.970000000000000000e+02
1.990000000000000000e+02
2.010000000000000000e+02
2.010000000000000000e+02
2.030000000000000000e+02
2.060000000000000000e+02
2.080000000000000000e+02
2.110000000000000000e+02
2.120000000000000000e+02
2.120000000000000000e+02
2.160000000000000000e+02
2.200000000000000000e+02
2.210000000000000000e+02
2.230000000000000000e+02
2.250000000000000000e+02
2.250000000000000000e+02
2.270000000000000000e+02
2.280000000000000000e+02
2.290000000000000000e+02
2.300000000000000000e+02
2.310000000000000000e+02
2.330000000000000000e+02
2.360000000000000000e+02
2.370000000000000000e+02
2.400000000000000000e+02
2.450000000000000000e+02
2.470000000000000000e+02
2.480000000000000000e+02
2.510000000000000000e+02
2.520000000000000000e+02
2.540000000000000000e+02
2.590000000000000000e+02
2.600000000000000000e+02
2.600000000000000000e+02
2.610000000000000000e+02
2.620000000000000000e+02
2.630000000000000000e+02
2.640000000000000000e+02
2.640000000000000000e+02
2.650000000000000000e+02
2.680000000000000000e+02
2.700000000000000000e+02
2.710000000000000000e+02
2.720000000000000000e+02
2.730000000000000000e+02
2.760000000000000000e+02
2.780000000000000000e+02
2.790000000000000000e+02
2.810000000000000000e+02
2.830000000000000000e+02
2.880000000000000000e+02
2.900000000000000000e+02
2.920000000000000000e+02
2.960000000000000000e+02
2.960000000000000000e+02
2.960000000000000000e+02
2.970000000000000000e+02
3.040000000000000000e+02
3.050000000000000000e+02
3.090000000000000000e+02
3.110000000000000000e+02
3.150000000000000000e+02
3.160000000000000000e+02
3.180000000000000000e+02
3.280000000000000000e+02
3.330000000000000000e+02
3.340000000000000000e+02
3.370000000000000000e+02
3.420000000000000000e+02
3.440000000000000000e+02
3.470000000000000000e+02
3.480000000000000000e+02
3.500000000000000000e+02
3.530000000000000000e+02
3.540000000000000000e+02
3.590000000000000000e+02
3.640000000000000000e+02
3.660000000000000000e+02
3.680000000000000000e+02
3.690000000000000000e+02
3.730000000000000000e+02
3.780000000000000000e+02
3.820000000000000000e+02
3.830000000000000000e+02
3.850000000000000000e+02
3.910000000000000000e+02
3.950000000000000000e+02
3.990000000000000000e+02
4.030000000000000000e+02
4.040000000000000000e+02
4.050000000000000000e+02
4.070000000000000000e+02
4.080000000000000000e+02
4.080000000000000000e+02
4.130000000000000000e+02
4.150000000000000000e+02
4.190000000000000000e+02
4.200000000000000000e+02
4.220000000000000000e+02
4.250000000000000000e+02
4.280000000000000000e+02
4.290000000000000000e+02
4.330000000000000000e+02
4.370000000000000000e+02
4.380000000000000000e+02
4.390000000000000000e+02
4.430000000000000000e+02
4.440000000000000000e+02
4.490000000000000000e+02
4.520000000000000000e+02
4.540000000000000000e+02
4.560000000000000000e+02
4.560000000000000000e+02
4.600000000000000000e+02
4.620000000000000000e+02
4.650000000000000000e+02
4.690000000000000000e+02
4.730000000000000000e+02
4.740000000000000000e+02
4.760000000000000000e+02
4.790000000000000000e+02
4.840000000000000000e+02
4.890000000000000000e+02
4.940000000000000000e+02
4.980000000000000000e+02
5.040000000000000000e+02
5.050000000000000000e+02
5.110000000000000000e+02
5.140000000000000000e+02
5.170000000000000000e+02
5.190000000000000000e+02
5.230000000000000000e+02
5.260000000000000000e+02
5.300000000000000000e+02
5.340000000000000000e+02
5.350000000000000000e+02
5.380000000000000000e+02
5.430000000000000000e+02
5.460000000000000000e+02
5.480000000000000000e+02
5.560000000000000000e+02
5.590000000000000000e+02
5.620000000000000000e+02
5.660000000000000000e+02
5.710000000000000000e+02
5.790000000000000000e+02
5.870000000000000000e+02
5.890000000000000000e+02
5.920000000000000000e+02
5.990000000000000000e+02
6.010000000000000000e+02
6.030000000000000000e+02
6.100000000000000000e+02
6.150000000000000000e+02
6.170000000000000000e+02
6.220000000000000000e+02
6.260000000000000000e+02
6.320000000000000000e+02
6.320000000000000000e+02
6.380000000000000000e+02
6.480000000000000000e+02
6.500000000000000000e+02
6.590000000000000000e+02
6.650000000000000000e+02
6.680000000000000000e+02
6.720000000000000000e+02
6.750000000000000000e+02
6.830000000000000000e+02
6.850000000000000000e+02
6.900000000000000000e+02
6.950000000000000000e+02
7.010000000000000000e+02
7.050000000000000000e+02
7.080000000000000000e+02
7.150000000000000000e+02
7.220000000000000000e+02
7.270000000000000000e+02
7.340000000000000000e+02
7.390000000000000000e+02
7.430000000000000000e+02
7.490000000000000000e+02
7.510000000000000000e+02
7.600000000000000000e+02
7.690000000000000000e+02
7.730000000000000000e+02
7.770000000000000000e+02
7.860000000000000000e+02
7.890000000000000000e+02
7.920000000000000000e+02
8.000000000000000000e+02
8.050000000000000000e+02
8.080000000000000000e+02
8.110000000000000000e+02
8.130000000000000000e+02
8.240000000000000000e+02
8.320000000000000000e+02
8.370000000000000000e+02
8.460000000000000000e+02
8.480000000000000000e+02
8.530000000000000000e+02
8.620000000000000000e+02
8.700000000000000000e+02
8.820000000000000000e+02
8.890000000000000000e+02
8.940000000000000000e+02
9.040000000000000000e+02
9.090000000000000000e+02
9.150000000000000000e+02
9.200000000000000000e+02
9.290000000000000000e+02
9.350000000000000000e+02
9.410000000000000000e+02
9.480000000000000000e+02
9.520000000000000000e+02
9.560000000000000000e+02
9.660000000000000000e+02
9.750000000000000000e+02
9.860000000000000000e+02
9.940000000000000000e+02
9.980000000000000000e+02
1.002000000000000000e+03
1.011000000000000000e+03
1.015000000000000000e+03
1.025000000000000000e+03
1.030000000000000000e+03
1.036000000000000000e+03
1.042000000000000000e+03
1.051000000000000000e+03
1.055000000000000000e+03
1.058000000000000000e+03
1.068000000000000000e+03
1.074000000000000000e+03
1.079000000000000000e+03
1.084000000000000000e+03
1.087000000000000000e+03
1.099000000000000000e+03
1.106000000000000000e+03
1.113000000000000000e+03
1.124000000000000000e+03
1.132000000000000000e+03
1.139000000000000000e+03
1.147000000000000000e+03
1.154000000000000000e+03
1.171000000000000000e+03
1.178000000000000000e+03
1.182000000000000000e+03
1.192000000000000000e+03
1.199000000000000000e+03
1.209000000000000000e+03
1.216000000000000000e+03
1.223000000000000000e+03
1.236000000000000000e+03
1.252000000000000000e+03
1.260000000000000000e+03
1.270000000000000000e+03
1.277000000000000000e+03
1.289000000000000000e+03
1.301000000000000000e+03
1.312000000000000000e+03
1.322000000000000000e+03
1.334000000000000000e+03
1.345000000000000000e+03
1.350000000000000000e+03
1.358000000000000000e+03
1.371000000000000000e+03
1.378000000000000000e+03
1.388000000000000000e+03
1.397000000000000000e+03
1.409000000000000000e+03
1.421000000000000000e+03
1.431000000000000000e+03
1.447000000000000000e+03
1.452000000000000000e+03
1.462000000000000000e+03
1.471000000000000000e+03
1.478000000000000000e+03
1.488000000000000000e+03
1.499000000000000000e+03
1.509000000000000000e+03
1.524000000000000000e+03
1.536000000000000000e+03
1.546000000000000000e+03
1.561000000000000000e+03
1.573000000000000000e+03
1.591000000000000000e+03
1.604000000000000000e+03
1.611000000000000000e+03
1.627000000000000000e+03
1.638000000000000000e+03
1.649000000000000000e+03
1.659000000000000000e+03
1.671000000000000000e+03
1.688000000000000000e+03
1.701000000000000000e+03
1.711000000000000000e+03
1.721000000000000000e+03
1.730000000000000000e+03
1.738000000000000000e+03
1.755000000000000000e+03
1.768000000000000000e+03
1.779000000000000000e+03
1.794000000000000000e+03
1.813000000000000000e+03
1.826000000000000000e+03
1.835000000000000000e+03
1.847000000000000000e+03
1.859000000000000000e+03
1.872000000000000000e+03
1.883000000000000000e+03
1.896000000000000000e+03
1.913000000000000000e+03
1.926000000000000000e+03
1.935000000000000000e+03
1.953000000000000000e+03
1.966000000000000000e+03
1.984000000000000000e+03
1.993000000000000000e+03
2.011000000000000000e+03
2.028000000000000000e+03
2.045000000000000000e+03
2.067000000000000000e+03
2.090000000000000000e+03
2.099000000000000000e+03
2.115000000000000000e+03
2.134000000000000000e+03
2.147000000000000000e+03
2.160000000000000000e+03
2.175000000000000000e+03
2.186000000000000000e+03
2.203000000000000000e+03
2.218000000000000000e+03
2.242000000000000000e+03
2.258000000000000000e+03
2.273000000000000000e+03
2.285000000000000000e+03
2.305000000000000000e+03
2.319000000000000000e+03
2.335000000000000000e+03
2.347000000000000000e+03
2.361000000000000000e+03
2.374000000000000000e+03
2.385000000000000000e+03
2.405000000000000000e+03
2.420000000000000000e+03
2.429000000000000000e+03
2.447000000000000000e+03
2.466000000000000000e+03
2.480000000000000000e+03
2.494000000000000000e+03
2.513000000000000000e+03
2.528000000000000000e+03
2.542000000000000000e+03
2.556000000000000000e+03
2.571000000000000000e+03
2.591000000000000000e+03
2.607000000000000000e+03
2.621000000000000000e+03
2.641000000000000000e+03
2.662000000000000000e+03
2.683000000000000000e+03
2.708000000000000000e+03
2.730000000000000000e+03
2.752000000000000000e+03
2.772000000000000000e+03
2.792000000000000000e+03
2.813000000000000000e+03
2.831000000000000000e+03
2.854000000000000000e+03
2.881000000000000000e+03
2.905000000000000000e+03
2.928000000000000000e+03
2.950000000000000000e+03
2.975000000000000000e+03
3.009000000000000000e+03
3.031000000000000000e+03
3.052000000000000000e+03
3.080000000000000000e+03
3.099000000000000000e+03
3.124000000000000000e+03
3.147000000000000000e+03
3.163000000000000000e+03
3.203000000000000000e+03
3.232000000000000000e+03
3.253000000000000000e+03
3.276000000000000000e+03
3.305000000000000000e+03
3.336000000000000000e+03
3.360000000000000000e+03
3.380000000000000000e+03
3.415000000000000000e+03
3.438000000000000000e+03
3.460000000000000000e+03
3.484000000000000000e+03
3.512000000000000000e+03
3.537000000000000000e+03
3.565000000000000000e+03
3.583000000000000000e+03
3.609000000000000000e+03
3.642000000000000000e+03
3.662000000000000000e+03
3.689000000000000000e+03
3.708000000000000000e+03
3.735000000000000000e+03
3.763000000000000000e+03
3.785000000000000000e+03
3.808000000000000000e+03
3.841000000000000000e+03
3.868000000000000000e+03
3.894000000000000000e+03
3.918000000000000000e+03
3.947000000000000000e+03
3.980000000000000000e+03
4.010000000000000000e+03
4.033000000000000000e+03
4.065000000000000000e+03
4.103000000000000000e+03
4.136000000000000000e+03
4.166000000000000000e+03
4.202000000000000000e+03
4.239000000000000000e+03
4.265000000000000000e+03
4.302000000000000000e+03
4.347000000000000000e+03
4.374000000000000000e+03
4.398000000000000000e+03
4.425000000000000000e+03
4.457000000000000000e+03
4.493000000000000000e+03
4.534000000000000000e+03
4.571000000000000000e+03
4.613000000000000000e+03
4.643000000000000000e+03
4.675000000000000000e+03
4.709000000000000000e+03
4.735000000000000000e+03
4.765000000000000000e+03
4.799000000000000000e+03
4.828000000000000000e+03
4.864000000000000000e+03
4.892000000000000000e+03
4.927000000000000000e+03
4.968000000000000000e+03
5.019000000000000000e+03
5.050000000000000000e+03
5.080000000000000000e+03
5.114000000000000000e+03
5.152000000000000000e+03
5.182000000000000000e+03
5.220000000000000000e+03
5.262000000000000000e+03
5.296000000000000000e+03
5.338000000000000000e+03
5.366000000000000000e+03
5.407000000000000000e+03
5.442000000000000000e+03
5.480000000000000000e+03
5.514000000000000000e+03
5.547000000000000000e+03
5.584000000000000000e+03
5.621000000000000000e+03
5.656000000000000000e+03
5.690000000000000000e+03
5.732000000000000000e+03
5.778000000000000000e+03
5.829000000000000000e+03
5.871000000000000000e+03
5.910000000000000000e+03
5.956000000000000000e+03
5.998000000000000000e+03
6.044000000000000000e+03
6.089000000000000000e+03
6.141000000000000000e+03
6.191000000000000000e+03
6.246000000000000000e+03
6.294000000000000000e+03
6.350000000000000000e+03
6.417000000000000000e+03
6.465000000000000000e+03
6.515000000000000000e+03
6.558000000000000000e+03
6.601000000000000000e+03
6.649000000000000000e+03
6.701000000000000000e+03
6.746000000000000000e+03
6.789000000000000000e+03
6.846000000000000000e+03
6.901000000000000000e+03
6.936000000000000000e+03
6.993000000000000000e+03
7.042000000000000000e+03
7.093000000000000000e+03
7.141000000000000000e+03
7.193000000000000000e+03
7.239000000000000000e+03
7.292000000000000000e+03
7.352000000000000000e+03
7.384000000000000000e+03
7.432000000000000000e+03
7.495000000000000000e+03
7.551000000000000000e+03
7.601000000000000000e+03
7.654000000000000000e+03
7.711000000000000000e+03
7.764000000000000000e+03
7.820000000000000000e+03
7.877000000000000000e+03
7.926000000000000000e+03
7.982000000000000000e+03
8.042000000000000000e+03
8.095000000000000000e+03
8.153000000000000000e+03
8.202000000000000000e+03
8.266000000000000000e+03
8.320000000000000000e+03
8.382000000000000000e+03
8.470000000000000000e+03
8.533000000000000000e+03
8.595000000000000000e+03
8.655000000000000000e+03
8.715000000000000000e+03
8.774000000000000000e+03
8.843000000000000000e+03
8.912000000000000000e+03
8.987000000000000000e+03
9.053000000000000000e+03
9.125000000000000000e+03
9.194000000000000000e+03
9.273000000000000000e+03
9.339000000000000000e+03
9.417000000000000000e+03
9.489000000000000000e+03
9.564000000000000000e+03
9.643000000000000000e+03
9.720000000000000000e+03
9.798000000000000000e+03
9.867000000000000000e+03
9.927000000000000000e+03
9.984000000000000000e+03
1.004500000000000000e+04
1.011000000000000000e+04
1.017600000000000000e+04
1.026500000000000000e+04
1.034000000000000000e+04
1.043200000000000000e+04
1.049600000000000000e+04
1.056700000000000000e+04
1.065500000000000000e+04
1.072500000000000000e+04
1.080400000000000000e+04
1.088800000000000000e+04
1.096300000000000000e+04
1.104700000000000000e+04
1.112700000000000000e+04
1.120400000000000000e+04
1.127700000000000000e+04
1.136400000000000000e+04
1.143400000000000000e+04
1.151800000000000000e+04
1.160500000000000000e+04
1.170800000000000000e+04
1.179400000000000000e+04
1.186200000000000000e+04
1.194800000000000000e+04
1.204000000000000000e+04
1.212600000000000000e+04
1.222700000000000000e+04
1.230800000000000000e+04
1.238900000000000000e+04
1.247400000000000000e+04
1.257000000000000000e+04
1.266000000000000000e+04
1.274300000000000000e+04
1.282300000000000000e+04
1.291900000000000000e+04
1.302000000000000000e+04
1.310800000000000000e+04
1.320800000000000000e+04
1.330000000000000000e+04
1.342000000000000000e+04
1.351800000000000000e+04
1.361200000000000000e+04
1.370200000000000000e+04
1.379200000000000000e+04
1.388500000000000000e+04
1.397900000000000000e+04
1.407100000000000000e+04
1.416200000000000000e+04
1.427400000000000000e+04
1.439000000000000000e+04
1.449800000000000000e+04
1.460700000000000000e+04
1.472800000000000000e+04
1.483100000000000000e+04
1.494600000000000000e+04
1.505600000000000000e+04
1.517500000000000000e+04
1.529400000000000000e+04
1.540200000000000000e+04
1.551600000000000000e+04
1.561600000000000000e+04
1.572900000000000000e+04
1.586100000000000000e+04
1.599100000000000000e+04
1.609400000000000000e+04
1.621600000000000000e+04
1.635000000000000000e+04
1.647500000000000000e+04
1.660400000000000000e+04
1.672600000000000000e+04
1.684600000000000000e+04
1.697400000000000000e+04
1.711500000000000000e+04
1.724000000000000000e+04
1.734800000000000000e+04
1.746900000000000000e+04
1.760500000000000000e+04
1.772600000000000000e+04
1.785300000000000000e+04
1.799200000000000000e+04
1.812300000000000000e+04
1.823500000000000000e+04
1.838100000000000000e+04
1.851500000000000000e+04
1.865600000000000000e+04
1.880500000000000000e+04
1.893400000000000000e+04
1.908100000000000000e+04
1.921300000000000000e+04
1.935000000000000000e+04
1.948800000000000000e+04
1.961900000000000000e+04
1.976100000000000000e+04
1.988400000000000000e+04
2.002900000000000000e+04
2.016900000000000000e+04
2.033100000000000000e+04
2.048200000000000000e+04
2.062900000000000000e+04
2.077100000000000000e+04
2.092200000000000000e+04
2.107800000000000000e+04
2.122100000000000000e+04
2.137900000000000000e+04
2.152400000000000000e+04
2.168100000000000000e+04
2.183300000000000000e+04
2.198900000000000000e+04
2.215900000000000000e+04
2.232400000000000000e+04
2.248000000000000000e+04
2.263100000000000000e+04
2.282200000000000000e+04
2.298200000000000000e+04
2.316100000000000000e+04
2.333700000000000000e+04
2.353000000000000000e+04
2.370500000000000000e+04
2.390700000000000000e+04
2.408600000000000000e+04
2.425300000000000000e+04
2.441600000000000000e+04
2.459000000000000000e+04
2.475400000000000000e+04
2.493100000000000000e+04
2.509800000000000000e+04
2.528600000000000000e+04
2.548700000000000000e+04
2.566800000000000000e+04
2.584900000000000000e+04
2.604500000000000000e+04
2.625500000000000000e+04
