1.000000000000000000e+00
2.000000000000000000e+00
2.000000000000000000e+00
2.000000000000000000e+00
2.000000000000000000e+00
2.000000000000000000e+00
3.000000000000000000e+00
3.000000000000000000e+00
3.000000000000000000e+00
3.000000000000000000e+00
3.000000000000000000e+00
4.000000000000000000e+00
4.000000000000000000e+00
5.000000000000000000e+00
6.000000000000000000e+00
6.000000000000000000e+00
7.000000000000000000e+00
8.000000000000000000e+00
1.000000000000000000e+01
1.000000000000000000e+01
1.200000000000000000e+01
1.500000000000000000e+01
1.700000000000000000e+01
2.000000000000000000e+01
2.000000000000000000e+01
2.300000000000000000e+01
2.800000000000000000e+01
3.200000000000000000e+01
3.900000000000000000e+01
3.900000000000000000e+01
5.300000000000000000e+01
5.800000000000000000e+01
6.500000000000000000e+01
7.500000000000000000e+01
8.800000000000000000e+01
1.070000000000000000e+02
1.230000000000000000e+02
1.410000000000000000e+02
1.540000000000000000e+02
1.760000000000000000e+02
2.130000000000000000e+02
2.510000000000000000e+02
2.890000000000000000e+02
3.260000000000000000e+02
3.730000000000000000e+02
4.310000000000000000e+02
5.020000000000000000e+02
5.830000000000000000e+02
6.720000000000000000e+02
7.780000000000000000e+02
9.070000000000000000e+02
1.047000000000000000e+03
1.204000000000000000e+03
1.414000000000000000e+03
1.637000000000000000e+03
1.885000000000000000e+03
2.186000000000000000e+03
2.515000000000000000e+03
2.955000000000000000e+03
3.408000000000000000e+03
3.936000000000000000e+03
4.549000000000000000e+03
5.252000000000000000e+03
6.089000000000000000e+03
7.072000000000000000e+03
8.160000000000000000e+03
9.456000000000000000e+03
1.096300000000000000e+04
1.276200000000000000e+04
1.474100000000000000e+04
1.701900000000000000e+04
1.963400000000000000e+04
2.278400000000000000e+04
2.649400000000000000e+04
3.059000000000000000e+04
3.540400000000000000e+04
