1.000000000000000000e+00
2.000000000000000000e+00
2.000000000000000000e+00
2.000000000000000000e+00
2.000000000000000000e+00
2.000000000000000000e+00
3.000000000000000000e+00
3.000000000000000000e+00
3.000000000000000000e+00
3.000000000000000000e+00
3.000000000000000000e+00
5.000000000000000000e+00
5.000000000000000000e+00
5.000000000000000000e+00
5.000000000000000000e+00
6.000000000000000000e+00
8.000000000000000000e+00
9.000000000000000000e+00
9.000000000000000000e+00
1.000000000000000000e+01
1.200000000000000000e+01
1.300000000000000000e+01
1.600000000000000000e+01
1.800000000000000000e+01
1.900000000000000000e+01
2.300000000000000000e+01
2.700000000000000000e+01
3.100000000000000000e+01
3.200000000000000000e+01
3.400000000000000000e+01
4.200000000000000000e+01
4.900000000000000000e+01
6.000000000000000000e+01
6.700000000000000000e+01
7.300000000000000000e+01
8.200000000000000000e+01
9.300000000000000000e+01
1.160000000000000000e+02
1.350000000000000000e+02
1.500000000000000000e+02
1.700000000000000000e+02
1.950000000000000000e+02
2.260000000000000000e+02
2.730000000000000000e+02
3.210000000000000000e+02
3.670000000000000000e+02
4.230000000000000000e+02
4.870000000000000000e+02
5.800000000000000000e+02
6.660000000000000000e+02
7.720000000000000000e+02
8.740000000000000000e+02
1.006000000000000000e+03
1.183000000000000000e+03
1.387000000000000000e+03
1.594000000000000000e+03
1.814000000000000000e+03
2.122000000000000000e+03
2.435000000000000000e+03
2.807000000000000000e+03
3.287000000000000000e+03
3.790000000000000000e+03
4.379000000000000000e+03
5.099000000000000000e+03
5.907000000000000000e+03
6.809000000000000000e+03
7.857000000000000000e+03
9.097000000000000000e+03
1.051700000000000000e+04
1.220000000000000000e+04
1.416000000000000000e+04
1.628800000000000000e+04
1.894400000000000000e+04
2.185200000000000000e+04
2.523600000000000000e+04
2.924600000000000000e+04
