1.000000000000000000e+00
2.000000000000000000e+00
2.000000000000000000e+00
2.000000000000000000e+00
2.000000000000000000e+00
2.000000000000000000e+00
3.000000000000000000e+00
3.000000000000000000e+00
3.000000000000000000e+00
3.000000000000000000e+00
3.000000000000000000e+00
4.000000000000000000e+00
5.000000000000000000e+00
5.000000000000000000e+00
5.000000000000000000e+00
5.000000000000000000e+00
6.000000000000000000e+00
9.000000000000000000e+00
9.000000000000000000e+00
1.000000000000000000e+01
1.000000000000000000e+01
1.400000000000000000e+01
1.700000000000000000e+01
1.800000000000000000e+01
2.100000000000000000e+01
2.600000000000000000e+01
3.100000000000000000e+01
3.500000000000000000e+01
4.100000000000000000e+01
4.700000000000000000e+01
5.600000000000000000e+01
6.300000000000000000e+01
7.300000000000000000e+01
8.600000000000000000e+01
9.700000000000000000e+01
1.180000000000000000e+02
1.310000000000000000e+02
1.470000000000000000e+02
1.690000000000000000e+02
2.020000000000000000e+02
2.410000000000000000e+02
2.810000000000000000e+02
3.150000000000000000e+02
3.600000000000000000e+02
4.170000000000000000e+02
4.880000000000000000e+02
5.530000000000000000e+02
6.400000000000000000e+02
7.520000000000000000e+02
8.630000000000000000e+02
9.900000000000000000e+02
1.152000000000000000e+03
1.351000000000000000e+03
1.555000000000000000e+03
1.790000000000000000e+03
2.066000000000000000e+03
2.381000000000000000e+03
2.793000000000000000e+03
3.222000000000000000e+03
3.690000000000000000e+03
4.274000000000000000e+03
4.976000000000000000e+03
5.717000000000000000e+03
6.593000000000000000e+03
7.576000000000000000e+03
8.761000000000000000e+03
1.019000000000000000e+04
1.179300000000000000e+04
1.358900000000000000e+04
1.574000000000000000e+04
1.813900000000000000e+04
2.116500000000000000e+04
2.439900000000000000e+04
2.807700000000000000e+04
3.244000000000000000e+04
3.757200000000000000e+04
