1.000000000000000000e+00
2.000000000000000000e+00
2.000000000000000000e+00
2.000000000000000000e+00
2.000000000000000000e+00
2.000000000000000000e+00
3.000000000000000000e+00
3.000000000000000000e+00
3.000000000000000000e+00
4.000000000000000000e+00
4.000000000000000000e+00
4.000000000000000000e+00
5.000000000000000000e+00
6.000000000000000000e+00
7.000000000000000000e+00
8.000000000000000000e+00
9.000000000000000000e+00
1.100000000000000000e+01
1.400000000000000000e+01
1.700000000000000000e+01
1.900000000000000000e+01
2.600000000000000000e+01
2.900000000000000000e+01
3.200000000000000000e+01
3.500000000000000000e+01
4.200000000000000000e+01
4.900000000000000000e+01
6.000000000000000000e+01
6.600000000000000000e+01
7.700000000000000000e+01
9.000000000000000000e+01
1.050000000000000000e+02
1.160000000000000000e+02
1.420000000000000000e+02
1.610000000000000000e+02
1.830000000000000000e+02
2.100000000000000000e+02
2.330000000000000000e+02
2.740000000000000000e+02
3.250000000000000000e+02
3.740000000000000000e+02
4.210000000000000000e+02
4.890000000000000000e+02
5.590000000000000000e+02
6.570000000000000000e+02
7.760000000000000000e+02
8.780000000000000000e+02
1.011000000000000000e+03
1.172000000000000000e+03
1.356000000000000000e+03
1.587000000000000000e+03
1.819000000000000000e+03
2.119000000000000000e+03
2.449000000000000000e+03
2.844000000000000000e+03
3.266000000000000000e+03
3.785000000000000000e+03
4.364000000000000000e+03
5.054000000000000000e+03
5.828000000000000000e+03
6.742000000000000000e+03
7.814000000000000000e+03
9.081000000000000000e+03
1.045800000000000000e+04
1.207600000000000000e+04
1.403400000000000000e+04
1.622000000000000000e+04
1.877100000000000000e+04
2.171600000000000000e+04
2.507200000000000000e+04
2.903500000000000000e+04
3.359500000000000000e+04
3.884400000000000000e+04
4.496000000000000000e+04
5.207300000000000000e+04
6.009600000000000000e+04
