1.000000000000000000e+00
2.000000000000000000e+00
2.000000000000000000e+00
2.000000000000000000e+00
2.000000000000000000e+00
2.000000000000000000e+00
2.000000000000000000e+00
3.000000000000000000e+00
3.000000000000000000e+00
3.000000000000000000e+00
3.000000000000000000e+00
4.000000000000000000e+00
5.000000000000000000e+00
5.000000000000000000e+00
5.000000000000000000e+00
5.000000000000000000e+00
8.000000000000000000e+00
9.000000000000000000e+00
9.000000000000000000e+00
9.000000000000000000e+00
1.200000000000000000e+01
1.300000000000000000e+01
1.600000000000000000e+01
1.800000000000000000e+01
1.900000000000000000e+01
2.000000000000000000e+01
2.600000000000000000e+01
3.200000000000000000e+01
3.400000000000000000e+01
3.800000000000000000e+01
4.200000000000000000e+01
5.100000000000000000e+01
5.900000000000000000e+01
7.200000000000000000e+01
7.900000000000000000e+01
8.700000000000000000e+01
1.020000000000000000e+02
1.280000000000000000e+02
1.430000000000000000e+02
1.720000000000000000e+02
1.990000000000000000e+02
2.220000000000000000e+02
2.580000000000000000e+02
3.020000000000000000e+02
3.460000000000000000e+02
3.980000000000000000e+02
4.560000000000000000e+02
5.250000000000000000e+02
6.190000000000000000e+02
7.030000000000000000e+02
8.190000000000000000e+02
9.580000000000000000e+02
1.092000000000000000e+03
1.249000000000000000e+03
1.462000000000000000e+03
1.678000000000000000e+03
1.937000000000000000e+03
2.252000000000000000e+03
2.625000000000000000e+03
3.017000000000000000e+03
3.476000000000000000e+03
4.019000000000000000e+03
4.665000000000000000e+03
5.416000000000000000e+03
6.263000000000000000e+03
7.224000000000000000e+03
8.329000000000000000e+03
9.662000000000000000e+03
1.120500000000000000e+04
1.293400000000000000e+04
1.493000000000000000e+04
1.725400000000000000e+04
2.006900000000000000e+04
2.317100000000000000e+04
2.688700000000000000e+04
3.116100000000000000e+04
