1.000000000000000000e+00
2.000000000000000000e+00
2.000000000000000000e+00
3.000000000000000000e+00
3.000000000000000000e+00
3.000000000000000000e+00
3.000000000000000000e+00
3.000000000000000000e+00
3.000000000000000000e+00
4.000000000000000000e+00
4.000000000000000000e+00
5.000000000000000000e+00
5.000000000000000000e+00
5.000000000000000000e+00
6.000000000000000000e+00
7.000000000000000000e+00
8.000000000000000000e+00
9.000000000000000000e+00
1.000000000000000000e+01
1.100000000000000000e+01
1.200000000000000000e+01
1.400000000000000000e+01
1.600000000000000000e+01
1.900000000000000000e+01
2.100000000000000000e+01
2.200000000000000000e+01
2.800000000000000000e+01
3.300000000000000000e+01
3.700000000000000000e+01
4.100000000000000000e+01
4.800000000000000000e+01
5.500000000000000000e+01
6.900000000000000000e+01
7.300000000000000000e+01
8.500000000000000000e+01
1.030000000000000000e+02
1.160000000000000000e+02
1.350000000000000000e+02
1.550000000000000000e+02
1.810000000000000000e+02
2.090000000000000000e+02
2.470000000000000000e+02
2.770000000000000000e+02
3.300000000000000000e+02
3.900000000000000000e+02
4.450000000000000000e+02
5.240000000000000000e+02
6.000000000000000000e+02
6.840000000000000000e+02
7.970000000000000000e+02
9.140000000000000000e+02
1.053000000000000000e+03
1.212000000000000000e+03
1.438000000000000000e+03
1.661000000000000000e+03
1.891000000000000000e+03
2.221000000000000000e+03
2.544000000000000000e+03
2.920000000000000000e+03
3.412000000000000000e+03
3.948000000000000000e+03
4.555000000000000000e+03
5.264000000000000000e+03
6.055000000000000000e+03
7.047000000000000000e+03
8.179000000000000000e+03
9.470000000000000000e+03
1.089400000000000000e+04
1.262500000000000000e+04
1.462800000000000000e+04
1.692000000000000000e+04
1.951400000000000000e+04
2.261200000000000000e+04
2.614700000000000000e+04
3.028400000000000000e+04
3.514900000000000000e+04
