1.000000000000000000e+00
2.000000000000000000e+00
2.000000000000000000e+00
2.000000000000000000e+00
3.000000000000000000e+00
3.000000000000000000e+00
3.000000000000000000e+00
4.000000000000000000e+00
4.000000000000000000e+00
5.000000000000000000e+00
5.000000000000000000e+00
6.000000000000000000e+00
6.000000000000000000e+00
6.000000000000000000e+00
7.000000000000000000e+00
8.000000000000000000e+00
1.100000000000000000e+01
1.200000000000000000e+01
1.200000000000000000e+01
1.500000000000000000e+01
1.800000000000000000e+01
2.000000000000000000e+01
2.200000000000000000e+01
2.500000000000000000e+01
2.900000000000000000e+01
3.400000000000000000e+01
3.800000000000000000e+01
4.300000000000000000e+01
4.900000000000000000e+01
5.800000000000000000e+01
6.800000000000000000e+01
7.700000000000000000e+01
8.900000000000000000e+01
1.010000000000000000e+02
1.180000000000000000e+02
1.350000000000000000e+02
1.580000000000000000e+02
1.880000000000000000e+02
2.180000000000000000e+02
2.440000000000000000e+02
2.830000000000000000e+02
3.210000000000000000e+02
3.750000000000000000e+02
4.450000000000000000e+02
5.120000000000000000e+02
5.880000000000000000e+02
6.810000000000000000e+02
7.720000000000000000e+02
9.040000000000000000e+02
1.058000000000000000e+03
1.229000000000000000e+03
1.412000000000000000e+03
1.630000000000000000e+03
1.888000000000000000e+03
2.184000000000000000e+03
2.509000000000000000e+03
2.904000000000000000e+03
3.368000000000000000e+03
3.891000000000000000e+03
4.470000000000000000e+03
5.188000000000000000e+03
5.978000000000000000e+03
6.954000000000000000e+03
8.031000000000000000e+03
9.284000000000000000e+03
1.066400000000000000e+04
1.241200000000000000e+04
1.439500000000000000e+04
1.659500000000000000e+04
1.914800000000000000e+04
2.222000000000000000e+04
2.574800000000000000e+04
2.977800000000000000e+04
3.445000000000000000e+04
3.985100000000000000e+04
4.612900000000000000e+04
