1.000000000000000000e+00
2.000000000000000000e+00
2.000000000000000000e+00
2.000000000000000000e+00
3.000000000000000000e+00
3.000000000000000000e+00
3.000000000000000000e+00
3.000000000000000000e+00
3.000000000000000000e+00
4.000000000000000000e+00
5.000000000000000000e+00
6.000000000000000000e+00
6.000000000000000000e+00
8.000000000000000000e+00
8.000000000000000000e+00
8.000000000000000000e+00
1.000000000000000000e+01
1.200000000000000000e+01
1.200000000000000000e+01
1.600000000000000000e+01
1.900000000000000000e+01
2.100000000000000000e+01
2.200000000000000000e+01
2.900000000000000000e+01
3.400000000000000000e+01
4.100000000000000000e+01
4.600000000000000000e+01
4.900000000000000000e+01
6.000000000000000000e+01
7.300000000000000000e+01
8.700000000000000000e+01
9.400000000000000000e+01
1.050000000000000000e+02
1.260000000000000000e+02
1.470000000000000000e+02
1.680000000000000000e+02
1.950000000000000000e+02
2.210000000000000000e+02
2.670000000000000000e+02
3.040000000000000000e+02
3.500000000000000000e+02
4.070000000000000000e+02
4.730000000000000000e+02
5.480000000000000000e+02
6.430000000000000000e+02
7.300000000000000000e+02
8.300000000000000000e+02
9.580000000000000000e+02
1.128000000000000000e+03
1.304000000000000000e+03
1.511000000000000000e+03
1.732000000000000000e+03
1.975000000000000000e+03
2.316000000000000000e+03
2.699000000000000000e+03
3.118000000000000000e+03
3.596000000000000000e+03
4.177000000000000000e+03
4.822000000000000000e+03
5.549000000000000000e+03
6.411000000000000000e+03
7.444000000000000000e+03
8.606000000000000000e+03
9.959000000000000000e+03
1.151000000000000000e+04
1.336400000000000000e+04
1.543500000000000000e+04
1.795300000000000000e+04
2.073000000000000000e+04
2.400700000000000000e+04
2.773800000000000000e+04
3.197000000000000000e+04
3.709900000000000000e+04
4.292200000000000000e+04
4.971000000000000000e+04
5.748000000000000000e+04
