1.000000000000000000e+00
2.000000000000000000e+00
2.000000000000000000e+00
2.000000000000000000e+00
2.000000000000000000e+00
2.000000000000000000e+00
2.000000000000000000e+00
3.000000000000000000e+00
3.000000000000000000e+00
3.000000000000000000e+00
3.000000000000000000e+00
4.000000000000000000e+00
4.000000000000000000e+00
4.000000000000000000e+00
6.000000000000000000e+00
7.000000000000000000e+00
8.000000000000000000e+00
9.000000000000000000e+00
1.100000000000000000e+01
1.200000000000000000e+01
1.500000000000000000e+01
1.700000000000000000e+01
2.100000000000000000e+01
2.200000000000000000e+01
2.500000000000000000e+01
3.000000000000000000e+01
3.500000000000000000e+01
4.200000000000000000e+01
5.000000000000000000e+01
5.800000000000000000e+01
6.400000000000000000e+01
7.900000000000000000e+01
9.200000000000000000e+01
1.060000000000000000e+02
1.190000000000000000e+02
1.330000000000000000e+02
1.580000000000000000e+02
1.780000000000000000e+02
2.080000000000000000e+02
2.440000000000000000e+02
2.820000000000000000e+02
3.240000000000000000e+02
3.780000000000000000e+02
4.320000000000000000e+02
5.010000000000000000e+02
5.730000000000000000e+02
6.640000000000000000e+02
7.690000000000000000e+02
8.970000000000000000e+02
1.027000000000000000e+03
1.172000000000000000e+03
1.388000000000000000e+03
1.621000000000000000e+03
1.867000000000000000e+03
2.155000000000000000e+03
2.484000000000000000e+03
2.879000000000000000e+03
3.344000000000000000e+03
3.871000000000000000e+03
4.422000000000000000e+03
5.139000000000000000e+03
5.921000000000000000e+03
6.863000000000000000e+03
7.937000000000000000e+03
9.164000000000000000e+03
1.059000000000000000e+04
1.223800000000000000e+04
1.414900000000000000e+04
1.642600000000000000e+04
1.902000000000000000e+04
2.193800000000000000e+04
2.533400000000000000e+04
2.933200000000000000e+04
3.404400000000000000e+04
3.938800000000000000e+04
4.545700000000000000e+04
