1.000000000000000000e+00
2.000000000000000000e+00
2.000000000000000000e+00
2.000000000000000000e+00
2.000000000000000000e+00
2.000000000000000000e+00
2.000000000000000000e+00
3.000000000000000000e+00
3.000000000000000000e+00
3.000000000000000000e+00
3.000000000000000000e+00
3.000000000000000000e+00
4.000000000000000000e+00
4.000000000000000000e+00
5.000000000000000000e+00
5.000000000000000000e+00
7.000000000000000000e+00
7.000000000000000000e+00
8.000000000000000000e+00
9.000000000000000000e+00
1.200000000000000000e+01
1.200000000000000000e+01
1.500000000000000000e+01
1.700000000000000000e+01
2.000000000000000000e+01
2.000000000000000000e+01
2.500000000000000000e+01
2.600000000000000000e+01
2.900000000000000000e+01
3.600000000000000000e+01
3.800000000000000000e+01
4.500000000000000000e+01
5.100000000000000000e+01
5.500000000000000000e+01
6.800000000000000000e+01
7.900000000000000000e+01
9.200000000000000000e+01
1.000000000000000000e+02
1.150000000000000000e+02
1.390000000000000000e+02
1.610000000000000000e+02
1.910000000000000000e+02
2.080000000000000000e+02
2.470000000000000000e+02
2.890000000000000000e+02
3.290000000000000000e+02
3.900000000000000000e+02
4.500000000000000000e+02
5.180000000000000000e+02
6.050000000000000000e+02
7.020000000000000000e+02
8.180000000000000000e+02
9.450000000000000000e+02
1.097000000000000000e+03
1.301000000000000000e+03
1.491000000000000000e+03
1.692000000000000000e+03
1.928000000000000000e+03
2.267000000000000000e+03
2.657000000000000000e+03
3.072000000000000000e+03
3.529000000000000000e+03
4.031000000000000000e+03
4.665000000000000000e+03
5.427000000000000000e+03
6.321000000000000000e+03
7.297000000000000000e+03
8.455000000000000000e+03
9.672000000000000000e+03
1.124200000000000000e+04
1.302900000000000000e+04
1.513100000000000000e+04
1.750200000000000000e+04
2.019500000000000000e+04
2.334100000000000000e+04
2.693800000000000000e+04
