1.000000000000000000e+00
2.000000000000000000e+00
2.000000000000000000e+00
2.000000000000000000e+00
3.000000000000000000e+00
3.000000000000000000e+00
3.000000000000000000e+00
3.000000000000000000e+00
3.000000000000000000e+00
4.000000000000000000e+00
4.000000000000000000e+00
5.000000000000000000e+00
6.000000000000000000e+00
6.000000000000000000e+00
7.000000000000000000e+00
7.000000000000000000e+00
8.000000000000000000e+00
1.000000000000000000e+01
1.300000000000000000e+01
1.500000000000000000e+01
1.500000000000000000e+01
1.700000000000000000e+01
1.800000000000000000e+01
2.400000000000000000e+01
3.200000000000000000e+01
3.300000000000000000e+01
3.700000000000000000e+01
4.300000000000000000e+01
4.800000000000000000e+01
6.100000000000000000e+01
7.000000000000000000e+01
7.900000000000000000e+01
8.700000000000000000e+01
1.020000000000000000e+02
1.200000000000000000e+02
1.360000000000000000e+02
1.490000000000000000e+02
1.800000000000000000e+02
2.080000000000000000e+02
2.490000000000000000e+02
2.780000000000000000e+02
3.190000000000000000e+02
3.710000000000000000e+02
4.300000000000000000e+02
5.070000000000000000e+02
5.800000000000000000e+02
6.680000000000000000e+02
7.870000000000000000e+02
8.830000000000000000e+02
1.049000000000000000e+03
1.184000000000000000e+03
1.393000000000000000e+03
1.612000000000000000e+03
1.848000000000000000e+03
2.149000000000000000e+03
2.517000000000000000e+03
2.892000000000000000e+03
3.336000000000000000e+03
3.896000000000000000e+03
4.495000000000000000e+03
5.171000000000000000e+03
6.011000000000000000e+03
6.935000000000000000e+03
8.043000000000000000e+03
9.353000000000000000e+03
1.077300000000000000e+04
1.246000000000000000e+04
1.442200000000000000e+04
1.663800000000000000e+04
1.930600000000000000e+04
2.236100000000000000e+04
2.581600000000000000e+04
2.990800000000000000e+04
3.461000000000000000e+04
3.997800000000000000e+04
4.611600000000000000e+04
