1.000000000000000000e+00
2.000000000000000000e+00
2.000000000000000000e+00
2.000000000000000000e+00
2.000000000000000000e+00
2.000000000000000000e+00
2.000000000000000000e+00
3.000000000000000000e+00
3.000000000000000000e+00
3.000000000000000000e+00
3.000000000000000000e+00
4.000000000000000000e+00
5.000000000000000000e+00
6.000000000000000000e+00
6.000000000000000000e+00
7.000000000000000000e+00
7.000000000000000000e+00
8.000000000000000000e+00
9.000000000000000000e+00
1.100000000000000000e+01
1.300000000000000000e+01
1.500000000000000000e+01
1.700000000000000000e+01
1.700000000000000000e+01
2.000000000000000000e+01
2.600000000000000000e+01
2.900000000000000000e+01
3.200000000000000000e+01
3.700000000000000000e+01
4.200000000000000000e+01
4.800000000000000000e+01
6.300000000000000000e+01
7.400000000000000000e+01
7.800000000000000000e+01
8.400000000000000000e+01
1.000000000000000000e+02
1.190000000000000000e+02
1.400000000000000000e+02
1.630000000000000000e+02
1.810000000000000000e+02
2.100000000000000000e+02
2.420000000000000000e+02
2.720000000000000000e+02
3.130000000000000000e+02
3.660000000000000000e+02
4.290000000000000000e+02
4.960000000000000000e+02
5.610000000000000000e+02
6.430000000000000000e+02
7.500000000000000000e+02
8.630000000000000000e+02
9.990000000000000000e+02
1.158000000000000000e+03
1.357000000000000000e+03
1.566000000000000000e+03
1.817000000000000000e+03
2.092000000000000000e+03
2.414000000000000000e+03
2.793000000000000000e+03
3.214000000000000000e+03
3.728000000000000000e+03
4.310000000000000000e+03
4.987000000000000000e+03
5.739000000000000000e+03
6.659000000000000000e+03
7.755000000000000000e+03
8.948000000000000000e+03
1.030500000000000000e+04
1.192800000000000000e+04
1.384300000000000000e+04
1.605300000000000000e+04
1.857300000000000000e+04
2.144700000000000000e+04
2.477800000000000000e+04
2.870400000000000000e+04
3.304200000000000000e+04
