1.000000000000000000e+00
2.000000000000000000e+00
2.000000000000000000e+00
2.000000000000000000e+00
2.000000000000000000e+00
2.000000000000000000e+00
2.000000000000000000e+00
3.000000000000000000e+00
3.000000000000000000e+00
3.000000000000000000e+00
3.000000000000000000e+00
3.000000000000000000e+00
3.000000000000000000e+00
3.000000000000000000e+00
5.000000000000000000e+00
5.000000000000000000e+00
5.000000000000000000e+00
5.000000000000000000e+00
5.000000000000000000e+00
7.000000000000000000e+00
8.000000000000000000e+00
9.000000000000000000e+00
1.000000000000000000e+01
1.100000000000000000e+01
1.200000000000000000e+01
1.400000000000000000e+01
1.500000000000000000e+01
2.100000000000000000e+01
2.200000000000000000e+01
2.600000000000000000e+01
3.000000000000000000e+01
3.600000000000000000e+01
4.100000000000000000e+01
4.700000000000000000e+01
5.400000000000000000e+01
6.500000000000000000e+01
7.300000000000000000e+01
8.600000000000000000e+01
9.800000000000000000e+01
1.170000000000000000e+02
1.390000000000000000e+02
1.600000000000000000e+02
1.850000000000000000e+02
2.160000000000000000e+02
2.530000000000000000e+02
3.010000000000000000e+02
3.420000000000000000e+02
3.990000000000000000e+02
4.660000000000000000e+02
5.390000000000000000e+02
6.390000000000000000e+02
7.230000000000000000e+02
8.190000000000000000e+02
9.600000000000000000e+02
1.125000000000000000e+03
1.301000000000000000e+03
1.484000000000000000e+03
1.732000000000000000e+03
2.018000000000000000e+03
2.325000000000000000e+03
2.671000000000000000e+03
3.098000000000000000e+03
3.592000000000000000e+03
4.171000000000000000e+03
4.826000000000000000e+03
5.565000000000000000e+03
6.436000000000000000e+03
7.461000000000000000e+03
8.642000000000000000e+03
1.001300000000000000e+04
1.159900000000000000e+04
1.335500000000000000e+04
1.543800000000000000e+04
1.790800000000000000e+04
2.069400000000000000e+04
2.398100000000000000e+04
