1.000000000000000000e+00
2.000000000000000000e+00
2.000000000000000000e+00
2.000000000000000000e+00
3.000000000000000000e+00
3.000000000000000000e+00
3.000000000000000000e+00
3.000000000000000000e+00
4.000000000000000000e+00
4.000000000000000000e+00
5.000000000000000000e+00
5.000000000000000000e+00
6.000000000000000000e+00
8.000000000000000000e+00
9.000000000000000000e+00
9.000000000000000000e+00
1.000000000000000000e+01
1.200000000000000000e+01
1.500000000000000000e+01
1.700000000000000000e+01
1.900000000000000000e+01
2.300000000000000000e+01
2.600000000000000000e+01
3.200000000000000000e+01
3.700000000000000000e+01
4.400000000000000000e+01
4.800000000000000000e+01
5.700000000000000000e+01
7.000000000000000000e+01
7.700000000000000000e+01
8.700000000000000000e+01
1.000000000000000000e+02
1.220000000000000000e+02
1.410000000000000000e+02
1.590000000000000000e+02
1.810000000000000000e+02
2.080000000000000000e+02
2.460000000000000000e+02
2.870000000000000000e+02
3.320000000000000000e+02
3.850000000000000000e+02
4.340000000000000000e+02
5.110000000000000000e+02
5.960000000000000000e+02
6.920000000000000000e+02
7.990000000000000000e+02
9.330000000000000000e+02
1.070000000000000000e+03
1.218000000000000000e+03
1.411000000000000000e+03
1.644000000000000000e+03
1.910000000000000000e+03
2.222000000000000000e+03
2.556000000000000000e+03
2.935000000000000000e+03
3.431000000000000000e+03
3.974000000000000000e+03
4.609000000000000000e+03
5.354000000000000000e+03
6.158000000000000000e+03
7.085000000000000000e+03
8.241000000000000000e+03
9.550000000000000000e+03
1.098800000000000000e+04
1.272800000000000000e+04
1.478900000000000000e+04
1.709400000000000000e+04
1.980700000000000000e+04
2.302500000000000000e+04
2.656000000000000000e+04
3.066100000000000000e+04
3.563600000000000000e+04
4.112900000000000000e+04
4.753500000000000000e+04
5.510900000000000000e+04
6.370800000000000000e+04
