1.000000000000000000e+00
2.000000000000000000e+00
2.000000000000000000e+00
2.000000000000000000e+00
3.000000000000000000e+00
3.000000000000000000e+00
3.000000000000000000e+00
3.000000000000000000e+00
3.000000000000000000e+00
5.000000000000000000e+00
5.000000000000000000e+00
5.000000000000000000e+00
5.000000000000000000e+00
6.000000000000000000e+00
8.000000000000000000e+00
9.000000000000000000e+00
1.100000000000000000e+01
1.200000000000000000e+01
1.300000000000000000e+01
1.600000000000000000e+01
1.900000000000000000e+01
2.200000000000000000e+01
2.600000000000000000e+01
2.800000000000000000e+01
3.200000000000000000e+01
3.800000000000000000e+01
4.800000000000000000e+01
5.600000000000000000e+01
6.000000000000000000e+01
7.400000000000000000e+01
8.300000000000000000e+01
9.600000000000000000e+01
1.090000000000000000e+02
1.220000000000000000e+02
1.430000000000000000e+02
1.560000000000000000e+02
1.930000000000000000e+02
2.150000000000000000e+02
2.500000000000000000e+02
2.840000000000000000e+02
3.430000000000000000e+02
3.860000000000000000e+02
4.540000000000000000e+02
5.170000000000000000e+02
5.970000000000000000e+02
7.100000000000000000e+02
8.150000000000000000e+02
9.230000000000000000e+02
1.067000000000000000e+03
1.266000000000000000e+03
1.458000000000000000e+03
1.667000000000000000e+03
1.941000000000000000e+03
2.248000000000000000e+03
2.575000000000000000e+03
2.984000000000000000e+03
3.474000000000000000e+03
4.027000000000000000e+03
4.627000000000000000e+03
5.335000000000000000e+03
6.198000000000000000e+03
7.136000000000000000e+03
8.272000000000000000e+03
9.626000000000000000e+03
1.118900000000000000e+04
1.288600000000000000e+04
1.488500000000000000e+04
1.720900000000000000e+04
1.998400000000000000e+04
2.312100000000000000e+04
2.673200000000000000e+04
3.100500000000000000e+04
3.588000000000000000e+04
4.145300000000000000e+04
4.798400000000000000e+04
5.551500000000000000e+04
