1.000000000000000000e+00
2.000000000000000000e+00
2.000000000000000000e+00
3.000000000000000000e+00
3.000000000000000000e+00
3.000000000000000000e+00
4.000000000000000000e+00
4.000000000000000000e+00
4.000000000000000000e+00
4.000000000000000000e+00
5.000000000000000000e+00
6.000000000000000000e+00
6.000000000000000000e+00
7.000000000000000000e+00
7.000000000000000000e+00
8.000000000000000000e+00
9.000000000000000000e+00
1.100000000000000000e+01
1.100000000000000000e+01
1.500000000000000000e+01
1.700000000000000000e+01
1.900000000000000000e+01
1.900000000000000000e+01
2.200000000000000000e+01
2.900000000000000000e+01
3.200000000000000000e+01
3.800000000000000000e+01
4.000000000000000000e+01
4.700000000000000000e+01
5.700000000000000000e+01
6.800000000000000000e+01
7.200000000000000000e+01
8.500000000000000000e+01
1.040000000000000000e+02
1.160000000000000000e+02
1.340000000000000000e+02
1.560000000000000000e+02
1.790000000000000000e+02
2.040000000000000000e+02
2.370000000000000000e+02
2.810000000000000000e+02
3.190000000000000000e+02
3.620000000000000000e+02
4.190000000000000000e+02
4.840000000000000000e+02
5.570000000000000000e+02
6.560000000000000000e+02
7.690000000000000000e+02
8.840000000000000000e+02
1.017000000000000000e+03
1.164000000000000000e+03
1.357000000000000000e+03
1.574000000000000000e+03
1.839000000000000000e+03
2.114000000000000000e+03
2.427000000000000000e+03
2.811000000000000000e+03
3.276000000000000000e+03
3.759000000000000000e+03
4.344000000000000000e+03
5.048000000000000000e+03
5.864000000000000000e+03
6.775000000000000000e+03
7.843000000000000000e+03
9.038000000000000000e+03
1.044500000000000000e+04
1.215100000000000000e+04
1.408500000000000000e+04
1.632400000000000000e+04
1.885000000000000000e+04
2.171100000000000000e+04
2.513600000000000000e+04
2.918400000000000000e+04
3.386600000000000000e+04
3.911900000000000000e+04
4.522100000000000000e+04
