1.000000000000000000e+00
2.000000000000000000e+00
2.000000000000000000e+00
2.000000000000000000e+00
2.000000000000000000e+00
2.000000000000000000e+00
2.000000000000000000e+00
2.000000000000000000e+00
3.000000000000000000e+00
3.000000000000000000e+00
3.000000000000000000e+00
3.000000000000000000e+00
3.000000000000000000e+00
4.000000000000000000e+00
5.000000000000000000e+00
5.000000000000000000e+00
5.000000000000000000e+00
6.000000000000000000e+00
6.000000000000000000e+00
9.000000000000000000e+00
1.000000000000000000e+01
1.000000000000000000e+01
1.300000000000000000e+01
1.500000000000000000e+01
1.700000000000000000e+01
2.000000000000000000e+01
2.400000000000000000e+01
2.700000000000000000e+01
3.200000000000000000e+01
3.400000000000000000e+01
4.200000000000000000e+01
4.900000000000000000e+01
5.700000000000000000e+01
6.700000000000000000e+01
7.600000000000000000e+01
8.800000000000000000e+01
1.030000000000000000e+02
1.160000000000000000e+02
1.330000000000000000e+02
1.530000000000000000e+02
1.860000000000000000e+02
2.140000000000000000e+02
2.390000000000000000e+02
2.680000000000000000e+02
3.230000000000000000e+02
3.860000000000000000e+02
4.340000000000000000e+02
4.930000000000000000e+02
5.850000000000000000e+02
6.770000000000000000e+02
7.860000000000000000e+02
9.070000000000000000e+02
1.044000000000000000e+03
1.205000000000000000e+03
1.417000000000000000e+03
1.664000000000000000e+03
1.896000000000000000e+03
2.185000000000000000e+03
2.519000000000000000e+03
2.958000000000000000e+03
3.442000000000000000e+03
3.916000000000000000e+03
4.477000000000000000e+03
5.242000000000000000e+03
6.092000000000000000e+03
6.983000000000000000e+03
8.065000000000000000e+03
9.386000000000000000e+03
1.086500000000000000e+04
1.256300000000000000e+04
1.447600000000000000e+04
1.672100000000000000e+04
1.936800000000000000e+04
2.238200000000000000e+04
2.584400000000000000e+04
2.997300000000000000e+04
