1.000000000000000000e+00
2.000000000000000000e+00
2.000000000000000000e+00
2.000000000000000000e+00
3.000000000000000000e+00
4.000000000000000000e+00
4.000000000000000000e+00
4.000000000000000000e+00
5.000000000000000000e+00
6.000000000000000000e+00
7.000000000000000000e+00
7.000000000000000000e+00
1.000000000000000000e+01
1.300000000000000000e+01
1.300000000000000000e+01
1.400000000000000000e+01
1.800000000000000000e+01
1.900000000000000000e+01
2.500000000000000000e+01
2.700000000000000000e+01
3.100000000000000000e+01
3.800000000000000000e+01
4.200000000000000000e+01
5.100000000000000000e+01
5.700000000000000000e+01
6.400000000000000000e+01
7.800000000000000000e+01
9.200000000000000000e+01
1.040000000000000000e+02
1.180000000000000000e+02
1.450000000000000000e+02
1.650000000000000000e+02
1.820000000000000000e+02
2.130000000000000000e+02
2.530000000000000000e+02
2.950000000000000000e+02
3.360000000000000000e+02
3.770000000000000000e+02
4.440000000000000000e+02
5.110000000000000000e+02
5.960000000000000000e+02
6.910000000000000000e+02
8.050000000000000000e+02
9.340000000000000000e+02
1.060000000000000000e+03
1.254000000000000000e+03
1.420000000000000000e+03
1.645000000000000000e+03
1.919000000000000000e+03
2.207000000000000000e+03
2.537000000000000000e+03
2.929000000000000000e+03
3.421000000000000000e+03
3.940000000000000000e+03
4.560000000000000000e+03
5.276000000000000000e+03
6.115000000000000000e+03
7.107000000000000000e+03
8.182000000000000000e+03
9.369000000000000000e+03
1.090200000000000000e+04
1.262800000000000000e+04
1.465900000000000000e+04
1.690800000000000000e+04
1.957300000000000000e+04
2.265100000000000000e+04
2.618200000000000000e+04
3.030800000000000000e+04
3.508300000000000000e+04
4.053700000000000000e+04
4.685900000000000000e+04
5.418100000000000000e+04
6.281000000000000000e+04
7.259700000000000000e+04
8.408000000000000000e+04
9.726400000000000000e+04
