1.000000000000000000e+00
2.000000000000000000e+00
2.000000000000000000e+00
2.000000000000000000e+00
2.000000000000000000e+00
2.000000000000000000e+00
2.000000000000000000e+00
3.000000000000000000e+00
3.000000000000000000e+00
3.000000000000000000e+00
3.000000000000000000e+00
3.000000000000000000e+00
3.000000000000000000e+00
4.000000000000000000e+00
5.000000000000000000e+00
5.000000000000000000e+00
5.000000000000000000e+00
5.000000000000000000e+00
5.000000000000000000e+00
7.000000000000000000e+00
8.000000000000000000e+00
8.000000000000000000e+00
9.000000000000000000e+00
1.000000000000000000e+01
1.200000000000000000e+01
1.400000000000000000e+01
1.600000000000000000e+01
1.800000000000000000e+01
2.100000000000000000e+01
2.200000000000000000e+01
3.000000000000000000e+01
3.300000000000000000e+01
3.700000000000000000e+01
4.400000000000000000e+01
5.000000000000000000e+01
6.000000000000000000e+01
6.900000000000000000e+01
7.500000000000000000e+01
8.900000000000000000e+01
1.070000000000000000e+02
1.260000000000000000e+02
1.470000000000000000e+02
1.630000000000000000e+02
1.890000000000000000e+02
2.210000000000000000e+02
2.610000000000000000e+02
3.040000000000000000e+02
3.410000000000000000e+02
3.950000000000000000e+02
4.660000000000000000e+02
5.330000000000000000e+02
6.190000000000000000e+02
7.090000000000000000e+02
8.230000000000000000e+02
9.520000000000000000e+02
1.092000000000000000e+03
1.274000000000000000e+03
1.505000000000000000e+03
1.722000000000000000e+03
1.983000000000000000e+03
2.262000000000000000e+03
2.670000000000000000e+03
3.110000000000000000e+03
3.596000000000000000e+03
4.115000000000000000e+03
4.746000000000000000e+03
5.521000000000000000e+03
6.371000000000000000e+03
7.409000000000000000e+03
8.525000000000000000e+03
9.877000000000000000e+03
1.136600000000000000e+04
1.320000000000000000e+04
1.533600000000000000e+04
1.764900000000000000e+04
2.041800000000000000e+04
