1.000000000000000000e+00
2.000000000000000000e+00
2.000000000000000000e+00
2.000000000000000000e+00
2.000000000000000000e+00
2.000000000000000000e+00
2.000000000000000000e+00
2.000000000000000000e+00
2.000000000000000000e+00
3.000000000000000000e+00
3.000000000000000000e+00
3.000000000000000000e+00
4.000000000000000000e+00
5.000000000000000000e+00
5.000000000000000000e+00
5.000000000000000000e+00
6.000000000000000000e+00
8.000000000000000000e+00
1.000000000000000000e+01
1.000000000000000000e+01
1.300000000000000000e+01
1.400000000000000000e+01
1.500000000000000000e+01
1.600000000000000000e+01
2.000000000000000000e+01
2.100000000000000000e+01
2.300000000000000000e+01
2.600000000000000000e+01
2.900000000000000000e+01
3.600000000000000000e+01
4.300000000000000000e+01
4.700000000000000000e+01
5.100000000000000000e+01
6.100000000000000000e+01
7.100000000000000000e+01
8.300000000000000000e+01
9.800000000000000000e+01
1.090000000000000000e+02
1.250000000000000000e+02
1.440000000000000000e+02
1.640000000000000000e+02
1.990000000000000000e+02
2.270000000000000000e+02
2.570000000000000000e+02
2.960000000000000000e+02
3.380000000000000000e+02
4.010000000000000000e+02
4.740000000000000000e+02
5.380000000000000000e+02
6.090000000000000000e+02
6.960000000000000000e+02
8.160000000000000000e+02
9.580000000000000000e+02
1.114000000000000000e+03
1.278000000000000000e+03
1.506000000000000000e+03
1.730000000000000000e+03
1.987000000000000000e+03
2.328000000000000000e+03
2.697000000000000000e+03
3.075000000000000000e+03
3.514000000000000000e+03
4.095000000000000000e+03
4.771000000000000000e+03
5.491000000000000000e+03
6.359000000000000000e+03
7.373000000000000000e+03
8.476000000000000000e+03
9.871000000000000000e+03
1.140000000000000000e+04
1.316100000000000000e+04
1.525400000000000000e+04
1.766100000000000000e+04
2.037900000000000000e+04
2.352200000000000000e+04
2.727800000000000000e+04
