1.000000000000000000e+00
2.000000000000000000e+00
2.000000000000000000e+00
2.000000000000000000e+00
2.000000000000000000e+00
2.000000000000000000e+00
2.000000000000000000e+00
2.000000000000000000e+00
2.000000000000000000e+00
2.000000000000000000e+00
2.000000000000000000e+00
2.000000000000000000e+00
2.000000000000000000e+00
2.000000000000000000e+00
2.000000000000000000e+00
2.000000000000000000e+00
2.000000000000000000e+00
2.000000000000000000e+00
2.000000000000000000e+00
2.000000000000000000e+00
2.000000000000000000e+00
2.000000000000000000e+00
2.000000000000000000e+00
2.000000000000000000e+00
2.000000000000000000e+00
2.000000000000000000e+00
2.000000000000000000e+00
2.000000000000000000e+00
2.000000000000000000e+00
2.000000000000000000e+00
2.000000000000000000e+00
2.000000000000000000e+00
2.000000000000000000e+00
2.000000000000000000e+00
2.000000000000000000e+00
2.000000000000000000e+00
2.000000000000000000e+00
2.000000000000000000e+00
2.000000000000000000e+00
2.000000000000000000e+00
2.000000000000000000e+00
2.000000000000000000e+00
2.000000000000000000e+00
2.000000000000000000e+00
2.000000000000000000e+00
2.000000000000000000e+00
2.000000000000000000e+00
2.000000000000000000e+00
2.000000000000000000e+00
2.000000000000000000e+00
2.000000000000000000e+00
2.000000000000000000e+00
2.000000000000000000e+00
2.000000000000000000e+00
2.000000000000000000e+00
2.000000000000000000e+00
2.000000000000000000e+00
2.000000000000000000e+00
2.000000000000000000e+00
2.000000000000000000e+00
2.000000000000000000e+00
2.000000000000000000e+00
2.000000000000000000e+00
2.000000000000000000e+00
2.000000000000000000e+00
2.000000000000000000e+00
2.000000000000000000e+00
2.000000000000000000e+00
2.000000000000000000e+00
2.000000000000000000e+00
2.000000000000000000e+00
2.000000000000000000e+00
2.000000000000000000e+00
2.000000000000000000e+00
2.000000000000000000e+00
2.000000000000000000e+00
2.000000000000000000e+00
2.000000000000000000e+00
2.000000000000000000e+00
2.000000000000000000e+00
2.000000000000000000e+00
2.000000000000000000e+00
2.000000000000000000e+00
2.000000000000000000e+00
2.000000000000000000e+00
2.000000000000000000e+00
2.000000000000000000e+00
2.000000000000000000e+00
2.000000000000000000e+00
2.000000000000000000e+00
2.000000000000000000e+00
2.000000000000000000e+00
2.000000000000000000e+00
2.000000000000000000e+00
2.000000000000000000e+00
2.000000000000000000e+00
2.000000000000000000e+00
2.000000000000000000e+00
2.000000000000000000e+00
2.000000000000000000e+00
2.000000000000000000e+00
2.000000000000000000e+00
2.000000000000000000e+00
2.000000000000000000e+00
2.000000000000000000e+00
2.000000000000000000e+00
2.000000000000000000e+00
2.000000000000000000e+00
2.000000000000000000e+00
2.000000000000000000e+00
2.000000000000000000e+00
2.000000000000000000e+00
2.000000000000000000e+00
2.000000000000000000e+00
2.000000000000000000e+00
2.000000000000000000e+00
2.000000000000000000e+00
2.000000000000000000e+00
2.000000000000000000e+00
3.000000000000000000e+00
3.000000000000000000e+00
3.000000000000000000e+00
3.000000000000000000e+00
3.000000000000000000e+00
3.000000000000000000e+00
3.000000000000000000e+00
3.000000000000000000e+00
3.000000000000000000e+00
3.000000000000000000e+00
3.000000000000000000e+00
3.000000000000000000e+00
3.000000000000000000e+00
3.000000000000000000e+00
3.000000000000000000e+00
3.000000000000000000e+00
3.000000000000000000e+00
3.000000000000000000e+00
3.000000000000000000e+00
3.000000000000000000e+00
3.000000000000000000e+00
3.000000000000000000e+00
3.000000000000000000e+00
3.000000000000000000e+00
3.000000000000000000e+00
3.000000000000000000e+00
3.000000000000000000e+00
3.000000000000000000e+00
3.000000000000000000e+00
3.000000000000000000e+00
3.000000000000000000e+00
3.000000000000000000e+00
3.000000000000000000e+00
3.000000000000000000e+00
3.000000000000000000e+00
3.000000000000000000e+00
3.000000000000000000e+00
3.000000000000000000e+00
3.000000000000000000e+00
3.000000000000000000e+00
3.000000000000000000e+00
3.000000000000000000e+00
3.000000000000000000e+00
3.000000000000000000e+00
3.000000000000000000e+00
3.000000000000000000e+00
3.000000000000000000e+00
3.000000000000000000e+00
3.000000000000000000e+00
3.000000000000000000e+00
3.000000000000000000e+00
3.000000000000000000e+00
3.000000000000000000e+00
3.000000000000000000e+00
3.000000000000000000e+00
3.000000000000000000e+00
3.000000000000000000e+00
3.000000000000000000e+00
3.000000000000000000e+00
3.000000000000000000e+00
3.000000000000000000e+00
3.000000000000000000e+00
3.000000000000000000e+00
3.000000000000000000e+00
3.000000000000000000e+00
3.000000000000000000e+00
3.000000000000000000e+00
3.000000000000000000e+00
3.000000000000000000e+00
3.000000000000000000e+00
3.000000000000000000e+00
3.000000000000000000e+00
3.000000000000000000e+00
3.000000000000000000e+00
3.000000000000000000e+00
3.000000000000000000e+00
3.000000000000000000e+00
3.000000000000000000e+00
3.000000000000000000e+00
3.000000000000000000e+00
3.000000000000000000e+00
3.000000000000000000e+00
3.000000000000000000e+00
3.000000000000000000e+00
3.000000000000000000e+00
3.000000000000000000e+00
3.000000000000000000e+00
3.000000000000000000e+00
3.000000000000000000e+00
3.000000000000000000e+00
3.000000000000000000e+00
3.000000000000000000e+00
3.000000000000000000e+00
3.000000000000000000e+00
3.000000000000000000e+00
3.000000000000000000e+00
3.000000000000000000e+00
3.000000000000000000e+00
3.000000000000000000e+00
3.000000000000000000e+00
4.000000000000000000e+00
4.000000000000000000e+00
4.000000000000000000e+00
5.000000000000000000e+00
5.000000000000000000e+00
5.000000000000000000e+00
5.000000000000000000e+00
5.000000000000000000e+00
5.000000000000000000e+00
5.000000000000000000e+00
5.000000000000000000e+00
5.000000000000000000e+00
5.000000000000000000e+00
5.000000000000000000e+00
5.000000000000000000e+00
5.000000000000000000e+00
5.000000000000000000e+00
5.000000000000000000e+00
5.000000000000000000e+00
5.000000000000000000e+00
5.000000000000000000e+00
5.000000000000000000e+00
5.000000000000000000e+00
5.000000000000000000e+00
5.000000000000000000e+00
5.000000000000000000e+00
5.000000000000000000e+00
5.000000000000000000e+00
5.000000000000000000e+00
5.000000000000000000e+00
5.000000000000000000e+00
5.000000000000000000e+00
5.000000000000000000e+00
5.000000000000000000e+00
5.000000000000000000e+00
5.000000000000000000e+00
5.000000000000000000e+00
5.000000000000000000e+00
5.000000000000000000e+00
5.000000000000000000e+00
5.000000000000000000e+00
5.000000000000000000e+00
5.000000000000000000e+00
5.000000000000000000e+00
5.000000000000000000e+00
5.000000000000000000e+00
5.000000000000000000e+00
5.000000000000000000e+00
5.000000000000000000e+00
5.000000000000000000e+00
5.000000000000000000e+00
5.000000000000000000e+00
5.000000000000000000e+00
5.000000000000000000e+00
5.000000000000000000e+00
5.000000000000000000e+00
5.000000000000000000e+00
5.000000000000000000e+00
5.000000000000000000e+00
5.000000000000000000e+00
5.000000000000000000e+00
5.000000000000000000e+00
5.000000000000000000e+00
5.000000000000000000e+00
5.000000000000000000e+00
5.000000000000000000e+00
5.000000000000000000e+00
5.000000000000000000e+00
6.000000000000000000e+00
6.000000000000000000e+00
6.000000000000000000e+00
6.000000000000000000e+00
6.000000000000000000e+00
6.000000000000000000e+00
6.000000000000000000e+00
6.000000000000000000e+00
6.000000000000000000e+00
6.000000000000000000e+00
6.000000000000000000e+00
6.000000000000000000e+00
6.000000000000000000e+00
6.000000000000000000e+00
6.000000000000000000e+00
6.000000000000000000e+00
6.000000000000000000e+00
6.000000000000000000e+00
6.000000000000000000e+00
7.000000000000000000e+00
7.000000000000000000e+00
7.000000000000000000e+00
7.000000000000000000e+00
7.000000000000000000e+00
7.000000000000000000e+00
7.000000000000000000e+00
7.000000000000000000e+00
7.000000000000000000e+00
7.000000000000000000e+00
7.000000000000000000e+00
7.000000000000000000e+00
7.000000000000000000e+00
7.000000000000000000e+00
7.000000000000000000e+00
7.000000000000000000e+00
7.000000000000000000e+00
7.000000000000000000e+00
7.000000000000000000e+00
7.000000000000000000e+00
7.000000000000000000e+00
7.000000000000000000e+00
7.000000000000000000e+00
7.000000000000000000e+00
7.000000000000000000e+00
7.000000000000000000e+00
7.000000000000000000e+00
7.000000000000000000e+00
7.000000000000000000e+00
7.000000000000000000e+00
7.000000000000000000e+00
7.000000000000000000e+00
7.000000000000000000e+00
7.000000000000000000e+00
7.000000000000000000e+00
7.000000000000000000e+00
7.000000000000000000e+00
7.000000000000000000e+00
7.000000000000000000e+00
7.000000000000000000e+00
7.000000000000000000e+00
8.000000000000000000e+00
8.000000000000000000e+00
8.000000000000000000e+00
8.000000000000000000e+00
8.000000000000000000e+00
8.000000000000000000e+00
8.000000000000000000e+00
8.000000000000000000e+00
8.000000000000000000e+00
8.000000000000000000e+00
8.000000000000000000e+00
8.000000000000000000e+00
8.000000000000000000e+00
8.000000000000000000e+00
8.000000000000000000e+00
9.000000000000000000e+00
9.000000000000000000e+00
9.000000000000000000e+00
9.000000000000000000e+00
9.000000000000000000e+00
9.000000000000000000e+00
9.000000000000000000e+00
9.000000000000000000e+00
9.000000000000000000e+00
1.000000000000000000e+01
1.000000000000000000e+01
1.000000000000000000e+01
1.000000000000000000e+01
1.000000000000000000e+01
1.000000000000000000e+01
1.000000000000000000e+01
1.000000000000000000e+01
1.000000000000000000e+01
1.000000000000000000e+01
1.000000000000000000e+01
1.000000000000000000e+01
1.000000000000000000e+01
1.100000000000000000e+01
1.100000000000000000e+01
1.100000000000000000e+01
1.100000000000000000e+01
1.100000000000000000e+01
1.100000000000000000e+01
1.100000000000000000e+01
1.100000000000000000e+01
1.100000000000000000e+01
1.100000000000000000e+01
1.100000000000000000e+01
1.200000000000000000e+01
1.200000000000000000e+01
1.200000000000000000e+01
1.200000000000000000e+01
1.200000000000000000e+01
1.200000000000000000e+01
1.200000000000000000e+01
1.200000000000000000e+01
1.200000000000000000e+01
1.200000000000000000e+01
1.300000000000000000e+01
1.300000000000000000e+01
1.300000000000000000e+01
1.300000000000000000e+01
1.300000000000000000e+01
1.300000000000000000e+01
1.300000000000000000e+01
1.300000000000000000e+01
1.300000000000000000e+01
1.300000000000000000e+01
1.300000000000000000e+01
1.300000000000000000e+01
1.300000000000000000e+01
1.300000000000000000e+01
1.300000000000000000e+01
1.300000000000000000e+01
1.400000000000000000e+01
1.400000000000000000e+01
1.400000000000000000e+01
1.500000000000000000e+01
1.500000000000000000e+01
1.500000000000000000e+01
1.500000000000000000e+01
1.500000000000000000e+01
1.500000000000000000e+01
1.600000000000000000e+01
1.600000000000000000e+01
1.600000000000000000e+01
1.600000000000000000e+01
1.600000000000000000e+01
1.600000000000000000e+01
1.600000000000000000e+01
1.600000000000000000e+01
1.600000000000000000e+01
1.600000000000000000e+01
1.600000000000000000e+01
1.600000000000000000e+01
1.600000000000000000e+01
1.600000000000000000e+01
1.600000000000000000e+01
1.700000000000000000e+01
1.700000000000000000e+01
1.700000000000000000e+01
1.700000000000000000e+01
1.700000000000000000e+01
1.700000000000000000e+01
1.700000000000000000e+01
1.700000000000000000e+01
1.700000000000000000e+01
1.700000000000000000e+01
1.700000000000000000e+01
1.700000000000000000e+01
1.700000000000000000e+01
1.700000000000000000e+01
1.700000000000000000e+01
1.700000000000000000e+01
1.700000000000000000e+01
1.700000000000000000e+01
1.700000000000000000e+01
1.700000000000000000e+01
1.700000000000000000e+01
1.700000000000000000e+01
1.700000000000000000e+01
1.700000000000000000e+01
1.700000000000000000e+01
1.700000000000000000e+01
1.700000000000000000e+01
1.800000000000000000e+01
1.800000000000000000e+01
1.800000000000000000e+01
1.800000000000000000e+01
1.800000000000000000e+01
1.800000000000000000e+01
1.800000000000000000e+01
1.800000000000000000e+01
1.800000000000000000e+01
1.800000000000000000e+01
1.800000000000000000e+01
1.800000000000000000e+01
1.800000000000000000e+01
1.900000000000000000e+01
1.900000000000000000e+01
1.900000000000000000e+01
1.900000000000000000e+01
1.900000000000000000e+01
2.000000000000000000e+01
2.100000000000000000e+01
2.100000000000000000e+01
2.100000000000000000e+01
2.100000000000000000e+01
2.100000000000000000e+01
2.200000000000000000e+01
2.200000000000000000e+01
2.300000000000000000e+01
2.300000000000000000e+01
2.300000000000000000e+01
2.300000000000000000e+01
2.300000000000000000e+01
2.400000000000000000e+01
2.400000000000000000e+01
2.400000000000000000e+01
2.400000000000000000e+01
2.500000000000000000e+01
2.500000000000000000e+01
2.500000000000000000e+01
2.600000000000000000e+01
2.600000000000000000e+01
2.600000000000000000e+01
2.700000000000000000e+01
2.700000000000000000e+01
2.700000000000000000e+01
2.700000000000000000e+01
2.700000000000000000e+01
2.800000000000000000e+01
2.800000000000000000e+01
2.800000000000000000e+01
2.800000000000000000e+01
2.900000000000000000e+01
2.900000000000000000e+01
2.900000000000000000e+01
2.900000000000000000e+01
2.900000000000000000e+01
2.900000000000000000e+01
2.900000000000000000e+01
2.900000000000000000e+01
2.900000000000000000e+01
2.900000000000000000e+01
2.900000000000000000e+01
2.900000000000000000e+01
2.900000000000000000e+01
2.900000000000000000e+01
2.900000000000000000e+01
2.900000000000000000e+01
2.900000000000000000e+01
2.900000000000000000e+01
2.900000000000000000e+01
2.900000000000000000e+01
2.900000000000000000e+01
2.900000000000000000e+01
3.000000000000000000e+01
3.000000000000000000e+01
3.000000000000000000e+01
3.000000000000000000e+01
3.000000000000000000e+01
3.000000000000000000e+01
3.100000000000000000e+01
3.400000000000000000e+01
3.400000000000000000e+01
3.400000000000000000e+01
3.400000000000000000e+01
3.400000000000000000e+01
3.500000000000000000e+01
3.500000000000000000e+01
3.500000000000000000e+01
3.500000000000000000e+01
3.500000000000000000e+01
3.500000000000000000e+01
3.500000000000000000e+01
3.500000000000000000e+01
3.500000000000000000e+01
3.500000000000000000e+01
3.500000000000000000e+01
3.500000000000000000e+01
3.500000000000000000e+01
3.600000000000000000e+01
3.600000000000000000e+01
3.600000000000000000e+01
3.600000000000000000e+01
3.600000000000000000e+01
3.700000000000000000e+01
3.700000000000000000e+01
3.700000000000000000e+01
3.700000000000000000e+01
3.700000000000000000e+01
3.700000000000000000e+01
3.700000000000000000e+01
3.700000000000000000e+01
3.700000000000000000e+01
3.700000000000000000e+01
3.700000000000000000e+01
3.700000000000000000e+01
3.700000000000000000e+01
3.700000000000000000e+01
3.700000000000000000e+01
3.700000000000000000e+01
3.700000000000000000e+01
3.700000000000000000e+01
3.700000000000000000e+01
3.900000000000000000e+01
4.100000000000000000e+01
4.100000000000000000e+01
4.200000000000000000e+01
4.200000000000000000e+01
4.200000000000000000e+01
4.300000000000000000e+01
4.300000000000000000e+01
4.400000000000000000e+01
4.400000000000000000e+01
4.600000000000000000e+01
4.800000000000000000e+01
4.800000000000000000e+01
4.800000000000000000e+01
4.800000000000000000e+01
4.800000000000000000e+01
4.900000000000000000e+01
4.900000000000000000e+01
5.100000000000000000e+01
5.100000000000000000e+01
5.100000000000000000e+01
5.100000000000000000e+01
5.100000000000000000e+01
5.100000000000000000e+01
5.200000000000000000e+01
5.200000000000000000e+01
5.200000000000000000e+01
5.200000000000000000e+01
5.200000000000000000e+01
5.200000000000000000e+01
5.200000000000000000e+01
5.300000000000000000e+01
5.400000000000000000e+01
5.400000000000000000e+01
5.400000000000000000e+01
5.400000000000000000e+01
5.400000000000000000e+01
5.400000000000000000e+01
5.400000000000000000e+01
5.400000000000000000e+01
5.400000000000000000e+01
5.500000000000000000e+01
5.500000000000000000e+01
5.500000000000000000e+01
5.600000000000000000e+01
5.600000000000000000e+01
5.700000000000000000e+01
5.700000000000000000e+01
5.700000000000000000e+01
5.700000000000000000e+01
5.700000000000000000e+01
5.700000000000000000e+01
5.900000000000000000e+01
5.900000000000000000e+01
5.900000000000000000e+01
5.900000000000000000e+01
5.900000000000000000e+01
5.900000000000000000e+01
5.900000000000000000e+01
5.900000000000000000e+01
6.000000000000000000e+01
6.200000000000000000e+01
6.300000000000000000e+01
6.400000000000000000e+01
6.400000000000000000e+01
6.400000000000000000e+01
6.400000000000000000e+01
6.400000000000000000e+01
6.500000000000000000e+01
6.500000000000000000e+01
6.500000000000000000e+01
6.600000000000000000e+01
6.600000000000000000e+01
6.700000000000000000e+01
6.800000000000000000e+01
6.900000000000000000e+01
6.900000000000000000e+01
7.000000000000000000e+01
7.200000000000000000e+01
7.200000000000000000e+01
7.200000000000000000e+01
7.300000000000000000e+01
7.400000000000000000e+01
7.400000000000000000e+01
7.400000000000000000e+01
7.400000000000000000e+01
7.500000000000000000e+01
7.500000000000000000e+01
7.500000000000000000e+01
7.600000000000000000e+01
7.600000000000000000e+01
7.600000000000000000e+01
7.700000000000000000e+01
7.900000000000000000e+01
8.100000000000000000e+01
8.100000000000000000e+01
8.100000000000000000e+01
8.400000000000000000e+01
8.600000000000000000e+01
8.600000000000000000e+01
8.700000000000000000e+01
8.700000000000000000e+01
8.700000000000000000e+01
8.700000000000000000e+01
8.700000000000000000e+01
8.700000000000000000e+01
8.900000000000000000e+01
9.000000000000000000e+01
9.100000000000000000e+01
9.400000000000000000e+01
9.500000000000000000e+01
9.600000000000000000e+01
9.600000000000000000e+01
9.600000000000000000e+01
9.600000000000000000e+01
9.600000000000000000e+01
9.700000000000000000e+01
9.700000000000000000e+01
9.700000000000000000e+01
9.900000000000000000e+01
9.900000000000000000e+01
1.000000000000000000e+02
1.020000000000000000e+02
1.020000000000000000e+02
1.020000000000000000e+02
1.030000000000000000e+02
1.030000000000000000e+02
1.030000000000000000e+02
1.030000000000000000e+02
1.030000000000000000e+02
1.040000000000000000e+02
1.040000000000000000e+02
1.060000000000000000e+02
1.070000000000000000e+02
1.090000000000000000e+02
1.100000000000000000e+02
1.110000000000000000e+02
1.110000000000000000e+02
1.120000000000000000e+02
1.120000000000000000e+02
1.130000000000000000e+02
1.140000000000000000e+02
1.150000000000000000e+02
1.160000000000000000e+02
1.160000000000000000e+02
1.160000000000000000e+02
1.170000000000000000e+02
1.170000000000000000e+02
1.170000000000000000e+02
1.180000000000000000e+02
1.180000000000000000e+02
1.180000000000000000e+02
1.180000000000000000e+02
1.190000000000000000e+02
1.190000000000000000e+02
1.200000000000000000e+02
1.200000000000000000e+02
1.200000000000000000e+02
1.220000000000000000e+02
1.230000000000000000e+02
1.240000000000000000e+02
1.250000000000000000e+02
1.260000000000000000e+02
1.260000000000000000e+02
1.280000000000000000e+02
1.290000000000000000e+02
1.300000000000000000e+02
1.300000000000000000e+02
1.320000000000000000e+02
1.320000000000000000e+02
1.330000000000000000e+02
1.340000000000000000e+02
1.350000000000000000e+02
1.380000000000000000e+02
1.390000000000000000e+02
1.410000000000000000e+02
1.420000000000000000e+02
1.470000000000000000e+02
1.470000000000000000e+02
1.480000000000000000e+02
1.490000000000000000e+02
1.500000000000000000e+02
1.510000000000000000e+02
1.520000000000000000e+02
1.530000000000000000e+02
1.540000000000000000e+02
1.540000000000000000e+02
1.540000000000000000e+02
1.570000000000000000e+02
1.600000000000000000e+02
1.610000000000000000e+02
1.630000000000000000e+02
1.650000000000000000e+02
1.660000000000000000e+02
1.680000000000000000e+02
1.690000000000000000e+02
1.710000000000000000e+02
1.730000000000000000e+02
1.750000000000000000e+02
1.770000000000000000e+02
1.780000000000000000e+02
1.800000000000000000e+02
1.810000000000000000e+02
1.830000000000000000e+02
1.850000000000000000e+02
1.860000000000000000e+02
1.880000000000000000e+02
1.900000000000000000e+02
1.900000000000000000e+02
1.900000000000000000e+02
1.930000000000000000e+02
1.940000000000000000e+02
1.950000000000000000e+02
1.960000000000000000e+02
1.960000000000000000e+02
1.970000000000000000e+02
1.970000000000000000e+02
1.970000000000000000e+02
1.970000000000000000e+02
1.970000000000000000e+02
1.990000000000000000e+02
2.010000000000000000e+02
2.040000000000000000e+02
2.050000000000000000e+02
2.070000000000000000e+02
2.070000000000000000e+02
2.100000000000000000e+02
2.110000000000000000e+02
2.130000000000000000e+02
2.160000000000000000e+02
2.180000000000000000e+02
2.190000000000000000e+02
2.230000000000000000e+02
2.250000000000000000e+02
2.260000000000000000e+02
2.260000000000000000e+02
2.290000000000000000e+02
2.320000000000000000e+02
2.350000000000000000e+02
2.360000000000000000e+02
2.360000000000000000e+02
2.390000000000000000e+02
2.420000000000000000e+02
2.430000000000000000e+02
2.430000000000000000e+02
2.440000000000000000e+02
2.470000000000000000e+02
2.470000000000000000e+02
2.480000000000000000e+02
2.500000000000000000e+02
2.530000000000000000e+02
2.550000000000000000e+02
2.560000000000000000e+02
2.580000000000000000e+02
2.590000000000000000e+02
2.590000000000000000e+02
2.610000000000000000e+02
2.620000000000000000e+02
2.650000000000000000e+02
2.680000000000000000e+02
2.690000000000000000e+02
2.700000000000000000e+02
2.720000000000000000e+02
2.740000000000000000e+02
2.760000000000000000e+02
2.770000000000000000e+02
2.800000000000000000e+02
2.810000000000000000e+02
2.860000000000000000e+02
2.890000000000000000e+02
2.900000000000000000e+02
2.920000000000000000e+02
2.940000000000000000e+02
2.940000000000000000e+02
2.960000000000000000e+02
2.980000000000000000e+02
2.990000000000000000e+02
3.000000000000000000e+02
3.030000000000000000e+02
3.080000000000000000e+02
3.090000000000000000e+02
3.120000000000000000e+02
3.130000000000000000e+02
3.150000000000000000e+02
3.180000000000000000e+02
3.190000000000000000e+02
3.200000000000000000e+02
3.220000000000000000e+02
3.240000000000000000e+02
3.250000000000000000e+02
3.260000000000000000e+02
3.280000000000000000e+02
3.310000000000000000e+02
3.340000000000000000e+02
3.350000000000000000e+02
3.410000000000000000e+02
3.480000000000000000e+02
3.480000000000000000e+02
3.520000000000000000e+02
3.540000000000000000e+02
3.580000000000000000e+02
3.640000000000000000e+02
3.670000000000000000e+02
3.670000000000000000e+02
3.690000000000000000e+02
3.720000000000000000e+02
3.770000000000000000e+02
3.800000000000000000e+02
3.860000000000000000e+02
3.910000000000000000e+02
3.920000000000000000e+02
3.930000000000000000e+02
3.930000000000000000e+02
3.960000000000000000e+02
3.970000000000000000e+02
3.990000000000000000e+02
4.040000000000000000e+02
4.110000000000000000e+02
4.110000000000000000e+02
4.150000000000000000e+02
4.180000000000000000e+02
4.220000000000000000e+02
4.250000000000000000e+02
4.270000000000000000e+02
4.300000000000000000e+02
4.320000000000000000e+02
4.350000000000000000e+02
4.360000000000000000e+02
4.370000000000000000e+02
4.410000000000000000e+02
4.460000000000000000e+02
4.530000000000000000e+02
4.550000000000000000e+02
4.580000000000000000e+02
4.620000000000000000e+02
4.630000000000000000e+02
4.650000000000000000e+02
4.670000000000000000e+02
4.710000000000000000e+02
4.740000000000000000e+02
4.740000000000000000e+02
4.770000000000000000e+02
4.770000000000000000e+02
4.810000000000000000e+02
4.810000000000000000e+02
4.840000000000000000e+02
4.850000000000000000e+02
4.930000000000000000e+02
5.010000000000000000e+02
5.050000000000000000e+02
5.100000000000000000e+02
5.140000000000000000e+02
5.160000000000000000e+02
5.200000000000000000e+02
5.280000000000000000e+02
5.320000000000000000e+02
5.350000000000000000e+02
5.380000000000000000e+02
5.440000000000000000e+02
5.470000000000000000e+02
5.490000000000000000e+02
5.530000000000000000e+02
5.560000000000000000e+02
5.620000000000000000e+02
5.690000000000000000e+02
5.740000000000000000e+02
5.770000000000000000e+02
5.840000000000000000e+02
5.880000000000000000e+02
5.900000000000000000e+02
5.940000000000000000e+02
5.990000000000000000e+02
6.050000000000000000e+02
6.100000000000000000e+02
6.120000000000000000e+02
6.170000000000000000e+02
6.220000000000000000e+02
6.250000000000000000e+02
6.310000000000000000e+02
6.370000000000000000e+02
6.410000000000000000e+02
6.440000000000000000e+02
6.520000000000000000e+02
6.550000000000000000e+02
6.590000000000000000e+02
6.630000000000000000e+02
6.650000000000000000e+02
6.710000000000000000e+02
6.750000000000000000e+02
6.790000000000000000e+02
6.890000000000000000e+02
6.940000000000000000e+02
6.970000000000000000e+02
7.010000000000000000e+02
7.060000000000000000e+02
7.070000000000000000e+02
7.090000000000000000e+02
7.140000000000000000e+02
7.210000000000000000e+02
7.250000000000000000e+02
7.300000000000000000e+02
7.330000000000000000e+02
7.430000000000000000e+02
7.540000000000000000e+02
7.620000000000000000e+02
7.650000000000000000e+02
7.730000000000000000e+02
7.780000000000000000e+02
7.830000000000000000e+02
7.900000000000000000e+02
7.950000000000000000e+02
8.010000000000000000e+02
8.070000000000000000e+02
8.140000000000000000e+02
8.210000000000000000e+02
8.270000000000000000e+02
8.330000000000000000e+02
8.390000000000000000e+02
8.450000000000000000e+02
8.520000000000000000e+02
8.540000000000000000e+02
8.610000000000000000e+02
8.670000000000000000e+02
8.730000000000000000e+02
8.760000000000000000e+02
8.800000000000000000e+02
8.900000000000000000e+02
8.940000000000000000e+02
9.000000000000000000e+02
9.020000000000000000e+02
9.060000000000000000e+02
9.130000000000000000e+02
9.150000000000000000e+02
9.220000000000000000e+02
9.270000000000000000e+02
9.340000000000000000e+02
9.380000000000000000e+02
9.480000000000000000e+02
9.530000000000000000e+02
9.580000000000000000e+02
9.610000000000000000e+02
9.690000000000000000e+02
9.770000000000000000e+02
9.840000000000000000e+02
9.910000000000000000e+02
9.980000000000000000e+02
1.003000000000000000e+03
1.011000000000000000e+03
1.021000000000000000e+03
1.029000000000000000e+03
1.038000000000000000e+03
1.043000000000000000e+03
1.052000000000000000e+03
1.064000000000000000e+03
1.068000000000000000e+03
1.073000000000000000e+03
1.081000000000000000e+03
1.088000000000000000e+03
1.098000000000000000e+03
1.106000000000000000e+03
1.109000000000000000e+03
1.119000000000000000e+03
1.132000000000000000e+03
1.143000000000000000e+03
1.148000000000000000e+03
1.155000000000000000e+03
1.166000000000000000e+03
1.175000000000000000e+03
1.183000000000000000e+03
1.188000000000000000e+03
1.199000000000000000e+03
1.212000000000000000e+03
1.220000000000000000e+03
1.231000000000000000e+03
1.243000000000000000e+03
1.252000000000000000e+03
1.263000000000000000e+03
1.271000000000000000e+03
1.279000000000000000e+03
1.287000000000000000e+03
1.292000000000000000e+03
1.303000000000000000e+03
1.313000000000000000e+03
1.322000000000000000e+03
1.328000000000000000e+03
1.335000000000000000e+03
1.348000000000000000e+03
1.359000000000000000e+03
1.370000000000000000e+03
1.381000000000000000e+03
1.396000000000000000e+03
1.403000000000000000e+03
1.419000000000000000e+03
1.425000000000000000e+03
1.440000000000000000e+03
1.449000000000000000e+03
1.459000000000000000e+03
1.473000000000000000e+03
1.483000000000000000e+03
1.498000000000000000e+03
1.509000000000000000e+03
1.530000000000000000e+03
1.545000000000000000e+03
1.554000000000000000e+03
1.565000000000000000e+03
1.574000000000000000e+03
1.583000000000000000e+03
1.593000000000000000e+03
1.601000000000000000e+03
1.612000000000000000e+03
1.621000000000000000e+03
1.633000000000000000e+03
1.641000000000000000e+03
1.648000000000000000e+03
1.663000000000000000e+03
1.682000000000000000e+03
1.692000000000000000e+03
1.699000000000000000e+03
1.712000000000000000e+03
1.722000000000000000e+03
1.734000000000000000e+03
1.745000000000000000e+03
1.756000000000000000e+03
1.765000000000000000e+03
1.782000000000000000e+03
1.794000000000000000e+03
1.803000000000000000e+03
1.813000000000000000e+03
1.826000000000000000e+03
1.839000000000000000e+03
1.857000000000000000e+03
1.866000000000000000e+03
1.877000000000000000e+03
1.897000000000000000e+03
1.914000000000000000e+03
1.921000000000000000e+03
1.936000000000000000e+03
1.947000000000000000e+03
1.959000000000000000e+03
1.965000000000000000e+03
1.973000000000000000e+03
1.984000000000000000e+03
1.994000000000000000e+03
2.007000000000000000e+03
2.021000000000000000e+03
2.035000000000000000e+03
2.049000000000000000e+03
2.068000000000000000e+03
2.090000000000000000e+03
2.106000000000000000e+03
2.125000000000000000e+03
2.142000000000000000e+03
2.163000000000000000e+03
2.178000000000000000e+03
2.197000000000000000e+03
2.219000000000000000e+03
2.232000000000000000e+03
2.250000000000000000e+03
2.269000000000000000e+03
2.291000000000000000e+03
2.306000000000000000e+03
2.323000000000000000e+03
2.334000000000000000e+03
2.352000000000000000e+03
2.366000000000000000e+03
2.390000000000000000e+03
2.411000000000000000e+03
2.427000000000000000e+03
2.446000000000000000e+03
2.466000000000000000e+03
2.485000000000000000e+03
2.505000000000000000e+03
2.530000000000000000e+03
2.551000000000000000e+03
2.577000000000000000e+03
2.598000000000000000e+03
2.619000000000000000e+03
2.634000000000000000e+03
2.653000000000000000e+03
2.671000000000000000e+03
2.690000000000000000e+03
2.714000000000000000e+03
2.734000000000000000e+03
2.754000000000000000e+03
2.768000000000000000e+03
2.788000000000000000e+03
2.809000000000000000e+03
2.831000000000000000e+03
2.844000000000000000e+03
2.858000000000000000e+03
2.877000000000000000e+03
2.897000000000000000e+03
2.922000000000000000e+03
2.949000000000000000e+03
2.965000000000000000e+03
2.987000000000000000e+03
3.005000000000000000e+03
3.027000000000000000e+03
3.052000000000000000e+03
3.077000000000000000e+03
3.094000000000000000e+03
3.120000000000000000e+03
3.140000000000000000e+03
3.162000000000000000e+03
3.182000000000000000e+03
3.197000000000000000e+03
3.211000000000000000e+03
3.232000000000000000e+03
3.251000000000000000e+03
3.272000000000000000e+03
3.295000000000000000e+03
3.320000000000000000e+03
3.353000000000000000e+03
3.383000000000000000e+03
3.410000000000000000e+03
3.436000000000000000e+03
3.463000000000000000e+03
3.479000000000000000e+03
3.505000000000000000e+03
3.536000000000000000e+03
3.558000000000000000e+03
3.587000000000000000e+03
3.624000000000000000e+03
3.649000000000000000e+03
3.671000000000000000e+03
3.689000000000000000e+03
3.716000000000000000e+03
3.745000000000000000e+03
3.776000000000000000e+03
3.805000000000000000e+03
3.840000000000000000e+03
3.873000000000000000e+03
3.905000000000000000e+03
3.934000000000000000e+03
3.964000000000000000e+03
3.985000000000000000e+03
4.013000000000000000e+03
4.040000000000000000e+03
4.073000000000000000e+03
4.099000000000000000e+03
4.119000000000000000e+03
4.150000000000000000e+03
4.171000000000000000e+03
4.192000000000000000e+03
4.229000000000000000e+03
4.261000000000000000e+03
4.288000000000000000e+03
4.325000000000000000e+03
4.354000000000000000e+03
4.386000000000000000e+03
4.418000000000000000e+03
4.447000000000000000e+03
4.483000000000000000e+03
4.517000000000000000e+03
4.542000000000000000e+03
4.576000000000000000e+03
4.606000000000000000e+03
4.639000000000000000e+03
4.676000000000000000e+03
4.706000000000000000e+03
4.740000000000000000e+03
4.777000000000000000e+03
4.816000000000000000e+03
4.849000000000000000e+03
4.878000000000000000e+03
4.912000000000000000e+03
4.955000000000000000e+03
4.992000000000000000e+03
5.040000000000000000e+03
5.073000000000000000e+03
5.112000000000000000e+03
5.137000000000000000e+03
5.174000000000000000e+03
5.213000000000000000e+03
5.258000000000000000e+03
5.285000000000000000e+03
5.330000000000000000e+03
5.371000000000000000e+03
5.416000000000000000e+03
5.456000000000000000e+03
5.499000000000000000e+03
5.545000000000000000e+03
5.588000000000000000e+03
5.640000000000000000e+03
5.682000000000000000e+03
5.726000000000000000e+03
5.772000000000000000e+03
5.811000000000000000e+03
5.858000000000000000e+03
5.895000000000000000e+03
5.933000000000000000e+03
5.974000000000000000e+03
6.020000000000000000e+03
6.070000000000000000e+03
6.133000000000000000e+03
6.189000000000000000e+03
6.238000000000000000e+03
6.281000000000000000e+03
6.313000000000000000e+03
6.346000000000000000e+03
6.397000000000000000e+03
6.450000000000000000e+03
6.486000000000000000e+03
6.541000000000000000e+03
6.589000000000000000e+03
6.633000000000000000e+03
6.675000000000000000e+03
6.720000000000000000e+03
6.766000000000000000e+03
6.801000000000000000e+03
6.860000000000000000e+03
6.900000000000000000e+03
6.952000000000000000e+03
6.993000000000000000e+03
7.038000000000000000e+03
7.089000000000000000e+03
7.149000000000000000e+03
7.212000000000000000e+03
7.261000000000000000e+03
7.322000000000000000e+03
7.372000000000000000e+03
7.427000000000000000e+03
7.470000000000000000e+03
7.533000000000000000e+03
7.589000000000000000e+03
7.636000000000000000e+03
7.681000000000000000e+03
7.727000000000000000e+03
7.777000000000000000e+03
7.845000000000000000e+03
7.901000000000000000e+03
7.957000000000000000e+03
8.025000000000000000e+03
8.072000000000000000e+03
8.127000000000000000e+03
8.180000000000000000e+03
8.240000000000000000e+03
8.287000000000000000e+03
8.355000000000000000e+03
8.423000000000000000e+03
8.501000000000000000e+03
8.559000000000000000e+03
8.639000000000000000e+03
8.717000000000000000e+03
8.776000000000000000e+03
8.835000000000000000e+03
8.902000000000000000e+03
8.967000000000000000e+03
9.031000000000000000e+03
9.091000000000000000e+03
9.158000000000000000e+03
9.231000000000000000e+03
9.307000000000000000e+03
9.373000000000000000e+03
9.443000000000000000e+03
9.501000000000000000e+03
9.573000000000000000e+03
9.649000000000000000e+03
9.719000000000000000e+03
9.794000000000000000e+03
9.861000000000000000e+03
9.940000000000000000e+03
1.001800000000000000e+04
1.010200000000000000e+04
1.018500000000000000e+04
1.027400000000000000e+04
1.033600000000000000e+04
1.041500000000000000e+04
1.049200000000000000e+04
1.056500000000000000e+04
1.064800000000000000e+04
1.071400000000000000e+04
1.079700000000000000e+04
1.086500000000000000e+04
1.096200000000000000e+04
1.103100000000000000e+04
1.111200000000000000e+04
1.119600000000000000e+04
1.127800000000000000e+04
1.136600000000000000e+04
1.145300000000000000e+04
1.153700000000000000e+04
1.163300000000000000e+04
1.171800000000000000e+04
1.179300000000000000e+04
1.187600000000000000e+04
1.197100000000000000e+04
1.206600000000000000e+04
1.214900000000000000e+04
1.222000000000000000e+04
1.229900000000000000e+04
1.238700000000000000e+04
1.247300000000000000e+04
1.258200000000000000e+04
1.266400000000000000e+04
1.279700000000000000e+04
1.289300000000000000e+04
1.297400000000000000e+04
1.307000000000000000e+04
1.315100000000000000e+04
1.325900000000000000e+04
1.335100000000000000e+04
1.343400000000000000e+04
1.355500000000000000e+04
1.365700000000000000e+04
1.374800000000000000e+04
1.382900000000000000e+04
1.390900000000000000e+04
