1.000000000000000000e+00
2.000000000000000000e+00
2.000000000000000000e+00
2.000000000000000000e+00
2.000000000000000000e+00
2.000000000000000000e+00
3.000000000000000000e+00
4.000000000000000000e+00
5.000000000000000000e+00
6.000000000000000000e+00
6.000000000000000000e+00
8.000000000000000000e+00
9.000000000000000000e+00
9.000000000000000000e+00
1.000000000000000000e+01
1.200000000000000000e+01
1.400000000000000000e+01
1.800000000000000000e+01
1.900000000000000000e+01
2.000000000000000000e+01
2.400000000000000000e+01
2.400000000000000000e+01
3.000000000000000000e+01
3.400000000000000000e+01
4.100000000000000000e+01
4.800000000000000000e+01
5.500000000000000000e+01
6.000000000000000000e+01
7.100000000000000000e+01
8.400000000000000000e+01
9.700000000000000000e+01
1.090000000000000000e+02
1.250000000000000000e+02
1.410000000000000000e+02
1.700000000000000000e+02
1.970000000000000000e+02
2.340000000000000000e+02
2.630000000000000000e+02
2.960000000000000000e+02
3.500000000000000000e+02
4.040000000000000000e+02
4.600000000000000000e+02
5.310000000000000000e+02
6.170000000000000000e+02
7.330000000000000000e+02
8.310000000000000000e+02
9.660000000000000000e+02
1.114000000000000000e+03
1.302000000000000000e+03
1.498000000000000000e+03
1.728000000000000000e+03
2.025000000000000000e+03
2.316000000000000000e+03
2.679000000000000000e+03
3.108000000000000000e+03
3.587000000000000000e+03
4.155000000000000000e+03
4.804000000000000000e+03
5.562000000000000000e+03
6.424000000000000000e+03
7.438000000000000000e+03
8.562000000000000000e+03
9.915000000000000000e+03
1.147900000000000000e+04
1.332000000000000000e+04
1.538700000000000000e+04
1.775600000000000000e+04
2.056500000000000000e+04
2.383300000000000000e+04
2.760800000000000000e+04
3.204000000000000000e+04
3.690700000000000000e+04
4.270900000000000000e+04
4.936200000000000000e+04
5.711900000000000000e+04
6.624800000000000000e+04
