1.000000000000000000e+00
2.000000000000000000e+00
2.000000000000000000e+00
2.000000000000000000e+00
2.000000000000000000e+00
3.000000000000000000e+00
3.000000000000000000e+00
3.000000000000000000e+00
3.000000000000000000e+00
5.000000000000000000e+00
5.000000000000000000e+00
5.000000000000000000e+00
5.000000000000000000e+00
5.000000000000000000e+00
6.000000000000000000e+00
6.000000000000000000e+00
8.000000000000000000e+00
9.000000000000000000e+00
1.000000000000000000e+01
1.100000000000000000e+01
1.300000000000000000e+01
1.400000000000000000e+01
1.700000000000000000e+01
2.000000000000000000e+01
2.400000000000000000e+01
2.700000000000000000e+01
2.900000000000000000e+01
3.500000000000000000e+01
4.100000000000000000e+01
4.500000000000000000e+01
5.100000000000000000e+01
6.000000000000000000e+01
7.500000000000000000e+01
8.800000000000000000e+01
9.600000000000000000e+01
1.110000000000000000e+02
1.270000000000000000e+02
1.430000000000000000e+02
1.700000000000000000e+02
1.970000000000000000e+02
2.280000000000000000e+02
2.660000000000000000e+02
3.050000000000000000e+02
3.620000000000000000e+02
4.130000000000000000e+02
4.810000000000000000e+02
5.480000000000000000e+02
6.340000000000000000e+02
7.450000000000000000e+02
8.690000000000000000e+02
1.008000000000000000e+03
1.154000000000000000e+03
1.347000000000000000e+03
1.572000000000000000e+03
1.810000000000000000e+03
2.093000000000000000e+03
2.399000000000000000e+03
2.787000000000000000e+03
3.240000000000000000e+03
3.740000000000000000e+03
4.335000000000000000e+03
5.022000000000000000e+03
5.762000000000000000e+03
6.720000000000000000e+03
7.775000000000000000e+03
9.050000000000000000e+03
1.048300000000000000e+04
1.206000000000000000e+04
1.396700000000000000e+04
1.616300000000000000e+04
1.871100000000000000e+04
2.160700000000000000e+04
2.498600000000000000e+04
2.895500000000000000e+04
3.347800000000000000e+04
3.872600000000000000e+04
