1.000000000000000000e+00
2.000000000000000000e+00
2.000000000000000000e+00
2.000000000000000000e+00
3.000000000000000000e+00
3.000000000000000000e+00
3.000000000000000000e+00
3.000000000000000000e+00
5.000000000000000000e+00
5.000000000000000000e+00
5.000000000000000000e+00
5.000000000000000000e+00
5.000000000000000000e+00
9.000000000000000000e+00
9.000000000000000000e+00
9.000000000000000000e+00
1.000000000000000000e+01
1.400000000000000000e+01
1.400000000000000000e+01
1.500000000000000000e+01
1.900000000000000000e+01
2.600000000000000000e+01
2.700000000000000000e+01
3.000000000000000000e+01
3.500000000000000000e+01
4.100000000000000000e+01
5.100000000000000000e+01
5.900000000000000000e+01
6.300000000000000000e+01
7.400000000000000000e+01
8.700000000000000000e+01
9.800000000000000000e+01
1.150000000000000000e+02
1.410000000000000000e+02
1.590000000000000000e+02
1.910000000000000000e+02
2.240000000000000000e+02
2.390000000000000000e+02
2.900000000000000000e+02
3.370000000000000000e+02
3.930000000000000000e+02
4.490000000000000000e+02
5.150000000000000000e+02
5.960000000000000000e+02
6.800000000000000000e+02
8.010000000000000000e+02
9.160000000000000000e+02
1.049000000000000000e+03
1.221000000000000000e+03
1.410000000000000000e+03
1.627000000000000000e+03
1.865000000000000000e+03
2.149000000000000000e+03
2.504000000000000000e+03
2.878000000000000000e+03
3.325000000000000000e+03
3.858000000000000000e+03
4.464000000000000000e+03
5.219000000000000000e+03
5.993000000000000000e+03
6.981000000000000000e+03
8.070000000000000000e+03
9.300000000000000000e+03
1.078500000000000000e+04
1.246200000000000000e+04
1.442800000000000000e+04
1.671900000000000000e+04
1.936300000000000000e+04
2.237800000000000000e+04
2.594700000000000000e+04
2.996500000000000000e+04
3.471100000000000000e+04
4.018800000000000000e+04
4.661000000000000000e+04
5.388900000000000000e+04
6.219600000000000000e+04
