1.000000000000000000e+00
2.000000000000000000e+00
2.000000000000000000e+00
2.000000000000000000e+00
2.000000000000000000e+00
2.000000000000000000e+00
2.000000000000000000e+00
2.000000000000000000e+00
2.000000000000000000e+00
2.000000000000000000e+00
2.000000000000000000e+00
2.000000000000000000e+00
2.000000000000000000e+00
2.000000000000000000e+00
2.000000000000000000e+00
2.000000000000000000e+00
2.000000000000000000e+00
2.000000000000000000e+00
2.000000000000000000e+00
2.000000000000000000e+00
2.000000000000000000e+00
2.000000000000000000e+00
2.000000000000000000e+00
2.000000000000000000e+00
2.000000000000000000e+00
2.000000000000000000e+00
2.000000000000000000e+00
2.000000000000000000e+00
2.000000000000000000e+00
2.000000000000000000e+00
2.000000000000000000e+00
2.000000000000000000e+00
2.000000000000000000e+00
2.000000000000000000e+00
2.000000000000000000e+00
2.000000000000000000e+00
2.000000000000000000e+00
2.000000000000000000e+00
2.000000000000000000e+00
2.000000000000000000e+00
2.000000000000000000e+00
2.000000000000000000e+00
2.000000000000000000e+00
2.000000000000000000e+00
2.000000000000000000e+00
2.000000000000000000e+00
2.000000000000000000e+00
2.000000000000000000e+00
2.000000000000000000e+00
2.000000000000000000e+00
2.000000000000000000e+00
2.000000000000000000e+00
2.000000000000000000e+00
2.000000000000000000e+00
3.000000000000000000e+00
3.000000000000000000e+00
3.000000000000000000e+00
3.000000000000000000e+00
3.000000000000000000e+00
3.000000000000000000e+00
3.000000000000000000e+00
3.000000000000000000e+00
3.000000000000000000e+00
3.000000000000000000e+00
3.000000000000000000e+00
3.000000000000000000e+00
3.000000000000000000e+00
3.000000000000000000e+00
3.000000000000000000e+00
3.000000000000000000e+00
3.000000000000000000e+00
3.000000000000000000e+00
3.000000000000000000e+00
3.000000000000000000e+00
3.000000000000000000e+00
3.000000000000000000e+00
3.000000000000000000e+00
3.000000000000000000e+00
3.000000000000000000e+00
3.000000000000000000e+00
3.000000000000000000e+00
3.000000000000000000e+00
3.000000000000000000e+00
3.000000000000000000e+00
3.000000000000000000e+00
3.000000000000000000e+00
3.000000000000000000e+00
3.000000000000000000e+00
3.000000000000000000e+00
3.000000000000000000e+00
3.000000000000000000e+00
3.000000000000000000e+00
3.000000000000000000e+00
3.000000000000000000e+00
3.000000000000000000e+00
3.000000000000000000e+00
3.000000000000000000e+00
3.000000000000000000e+00
3.000000000000000000e+00
3.000000000000000000e+00
3.000000000000000000e+00
3.000000000000000000e+00
3.000000000000000000e+00
3.000000000000000000e+00
3.000000000000000000e+00
3.000000000000000000e+00
3.000000000000000000e+00
3.000000000000000000e+00
3.000000000000000000e+00
3.000000000000000000e+00
3.000000000000000000e+00
3.000000000000000000e+00
3.000000000000000000e+00
3.000000000000000000e+00
3.000000000000000000e+00
3.000000000000000000e+00
3.000000000000000000e+00
3.000000000000000000e+00
3.000000000000000000e+00
3.000000000000000000e+00
3.000000000000000000e+00
3.000000000000000000e+00
3.000000000000000000e+00
3.000000000000000000e+00
3.000000000000000000e+00
3.000000000000000000e+00
3.000000000000000000e+00
3.000000000000000000e+00
3.000000000000000000e+00
3.000000000000000000e+00
3.000000000000000000e+00
3.000000000000000000e+00
3.000000000000000000e+00
3.000000000000000000e+00
3.000000000000000000e+00
3.000000000000000000e+00
3.000000000000000000e+00
3.000000000000000000e+00
3.000000000000000000e+00
3.000000000000000000e+00
3.000000000000000000e+00
3.000000000000000000e+00
3.000000000000000000e+00
3.000000000000000000e+00
3.000000000000000000e+00
3.000000000000000000e+00
3.000000000000000000e+00
3.000000000000000000e+00
3.000000000000000000e+00
3.000000000000000000e+00
3.000000000000000000e+00
3.000000000000000000e+00
3.000000000000000000e+00
3.000000000000000000e+00
3.000000000000000000e+00
3.000000000000000000e+00
4.000000000000000000e+00
4.000000000000000000e+00
4.000000000000000000e+00
4.000000000000000000e+00
4.000000000000000000e+00
4.000000000000000000e+00
4.000000000000000000e+00
4.000000000000000000e+00
4.000000000000000000e+00
4.000000000000000000e+00
4.000000000000000000e+00
4.000000000000000000e+00
4.000000000000000000e+00
4.000000000000000000e+00
4.000000000000000000e+00
4.000000000000000000e+00
4.000000000000000000e+00
4.000000000000000000e+00
4.000000000000000000e+00
4.000000000000000000e+00
4.000000000000000000e+00
4.000000000000000000e+00
4.000000000000000000e+00
4.000000000000000000e+00
4.000000000000000000e+00
4.000000000000000000e+00
4.000000000000000000e+00
4.000000000000000000e+00
4.000000000000000000e+00
4.000000000000000000e+00
4.000000000000000000e+00
4.000000000000000000e+00
4.000000000000000000e+00
4.000000000000000000e+00
4.000000000000000000e+00
4.000000000000000000e+00
4.000000000000000000e+00
4.000000000000000000e+00
4.000000000000000000e+00
4.000000000000000000e+00
4.000000000000000000e+00
4.000000000000000000e+00
4.000000000000000000e+00
4.000000000000000000e+00
4.000000000000000000e+00
4.000000000000000000e+00
4.000000000000000000e+00
4.000000000000000000e+00
4.000000000000000000e+00
4.000000000000000000e+00
4.000000000000000000e+00
4.000000000000000000e+00
4.000000000000000000e+00
4.000000000000000000e+00
4.000000000000000000e+00
4.000000000000000000e+00
4.000000000000000000e+00
4.000000000000000000e+00
4.000000000000000000e+00
4.000000000000000000e+00
4.000000000000000000e+00
4.000000000000000000e+00
4.000000000000000000e+00
4.000000000000000000e+00
4.000000000000000000e+00
4.000000000000000000e+00
4.000000000000000000e+00
4.000000000000000000e+00
4.000000000000000000e+00
4.000000000000000000e+00
4.000000000000000000e+00
4.000000000000000000e+00
4.000000000000000000e+00
4.000000000000000000e+00
4.000000000000000000e+00
5.000000000000000000e+00
5.000000000000000000e+00
5.000000000000000000e+00
5.000000000000000000e+00
5.000000000000000000e+00
5.000000000000000000e+00
5.000000000000000000e+00
5.000000000000000000e+00
5.000000000000000000e+00
6.000000000000000000e+00
6.000000000000000000e+00
6.000000000000000000e+00
6.000000000000000000e+00
6.000000000000000000e+00
6.000000000000000000e+00
6.000000000000000000e+00
6.000000000000000000e+00
6.000000000000000000e+00
6.000000000000000000e+00
6.000000000000000000e+00
6.000000000000000000e+00
6.000000000000000000e+00
6.000000000000000000e+00
6.000000000000000000e+00
6.000000000000000000e+00
6.000000000000000000e+00
6.000000000000000000e+00
6.000000000000000000e+00
6.000000000000000000e+00
6.000000000000000000e+00
6.000000000000000000e+00
6.000000000000000000e+00
6.000000000000000000e+00
6.000000000000000000e+00
7.000000000000000000e+00
7.000000000000000000e+00
7.000000000000000000e+00
7.000000000000000000e+00
7.000000000000000000e+00
7.000000000000000000e+00
7.000000000000000000e+00
7.000000000000000000e+00
7.000000000000000000e+00
7.000000000000000000e+00
7.000000000000000000e+00
7.000000000000000000e+00
7.000000000000000000e+00
7.000000000000000000e+00
7.000000000000000000e+00
7.000000000000000000e+00
7.000000000000000000e+00
7.000000000000000000e+00
7.000000000000000000e+00
7.000000000000000000e+00
7.000000000000000000e+00
7.000000000000000000e+00
8.000000000000000000e+00
8.000000000000000000e+00
8.000000000000000000e+00
8.000000000000000000e+00
8.000000000000000000e+00
8.000000000000000000e+00
8.000000000000000000e+00
8.000000000000000000e+00
8.000000000000000000e+00
8.000000000000000000e+00
8.000000000000000000e+00
8.000000000000000000e+00
8.000000000000000000e+00
8.000000000000000000e+00
8.000000000000000000e+00
8.000000000000000000e+00
8.000000000000000000e+00
8.000000000000000000e+00
8.000000000000000000e+00
8.000000000000000000e+00
8.000000000000000000e+00
8.000000000000000000e+00
8.000000000000000000e+00
8.000000000000000000e+00
8.000000000000000000e+00
8.000000000000000000e+00
8.000000000000000000e+00
8.000000000000000000e+00
8.000000000000000000e+00
8.000000000000000000e+00
8.000000000000000000e+00
8.000000000000000000e+00
8.000000000000000000e+00
8.000000000000000000e+00
8.000000000000000000e+00
8.000000000000000000e+00
8.000000000000000000e+00
8.000000000000000000e+00
8.000000000000000000e+00
8.000000000000000000e+00
8.000000000000000000e+00
9.000000000000000000e+00
9.000000000000000000e+00
9.000000000000000000e+00
9.000000000000000000e+00
9.000000000000000000e+00
9.000000000000000000e+00
9.000000000000000000e+00
9.000000000000000000e+00
9.000000000000000000e+00
9.000000000000000000e+00
9.000000000000000000e+00
9.000000000000000000e+00
1.000000000000000000e+01
1.000000000000000000e+01
1.000000000000000000e+01
1.000000000000000000e+01
1.000000000000000000e+01
1.000000000000000000e+01
1.100000000000000000e+01
1.100000000000000000e+01
1.100000000000000000e+01
1.100000000000000000e+01
1.100000000000000000e+01
1.100000000000000000e+01
1.100000000000000000e+01
1.100000000000000000e+01
1.100000000000000000e+01
1.100000000000000000e+01
1.100000000000000000e+01
1.100000000000000000e+01
1.100000000000000000e+01
1.100000000000000000e+01
1.100000000000000000e+01
1.100000000000000000e+01
1.200000000000000000e+01
1.200000000000000000e+01
1.200000000000000000e+01
1.300000000000000000e+01
1.300000000000000000e+01
1.300000000000000000e+01
1.300000000000000000e+01
1.300000000000000000e+01
1.300000000000000000e+01
1.300000000000000000e+01
1.300000000000000000e+01
1.300000000000000000e+01
1.300000000000000000e+01
1.300000000000000000e+01
1.300000000000000000e+01
1.300000000000000000e+01
1.300000000000000000e+01
1.300000000000000000e+01
1.300000000000000000e+01
1.300000000000000000e+01
1.300000000000000000e+01
1.300000000000000000e+01
1.300000000000000000e+01
1.300000000000000000e+01
1.300000000000000000e+01
1.400000000000000000e+01
1.400000000000000000e+01
1.400000000000000000e+01
1.400000000000000000e+01
1.400000000000000000e+01
1.400000000000000000e+01
1.400000000000000000e+01
1.400000000000000000e+01
1.400000000000000000e+01
1.400000000000000000e+01
1.500000000000000000e+01
1.500000000000000000e+01
1.500000000000000000e+01
1.500000000000000000e+01
1.500000000000000000e+01
1.500000000000000000e+01
1.500000000000000000e+01
1.500000000000000000e+01
1.500000000000000000e+01
1.600000000000000000e+01
1.600000000000000000e+01
1.600000000000000000e+01
1.600000000000000000e+01
1.600000000000000000e+01
1.600000000000000000e+01
1.600000000000000000e+01
1.600000000000000000e+01
1.600000000000000000e+01
1.600000000000000000e+01
1.600000000000000000e+01
1.600000000000000000e+01
1.600000000000000000e+01
1.600000000000000000e+01
1.700000000000000000e+01
1.700000000000000000e+01
1.700000000000000000e+01
1.700000000000000000e+01
1.700000000000000000e+01
1.700000000000000000e+01
1.700000000000000000e+01
1.800000000000000000e+01
1.800000000000000000e+01
1.900000000000000000e+01
1.900000000000000000e+01
1.900000000000000000e+01
1.900000000000000000e+01
1.900000000000000000e+01
1.900000000000000000e+01
1.900000000000000000e+01
1.900000000000000000e+01
1.900000000000000000e+01
1.900000000000000000e+01
1.900000000000000000e+01
1.900000000000000000e+01
1.900000000000000000e+01
1.900000000000000000e+01
1.900000000000000000e+01
2.000000000000000000e+01
2.000000000000000000e+01
2.000000000000000000e+01
2.000000000000000000e+01
2.000000000000000000e+01
2.000000000000000000e+01
2.200000000000000000e+01
2.300000000000000000e+01
2.300000000000000000e+01
2.300000000000000000e+01
2.300000000000000000e+01
2.400000000000000000e+01
2.400000000000000000e+01
2.400000000000000000e+01
2.400000000000000000e+01
2.400000000000000000e+01
2.400000000000000000e+01
2.400000000000000000e+01
2.400000000000000000e+01
2.400000000000000000e+01
2.400000000000000000e+01
2.400000000000000000e+01
2.400000000000000000e+01
2.400000000000000000e+01
2.400000000000000000e+01
2.400000000000000000e+01
2.400000000000000000e+01
2.400000000000000000e+01
2.400000000000000000e+01
2.400000000000000000e+01
2.400000000000000000e+01
2.400000000000000000e+01
2.400000000000000000e+01
2.400000000000000000e+01
2.400000000000000000e+01
2.500000000000000000e+01
2.500000000000000000e+01
2.500000000000000000e+01
2.500000000000000000e+01
2.600000000000000000e+01
2.700000000000000000e+01
2.800000000000000000e+01
2.800000000000000000e+01
2.800000000000000000e+01
2.800000000000000000e+01
2.800000000000000000e+01
2.800000000000000000e+01
2.800000000000000000e+01
2.800000000000000000e+01
2.800000000000000000e+01
2.900000000000000000e+01
2.900000000000000000e+01
2.900000000000000000e+01
2.900000000000000000e+01
2.900000000000000000e+01
2.900000000000000000e+01
2.900000000000000000e+01
2.900000000000000000e+01
3.000000000000000000e+01
3.100000000000000000e+01
3.100000000000000000e+01
3.100000000000000000e+01
3.100000000000000000e+01
3.100000000000000000e+01
3.100000000000000000e+01
3.200000000000000000e+01
3.300000000000000000e+01
3.300000000000000000e+01
3.300000000000000000e+01
3.300000000000000000e+01
3.300000000000000000e+01
3.300000000000000000e+01
3.300000000000000000e+01
3.300000000000000000e+01
3.300000000000000000e+01
3.300000000000000000e+01
3.400000000000000000e+01
3.400000000000000000e+01
3.500000000000000000e+01
3.500000000000000000e+01
3.500000000000000000e+01
3.500000000000000000e+01
3.600000000000000000e+01
3.600000000000000000e+01
3.600000000000000000e+01
3.700000000000000000e+01
3.900000000000000000e+01
3.900000000000000000e+01
3.900000000000000000e+01
4.000000000000000000e+01
4.000000000000000000e+01
4.000000000000000000e+01
4.000000000000000000e+01
4.000000000000000000e+01
4.000000000000000000e+01
4.000000000000000000e+01
4.000000000000000000e+01
4.000000000000000000e+01
4.100000000000000000e+01
4.100000000000000000e+01
4.100000000000000000e+01
4.200000000000000000e+01
4.400000000000000000e+01
4.400000000000000000e+01
4.500000000000000000e+01
4.500000000000000000e+01
4.500000000000000000e+01
4.500000000000000000e+01
4.500000000000000000e+01
4.500000000000000000e+01
4.500000000000000000e+01
4.500000000000000000e+01
4.500000000000000000e+01
4.500000000000000000e+01
4.600000000000000000e+01
4.600000000000000000e+01
4.700000000000000000e+01
4.700000000000000000e+01
4.700000000000000000e+01
4.800000000000000000e+01
4.800000000000000000e+01
4.800000000000000000e+01
4.800000000000000000e+01
4.800000000000000000e+01
4.800000000000000000e+01
5.000000000000000000e+01
5.000000000000000000e+01
5.000000000000000000e+01
5.000000000000000000e+01
5.000000000000000000e+01
5.000000000000000000e+01
5.000000000000000000e+01
5.000000000000000000e+01
5.100000000000000000e+01
5.100000000000000000e+01
5.200000000000000000e+01
5.200000000000000000e+01
5.200000000000000000e+01
5.200000000000000000e+01
5.500000000000000000e+01
5.500000000000000000e+01
5.500000000000000000e+01
5.500000000000000000e+01
5.600000000000000000e+01
5.600000000000000000e+01
5.600000000000000000e+01
5.600000000000000000e+01
5.800000000000000000e+01
5.800000000000000000e+01
5.800000000000000000e+01
5.800000000000000000e+01
5.900000000000000000e+01
5.900000000000000000e+01
6.000000000000000000e+01
6.000000000000000000e+01
6.000000000000000000e+01
6.100000000000000000e+01
6.200000000000000000e+01
6.300000000000000000e+01
6.300000000000000000e+01
6.300000000000000000e+01
6.300000000000000000e+01
6.400000000000000000e+01
6.500000000000000000e+01
6.500000000000000000e+01
6.500000000000000000e+01
6.500000000000000000e+01
6.600000000000000000e+01
6.700000000000000000e+01
6.700000000000000000e+01
6.700000000000000000e+01
6.700000000000000000e+01
6.700000000000000000e+01
6.700000000000000000e+01
6.700000000000000000e+01
6.700000000000000000e+01
6.900000000000000000e+01
6.900000000000000000e+01
6.900000000000000000e+01
7.000000000000000000e+01
7.300000000000000000e+01
7.400000000000000000e+01
7.500000000000000000e+01
7.600000000000000000e+01
7.600000000000000000e+01
7.700000000000000000e+01
7.700000000000000000e+01
7.700000000000000000e+01
7.900000000000000000e+01
7.900000000000000000e+01
7.900000000000000000e+01
8.100000000000000000e+01
8.100000000000000000e+01
8.100000000000000000e+01
8.100000000000000000e+01
8.200000000000000000e+01
8.200000000000000000e+01
8.200000000000000000e+01
8.200000000000000000e+01
8.200000000000000000e+01
8.300000000000000000e+01
8.300000000000000000e+01
8.400000000000000000e+01
8.600000000000000000e+01
8.600000000000000000e+01
8.700000000000000000e+01
8.800000000000000000e+01
8.800000000000000000e+01
8.800000000000000000e+01
9.000000000000000000e+01
9.000000000000000000e+01
9.000000000000000000e+01
9.100000000000000000e+01
9.100000000000000000e+01
9.100000000000000000e+01
9.300000000000000000e+01
9.400000000000000000e+01
9.400000000000000000e+01
9.400000000000000000e+01
9.400000000000000000e+01
9.400000000000000000e+01
9.500000000000000000e+01
9.600000000000000000e+01
9.600000000000000000e+01
9.600000000000000000e+01
9.600000000000000000e+01
9.700000000000000000e+01
9.700000000000000000e+01
9.800000000000000000e+01
9.800000000000000000e+01
9.800000000000000000e+01
1.010000000000000000e+02
1.030000000000000000e+02
1.030000000000000000e+02
1.050000000000000000e+02
1.050000000000000000e+02
1.060000000000000000e+02
1.080000000000000000e+02
1.110000000000000000e+02
1.120000000000000000e+02
1.120000000000000000e+02
1.130000000000000000e+02
1.140000000000000000e+02
1.150000000000000000e+02
1.160000000000000000e+02
1.170000000000000000e+02
1.180000000000000000e+02
1.190000000000000000e+02
1.200000000000000000e+02
1.200000000000000000e+02
1.200000000000000000e+02
1.200000000000000000e+02
1.200000000000000000e+02
1.200000000000000000e+02
1.210000000000000000e+02
1.220000000000000000e+02
1.230000000000000000e+02
1.240000000000000000e+02
1.240000000000000000e+02
1.250000000000000000e+02
1.270000000000000000e+02
1.270000000000000000e+02
1.280000000000000000e+02
1.290000000000000000e+02
1.300000000000000000e+02
1.340000000000000000e+02
1.360000000000000000e+02
1.360000000000000000e+02
1.370000000000000000e+02
1.380000000000000000e+02
1.390000000000000000e+02
1.390000000000000000e+02
1.410000000000000000e+02
1.410000000000000000e+02
1.420000000000000000e+02
1.450000000000000000e+02
1.460000000000000000e+02
1.480000000000000000e+02
1.500000000000000000e+02
1.510000000000000000e+02
1.520000000000000000e+02
1.520000000000000000e+02
1.520000000000000000e+02
1.540000000000000000e+02
1.560000000000000000e+02
1.560000000000000000e+02
1.570000000000000000e+02
1.570000000000000000e+02
1.570000000000000000e+02
1.590000000000000000e+02
1.600000000000000000e+02
1.610000000000000000e+02
1.610000000000000000e+02
1.660000000000000000e+02
1.670000000000000000e+02
1.670000000000000000e+02
1.710000000000000000e+02
1.710000000000000000e+02
1.740000000000000000e+02
1.740000000000000000e+02
1.740000000000000000e+02
1.750000000000000000e+02
1.750000000000000000e+02
1.770000000000000000e+02
1.770000000000000000e+02
1.790000000000000000e+02
1.800000000000000000e+02
1.800000000000000000e+02
1.810000000000000000e+02
1.830000000000000000e+02
1.830000000000000000e+02
1.850000000000000000e+02
1.870000000000000000e+02
1.890000000000000000e+02
1.890000000000000000e+02
1.900000000000000000e+02
1.910000000000000000e+02
1.930000000000000000e+02
1.970000000000000000e+02
2.000000000000000000e+02
2.020000000000000000e+02
2.030000000000000000e+02
2.030000000000000000e+02
2.050000000000000000e+02
2.090000000000000000e+02
2.120000000000000000e+02
2.120000000000000000e+02
2.150000000000000000e+02
2.160000000000000000e+02
2.180000000000000000e+02
2.180000000000000000e+02
2.190000000000000000e+02
2.200000000000000000e+02
2.200000000000000000e+02
2.210000000000000000e+02
2.210000000000000000e+02
2.220000000000000000e+02
2.250000000000000000e+02
2.280000000000000000e+02
2.300000000000000000e+02
2.300000000000000000e+02
2.340000000000000000e+02
2.360000000000000000e+02
2.370000000000000000e+02
2.380000000000000000e+02
2.410000000000000000e+02
2.440000000000000000e+02
2.440000000000000000e+02
2.480000000000000000e+02
2.480000000000000000e+02
2.520000000000000000e+02
2.560000000000000000e+02
2.570000000000000000e+02
2.590000000000000000e+02
2.630000000000000000e+02
2.660000000000000000e+02
2.690000000000000000e+02
2.690000000000000000e+02
2.720000000000000000e+02
2.740000000000000000e+02
2.740000000000000000e+02
2.750000000000000000e+02
2.770000000000000000e+02
2.770000000000000000e+02
2.800000000000000000e+02
2.820000000000000000e+02
2.840000000000000000e+02
2.870000000000000000e+02
2.910000000000000000e+02
2.960000000000000000e+02
2.990000000000000000e+02
3.030000000000000000e+02
3.050000000000000000e+02
3.050000000000000000e+02
3.080000000000000000e+02
3.110000000000000000e+02
3.160000000000000000e+02
3.190000000000000000e+02
3.190000000000000000e+02
3.220000000000000000e+02
3.240000000000000000e+02
3.260000000000000000e+02
3.290000000000000000e+02
3.300000000000000000e+02
3.300000000000000000e+02
3.310000000000000000e+02
3.310000000000000000e+02
3.320000000000000000e+02
3.350000000000000000e+02
3.360000000000000000e+02
3.380000000000000000e+02
3.420000000000000000e+02
3.460000000000000000e+02
3.460000000000000000e+02
3.490000000000000000e+02
3.500000000000000000e+02
3.550000000000000000e+02
3.570000000000000000e+02
3.580000000000000000e+02
3.610000000000000000e+02
3.640000000000000000e+02
3.670000000000000000e+02
3.710000000000000000e+02
3.750000000000000000e+02
3.800000000000000000e+02
3.830000000000000000e+02
3.850000000000000000e+02
3.850000000000000000e+02
3.890000000000000000e+02
3.910000000000000000e+02
3.930000000000000000e+02
3.970000000000000000e+02
4.040000000000000000e+02
4.060000000000000000e+02
4.080000000000000000e+02
4.080000000000000000e+02
4.110000000000000000e+02
4.130000000000000000e+02
4.130000000000000000e+02
4.160000000000000000e+02
4.210000000000000000e+02
4.240000000000000000e+02
4.270000000000000000e+02
4.280000000000000000e+02
4.300000000000000000e+02
4.340000000000000000e+02
4.360000000000000000e+02
4.410000000000000000e+02
4.490000000000000000e+02
4.540000000000000000e+02
4.620000000000000000e+02
4.710000000000000000e+02
4.720000000000000000e+02
4.750000000000000000e+02
4.800000000000000000e+02
4.820000000000000000e+02
4.830000000000000000e+02
4.880000000000000000e+02
4.930000000000000000e+02
4.960000000000000000e+02
5.040000000000000000e+02
5.060000000000000000e+02
5.090000000000000000e+02
5.130000000000000000e+02
5.160000000000000000e+02
5.190000000000000000e+02
5.280000000000000000e+02
5.290000000000000000e+02
5.300000000000000000e+02
5.330000000000000000e+02
5.370000000000000000e+02
5.390000000000000000e+02
5.430000000000000000e+02
5.500000000000000000e+02
5.550000000000000000e+02
5.580000000000000000e+02
5.580000000000000000e+02
5.640000000000000000e+02
5.670000000000000000e+02
5.730000000000000000e+02
5.740000000000000000e+02
5.770000000000000000e+02
5.830000000000000000e+02
5.920000000000000000e+02
5.950000000000000000e+02
5.980000000000000000e+02
6.040000000000000000e+02
6.130000000000000000e+02
6.170000000000000000e+02
6.200000000000000000e+02
6.230000000000000000e+02
6.270000000000000000e+02
6.300000000000000000e+02
6.330000000000000000e+02
6.380000000000000000e+02
6.420000000000000000e+02
6.460000000000000000e+02
6.490000000000000000e+02
6.520000000000000000e+02
6.580000000000000000e+02
6.590000000000000000e+02
6.660000000000000000e+02
6.710000000000000000e+02
6.750000000000000000e+02
6.800000000000000000e+02
6.800000000000000000e+02
6.850000000000000000e+02
6.950000000000000000e+02
6.990000000000000000e+02
7.030000000000000000e+02
7.080000000000000000e+02
7.120000000000000000e+02
7.180000000000000000e+02
7.280000000000000000e+02
7.340000000000000000e+02
7.420000000000000000e+02
7.430000000000000000e+02
7.490000000000000000e+02
7.530000000000000000e+02
7.580000000000000000e+02
7.700000000000000000e+02
7.760000000000000000e+02
7.850000000000000000e+02
7.890000000000000000e+02
7.950000000000000000e+02
8.060000000000000000e+02
8.100000000000000000e+02
8.140000000000000000e+02
8.200000000000000000e+02
8.250000000000000000e+02
8.370000000000000000e+02
8.470000000000000000e+02
8.500000000000000000e+02
8.540000000000000000e+02
8.600000000000000000e+02
8.650000000000000000e+02
8.700000000000000000e+02
8.780000000000000000e+02
8.810000000000000000e+02
8.860000000000000000e+02
8.930000000000000000e+02
9.010000000000000000e+02
9.080000000000000000e+02
9.180000000000000000e+02
9.230000000000000000e+02
9.300000000000000000e+02
9.360000000000000000e+02
9.430000000000000000e+02
9.510000000000000000e+02
9.550000000000000000e+02
9.670000000000000000e+02
9.720000000000000000e+02
9.840000000000000000e+02
9.900000000000000000e+02
9.950000000000000000e+02
1.002000000000000000e+03
1.011000000000000000e+03
1.017000000000000000e+03
1.024000000000000000e+03
1.032000000000000000e+03
1.035000000000000000e+03
1.042000000000000000e+03
1.049000000000000000e+03
1.060000000000000000e+03
1.069000000000000000e+03
1.076000000000000000e+03
1.083000000000000000e+03
1.095000000000000000e+03
1.106000000000000000e+03
1.117000000000000000e+03
1.125000000000000000e+03
1.133000000000000000e+03
1.141000000000000000e+03
1.149000000000000000e+03
1.155000000000000000e+03
1.162000000000000000e+03
1.172000000000000000e+03
1.176000000000000000e+03
1.186000000000000000e+03
1.197000000000000000e+03
1.207000000000000000e+03
1.218000000000000000e+03
1.231000000000000000e+03
1.240000000000000000e+03
1.246000000000000000e+03
1.253000000000000000e+03
1.264000000000000000e+03
1.273000000000000000e+03
1.275000000000000000e+03
1.283000000000000000e+03
1.292000000000000000e+03
1.296000000000000000e+03
1.306000000000000000e+03
1.315000000000000000e+03
1.325000000000000000e+03
1.340000000000000000e+03
1.351000000000000000e+03
1.370000000000000000e+03
1.377000000000000000e+03
1.385000000000000000e+03
1.389000000000000000e+03
1.397000000000000000e+03
1.405000000000000000e+03
1.414000000000000000e+03
1.427000000000000000e+03
1.438000000000000000e+03
1.452000000000000000e+03
1.464000000000000000e+03
1.469000000000000000e+03
1.485000000000000000e+03
1.497000000000000000e+03
1.507000000000000000e+03
1.515000000000000000e+03
1.523000000000000000e+03
1.538000000000000000e+03
1.546000000000000000e+03
1.558000000000000000e+03
1.572000000000000000e+03
1.580000000000000000e+03
1.591000000000000000e+03
1.602000000000000000e+03
1.621000000000000000e+03
1.635000000000000000e+03
1.652000000000000000e+03
1.672000000000000000e+03
1.686000000000000000e+03
1.693000000000000000e+03
1.706000000000000000e+03
1.717000000000000000e+03
1.732000000000000000e+03
1.742000000000000000e+03
1.759000000000000000e+03
1.771000000000000000e+03
1.784000000000000000e+03
1.799000000000000000e+03
1.817000000000000000e+03
1.827000000000000000e+03
1.841000000000000000e+03
1.851000000000000000e+03
1.862000000000000000e+03
1.874000000000000000e+03
1.887000000000000000e+03
1.901000000000000000e+03
1.908000000000000000e+03
1.920000000000000000e+03
1.935000000000000000e+03
1.951000000000000000e+03
1.960000000000000000e+03
1.973000000000000000e+03
1.992000000000000000e+03
2.014000000000000000e+03
2.029000000000000000e+03
2.049000000000000000e+03
2.072000000000000000e+03
2.083000000000000000e+03
2.103000000000000000e+03
2.120000000000000000e+03
2.134000000000000000e+03
2.147000000000000000e+03
2.165000000000000000e+03
2.177000000000000000e+03
2.189000000000000000e+03
2.206000000000000000e+03
2.222000000000000000e+03
2.234000000000000000e+03
2.252000000000000000e+03
2.274000000000000000e+03
2.284000000000000000e+03
2.303000000000000000e+03
2.329000000000000000e+03
2.342000000000000000e+03
2.357000000000000000e+03
2.373000000000000000e+03
2.392000000000000000e+03
2.406000000000000000e+03
2.421000000000000000e+03
2.432000000000000000e+03
2.446000000000000000e+03
2.460000000000000000e+03
2.484000000000000000e+03
2.500000000000000000e+03
2.515000000000000000e+03
2.526000000000000000e+03
2.551000000000000000e+03
2.564000000000000000e+03
2.579000000000000000e+03
2.594000000000000000e+03
2.611000000000000000e+03
2.626000000000000000e+03
2.642000000000000000e+03
2.664000000000000000e+03
2.685000000000000000e+03
2.705000000000000000e+03
2.728000000000000000e+03
2.747000000000000000e+03
2.759000000000000000e+03
2.780000000000000000e+03
2.802000000000000000e+03
2.828000000000000000e+03
2.843000000000000000e+03
2.852000000000000000e+03
2.871000000000000000e+03
2.892000000000000000e+03
2.916000000000000000e+03
2.939000000000000000e+03
2.956000000000000000e+03
2.976000000000000000e+03
2.999000000000000000e+03
3.027000000000000000e+03
3.044000000000000000e+03
3.071000000000000000e+03
3.091000000000000000e+03
3.117000000000000000e+03
3.135000000000000000e+03
3.166000000000000000e+03
3.191000000000000000e+03
3.213000000000000000e+03
3.234000000000000000e+03
3.277000000000000000e+03
3.300000000000000000e+03
3.325000000000000000e+03
3.356000000000000000e+03
3.372000000000000000e+03
3.401000000000000000e+03
3.430000000000000000e+03
3.450000000000000000e+03
3.481000000000000000e+03
3.501000000000000000e+03
3.534000000000000000e+03
3.557000000000000000e+03
3.590000000000000000e+03
3.616000000000000000e+03
3.647000000000000000e+03
3.680000000000000000e+03
3.706000000000000000e+03
3.742000000000000000e+03
3.775000000000000000e+03
3.809000000000000000e+03
3.835000000000000000e+03
3.862000000000000000e+03
3.884000000000000000e+03
3.907000000000000000e+03
3.931000000000000000e+03
3.968000000000000000e+03
3.996000000000000000e+03
4.036000000000000000e+03
4.059000000000000000e+03
4.097000000000000000e+03
4.118000000000000000e+03
4.146000000000000000e+03
4.180000000000000000e+03
4.215000000000000000e+03
4.244000000000000000e+03
4.282000000000000000e+03
4.305000000000000000e+03
4.329000000000000000e+03
4.348000000000000000e+03
4.377000000000000000e+03
4.410000000000000000e+03
4.446000000000000000e+03
4.484000000000000000e+03
4.510000000000000000e+03
4.538000000000000000e+03
4.574000000000000000e+03
4.611000000000000000e+03
4.641000000000000000e+03
4.670000000000000000e+03
4.695000000000000000e+03
4.727000000000000000e+03
4.765000000000000000e+03
4.799000000000000000e+03
4.835000000000000000e+03
4.868000000000000000e+03
4.906000000000000000e+03
4.942000000000000000e+03
4.982000000000000000e+03
5.021000000000000000e+03
5.054000000000000000e+03
5.086000000000000000e+03
5.124000000000000000e+03
5.160000000000000000e+03
5.178000000000000000e+03
5.217000000000000000e+03
5.266000000000000000e+03
5.301000000000000000e+03
5.344000000000000000e+03
5.383000000000000000e+03
5.421000000000000000e+03
5.459000000000000000e+03
5.492000000000000000e+03
5.535000000000000000e+03
5.557000000000000000e+03
5.588000000000000000e+03
5.618000000000000000e+03
5.665000000000000000e+03
5.704000000000000000e+03
5.743000000000000000e+03
5.792000000000000000e+03
5.841000000000000000e+03
5.895000000000000000e+03
5.939000000000000000e+03
5.993000000000000000e+03
6.044000000000000000e+03
6.101000000000000000e+03
6.155000000000000000e+03
6.203000000000000000e+03
6.258000000000000000e+03
6.312000000000000000e+03
6.363000000000000000e+03
6.404000000000000000e+03
6.450000000000000000e+03
6.488000000000000000e+03
6.534000000000000000e+03
6.576000000000000000e+03
6.626000000000000000e+03
6.680000000000000000e+03
6.737000000000000000e+03
6.791000000000000000e+03
6.833000000000000000e+03
6.872000000000000000e+03
6.918000000000000000e+03
6.974000000000000000e+03
7.012000000000000000e+03
7.055000000000000000e+03
7.112000000000000000e+03
7.155000000000000000e+03
7.231000000000000000e+03
7.287000000000000000e+03
7.347000000000000000e+03
7.411000000000000000e+03
7.464000000000000000e+03
7.512000000000000000e+03
7.568000000000000000e+03
7.622000000000000000e+03
7.673000000000000000e+03
7.723000000000000000e+03
7.776000000000000000e+03
7.839000000000000000e+03
7.896000000000000000e+03
7.955000000000000000e+03
7.997000000000000000e+03
8.048000000000000000e+03
8.116000000000000000e+03
8.179000000000000000e+03
8.235000000000000000e+03
8.293000000000000000e+03
8.362000000000000000e+03
8.411000000000000000e+03
8.475000000000000000e+03
8.546000000000000000e+03
8.611000000000000000e+03
8.675000000000000000e+03
8.739000000000000000e+03
8.795000000000000000e+03
8.857000000000000000e+03
8.932000000000000000e+03
8.996000000000000000e+03
9.045000000000000000e+03
9.112000000000000000e+03
9.173000000000000000e+03
9.247000000000000000e+03
9.310000000000000000e+03
9.374000000000000000e+03
9.439000000000000000e+03
9.495000000000000000e+03
9.559000000000000000e+03
9.628000000000000000e+03
9.700000000000000000e+03
9.777000000000000000e+03
9.853000000000000000e+03
9.930000000000000000e+03
1.001200000000000000e+04
1.008000000000000000e+04
1.015300000000000000e+04
1.021200000000000000e+04
1.028400000000000000e+04
1.035500000000000000e+04
1.042200000000000000e+04
1.051100000000000000e+04
1.058600000000000000e+04
1.067300000000000000e+04
1.075000000000000000e+04
1.084400000000000000e+04
1.092500000000000000e+04
1.100900000000000000e+04
1.108300000000000000e+04
1.116900000000000000e+04
1.127000000000000000e+04
1.135900000000000000e+04
1.143700000000000000e+04
1.150600000000000000e+04
1.159500000000000000e+04
1.167300000000000000e+04
1.176500000000000000e+04
1.185900000000000000e+04
1.194700000000000000e+04
1.203700000000000000e+04
1.215300000000000000e+04
1.223600000000000000e+04
1.232400000000000000e+04
1.240500000000000000e+04
1.250100000000000000e+04
1.261500000000000000e+04
1.271900000000000000e+04
1.280400000000000000e+04
1.290400000000000000e+04
1.302100000000000000e+04
1.310700000000000000e+04
1.321300000000000000e+04
1.330900000000000000e+04
1.340400000000000000e+04
1.349000000000000000e+04
1.358100000000000000e+04
1.367200000000000000e+04
1.376500000000000000e+04
1.387100000000000000e+04
1.397000000000000000e+04
1.409500000000000000e+04
1.420000000000000000e+04
1.428000000000000000e+04
1.438400000000000000e+04
1.449000000000000000e+04
1.460900000000000000e+04
1.473300000000000000e+04
1.482800000000000000e+04
1.492700000000000000e+04
1.503500000000000000e+04
1.513500000000000000e+04
1.525800000000000000e+04
1.537100000000000000e+04
1.545100000000000000e+04
1.555200000000000000e+04
1.565900000000000000e+04
1.577000000000000000e+04
1.587800000000000000e+04
1.601100000000000000e+04
1.612500000000000000e+04
1.624100000000000000e+04
1.633900000000000000e+04
1.646700000000000000e+04
1.657800000000000000e+04
1.667900000000000000e+04
1.679200000000000000e+04
1.691700000000000000e+04
1.704500000000000000e+04
1.717300000000000000e+04
1.728700000000000000e+04
1.739700000000000000e+04
1.752600000000000000e+04
1.765300000000000000e+04
1.778300000000000000e+04
1.791600000000000000e+04
1.804800000000000000e+04
1.817300000000000000e+04
1.832000000000000000e+04
1.845600000000000000e+04
1.860500000000000000e+04
1.872700000000000000e+04
1.885600000000000000e+04
1.901100000000000000e+04
1.915700000000000000e+04
1.931000000000000000e+04
1.944300000000000000e+04
1.958000000000000000e+04
1.971400000000000000e+04
1.985600000000000000e+04
2.000500000000000000e+04
2.015100000000000000e+04
2.028200000000000000e+04
2.044700000000000000e+04
2.060400000000000000e+04
2.075100000000000000e+04
2.090700000000000000e+04
2.105800000000000000e+04
2.121400000000000000e+04
2.139800000000000000e+04
2.154200000000000000e+04
