1.000000000000000000e+00
2.000000000000000000e+00
2.000000000000000000e+00
2.000000000000000000e+00
2.000000000000000000e+00
2.000000000000000000e+00
3.000000000000000000e+00
3.000000000000000000e+00
3.000000000000000000e+00
3.000000000000000000e+00
3.000000000000000000e+00
3.000000000000000000e+00
4.000000000000000000e+00
4.000000000000000000e+00
5.000000000000000000e+00
5.000000000000000000e+00
6.000000000000000000e+00
6.000000000000000000e+00
8.000000000000000000e+00
9.000000000000000000e+00
9.000000000000000000e+00
1.000000000000000000e+01
1.200000000000000000e+01
1.400000000000000000e+01
1.500000000000000000e+01
1.600000000000000000e+01
1.800000000000000000e+01
2.200000000000000000e+01
2.300000000000000000e+01
2.600000000000000000e+01
3.400000000000000000e+01
3.800000000000000000e+01
4.400000000000000000e+01
4.400000000000000000e+01
5.200000000000000000e+01
5.500000000000000000e+01
6.600000000000000000e+01
8.400000000000000000e+01
9.300000000000000000e+01
1.080000000000000000e+02
1.180000000000000000e+02
1.340000000000000000e+02
1.560000000000000000e+02
1.800000000000000000e+02
2.090000000000000000e+02
2.410000000000000000e+02
2.850000000000000000e+02
3.320000000000000000e+02
3.850000000000000000e+02
4.410000000000000000e+02
5.160000000000000000e+02
5.980000000000000000e+02
7.020000000000000000e+02
8.040000000000000000e+02
9.180000000000000000e+02
1.069000000000000000e+03
1.248000000000000000e+03
1.437000000000000000e+03
1.651000000000000000e+03
1.929000000000000000e+03
2.215000000000000000e+03
2.582000000000000000e+03
2.981000000000000000e+03
3.439000000000000000e+03
3.984000000000000000e+03
4.597000000000000000e+03
5.311000000000000000e+03
6.156000000000000000e+03
7.115000000000000000e+03
8.201000000000000000e+03
9.487000000000000000e+03
1.098300000000000000e+04
1.272900000000000000e+04
1.473700000000000000e+04
1.712300000000000000e+04
1.982300000000000000e+04
