1.000000000000000000e+00
2.000000000000000000e+00
2.000000000000000000e+00
2.000000000000000000e+00
2.000000000000000000e+00
3.000000000000000000e+00
4.000000000000000000e+00
4.000000000000000000e+00
4.000000000000000000e+00
4.000000000000000000e+00
4.000000000000000000e+00
5.000000000000000000e+00
6.000000000000000000e+00
6.000000000000000000e+00
7.000000000000000000e+00
8.000000000000000000e+00
1.100000000000000000e+01
1.100000000000000000e+01
1.200000000000000000e+01
1.200000000000000000e+01
1.500000000000000000e+01
1.700000000000000000e+01
2.000000000000000000e+01
2.500000000000000000e+01
2.500000000000000000e+01
2.900000000000000000e+01
3.300000000000000000e+01
4.100000000000000000e+01
4.400000000000000000e+01
5.000000000000000000e+01
5.800000000000000000e+01
6.800000000000000000e+01
7.600000000000000000e+01
8.800000000000000000e+01
9.800000000000000000e+01
1.150000000000000000e+02
1.340000000000000000e+02
1.620000000000000000e+02
1.750000000000000000e+02
1.910000000000000000e+02
2.270000000000000000e+02
2.640000000000000000e+02
3.070000000000000000e+02
3.560000000000000000e+02
4.110000000000000000e+02
4.700000000000000000e+02
5.490000000000000000e+02
6.350000000000000000e+02
7.450000000000000000e+02
8.650000000000000000e+02
9.960000000000000000e+02
1.152000000000000000e+03
1.320000000000000000e+03
1.548000000000000000e+03
1.793000000000000000e+03
2.071000000000000000e+03
2.385000000000000000e+03
2.780000000000000000e+03
3.202000000000000000e+03
3.715000000000000000e+03
4.335000000000000000e+03
4.989000000000000000e+03
5.749000000000000000e+03
6.609000000000000000e+03
7.682000000000000000e+03
8.948000000000000000e+03
1.032700000000000000e+04
1.190200000000000000e+04
1.381500000000000000e+04
1.598800000000000000e+04
1.850000000000000000e+04
2.142100000000000000e+04
2.485100000000000000e+04
2.872000000000000000e+04
3.314100000000000000e+04
3.838100000000000000e+04
