1.000000000000000000e+00
2.000000000000000000e+00
2.000000000000000000e+00
2.000000000000000000e+00
2.000000000000000000e+00
3.000000000000000000e+00
3.000000000000000000e+00
3.000000000000000000e+00
4.000000000000000000e+00
4.000000000000000000e+00
4.000000000000000000e+00
5.000000000000000000e+00
5.000000000000000000e+00
5.000000000000000000e+00
6.000000000000000000e+00
6.000000000000000000e+00
8.000000000000000000e+00
8.000000000000000000e+00
1.000000000000000000e+01
1.000000000000000000e+01
1.000000000000000000e+01
1.300000000000000000e+01
1.400000000000000000e+01
1.600000000000000000e+01
1.800000000000000000e+01
2.100000000000000000e+01
2.200000000000000000e+01
2.600000000000000000e+01
2.900000000000000000e+01
3.400000000000000000e+01
4.000000000000000000e+01
4.400000000000000000e+01
5.300000000000000000e+01
6.000000000000000000e+01
6.500000000000000000e+01
7.700000000000000000e+01
9.100000000000000000e+01
1.020000000000000000e+02
1.180000000000000000e+02
1.390000000000000000e+02
1.570000000000000000e+02
1.790000000000000000e+02
2.110000000000000000e+02
2.470000000000000000e+02
2.810000000000000000e+02
3.170000000000000000e+02
3.590000000000000000e+02
4.300000000000000000e+02
4.880000000000000000e+02
5.660000000000000000e+02
6.490000000000000000e+02
7.490000000000000000e+02
8.660000000000000000e+02
1.006000000000000000e+03
1.162000000000000000e+03
1.326000000000000000e+03
1.524000000000000000e+03
1.782000000000000000e+03
2.076000000000000000e+03
2.393000000000000000e+03
2.737000000000000000e+03
3.186000000000000000e+03
3.690000000000000000e+03
4.249000000000000000e+03
4.909000000000000000e+03
5.690000000000000000e+03
6.562000000000000000e+03
7.555000000000000000e+03
8.795000000000000000e+03
1.012200000000000000e+04
1.173300000000000000e+04
1.358300000000000000e+04
1.567800000000000000e+04
1.821900000000000000e+04
2.102900000000000000e+04
2.432900000000000000e+04
