1.000000000000000000e+00
2.000000000000000000e+00
2.000000000000000000e+00
2.000000000000000000e+00
2.000000000000000000e+00
2.000000000000000000e+00
2.000000000000000000e+00
2.000000000000000000e+00
3.000000000000000000e+00
3.000000000000000000e+00
3.000000000000000000e+00
3.000000000000000000e+00
3.000000000000000000e+00
4.000000000000000000e+00
4.000000000000000000e+00
5.000000000000000000e+00
5.000000000000000000e+00
5.000000000000000000e+00
7.000000000000000000e+00
9.000000000000000000e+00
1.100000000000000000e+01
1.100000000000000000e+01
1.400000000000000000e+01
1.500000000000000000e+01
1.700000000000000000e+01
1.900000000000000000e+01
2.200000000000000000e+01
2.300000000000000000e+01
3.000000000000000000e+01
3.400000000000000000e+01
3.500000000000000000e+01
4.300000000000000000e+01
5.200000000000000000e+01
6.000000000000000000e+01
6.900000000000000000e+01
8.200000000000000000e+01
9.300000000000000000e+01
1.070000000000000000e+02
1.230000000000000000e+02
1.410000000000000000e+02
1.640000000000000000e+02
1.890000000000000000e+02
2.190000000000000000e+02
2.540000000000000000e+02
2.890000000000000000e+02
3.440000000000000000e+02
4.010000000000000000e+02
4.570000000000000000e+02
5.270000000000000000e+02
6.130000000000000000e+02
7.000000000000000000e+02
8.230000000000000000e+02
9.610000000000000000e+02
1.107000000000000000e+03
1.262000000000000000e+03
1.487000000000000000e+03
1.707000000000000000e+03
1.980000000000000000e+03
2.274000000000000000e+03
2.649000000000000000e+03
3.057000000000000000e+03
3.509000000000000000e+03
4.084000000000000000e+03
4.704000000000000000e+03
5.452000000000000000e+03
6.319000000000000000e+03
7.297000000000000000e+03
8.436000000000000000e+03
9.723000000000000000e+03
1.119500000000000000e+04
1.297400000000000000e+04
1.510400000000000000e+04
1.742000000000000000e+04
2.016700000000000000e+04
2.334000000000000000e+04
2.701300000000000000e+04
