1.000000000000000000e+00
2.000000000000000000e+00
2.000000000000000000e+00
2.000000000000000000e+00
2.000000000000000000e+00
3.000000000000000000e+00
3.000000000000000000e+00
4.000000000000000000e+00
5.000000000000000000e+00
5.000000000000000000e+00
5.000000000000000000e+00
7.000000000000000000e+00
8.000000000000000000e+00
9.000000000000000000e+00
9.000000000000000000e+00
1.000000000000000000e+01
1.300000000000000000e+01
1.300000000000000000e+01
1.600000000000000000e+01
1.800000000000000000e+01
2.100000000000000000e+01
2.400000000000000000e+01
2.500000000000000000e+01
3.000000000000000000e+01
3.400000000000000000e+01
4.200000000000000000e+01
4.800000000000000000e+01
5.200000000000000000e+01
5.800000000000000000e+01
6.900000000000000000e+01
7.900000000000000000e+01
9.300000000000000000e+01
1.070000000000000000e+02
1.210000000000000000e+02
1.350000000000000000e+02
1.660000000000000000e+02
1.900000000000000000e+02
2.150000000000000000e+02
2.490000000000000000e+02
2.790000000000000000e+02
3.210000000000000000e+02
3.790000000000000000e+02
4.430000000000000000e+02
5.180000000000000000e+02
5.840000000000000000e+02
6.620000000000000000e+02
7.920000000000000000e+02
9.320000000000000000e+02
1.060000000000000000e+03
1.206000000000000000e+03
1.412000000000000000e+03
1.650000000000000000e+03
1.881000000000000000e+03
2.172000000000000000e+03
2.507000000000000000e+03
2.908000000000000000e+03
3.356000000000000000e+03
3.903000000000000000e+03
4.488000000000000000e+03
5.215000000000000000e+03
6.035000000000000000e+03
6.967000000000000000e+03
8.079000000000000000e+03
9.381000000000000000e+03
1.084500000000000000e+04
1.252600000000000000e+04
1.452800000000000000e+04
1.673300000000000000e+04
1.933700000000000000e+04
2.243000000000000000e+04
2.597000000000000000e+04
3.002100000000000000e+04
3.476700000000000000e+04
4.018000000000000000e+04
4.655300000000000000e+04
5.378500000000000000e+04
