1.000000000000000000e+00
2.000000000000000000e+00
2.000000000000000000e+00
2.000000000000000000e+00
2.000000000000000000e+00
3.000000000000000000e+00
3.000000000000000000e+00
4.000000000000000000e+00
4.000000000000000000e+00
5.000000000000000000e+00
6.000000000000000000e+00
8.000000000000000000e+00
9.000000000000000000e+00
1.000000000000000000e+01
1.100000000000000000e+01
1.300000000000000000e+01
1.400000000000000000e+01
1.800000000000000000e+01
2.300000000000000000e+01
2.400000000000000000e+01
2.600000000000000000e+01
3.100000000000000000e+01
3.800000000000000000e+01
4.000000000000000000e+01
4.800000000000000000e+01
5.400000000000000000e+01
6.400000000000000000e+01
7.700000000000000000e+01
8.700000000000000000e+01
9.800000000000000000e+01
1.100000000000000000e+02
1.350000000000000000e+02
1.530000000000000000e+02
1.770000000000000000e+02
2.060000000000000000e+02
2.450000000000000000e+02
2.720000000000000000e+02
3.130000000000000000e+02
3.560000000000000000e+02
4.300000000000000000e+02
5.030000000000000000e+02
5.850000000000000000e+02
6.690000000000000000e+02
7.730000000000000000e+02
8.880000000000000000e+02
1.044000000000000000e+03
1.221000000000000000e+03
1.392000000000000000e+03
1.596000000000000000e+03
1.857000000000000000e+03
2.162000000000000000e+03
2.492000000000000000e+03
2.880000000000000000e+03
3.367000000000000000e+03
3.884000000000000000e+03
4.484000000000000000e+03
5.162000000000000000e+03
5.982000000000000000e+03
6.920000000000000000e+03
8.011000000000000000e+03
9.303000000000000000e+03
1.073100000000000000e+04
1.244300000000000000e+04
1.437700000000000000e+04
1.663000000000000000e+04
1.924200000000000000e+04
2.224300000000000000e+04
2.580500000000000000e+04
2.987100000000000000e+04
3.442100000000000000e+04
3.987400000000000000e+04
4.615800000000000000e+04
5.344100000000000000e+04
6.170100000000000000e+04
7.152000000000000000e+04
8.255000000000000000e+04
