1.000000000000000000e+00
2.000000000000000000e+00
2.000000000000000000e+00
2.000000000000000000e+00
3.000000000000000000e+00
3.000000000000000000e+00
3.000000000000000000e+00
3.000000000000000000e+00
3.000000000000000000e+00
3.000000000000000000e+00
5.000000000000000000e+00
5.000000000000000000e+00
5.000000000000000000e+00
5.000000000000000000e+00
8.000000000000000000e+00
1.000000000000000000e+01
1.100000000000000000e+01
1.200000000000000000e+01
1.200000000000000000e+01
1.700000000000000000e+01
1.800000000000000000e+01
2.400000000000000000e+01
2.600000000000000000e+01
3.100000000000000000e+01
3.500000000000000000e+01
4.100000000000000000e+01
4.700000000000000000e+01
5.900000000000000000e+01
6.600000000000000000e+01
7.400000000000000000e+01
8.400000000000000000e+01
1.000000000000000000e+02
1.160000000000000000e+02
1.320000000000000000e+02
1.520000000000000000e+02
1.790000000000000000e+02
2.060000000000000000e+02
2.380000000000000000e+02
2.720000000000000000e+02
3.100000000000000000e+02
3.610000000000000000e+02
4.250000000000000000e+02
4.940000000000000000e+02
5.660000000000000000e+02
6.460000000000000000e+02
7.640000000000000000e+02
8.810000000000000000e+02
1.030000000000000000e+03
1.178000000000000000e+03
1.343000000000000000e+03
1.559000000000000000e+03
1.821000000000000000e+03
2.113000000000000000e+03
2.476000000000000000e+03
2.841000000000000000e+03
3.252000000000000000e+03
3.751000000000000000e+03
4.365000000000000000e+03
5.082000000000000000e+03
5.840000000000000000e+03
6.795000000000000000e+03
7.885000000000000000e+03
9.089000000000000000e+03
1.051600000000000000e+04
1.216500000000000000e+04
1.413100000000000000e+04
1.633500000000000000e+04
1.889800000000000000e+04
2.183800000000000000e+04
2.525600000000000000e+04
2.931200000000000000e+04
3.386900000000000000e+04
3.913600000000000000e+04
4.537900000000000000e+04
5.257000000000000000e+04
6.073800000000000000e+04
