1.000000000000000000e+00
2.000000000000000000e+00
2.000000000000000000e+00
2.000000000000000000e+00
2.000000000000000000e+00
2.000000000000000000e+00
2.000000000000000000e+00
3.000000000000000000e+00
3.000000000000000000e+00
3.000000000000000000e+00
3.000000000000000000e+00
3.000000000000000000e+00
3.000000000000000000e+00
5.000000000000000000e+00
5.000000000000000000e+00
5.000000000000000000e+00
5.000000000000000000e+00
5.000000000000000000e+00
7.000000000000000000e+00
8.000000000000000000e+00
9.000000000000000000e+00
9.000000000000000000e+00
1.000000000000000000e+01
1.400000000000000000e+01
1.400000000000000000e+01
1.600000000000000000e+01
1.700000000000000000e+01
1.900000000000000000e+01
2.200000000000000000e+01
2.300000000000000000e+01
2.700000000000000000e+01
3.700000000000000000e+01
4.300000000000000000e+01
4.700000000000000000e+01
5.300000000000000000e+01
6.200000000000000000e+01
7.600000000000000000e+01
8.500000000000000000e+01
9.700000000000000000e+01
1.110000000000000000e+02
1.260000000000000000e+02
1.520000000000000000e+02
1.760000000000000000e+02
2.000000000000000000e+02
2.250000000000000000e+02
2.680000000000000000e+02
3.160000000000000000e+02
3.650000000000000000e+02
4.250000000000000000e+02
4.820000000000000000e+02
5.530000000000000000e+02
6.350000000000000000e+02
7.420000000000000000e+02
8.430000000000000000e+02
9.850000000000000000e+02
1.115000000000000000e+03
1.308000000000000000e+03
1.519000000000000000e+03
1.744000000000000000e+03
2.019000000000000000e+03
2.328000000000000000e+03
2.705000000000000000e+03
3.115000000000000000e+03
3.625000000000000000e+03
4.176000000000000000e+03
4.817000000000000000e+03
5.615000000000000000e+03
6.516000000000000000e+03
7.495000000000000000e+03
8.670000000000000000e+03
1.003700000000000000e+04
1.162400000000000000e+04
1.347800000000000000e+04
1.550300000000000000e+04
1.792300000000000000e+04
2.075300000000000000e+04
