1.000000000000000000e+00
2.000000000000000000e+00
2.000000000000000000e+00
2.000000000000000000e+00
2.000000000000000000e+00
2.000000000000000000e+00
2.000000000000000000e+00
3.000000000000000000e+00
3.000000000000000000e+00
3.000000000000000000e+00
3.000000000000000000e+00
5.000000000000000000e+00
6.000000000000000000e+00
7.000000000000000000e+00
8.000000000000000000e+00
9.000000000000000000e+00
1.000000000000000000e+01
1.200000000000000000e+01
1.500000000000000000e+01
1.700000000000000000e+01
2.000000000000000000e+01
2.200000000000000000e+01
2.500000000000000000e+01
2.900000000000000000e+01
3.500000000000000000e+01
3.900000000000000000e+01
4.300000000000000000e+01
5.200000000000000000e+01
5.900000000000000000e+01
6.500000000000000000e+01
7.800000000000000000e+01
9.300000000000000000e+01
1.100000000000000000e+02
1.200000000000000000e+02
1.360000000000000000e+02
1.620000000000000000e+02
1.910000000000000000e+02
2.100000000000000000e+02
2.450000000000000000e+02
2.870000000000000000e+02
3.250000000000000000e+02
3.760000000000000000e+02
4.310000000000000000e+02
5.100000000000000000e+02
5.830000000000000000e+02
6.680000000000000000e+02
7.670000000000000000e+02
8.960000000000000000e+02
1.047000000000000000e+03
1.200000000000000000e+03
1.393000000000000000e+03
1.612000000000000000e+03
1.862000000000000000e+03
2.166000000000000000e+03
2.494000000000000000e+03
2.878000000000000000e+03
3.338000000000000000e+03
3.888000000000000000e+03
4.477000000000000000e+03
5.152000000000000000e+03
5.952000000000000000e+03
6.886000000000000000e+03
7.977000000000000000e+03
9.255000000000000000e+03
1.066400000000000000e+04
1.231900000000000000e+04
1.427400000000000000e+04
1.659000000000000000e+04
1.920500000000000000e+04
2.210500000000000000e+04
2.551700000000000000e+04
2.960700000000000000e+04
3.430700000000000000e+04
3.963200000000000000e+04
4.574800000000000000e+04
5.294000000000000000e+04
