1.000000000000000000e+00
2.000000000000000000e+00
2.000000000000000000e+00
3.000000000000000000e+00
3.000000000000000000e+00
3.000000000000000000e+00
3.000000000000000000e+00
3.000000000000000000e+00
5.000000000000000000e+00
5.000000000000000000e+00
5.000000000000000000e+00
5.000000000000000000e+00
7.000000000000000000e+00
8.000000000000000000e+00
9.000000000000000000e+00
1.000000000000000000e+01
1.100000000000000000e+01
1.300000000000000000e+01
1.700000000000000000e+01
1.900000000000000000e+01
2.100000000000000000e+01
2.400000000000000000e+01
2.900000000000000000e+01
3.200000000000000000e+01
3.900000000000000000e+01
4.500000000000000000e+01
5.200000000000000000e+01
5.800000000000000000e+01
6.800000000000000000e+01
8.000000000000000000e+01
9.400000000000000000e+01
1.030000000000000000e+02
1.270000000000000000e+02
1.510000000000000000e+02
1.710000000000000000e+02
1.890000000000000000e+02
2.190000000000000000e+02
2.520000000000000000e+02
2.940000000000000000e+02
3.390000000000000000e+02
4.040000000000000000e+02
4.660000000000000000e+02
5.400000000000000000e+02
6.140000000000000000e+02
7.070000000000000000e+02
8.150000000000000000e+02
9.480000000000000000e+02
1.117000000000000000e+03
1.294000000000000000e+03
1.463000000000000000e+03
1.693000000000000000e+03
1.955000000000000000e+03
2.276000000000000000e+03
2.657000000000000000e+03
3.074000000000000000e+03
3.525000000000000000e+03
4.059000000000000000e+03
4.702000000000000000e+03
5.469000000000000000e+03
6.306000000000000000e+03
7.271000000000000000e+03
8.406000000000000000e+03
9.747000000000000000e+03
1.128600000000000000e+04
1.303800000000000000e+04
1.508500000000000000e+04
1.752400000000000000e+04
2.017400000000000000e+04
2.334000000000000000e+04
2.705400000000000000e+04
3.133300000000000000e+04
3.623200000000000000e+04
4.191000000000000000e+04
4.856400000000000000e+04
5.618200000000000000e+04
6.495900000000000000e+04
