1.000000000000000000e+00
2.000000000000000000e+00
2.000000000000000000e+00
2.000000000000000000e+00
2.000000000000000000e+00
2.000000000000000000e+00
3.000000000000000000e+00
3.000000000000000000e+00
3.000000000000000000e+00
3.000000000000000000e+00
4.000000000000000000e+00
4.000000000000000000e+00
5.000000000000000000e+00
5.000000000000000000e+00
5.000000000000000000e+00
5.000000000000000000e+00
7.000000000000000000e+00
9.000000000000000000e+00
9.000000000000000000e+00
9.000000000000000000e+00
9.000000000000000000e+00
1.200000000000000000e+01
1.400000000000000000e+01
1.500000000000000000e+01
1.600000000000000000e+01
2.000000000000000000e+01
2.200000000000000000e+01
2.500000000000000000e+01
2.800000000000000000e+01
3.300000000000000000e+01
3.800000000000000000e+01
4.200000000000000000e+01
4.900000000000000000e+01
5.800000000000000000e+01
6.400000000000000000e+01
7.200000000000000000e+01
8.500000000000000000e+01
9.500000000000000000e+01
1.100000000000000000e+02
1.250000000000000000e+02
1.520000000000000000e+02
1.680000000000000000e+02
1.940000000000000000e+02
2.230000000000000000e+02
2.650000000000000000e+02
3.120000000000000000e+02
3.490000000000000000e+02
4.080000000000000000e+02
4.580000000000000000e+02
5.370000000000000000e+02
6.100000000000000000e+02
6.990000000000000000e+02
8.170000000000000000e+02
9.340000000000000000e+02
1.073000000000000000e+03
1.247000000000000000e+03
1.417000000000000000e+03
1.641000000000000000e+03
1.902000000000000000e+03
2.195000000000000000e+03
2.558000000000000000e+03
2.953000000000000000e+03
3.395000000000000000e+03
3.947000000000000000e+03
4.592000000000000000e+03
5.317000000000000000e+03
6.145000000000000000e+03
7.083000000000000000e+03
8.170000000000000000e+03
9.485000000000000000e+03
1.093600000000000000e+04
1.258100000000000000e+04
1.467900000000000000e+04
1.691600000000000000e+04
1.958800000000000000e+04
2.260200000000000000e+04
