1.000000000000000000e+00
2.000000000000000000e+00
2.000000000000000000e+00
2.000000000000000000e+00
2.000000000000000000e+00
2.000000000000000000e+00
2.000000000000000000e+00
2.000000000000000000e+00
3.000000000000000000e+00
3.000000000000000000e+00
3.000000000000000000e+00
3.000000000000000000e+00
3.000000000000000000e+00
3.000000000000000000e+00
4.000000000000000000e+00
5.000000000000000000e+00
5.000000000000000000e+00
5.000000000000000000e+00
6.000000000000000000e+00
6.000000000000000000e+00
7.000000000000000000e+00
9.000000000000000000e+00
1.000000000000000000e+01
1.100000000000000000e+01
1.100000000000000000e+01
1.300000000000000000e+01
1.500000000000000000e+01
1.900000000000000000e+01
2.200000000000000000e+01
2.400000000000000000e+01
2.600000000000000000e+01
3.300000000000000000e+01
3.600000000000000000e+01
4.700000000000000000e+01
4.900000000000000000e+01
5.500000000000000000e+01
6.600000000000000000e+01
8.000000000000000000e+01
8.800000000000000000e+01
1.060000000000000000e+02
1.200000000000000000e+02
1.340000000000000000e+02
1.550000000000000000e+02
1.790000000000000000e+02
2.160000000000000000e+02
2.470000000000000000e+02
2.890000000000000000e+02
3.250000000000000000e+02
3.760000000000000000e+02
4.320000000000000000e+02
5.000000000000000000e+02
5.740000000000000000e+02
6.760000000000000000e+02
7.850000000000000000e+02
8.970000000000000000e+02
1.037000000000000000e+03
1.204000000000000000e+03
1.384000000000000000e+03
1.598000000000000000e+03
1.871000000000000000e+03
2.175000000000000000e+03
2.516000000000000000e+03
2.907000000000000000e+03
3.358000000000000000e+03
3.895000000000000000e+03
4.512000000000000000e+03
5.199000000000000000e+03
5.990000000000000000e+03
6.907000000000000000e+03
8.063000000000000000e+03
9.303000000000000000e+03
1.073900000000000000e+04
1.244800000000000000e+04
1.438800000000000000e+04
1.665800000000000000e+04
1.924700000000000000e+04
