1.000000000000000000e+00
2.000000000000000000e+00
2.000000000000000000e+00
2.000000000000000000e+00
2.000000000000000000e+00
3.000000000000000000e+00
3.000000000000000000e+00
3.000000000000000000e+00
4.000000000000000000e+00
4.000000000000000000e+00
4.000000000000000000e+00
5.000000000000000000e+00
6.000000000000000000e+00
7.000000000000000000e+00
8.000000000000000000e+00
9.000000000000000000e+00
9.000000000000000000e+00
1.000000000000000000e+01
1.100000000000000000e+01
1.200000000000000000e+01
1.500000000000000000e+01
1.700000000000000000e+01
1.700000000000000000e+01
2.000000000000000000e+01
2.500000000000000000e+01
3.000000000000000000e+01
3.500000000000000000e+01
3.700000000000000000e+01
3.900000000000000000e+01
4.500000000000000000e+01
5.500000000000000000e+01
6.300000000000000000e+01
7.500000000000000000e+01
8.500000000000000000e+01
9.400000000000000000e+01
1.130000000000000000e+02
1.360000000000000000e+02
1.460000000000000000e+02
1.730000000000000000e+02
2.070000000000000000e+02
2.370000000000000000e+02
2.700000000000000000e+02
3.110000000000000000e+02
3.610000000000000000e+02
4.230000000000000000e+02
4.930000000000000000e+02
5.710000000000000000e+02
6.540000000000000000e+02
7.680000000000000000e+02
8.620000000000000000e+02
1.004000000000000000e+03
1.179000000000000000e+03
1.374000000000000000e+03
1.557000000000000000e+03
1.816000000000000000e+03
2.109000000000000000e+03
2.421000000000000000e+03
2.804000000000000000e+03
3.243000000000000000e+03
3.764000000000000000e+03
4.338000000000000000e+03
4.988000000000000000e+03
5.777000000000000000e+03
6.687000000000000000e+03
7.731000000000000000e+03
8.914000000000000000e+03
1.036900000000000000e+04
1.191900000000000000e+04
1.381800000000000000e+04
1.597100000000000000e+04
1.843200000000000000e+04
2.135900000000000000e+04
2.461700000000000000e+04
2.841400000000000000e+04
3.296700000000000000e+04
3.812400000000000000e+04
