1.000000000000000000e+00
2.000000000000000000e+00
2.000000000000000000e+00
2.000000000000000000e+00
3.000000000000000000e+00
3.000000000000000000e+00
3.000000000000000000e+00
4.000000000000000000e+00
4.000000000000000000e+00
5.000000000000000000e+00
5.000000000000000000e+00
5.000000000000000000e+00
7.000000000000000000e+00
8.000000000000000000e+00
1.000000000000000000e+01
1.100000000000000000e+01
1.300000000000000000e+01
1.600000000000000000e+01
1.600000000000000000e+01
2.000000000000000000e+01
2.600000000000000000e+01
3.000000000000000000e+01
3.100000000000000000e+01
3.600000000000000000e+01
4.400000000000000000e+01
5.000000000000000000e+01
6.000000000000000000e+01
6.500000000000000000e+01
7.500000000000000000e+01
8.700000000000000000e+01
1.050000000000000000e+02
1.200000000000000000e+02
1.410000000000000000e+02
1.550000000000000000e+02
1.790000000000000000e+02
2.080000000000000000e+02
2.470000000000000000e+02
2.860000000000000000e+02
3.300000000000000000e+02
3.760000000000000000e+02
4.320000000000000000e+02
5.020000000000000000e+02
5.780000000000000000e+02
6.660000000000000000e+02
7.730000000000000000e+02
8.840000000000000000e+02
1.017000000000000000e+03
1.188000000000000000e+03
1.388000000000000000e+03
1.587000000000000000e+03
1.817000000000000000e+03
2.100000000000000000e+03
2.458000000000000000e+03
2.829000000000000000e+03
3.282000000000000000e+03
3.789000000000000000e+03
4.392000000000000000e+03
5.103000000000000000e+03
5.884000000000000000e+03
6.767000000000000000e+03
7.818000000000000000e+03
9.036000000000000000e+03
1.046800000000000000e+04
1.214400000000000000e+04
1.405900000000000000e+04
1.623200000000000000e+04
1.872400000000000000e+04
2.171200000000000000e+04
2.505900000000000000e+04
2.901400000000000000e+04
3.349700000000000000e+04
3.877300000000000000e+04
4.487400000000000000e+04
5.197200000000000000e+04
6.005000000000000000e+04
6.952500000000000000e+04
