1.000000000000000000e+00
2.000000000000000000e+00
2.000000000000000000e+00
2.000000000000000000e+00
2.000000000000000000e+00
3.000000000000000000e+00
3.000000000000000000e+00
3.000000000000000000e+00
3.000000000000000000e+00
4.000000000000000000e+00
4.000000000000000000e+00
7.000000000000000000e+00
7.000000000000000000e+00
7.000000000000000000e+00
8.000000000000000000e+00
1.000000000000000000e+01
1.200000000000000000e+01
1.300000000000000000e+01
1.500000000000000000e+01
1.500000000000000000e+01
2.100000000000000000e+01
2.300000000000000000e+01
2.600000000000000000e+01
2.900000000000000000e+01
3.300000000000000000e+01
3.700000000000000000e+01
4.600000000000000000e+01
5.300000000000000000e+01
6.000000000000000000e+01
7.400000000000000000e+01
8.200000000000000000e+01
9.700000000000000000e+01
1.090000000000000000e+02
1.250000000000000000e+02
1.420000000000000000e+02
1.720000000000000000e+02
2.010000000000000000e+02
2.240000000000000000e+02
2.590000000000000000e+02
3.090000000000000000e+02
3.480000000000000000e+02
4.100000000000000000e+02
4.720000000000000000e+02
5.500000000000000000e+02
6.390000000000000000e+02
7.300000000000000000e+02
8.360000000000000000e+02
9.930000000000000000e+02
1.138000000000000000e+03
1.299000000000000000e+03
1.529000000000000000e+03
1.777000000000000000e+03
2.028000000000000000e+03
2.329000000000000000e+03
2.698000000000000000e+03
3.151000000000000000e+03
3.669000000000000000e+03
4.216000000000000000e+03
4.848000000000000000e+03
5.634000000000000000e+03
6.517000000000000000e+03
7.566000000000000000e+03
8.730000000000000000e+03
1.010400000000000000e+04
1.171300000000000000e+04
1.357300000000000000e+04
1.564600000000000000e+04
1.814600000000000000e+04
2.091600000000000000e+04
2.416900000000000000e+04
2.804500000000000000e+04
3.239200000000000000e+04
3.748400000000000000e+04
4.340200000000000000e+04
5.025400000000000000e+04
5.800400000000000000e+04
