1.000000000000000000e+00
2.000000000000000000e+00
2.000000000000000000e+00
2.000000000000000000e+00
2.000000000000000000e+00
2.000000000000000000e+00
3.000000000000000000e+00
3.000000000000000000e+00
3.000000000000000000e+00
3.000000000000000000e+00
4.000000000000000000e+00
4.000000000000000000e+00
5.000000000000000000e+00
5.000000000000000000e+00
7.000000000000000000e+00
7.000000000000000000e+00
8.000000000000000000e+00
8.000000000000000000e+00
1.100000000000000000e+01
1.200000000000000000e+01
1.300000000000000000e+01
1.600000000000000000e+01
1.700000000000000000e+01
1.800000000000000000e+01
2.200000000000000000e+01
2.500000000000000000e+01
3.100000000000000000e+01
3.600000000000000000e+01
3.800000000000000000e+01
4.100000000000000000e+01
4.400000000000000000e+01
5.800000000000000000e+01
6.900000000000000000e+01
7.500000000000000000e+01
9.100000000000000000e+01
1.010000000000000000e+02
1.170000000000000000e+02
1.400000000000000000e+02
1.570000000000000000e+02
1.870000000000000000e+02
2.230000000000000000e+02
2.530000000000000000e+02
2.900000000000000000e+02
3.360000000000000000e+02
3.840000000000000000e+02
4.410000000000000000e+02
5.110000000000000000e+02
5.900000000000000000e+02
6.880000000000000000e+02
7.900000000000000000e+02
9.010000000000000000e+02
1.051000000000000000e+03
1.242000000000000000e+03
1.403000000000000000e+03
1.624000000000000000e+03
1.873000000000000000e+03
2.159000000000000000e+03
2.533000000000000000e+03
2.877000000000000000e+03
3.347000000000000000e+03
3.881000000000000000e+03
4.488000000000000000e+03
5.204000000000000000e+03
6.032000000000000000e+03
6.987000000000000000e+03
8.066000000000000000e+03
9.314000000000000000e+03
1.075100000000000000e+04
1.251200000000000000e+04
1.449200000000000000e+04
1.671700000000000000e+04
1.927700000000000000e+04
2.242800000000000000e+04
2.593900000000000000e+04
2.995500000000000000e+04
3.458900000000000000e+04
