1.000000000000000000e+00
2.000000000000000000e+00
2.000000000000000000e+00
2.000000000000000000e+00
2.000000000000000000e+00
2.000000000000000000e+00
2.000000000000000000e+00
3.000000000000000000e+00
3.000000000000000000e+00
3.000000000000000000e+00
4.000000000000000000e+00
4.000000000000000000e+00
5.000000000000000000e+00
6.000000000000000000e+00
6.000000000000000000e+00
7.000000000000000000e+00
7.000000000000000000e+00
7.000000000000000000e+00
9.000000000000000000e+00
1.100000000000000000e+01
1.100000000000000000e+01
1.300000000000000000e+01
1.500000000000000000e+01
1.900000000000000000e+01
2.000000000000000000e+01
2.400000000000000000e+01
2.600000000000000000e+01
3.000000000000000000e+01
3.800000000000000000e+01
4.200000000000000000e+01
4.900000000000000000e+01
5.500000000000000000e+01
6.700000000000000000e+01
8.200000000000000000e+01
9.100000000000000000e+01
1.050000000000000000e+02
1.190000000000000000e+02
1.380000000000000000e+02
1.620000000000000000e+02
1.860000000000000000e+02
2.090000000000000000e+02
2.450000000000000000e+02
2.830000000000000000e+02
3.350000000000000000e+02
3.840000000000000000e+02
4.350000000000000000e+02
5.060000000000000000e+02
5.740000000000000000e+02
6.610000000000000000e+02
7.790000000000000000e+02
8.900000000000000000e+02
1.041000000000000000e+03
1.194000000000000000e+03
1.373000000000000000e+03
1.595000000000000000e+03
1.849000000000000000e+03
2.138000000000000000e+03
2.451000000000000000e+03
2.833000000000000000e+03
3.328000000000000000e+03
3.825000000000000000e+03
4.448000000000000000e+03
5.124000000000000000e+03
5.944000000000000000e+03
6.890000000000000000e+03
7.953000000000000000e+03
9.183000000000000000e+03
1.063800000000000000e+04
1.232100000000000000e+04
1.426200000000000000e+04
1.646900000000000000e+04
1.906400000000000000e+04
2.210800000000000000e+04
2.554300000000000000e+04
2.956300000000000000e+04
3.420700000000000000e+04
