1.000000000000000000e+00
2.000000000000000000e+00
2.000000000000000000e+00
2.000000000000000000e+00
2.000000000000000000e+00
2.000000000000000000e+00
3.000000000000000000e+00
3.000000000000000000e+00
3.000000000000000000e+00
3.000000000000000000e+00
3.000000000000000000e+00
5.000000000000000000e+00
5.000000000000000000e+00
5.000000000000000000e+00
5.000000000000000000e+00
5.000000000000000000e+00
7.000000000000000000e+00
8.000000000000000000e+00
9.000000000000000000e+00
9.000000000000000000e+00
9.000000000000000000e+00
1.300000000000000000e+01
1.400000000000000000e+01
1.500000000000000000e+01
1.600000000000000000e+01
1.800000000000000000e+01
2.500000000000000000e+01
2.500000000000000000e+01
2.800000000000000000e+01
3.400000000000000000e+01
3.900000000000000000e+01
4.800000000000000000e+01
5.400000000000000000e+01
6.300000000000000000e+01
6.600000000000000000e+01
8.100000000000000000e+01
9.700000000000000000e+01
1.070000000000000000e+02
1.210000000000000000e+02
1.440000000000000000e+02
1.700000000000000000e+02
1.900000000000000000e+02
2.130000000000000000e+02
2.520000000000000000e+02
2.890000000000000000e+02
3.410000000000000000e+02
3.920000000000000000e+02
4.500000000000000000e+02
5.190000000000000000e+02
6.040000000000000000e+02
6.950000000000000000e+02
8.070000000000000000e+02
9.250000000000000000e+02
1.062000000000000000e+03
1.242000000000000000e+03
1.433000000000000000e+03
1.658000000000000000e+03
1.902000000000000000e+03
2.184000000000000000e+03
2.548000000000000000e+03
2.947000000000000000e+03
3.424000000000000000e+03
3.967000000000000000e+03
4.554000000000000000e+03
5.268000000000000000e+03
6.120000000000000000e+03
7.100000000000000000e+03
8.185000000000000000e+03
9.480000000000000000e+03
1.097500000000000000e+04
1.266000000000000000e+04
1.469200000000000000e+04
1.701600000000000000e+04
1.972600000000000000e+04
2.287400000000000000e+04
2.635400000000000000e+04
