1.000000000000000000e+00
2.000000000000000000e+00
2.000000000000000000e+00
2.000000000000000000e+00
2.000000000000000000e+00
2.000000000000000000e+00
2.000000000000000000e+00
3.000000000000000000e+00
3.000000000000000000e+00
3.000000000000000000e+00
3.000000000000000000e+00
3.000000000000000000e+00
5.000000000000000000e+00
5.000000000000000000e+00
5.000000000000000000e+00
5.000000000000000000e+00
5.000000000000000000e+00
5.000000000000000000e+00
6.000000000000000000e+00
8.000000000000000000e+00
9.000000000000000000e+00
9.000000000000000000e+00
9.000000000000000000e+00
1.000000000000000000e+01
1.200000000000000000e+01
1.600000000000000000e+01
1.600000000000000000e+01
1.700000000000000000e+01
2.000000000000000000e+01
2.100000000000000000e+01
2.700000000000000000e+01
3.300000000000000000e+01
3.600000000000000000e+01
4.300000000000000000e+01
4.800000000000000000e+01
5.600000000000000000e+01
6.100000000000000000e+01
7.100000000000000000e+01
8.500000000000000000e+01
9.800000000000000000e+01
1.110000000000000000e+02
1.290000000000000000e+02
1.490000000000000000e+02
1.700000000000000000e+02
1.990000000000000000e+02
2.280000000000000000e+02
2.650000000000000000e+02
3.130000000000000000e+02
3.540000000000000000e+02
4.130000000000000000e+02
4.830000000000000000e+02
5.460000000000000000e+02
6.420000000000000000e+02
7.410000000000000000e+02
8.390000000000000000e+02
9.850000000000000000e+02
1.141000000000000000e+03
1.322000000000000000e+03
1.539000000000000000e+03
1.797000000000000000e+03
2.062000000000000000e+03
2.379000000000000000e+03
2.750000000000000000e+03
3.201000000000000000e+03
3.710000000000000000e+03
4.288000000000000000e+03
4.929000000000000000e+03
5.728000000000000000e+03
6.630000000000000000e+03
7.690000000000000000e+03
8.878000000000000000e+03
1.030400000000000000e+04
1.190700000000000000e+04
1.374800000000000000e+04
1.594500000000000000e+04
1.844900000000000000e+04
