1.000000000000000000e+00
2.000000000000000000e+00
2.000000000000000000e+00
2.000000000000000000e+00
3.000000000000000000e+00
3.000000000000000000e+00
3.000000000000000000e+00
3.000000000000000000e+00
4.000000000000000000e+00
5.000000000000000000e+00
5.000000000000000000e+00
5.000000000000000000e+00
5.000000000000000000e+00
7.000000000000000000e+00
9.000000000000000000e+00
9.000000000000000000e+00
9.000000000000000000e+00
1.000000000000000000e+01
1.000000000000000000e+01
1.200000000000000000e+01
1.600000000000000000e+01
1.700000000000000000e+01
2.000000000000000000e+01
2.000000000000000000e+01
2.500000000000000000e+01
3.000000000000000000e+01
3.400000000000000000e+01
3.500000000000000000e+01
4.200000000000000000e+01
4.700000000000000000e+01
5.600000000000000000e+01
6.100000000000000000e+01
7.200000000000000000e+01
8.000000000000000000e+01
9.800000000000000000e+01
1.140000000000000000e+02
1.240000000000000000e+02
1.410000000000000000e+02
1.660000000000000000e+02
1.890000000000000000e+02
2.170000000000000000e+02
2.540000000000000000e+02
2.940000000000000000e+02
3.470000000000000000e+02
3.910000000000000000e+02
4.450000000000000000e+02
5.140000000000000000e+02
6.010000000000000000e+02
6.970000000000000000e+02
8.190000000000000000e+02
9.540000000000000000e+02
1.089000000000000000e+03
1.249000000000000000e+03
1.451000000000000000e+03
1.662000000000000000e+03
1.930000000000000000e+03
2.241000000000000000e+03
2.618000000000000000e+03
2.983000000000000000e+03
3.466000000000000000e+03
4.019000000000000000e+03
4.676000000000000000e+03
5.408000000000000000e+03
6.225000000000000000e+03
7.205000000000000000e+03
8.299000000000000000e+03
9.606000000000000000e+03
1.114800000000000000e+04
1.291700000000000000e+04
1.489600000000000000e+04
1.727700000000000000e+04
1.996300000000000000e+04
2.314200000000000000e+04
2.674200000000000000e+04
3.097800000000000000e+04
3.584100000000000000e+04
