1.000000000000000000e+00
2.000000000000000000e+00
2.000000000000000000e+00
2.000000000000000000e+00
2.000000000000000000e+00
2.000000000000000000e+00
2.000000000000000000e+00
3.000000000000000000e+00
3.000000000000000000e+00
3.000000000000000000e+00
3.000000000000000000e+00
4.000000000000000000e+00
4.000000000000000000e+00
4.000000000000000000e+00
6.000000000000000000e+00
6.000000000000000000e+00
7.000000000000000000e+00
8.000000000000000000e+00
9.000000000000000000e+00
1.100000000000000000e+01
1.200000000000000000e+01
1.400000000000000000e+01
2.000000000000000000e+01
2.100000000000000000e+01
2.500000000000000000e+01
2.900000000000000000e+01
3.200000000000000000e+01
4.000000000000000000e+01
4.500000000000000000e+01
5.000000000000000000e+01
6.000000000000000000e+01
6.900000000000000000e+01
8.000000000000000000e+01
9.500000000000000000e+01
1.130000000000000000e+02
1.290000000000000000e+02
1.420000000000000000e+02
1.670000000000000000e+02
1.910000000000000000e+02
2.210000000000000000e+02
2.650000000000000000e+02
3.080000000000000000e+02
3.550000000000000000e+02
4.050000000000000000e+02
4.720000000000000000e+02
5.490000000000000000e+02
6.370000000000000000e+02
7.300000000000000000e+02
8.510000000000000000e+02
9.870000000000000000e+02
1.142000000000000000e+03
1.331000000000000000e+03
1.527000000000000000e+03
1.750000000000000000e+03
2.066000000000000000e+03
2.369000000000000000e+03
2.727000000000000000e+03
3.165000000000000000e+03
3.672000000000000000e+03
4.236000000000000000e+03
4.905000000000000000e+03
5.659000000000000000e+03
6.534000000000000000e+03
7.533000000000000000e+03
8.776000000000000000e+03
1.014400000000000000e+04
1.175400000000000000e+04
1.357100000000000000e+04
1.568000000000000000e+04
1.815000000000000000e+04
2.111800000000000000e+04
2.427800000000000000e+04
2.810000000000000000e+04
3.250400000000000000e+04
3.762700000000000000e+04
4.352700000000000000e+04
