1.000000000000000000e+00
2.000000000000000000e+00
2.000000000000000000e+00
2.000000000000000000e+00
2.000000000000000000e+00
2.000000000000000000e+00
2.000000000000000000e+00
2.000000000000000000e+00
2.000000000000000000e+00
2.000000000000000000e+00
2.000000000000000000e+00
2.000000000000000000e+00
2.000000000000000000e+00
2.000000000000000000e+00
2.000000000000000000e+00
2.000000000000000000e+00
2.000000000000000000e+00
2.000000000000000000e+00
2.000000000000000000e+00
2.000000000000000000e+00
2.000000000000000000e+00
2.000000000000000000e+00
2.000000000000000000e+00
2.000000000000000000e+00
2.000000000000000000e+00
2.000000000000000000e+00
2.000000000000000000e+00
2.000000000000000000e+00
2.000000000000000000e+00
2.000000000000000000e+00
2.000000000000000000e+00
2.000000000000000000e+00
2.000000000000000000e+00
2.000000000000000000e+00
2.000000000000000000e+00
2.000000000000000000e+00
2.000000000000000000e+00
2.000000000000000000e+00
2.000000000000000000e+00
2.000000000000000000e+00
2.000000000000000000e+00
2.000000000000000000e+00
2.000000000000000000e+00
2.000000000000000000e+00
2.000000000000000000e+00
2.000000000000000000e+00
2.000000000000000000e+00
2.000000000000000000e+00
2.000000000000000000e+00
2.000000000000000000e+00
2.000000000000000000e+00
2.000000000000000000e+00
2.000000000000000000e+00
2.000000000000000000e+00
2.000000000000000000e+00
2.000000000000000000e+00
2.000000000000000000e+00
2.000000000000000000e+00
2.000000000000000000e+00
2.000000000000000000e+00
2.000000000000000000e+00
2.000000000000000000e+00
2.000000000000000000e+00
2.000000000000000000e+00
2.000000000000000000e+00
2.000000000000000000e+00
2.000000000000000000e+00
2.000000000000000000e+00
2.000000000000000000e+00
2.000000000000000000e+00
2.000000000000000000e+00
2.000000000000000000e+00
2.000000000000000000e+00
2.000000000000000000e+00
3.000000000000000000e+00
3.000000000000000000e+00
3.000000000000000000e+00
3.000000000000000000e+00
3.000000000000000000e+00
3.000000000000000000e+00
3.000000000000000000e+00
3.000000000000000000e+00
3.000000000000000000e+00
3.000000000000000000e+00
3.000000000000000000e+00
3.000000000000000000e+00
3.000000000000000000e+00
3.000000000000000000e+00
3.000000000000000000e+00
3.000000000000000000e+00
3.000000000000000000e+00
3.000000000000000000e+00
3.000000000000000000e+00
3.000000000000000000e+00
3.000000000000000000e+00
3.000000000000000000e+00
3.000000000000000000e+00
3.000000000000000000e+00
3.000000000000000000e+00
3.000000000000000000e+00
3.000000000000000000e+00
3.000000000000000000e+00
3.000000000000000000e+00
3.000000000000000000e+00
3.000000000000000000e+00
3.000000000000000000e+00
3.000000000000000000e+00
3.000000000000000000e+00
3.000000000000000000e+00
3.000000000000000000e+00
3.000000000000000000e+00
3.000000000000000000e+00
3.000000000000000000e+00
3.000000000000000000e+00
3.000000000000000000e+00
3.000000000000000000e+00
3.000000000000000000e+00
3.000000000000000000e+00
3.000000000000000000e+00
3.000000000000000000e+00
3.000000000000000000e+00
3.000000000000000000e+00
3.000000000000000000e+00
3.000000000000000000e+00
3.000000000000000000e+00
3.000000000000000000e+00
3.000000000000000000e+00
3.000000000000000000e+00
3.000000000000000000e+00
3.000000000000000000e+00
3.000000000000000000e+00
3.000000000000000000e+00
3.000000000000000000e+00
3.000000000000000000e+00
3.000000000000000000e+00
3.000000000000000000e+00
3.000000000000000000e+00
3.000000000000000000e+00
3.000000000000000000e+00
3.000000000000000000e+00
3.000000000000000000e+00
3.000000000000000000e+00
3.000000000000000000e+00
3.000000000000000000e+00
3.000000000000000000e+00
3.000000000000000000e+00
3.000000000000000000e+00
3.000000000000000000e+00
3.000000000000000000e+00
3.000000000000000000e+00
3.000000000000000000e+00
3.000000000000000000e+00
3.000000000000000000e+00
3.000000000000000000e+00
3.000000000000000000e+00
3.000000000000000000e+00
3.000000000000000000e+00
3.000000000000000000e+00
3.000000000000000000e+00
3.000000000000000000e+00
4.000000000000000000e+00
4.000000000000000000e+00
4.000000000000000000e+00
5.000000000000000000e+00
5.000000000000000000e+00
5.000000000000000000e+00
5.000000000000000000e+00
5.000000000000000000e+00
5.000000000000000000e+00
5.000000000000000000e+00
5.000000000000000000e+00
5.000000000000000000e+00
5.000000000000000000e+00
5.000000000000000000e+00
5.000000000000000000e+00
5.000000000000000000e+00
5.000000000000000000e+00
5.000000000000000000e+00
5.000000000000000000e+00
5.000000000000000000e+00
5.000000000000000000e+00
5.000000000000000000e+00
5.000000000000000000e+00
5.000000000000000000e+00
5.000000000000000000e+00
5.000000000000000000e+00
5.000000000000000000e+00
5.000000000000000000e+00
5.000000000000000000e+00
5.000000000000000000e+00
5.000000000000000000e+00
5.000000000000000000e+00
5.000000000000000000e+00
5.000000000000000000e+00
5.000000000000000000e+00
5.000000000000000000e+00
5.000000000000000000e+00
5.000000000000000000e+00
5.000000000000000000e+00
5.000000000000000000e+00
5.000000000000000000e+00
5.000000000000000000e+00
5.000000000000000000e+00
5.000000000000000000e+00
5.000000000000000000e+00
5.000000000000000000e+00
5.000000000000000000e+00
5.000000000000000000e+00
5.000000000000000000e+00
5.000000000000000000e+00
5.000000000000000000e+00
5.000000000000000000e+00
5.000000000000000000e+00
5.000000000000000000e+00
5.000000000000000000e+00
5.000000000000000000e+00
5.000000000000000000e+00
5.000000000000000000e+00
5.000000000000000000e+00
5.000000000000000000e+00
5.000000000000000000e+00
5.000000000000000000e+00
5.000000000000000000e+00
5.000000000000000000e+00
5.000000000000000000e+00
5.000000000000000000e+00
5.000000000000000000e+00
5.000000000000000000e+00
6.000000000000000000e+00
6.000000000000000000e+00
6.000000000000000000e+00
6.000000000000000000e+00
6.000000000000000000e+00
6.000000000000000000e+00
6.000000000000000000e+00
6.000000000000000000e+00
6.000000000000000000e+00
6.000000000000000000e+00
6.000000000000000000e+00
6.000000000000000000e+00
6.000000000000000000e+00
6.000000000000000000e+00
6.000000000000000000e+00
6.000000000000000000e+00
6.000000000000000000e+00
6.000000000000000000e+00
6.000000000000000000e+00
6.000000000000000000e+00
6.000000000000000000e+00
6.000000000000000000e+00
6.000000000000000000e+00
6.000000000000000000e+00
6.000000000000000000e+00
6.000000000000000000e+00
6.000000000000000000e+00
6.000000000000000000e+00
6.000000000000000000e+00
6.000000000000000000e+00
6.000000000000000000e+00
6.000000000000000000e+00
6.000000000000000000e+00
6.000000000000000000e+00
6.000000000000000000e+00
6.000000000000000000e+00
6.000000000000000000e+00
7.000000000000000000e+00
7.000000000000000000e+00
8.000000000000000000e+00
8.000000000000000000e+00
8.000000000000000000e+00
8.000000000000000000e+00
8.000000000000000000e+00
8.000000000000000000e+00
8.000000000000000000e+00
8.000000000000000000e+00
9.000000000000000000e+00
9.000000000000000000e+00
9.000000000000000000e+00
9.000000000000000000e+00
9.000000000000000000e+00
1.000000000000000000e+01
1.000000000000000000e+01
1.000000000000000000e+01
1.000000000000000000e+01
1.000000000000000000e+01
1.100000000000000000e+01
1.100000000000000000e+01
1.100000000000000000e+01
1.100000000000000000e+01
1.100000000000000000e+01
1.100000000000000000e+01
1.100000000000000000e+01
1.100000000000000000e+01
1.100000000000000000e+01
1.100000000000000000e+01
1.100000000000000000e+01
1.100000000000000000e+01
1.100000000000000000e+01
1.100000000000000000e+01
1.100000000000000000e+01
1.100000000000000000e+01
1.100000000000000000e+01
1.100000000000000000e+01
1.100000000000000000e+01
1.100000000000000000e+01
1.100000000000000000e+01
1.100000000000000000e+01
1.100000000000000000e+01
1.100000000000000000e+01
1.100000000000000000e+01
1.100000000000000000e+01
1.100000000000000000e+01
1.100000000000000000e+01
1.100000000000000000e+01
1.100000000000000000e+01
1.100000000000000000e+01
1.100000000000000000e+01
1.100000000000000000e+01
1.100000000000000000e+01
1.100000000000000000e+01
1.100000000000000000e+01
1.100000000000000000e+01
1.100000000000000000e+01
1.100000000000000000e+01
1.100000000000000000e+01
1.100000000000000000e+01
1.100000000000000000e+01
1.100000000000000000e+01
1.100000000000000000e+01
1.100000000000000000e+01
1.100000000000000000e+01
1.100000000000000000e+01
1.100000000000000000e+01
1.100000000000000000e+01
1.100000000000000000e+01
1.100000000000000000e+01
1.100000000000000000e+01
1.100000000000000000e+01
1.100000000000000000e+01
1.100000000000000000e+01
1.100000000000000000e+01
1.100000000000000000e+01
1.100000000000000000e+01
1.100000000000000000e+01
1.100000000000000000e+01
1.100000000000000000e+01
1.100000000000000000e+01
1.100000000000000000e+01
1.100000000000000000e+01
1.100000000000000000e+01
1.100000000000000000e+01
1.100000000000000000e+01
1.100000000000000000e+01
1.100000000000000000e+01
1.100000000000000000e+01
1.100000000000000000e+01
1.200000000000000000e+01
1.200000000000000000e+01
1.200000000000000000e+01
1.200000000000000000e+01
1.200000000000000000e+01
1.200000000000000000e+01
1.200000000000000000e+01
1.200000000000000000e+01
1.200000000000000000e+01
1.200000000000000000e+01
1.300000000000000000e+01
1.300000000000000000e+01
1.300000000000000000e+01
1.300000000000000000e+01
1.300000000000000000e+01
1.300000000000000000e+01
1.300000000000000000e+01
1.300000000000000000e+01
1.300000000000000000e+01
1.300000000000000000e+01
1.300000000000000000e+01
1.300000000000000000e+01
1.300000000000000000e+01
1.400000000000000000e+01
1.400000000000000000e+01
1.400000000000000000e+01
1.500000000000000000e+01
1.600000000000000000e+01
1.600000000000000000e+01
1.600000000000000000e+01
1.600000000000000000e+01
1.600000000000000000e+01
1.600000000000000000e+01
1.700000000000000000e+01
1.700000000000000000e+01
1.700000000000000000e+01
1.800000000000000000e+01
1.800000000000000000e+01
1.800000000000000000e+01
1.900000000000000000e+01
1.900000000000000000e+01
1.900000000000000000e+01
1.900000000000000000e+01
1.900000000000000000e+01
1.900000000000000000e+01
1.900000000000000000e+01
1.900000000000000000e+01
1.900000000000000000e+01
1.900000000000000000e+01
1.900000000000000000e+01
1.900000000000000000e+01
1.900000000000000000e+01
1.900000000000000000e+01
1.900000000000000000e+01
2.000000000000000000e+01
2.000000000000000000e+01
2.000000000000000000e+01
2.000000000000000000e+01
2.000000000000000000e+01
2.000000000000000000e+01
2.000000000000000000e+01
2.000000000000000000e+01
2.000000000000000000e+01
2.000000000000000000e+01
2.000000000000000000e+01
2.000000000000000000e+01
2.000000000000000000e+01
2.000000000000000000e+01
2.000000000000000000e+01
2.000000000000000000e+01
2.000000000000000000e+01
2.000000000000000000e+01
2.000000000000000000e+01
2.000000000000000000e+01
2.000000000000000000e+01
2.000000000000000000e+01
2.000000000000000000e+01
2.000000000000000000e+01
2.000000000000000000e+01
2.000000000000000000e+01
2.100000000000000000e+01
2.200000000000000000e+01
2.200000000000000000e+01
2.200000000000000000e+01
2.200000000000000000e+01
2.200000000000000000e+01
2.200000000000000000e+01
2.200000000000000000e+01
2.300000000000000000e+01
2.300000000000000000e+01
2.300000000000000000e+01
2.300000000000000000e+01
2.400000000000000000e+01
2.400000000000000000e+01
2.400000000000000000e+01
2.400000000000000000e+01
2.400000000000000000e+01
2.400000000000000000e+01
2.400000000000000000e+01
2.400000000000000000e+01
2.400000000000000000e+01
2.400000000000000000e+01
2.400000000000000000e+01
2.400000000000000000e+01
2.500000000000000000e+01
2.500000000000000000e+01
2.500000000000000000e+01
2.500000000000000000e+01
2.500000000000000000e+01
2.500000000000000000e+01
2.500000000000000000e+01
2.500000000000000000e+01
2.600000000000000000e+01
2.600000000000000000e+01
2.600000000000000000e+01
2.600000000000000000e+01
2.600000000000000000e+01
2.600000000000000000e+01
2.600000000000000000e+01
2.600000000000000000e+01
2.600000000000000000e+01
2.600000000000000000e+01
2.600000000000000000e+01
2.600000000000000000e+01
2.700000000000000000e+01
2.700000000000000000e+01
2.900000000000000000e+01
2.900000000000000000e+01
3.100000000000000000e+01
3.200000000000000000e+01
3.200000000000000000e+01
3.300000000000000000e+01
3.300000000000000000e+01
3.300000000000000000e+01
3.300000000000000000e+01
3.300000000000000000e+01
3.300000000000000000e+01
3.300000000000000000e+01
3.400000000000000000e+01
3.400000000000000000e+01
3.400000000000000000e+01
3.400000000000000000e+01
3.400000000000000000e+01
3.400000000000000000e+01
3.400000000000000000e+01
3.400000000000000000e+01
3.400000000000000000e+01
3.400000000000000000e+01
3.500000000000000000e+01
3.500000000000000000e+01
3.600000000000000000e+01
3.600000000000000000e+01
3.600000000000000000e+01
3.700000000000000000e+01
3.700000000000000000e+01
3.800000000000000000e+01
3.800000000000000000e+01
3.800000000000000000e+01
3.900000000000000000e+01
3.900000000000000000e+01
3.900000000000000000e+01
3.900000000000000000e+01
3.900000000000000000e+01
3.900000000000000000e+01
3.900000000000000000e+01
3.900000000000000000e+01
4.000000000000000000e+01
4.100000000000000000e+01
4.100000000000000000e+01
4.100000000000000000e+01
4.100000000000000000e+01
4.100000000000000000e+01
4.100000000000000000e+01
4.300000000000000000e+01
4.300000000000000000e+01
4.300000000000000000e+01
4.300000000000000000e+01
4.300000000000000000e+01
4.400000000000000000e+01
4.400000000000000000e+01
4.400000000000000000e+01
4.400000000000000000e+01
4.500000000000000000e+01
4.500000000000000000e+01
4.500000000000000000e+01
4.500000000000000000e+01
4.600000000000000000e+01
4.700000000000000000e+01
4.700000000000000000e+01
4.800000000000000000e+01
4.800000000000000000e+01
4.800000000000000000e+01
4.900000000000000000e+01
4.900000000000000000e+01
4.900000000000000000e+01
4.900000000000000000e+01
4.900000000000000000e+01
4.900000000000000000e+01
4.900000000000000000e+01
5.100000000000000000e+01
5.100000000000000000e+01
5.200000000000000000e+01
5.200000000000000000e+01
5.300000000000000000e+01
5.400000000000000000e+01
5.400000000000000000e+01
5.400000000000000000e+01
5.400000000000000000e+01
5.400000000000000000e+01
5.400000000000000000e+01
5.400000000000000000e+01
5.400000000000000000e+01
5.600000000000000000e+01
5.600000000000000000e+01
5.700000000000000000e+01
5.700000000000000000e+01
5.700000000000000000e+01
5.900000000000000000e+01
5.900000000000000000e+01
6.000000000000000000e+01
6.000000000000000000e+01
6.100000000000000000e+01
6.100000000000000000e+01
6.200000000000000000e+01
6.300000000000000000e+01
6.400000000000000000e+01
6.500000000000000000e+01
6.500000000000000000e+01
6.500000000000000000e+01
6.500000000000000000e+01
6.500000000000000000e+01
6.500000000000000000e+01
6.500000000000000000e+01
6.600000000000000000e+01
6.600000000000000000e+01
6.600000000000000000e+01
6.800000000000000000e+01
6.800000000000000000e+01
6.800000000000000000e+01
6.800000000000000000e+01
6.800000000000000000e+01
6.900000000000000000e+01
6.900000000000000000e+01
7.000000000000000000e+01
7.200000000000000000e+01
7.300000000000000000e+01
7.400000000000000000e+01
7.400000000000000000e+01
7.400000000000000000e+01
7.600000000000000000e+01
7.600000000000000000e+01
7.600000000000000000e+01
7.700000000000000000e+01
7.700000000000000000e+01
7.800000000000000000e+01
7.800000000000000000e+01
7.800000000000000000e+01
7.800000000000000000e+01
7.800000000000000000e+01
7.800000000000000000e+01
8.000000000000000000e+01
8.100000000000000000e+01
8.200000000000000000e+01
8.300000000000000000e+01
8.300000000000000000e+01
8.300000000000000000e+01
8.400000000000000000e+01
8.500000000000000000e+01
8.500000000000000000e+01
8.500000000000000000e+01
8.700000000000000000e+01
8.800000000000000000e+01
8.900000000000000000e+01
8.900000000000000000e+01
8.900000000000000000e+01
9.000000000000000000e+01
9.100000000000000000e+01
9.100000000000000000e+01
9.200000000000000000e+01
9.200000000000000000e+01
9.300000000000000000e+01
9.300000000000000000e+01
9.500000000000000000e+01
9.600000000000000000e+01
9.600000000000000000e+01
9.600000000000000000e+01
9.700000000000000000e+01
9.700000000000000000e+01
9.700000000000000000e+01
9.900000000000000000e+01
9.900000000000000000e+01
1.010000000000000000e+02
1.010000000000000000e+02
1.020000000000000000e+02
1.020000000000000000e+02
1.030000000000000000e+02
1.050000000000000000e+02
1.050000000000000000e+02
1.050000000000000000e+02
1.050000000000000000e+02
1.050000000000000000e+02
1.060000000000000000e+02
1.080000000000000000e+02
1.080000000000000000e+02
1.100000000000000000e+02
1.110000000000000000e+02
1.110000000000000000e+02
1.120000000000000000e+02
1.130000000000000000e+02
1.150000000000000000e+02
1.160000000000000000e+02
1.170000000000000000e+02
1.180000000000000000e+02
1.200000000000000000e+02
1.230000000000000000e+02
1.240000000000000000e+02
1.240000000000000000e+02
1.240000000000000000e+02
1.240000000000000000e+02
1.270000000000000000e+02
1.290000000000000000e+02
1.290000000000000000e+02
1.310000000000000000e+02
1.310000000000000000e+02
1.330000000000000000e+02
1.330000000000000000e+02
1.340000000000000000e+02
1.370000000000000000e+02
1.370000000000000000e+02
1.380000000000000000e+02
1.390000000000000000e+02
1.390000000000000000e+02
1.390000000000000000e+02
1.400000000000000000e+02
1.420000000000000000e+02
1.430000000000000000e+02
1.440000000000000000e+02
1.450000000000000000e+02
1.470000000000000000e+02
1.480000000000000000e+02
1.480000000000000000e+02
1.500000000000000000e+02
1.500000000000000000e+02
1.500000000000000000e+02
1.510000000000000000e+02
1.510000000000000000e+02
1.530000000000000000e+02
1.540000000000000000e+02
1.550000000000000000e+02
1.570000000000000000e+02
1.570000000000000000e+02
1.580000000000000000e+02
1.610000000000000000e+02
1.620000000000000000e+02
1.640000000000000000e+02
1.650000000000000000e+02
1.650000000000000000e+02
1.650000000000000000e+02
1.670000000000000000e+02
1.690000000000000000e+02
1.700000000000000000e+02
1.730000000000000000e+02
1.750000000000000000e+02
1.760000000000000000e+02
1.790000000000000000e+02
1.810000000000000000e+02
1.820000000000000000e+02
1.820000000000000000e+02
1.830000000000000000e+02
1.840000000000000000e+02
1.860000000000000000e+02
1.860000000000000000e+02
1.870000000000000000e+02
1.880000000000000000e+02
1.890000000000000000e+02
1.890000000000000000e+02
1.890000000000000000e+02
1.900000000000000000e+02
1.930000000000000000e+02
1.960000000000000000e+02
1.980000000000000000e+02
1.990000000000000000e+02
2.000000000000000000e+02
2.030000000000000000e+02
2.040000000000000000e+02
2.050000000000000000e+02
2.060000000000000000e+02
2.070000000000000000e+02
2.070000000000000000e+02
2.080000000000000000e+02
2.100000000000000000e+02
2.140000000000000000e+02
2.140000000000000000e+02
2.160000000000000000e+02
2.180000000000000000e+02
2.220000000000000000e+02
2.230000000000000000e+02
2.240000000000000000e+02
2.260000000000000000e+02
2.270000000000000000e+02
2.300000000000000000e+02
2.300000000000000000e+02
2.310000000000000000e+02
2.320000000000000000e+02
2.320000000000000000e+02
2.340000000000000000e+02
2.340000000000000000e+02
2.360000000000000000e+02
2.380000000000000000e+02
2.390000000000000000e+02
2.390000000000000000e+02
2.390000000000000000e+02
2.410000000000000000e+02
2.440000000000000000e+02
2.490000000000000000e+02
2.510000000000000000e+02
2.530000000000000000e+02
2.540000000000000000e+02
2.570000000000000000e+02
2.580000000000000000e+02
2.580000000000000000e+02
2.600000000000000000e+02
2.610000000000000000e+02
2.630000000000000000e+02
2.630000000000000000e+02
2.660000000000000000e+02
2.660000000000000000e+02
2.700000000000000000e+02
2.700000000000000000e+02
2.740000000000000000e+02
2.750000000000000000e+02
2.780000000000000000e+02
2.820000000000000000e+02
2.840000000000000000e+02
2.890000000000000000e+02
2.950000000000000000e+02
2.960000000000000000e+02
2.990000000000000000e+02
3.000000000000000000e+02
3.030000000000000000e+02
3.050000000000000000e+02
3.090000000000000000e+02
3.120000000000000000e+02
3.140000000000000000e+02
3.150000000000000000e+02
3.160000000000000000e+02
3.190000000000000000e+02
3.210000000000000000e+02
3.240000000000000000e+02
3.250000000000000000e+02
3.280000000000000000e+02
3.310000000000000000e+02
3.350000000000000000e+02
3.370000000000000000e+02
3.400000000000000000e+02
3.420000000000000000e+02
3.460000000000000000e+02
3.470000000000000000e+02
3.480000000000000000e+02
3.530000000000000000e+02
3.550000000000000000e+02
3.570000000000000000e+02
3.610000000000000000e+02
3.650000000000000000e+02
3.650000000000000000e+02
3.680000000000000000e+02
3.720000000000000000e+02
3.730000000000000000e+02
3.750000000000000000e+02
3.810000000000000000e+02
3.840000000000000000e+02
3.860000000000000000e+02
3.900000000000000000e+02
3.930000000000000000e+02
3.950000000000000000e+02
3.950000000000000000e+02
3.980000000000000000e+02
4.000000000000000000e+02
4.000000000000000000e+02
4.010000000000000000e+02
4.060000000000000000e+02
4.080000000000000000e+02
4.100000000000000000e+02
4.120000000000000000e+02
4.130000000000000000e+02
4.140000000000000000e+02
4.180000000000000000e+02
4.220000000000000000e+02
4.290000000000000000e+02
4.330000000000000000e+02
4.360000000000000000e+02
4.380000000000000000e+02
4.420000000000000000e+02
4.420000000000000000e+02
4.440000000000000000e+02
4.460000000000000000e+02
4.490000000000000000e+02
4.520000000000000000e+02
4.560000000000000000e+02
4.600000000000000000e+02
4.640000000000000000e+02
4.660000000000000000e+02
4.700000000000000000e+02
4.740000000000000000e+02
4.760000000000000000e+02
4.790000000000000000e+02
4.860000000000000000e+02
4.880000000000000000e+02
4.920000000000000000e+02
4.950000000000000000e+02
4.980000000000000000e+02
5.070000000000000000e+02
5.110000000000000000e+02
5.130000000000000000e+02
5.170000000000000000e+02
5.200000000000000000e+02
5.240000000000000000e+02
5.250000000000000000e+02
5.260000000000000000e+02
5.280000000000000000e+02
5.300000000000000000e+02
5.370000000000000000e+02
5.420000000000000000e+02
5.460000000000000000e+02
5.490000000000000000e+02
5.550000000000000000e+02
5.600000000000000000e+02
5.650000000000000000e+02
5.700000000000000000e+02
5.720000000000000000e+02
5.750000000000000000e+02
5.800000000000000000e+02
5.800000000000000000e+02
5.840000000000000000e+02
5.880000000000000000e+02
5.950000000000000000e+02
6.000000000000000000e+02
6.070000000000000000e+02
6.100000000000000000e+02
6.120000000000000000e+02
6.140000000000000000e+02
6.180000000000000000e+02
6.190000000000000000e+02
6.240000000000000000e+02
6.270000000000000000e+02
6.320000000000000000e+02
6.370000000000000000e+02
6.430000000000000000e+02
6.510000000000000000e+02
6.570000000000000000e+02
6.650000000000000000e+02
6.700000000000000000e+02
6.790000000000000000e+02
6.860000000000000000e+02
6.910000000000000000e+02
6.940000000000000000e+02
6.990000000000000000e+02
7.010000000000000000e+02
7.090000000000000000e+02
7.130000000000000000e+02
7.170000000000000000e+02
7.240000000000000000e+02
7.310000000000000000e+02
7.340000000000000000e+02
7.400000000000000000e+02
7.450000000000000000e+02
7.510000000000000000e+02
7.540000000000000000e+02
7.560000000000000000e+02
7.640000000000000000e+02
7.690000000000000000e+02
7.740000000000000000e+02
7.790000000000000000e+02
7.900000000000000000e+02
7.940000000000000000e+02
7.970000000000000000e+02
7.980000000000000000e+02
8.010000000000000000e+02
8.060000000000000000e+02
8.140000000000000000e+02
8.180000000000000000e+02
8.220000000000000000e+02
8.290000000000000000e+02
8.390000000000000000e+02
8.480000000000000000e+02
8.530000000000000000e+02
8.600000000000000000e+02
8.690000000000000000e+02
8.810000000000000000e+02
8.880000000000000000e+02
8.920000000000000000e+02
9.020000000000000000e+02
9.080000000000000000e+02
9.130000000000000000e+02
9.210000000000000000e+02
9.290000000000000000e+02
9.350000000000000000e+02
9.430000000000000000e+02
9.500000000000000000e+02
9.580000000000000000e+02
9.630000000000000000e+02
9.720000000000000000e+02
9.800000000000000000e+02
9.890000000000000000e+02
9.940000000000000000e+02
1.002000000000000000e+03
1.008000000000000000e+03
1.015000000000000000e+03
1.019000000000000000e+03
1.026000000000000000e+03
1.033000000000000000e+03
1.038000000000000000e+03
1.048000000000000000e+03
1.055000000000000000e+03
1.064000000000000000e+03
1.074000000000000000e+03
1.079000000000000000e+03
1.085000000000000000e+03
1.092000000000000000e+03
1.099000000000000000e+03
1.106000000000000000e+03
1.117000000000000000e+03
1.130000000000000000e+03
1.137000000000000000e+03
1.144000000000000000e+03
1.159000000000000000e+03
1.163000000000000000e+03
1.172000000000000000e+03
1.179000000000000000e+03
1.188000000000000000e+03
1.190000000000000000e+03
1.202000000000000000e+03
1.208000000000000000e+03
1.215000000000000000e+03
1.222000000000000000e+03
1.231000000000000000e+03
1.237000000000000000e+03
1.246000000000000000e+03
1.253000000000000000e+03
1.259000000000000000e+03
1.265000000000000000e+03
1.276000000000000000e+03
1.283000000000000000e+03
1.292000000000000000e+03
1.297000000000000000e+03
1.304000000000000000e+03
1.315000000000000000e+03
1.320000000000000000e+03
1.335000000000000000e+03
1.351000000000000000e+03
1.367000000000000000e+03
1.376000000000000000e+03
1.387000000000000000e+03
1.398000000000000000e+03
1.408000000000000000e+03
1.418000000000000000e+03
1.427000000000000000e+03
1.439000000000000000e+03
1.451000000000000000e+03
1.460000000000000000e+03
1.474000000000000000e+03
1.488000000000000000e+03
1.510000000000000000e+03
1.515000000000000000e+03
1.528000000000000000e+03
1.539000000000000000e+03
1.546000000000000000e+03
1.563000000000000000e+03
1.575000000000000000e+03
1.586000000000000000e+03
1.593000000000000000e+03
1.602000000000000000e+03
1.616000000000000000e+03
1.625000000000000000e+03
1.635000000000000000e+03
1.653000000000000000e+03
1.662000000000000000e+03
1.673000000000000000e+03
1.690000000000000000e+03
1.699000000000000000e+03
1.711000000000000000e+03
1.729000000000000000e+03
1.742000000000000000e+03
1.753000000000000000e+03
1.767000000000000000e+03
1.781000000000000000e+03
1.793000000000000000e+03
1.810000000000000000e+03
1.828000000000000000e+03
1.839000000000000000e+03
1.850000000000000000e+03
1.870000000000000000e+03
1.884000000000000000e+03
1.901000000000000000e+03
1.914000000000000000e+03
1.926000000000000000e+03
1.935000000000000000e+03
1.949000000000000000e+03
1.958000000000000000e+03
1.973000000000000000e+03
1.985000000000000000e+03
2.002000000000000000e+03
2.014000000000000000e+03
2.029000000000000000e+03
2.042000000000000000e+03
2.065000000000000000e+03
2.079000000000000000e+03
2.098000000000000000e+03
2.114000000000000000e+03
2.126000000000000000e+03
2.144000000000000000e+03
2.157000000000000000e+03
2.173000000000000000e+03
2.188000000000000000e+03
2.203000000000000000e+03
2.215000000000000000e+03
2.231000000000000000e+03
2.247000000000000000e+03
2.261000000000000000e+03
2.278000000000000000e+03
2.291000000000000000e+03
2.312000000000000000e+03
2.320000000000000000e+03
2.340000000000000000e+03
2.348000000000000000e+03
2.359000000000000000e+03
2.371000000000000000e+03
2.389000000000000000e+03
2.411000000000000000e+03
2.429000000000000000e+03
2.450000000000000000e+03
2.473000000000000000e+03
2.486000000000000000e+03
2.506000000000000000e+03
2.527000000000000000e+03
2.542000000000000000e+03
2.567000000000000000e+03
2.585000000000000000e+03
2.605000000000000000e+03
2.620000000000000000e+03
2.641000000000000000e+03
2.651000000000000000e+03
2.668000000000000000e+03
2.688000000000000000e+03
2.706000000000000000e+03
2.724000000000000000e+03
2.746000000000000000e+03
2.765000000000000000e+03
2.777000000000000000e+03
2.809000000000000000e+03
2.831000000000000000e+03
2.850000000000000000e+03
2.873000000000000000e+03
2.890000000000000000e+03
2.904000000000000000e+03
2.923000000000000000e+03
2.946000000000000000e+03
2.961000000000000000e+03
2.979000000000000000e+03
3.006000000000000000e+03
3.022000000000000000e+03
3.042000000000000000e+03
3.066000000000000000e+03
3.085000000000000000e+03
3.107000000000000000e+03
3.135000000000000000e+03
3.164000000000000000e+03
3.187000000000000000e+03
3.209000000000000000e+03
3.244000000000000000e+03
3.276000000000000000e+03
3.299000000000000000e+03
3.320000000000000000e+03
3.350000000000000000e+03
3.386000000000000000e+03
3.417000000000000000e+03
3.443000000000000000e+03
3.469000000000000000e+03
3.497000000000000000e+03
3.513000000000000000e+03
3.538000000000000000e+03
3.558000000000000000e+03
3.589000000000000000e+03
3.613000000000000000e+03
3.640000000000000000e+03
3.676000000000000000e+03
3.705000000000000000e+03
3.738000000000000000e+03
3.771000000000000000e+03
3.803000000000000000e+03
3.825000000000000000e+03
3.860000000000000000e+03
3.887000000000000000e+03
3.925000000000000000e+03
3.954000000000000000e+03
3.987000000000000000e+03
4.014000000000000000e+03
4.044000000000000000e+03
4.082000000000000000e+03
4.112000000000000000e+03
4.141000000000000000e+03
4.167000000000000000e+03
4.191000000000000000e+03
4.219000000000000000e+03
4.251000000000000000e+03
4.275000000000000000e+03
4.307000000000000000e+03
4.337000000000000000e+03
4.369000000000000000e+03
4.397000000000000000e+03
4.424000000000000000e+03
4.452000000000000000e+03
4.486000000000000000e+03
4.522000000000000000e+03
4.570000000000000000e+03
4.606000000000000000e+03
4.640000000000000000e+03
4.669000000000000000e+03
4.697000000000000000e+03
4.724000000000000000e+03
4.751000000000000000e+03
4.780000000000000000e+03
4.820000000000000000e+03
4.870000000000000000e+03
4.901000000000000000e+03
4.932000000000000000e+03
4.973000000000000000e+03
5.003000000000000000e+03
5.040000000000000000e+03
5.073000000000000000e+03
5.104000000000000000e+03
5.144000000000000000e+03
5.175000000000000000e+03
5.215000000000000000e+03
5.242000000000000000e+03
5.280000000000000000e+03
5.323000000000000000e+03
5.351000000000000000e+03
5.388000000000000000e+03
5.427000000000000000e+03
5.465000000000000000e+03
5.512000000000000000e+03
5.548000000000000000e+03
5.583000000000000000e+03
5.625000000000000000e+03
5.653000000000000000e+03
5.692000000000000000e+03
5.736000000000000000e+03
5.775000000000000000e+03
5.815000000000000000e+03
5.854000000000000000e+03
5.893000000000000000e+03
5.929000000000000000e+03
5.979000000000000000e+03
6.019000000000000000e+03
6.072000000000000000e+03
6.136000000000000000e+03
6.189000000000000000e+03
6.246000000000000000e+03
6.297000000000000000e+03
6.355000000000000000e+03
6.403000000000000000e+03
6.447000000000000000e+03
6.494000000000000000e+03
6.545000000000000000e+03
6.597000000000000000e+03
6.647000000000000000e+03
6.690000000000000000e+03
6.733000000000000000e+03
6.785000000000000000e+03
6.840000000000000000e+03
6.891000000000000000e+03
6.957000000000000000e+03
7.003000000000000000e+03
7.057000000000000000e+03
7.114000000000000000e+03
7.169000000000000000e+03
7.224000000000000000e+03
7.286000000000000000e+03
7.334000000000000000e+03
7.393000000000000000e+03
7.458000000000000000e+03
7.504000000000000000e+03
7.562000000000000000e+03
7.616000000000000000e+03
7.681000000000000000e+03
7.730000000000000000e+03
7.799000000000000000e+03
7.852000000000000000e+03
7.908000000000000000e+03
7.962000000000000000e+03
8.023000000000000000e+03
8.078000000000000000e+03
8.130000000000000000e+03
8.179000000000000000e+03
8.238000000000000000e+03
8.297000000000000000e+03
8.352000000000000000e+03
8.396000000000000000e+03
8.472000000000000000e+03
8.531000000000000000e+03
8.590000000000000000e+03
8.664000000000000000e+03
8.725000000000000000e+03
8.778000000000000000e+03
8.841000000000000000e+03
8.916000000000000000e+03
8.993000000000000000e+03
9.049000000000000000e+03
9.104000000000000000e+03
9.178000000000000000e+03
9.234000000000000000e+03
9.293000000000000000e+03
9.371000000000000000e+03
9.444000000000000000e+03
9.525000000000000000e+03
9.598000000000000000e+03
9.671000000000000000e+03
9.747000000000000000e+03
9.822000000000000000e+03
9.915000000000000000e+03
9.973000000000000000e+03
1.005200000000000000e+04
1.012700000000000000e+04
1.020800000000000000e+04
1.028400000000000000e+04
1.036700000000000000e+04
1.044400000000000000e+04
1.052000000000000000e+04
1.060400000000000000e+04
1.068400000000000000e+04
1.075200000000000000e+04
1.081900000000000000e+04
1.089900000000000000e+04
1.097900000000000000e+04
1.106400000000000000e+04
1.113800000000000000e+04
1.122000000000000000e+04
1.130400000000000000e+04
1.138400000000000000e+04
1.146700000000000000e+04
1.154700000000000000e+04
1.161900000000000000e+04
1.169200000000000000e+04
1.177100000000000000e+04
1.185600000000000000e+04
1.193200000000000000e+04
1.202800000000000000e+04
1.210900000000000000e+04
1.218700000000000000e+04
1.226500000000000000e+04
1.234600000000000000e+04
1.242700000000000000e+04
1.249700000000000000e+04
1.259400000000000000e+04
1.267900000000000000e+04
1.278800000000000000e+04
1.288400000000000000e+04
1.298400000000000000e+04
1.308000000000000000e+04
1.319300000000000000e+04
1.331000000000000000e+04
1.341100000000000000e+04
1.351400000000000000e+04
1.360600000000000000e+04
1.371200000000000000e+04
1.382700000000000000e+04
1.391200000000000000e+04
1.401000000000000000e+04
1.410400000000000000e+04
1.420000000000000000e+04
1.429400000000000000e+04
1.439600000000000000e+04
1.449600000000000000e+04
1.461100000000000000e+04
1.474100000000000000e+04
1.485300000000000000e+04
1.497400000000000000e+04
1.508700000000000000e+04
1.519500000000000000e+04
1.530800000000000000e+04
1.543000000000000000e+04
1.553600000000000000e+04
1.565600000000000000e+04
1.577100000000000000e+04
1.590700000000000000e+04
1.602200000000000000e+04
1.614000000000000000e+04
1.624600000000000000e+04
1.635000000000000000e+04
1.646700000000000000e+04
1.660500000000000000e+04
1.671900000000000000e+04
1.682800000000000000e+04
1.693600000000000000e+04
1.706600000000000000e+04
1.719800000000000000e+04
1.733400000000000000e+04
1.745000000000000000e+04
1.757600000000000000e+04
1.769200000000000000e+04
1.783200000000000000e+04
1.798200000000000000e+04
1.812400000000000000e+04
1.824700000000000000e+04
1.837700000000000000e+04
1.849900000000000000e+04
1.864700000000000000e+04
1.878000000000000000e+04
1.893100000000000000e+04
1.906700000000000000e+04
1.919700000000000000e+04
1.934100000000000000e+04
1.949600000000000000e+04
1.964500000000000000e+04
1.979100000000000000e+04
1.993500000000000000e+04
2.007600000000000000e+04
2.022400000000000000e+04
2.036600000000000000e+04
2.046600000000000000e+04
2.062500000000000000e+04
2.075400000000000000e+04
2.089200000000000000e+04
2.103200000000000000e+04
2.117500000000000000e+04
2.133500000000000000e+04
2.148300000000000000e+04
2.166000000000000000e+04
2.182300000000000000e+04
2.198000000000000000e+04
2.213200000000000000e+04
2.230800000000000000e+04
2.249500000000000000e+04
2.267900000000000000e+04
2.288300000000000000e+04
2.302800000000000000e+04
2.319100000000000000e+04
2.336900000000000000e+04
2.354600000000000000e+04
2.370900000000000000e+04
2.389500000000000000e+04
2.407400000000000000e+04
2.426500000000000000e+04
2.442300000000000000e+04
