1.000000000000000000e+00
2.000000000000000000e+00
3.000000000000000000e+00
4.000000000000000000e+00
5.000000000000000000e+00
6.000000000000000000e+00
8.000000000000000000e+00
9.000000000000000000e+00
1.100000000000000000e+01
1.300000000000000000e+01
1.600000000000000000e+01
1.800000000000000000e+01
2.300000000000000000e+01
2.700000000000000000e+01
3.400000000000000000e+01
3.800000000000000000e+01
4.300000000000000000e+01
5.300000000000000000e+01
6.300000000000000000e+01
7.100000000000000000e+01
8.500000000000000000e+01
1.020000000000000000e+02
1.150000000000000000e+02
1.320000000000000000e+02
1.610000000000000000e+02
1.850000000000000000e+02
2.130000000000000000e+02
2.460000000000000000e+02
2.890000000000000000e+02
3.410000000000000000e+02
3.920000000000000000e+02
4.470000000000000000e+02
5.330000000000000000e+02
6.100000000000000000e+02
7.100000000000000000e+02
8.260000000000000000e+02
9.700000000000000000e+02
1.110000000000000000e+03
1.274000000000000000e+03
1.483000000000000000e+03
1.734000000000000000e+03
2.027000000000000000e+03
2.347000000000000000e+03
2.694000000000000000e+03
3.108000000000000000e+03
3.622000000000000000e+03
4.180000000000000000e+03
4.867000000000000000e+03
5.642000000000000000e+03
