1.000000000000000000e+00
2.000000000000000000e+00
3.000000000000000000e+00
4.000000000000000000e+00
5.000000000000000000e+00
6.000000000000000000e+00
7.000000000000000000e+00
9.000000000000000000e+00
1.200000000000000000e+01
1.500000000000000000e+01
1.900000000000000000e+01
2.500000000000000000e+01
2.700000000000000000e+01
3.300000000000000000e+01
3.900000000000000000e+01
4.800000000000000000e+01
5.300000000000000000e+01
6.100000000000000000e+01
7.300000000000000000e+01
8.600000000000000000e+01
1.010000000000000000e+02
1.100000000000000000e+02
1.290000000000000000e+02
1.500000000000000000e+02
1.810000000000000000e+02
2.010000000000000000e+02
2.340000000000000000e+02
2.640000000000000000e+02
3.030000000000000000e+02
3.540000000000000000e+02
4.130000000000000000e+02
4.820000000000000000e+02
5.450000000000000000e+02
6.250000000000000000e+02
7.280000000000000000e+02
8.450000000000000000e+02
9.860000000000000000e+02
1.129000000000000000e+03
1.308000000000000000e+03
1.503000000000000000e+03
1.744000000000000000e+03
2.019000000000000000e+03
2.329000000000000000e+03
2.698000000000000000e+03
3.127000000000000000e+03
3.624000000000000000e+03
4.214000000000000000e+03
4.870000000000000000e+03
