1.000000000000000000e+00
2.000000000000000000e+00
2.000000000000000000e+00
2.000000000000000000e+00
2.000000000000000000e+00
2.000000000000000000e+00
2.000000000000000000e+00
2.000000000000000000e+00
2.000000000000000000e+00
2.000000000000000000e+00
2.000000000000000000e+00
2.000000000000000000e+00
2.000000000000000000e+00
2.000000000000000000e+00
2.000000000000000000e+00
2.000000000000000000e+00
2.000000000000000000e+00
2.000000000000000000e+00
2.000000000000000000e+00
2.000000000000000000e+00
2.000000000000000000e+00
2.000000000000000000e+00
2.000000000000000000e+00
2.000000000000000000e+00
2.000000000000000000e+00
2.000000000000000000e+00
2.000000000000000000e+00
2.000000000000000000e+00
2.000000000000000000e+00
2.000000000000000000e+00
2.000000000000000000e+00
2.000000000000000000e+00
2.000000000000000000e+00
2.000000000000000000e+00
2.000000000000000000e+00
2.000000000000000000e+00
2.000000000000000000e+00
2.000000000000000000e+00
2.000000000000000000e+00
2.000000000000000000e+00
2.000000000000000000e+00
2.000000000000000000e+00
2.000000000000000000e+00
2.000000000000000000e+00
2.000000000000000000e+00
2.000000000000000000e+00
2.000000000000000000e+00
2.000000000000000000e+00
2.000000000000000000e+00
2.000000000000000000e+00
2.000000000000000000e+00
2.000000000000000000e+00
2.000000000000000000e+00
2.000000000000000000e+00
2.000000000000000000e+00
2.000000000000000000e+00
2.000000000000000000e+00
2.000000000000000000e+00
2.000000000000000000e+00
2.000000000000000000e+00
2.000000000000000000e+00
2.000000000000000000e+00
2.000000000000000000e+00
2.000000000000000000e+00
2.000000000000000000e+00
2.000000000000000000e+00
2.000000000000000000e+00
2.000000000000000000e+00
2.000000000000000000e+00
2.000000000000000000e+00
2.000000000000000000e+00
2.000000000000000000e+00
2.000000000000000000e+00
2.000000000000000000e+00
2.000000000000000000e+00
2.000000000000000000e+00
2.000000000000000000e+00
2.000000000000000000e+00
2.000000000000000000e+00
2.000000000000000000e+00
2.000000000000000000e+00
2.000000000000000000e+00
2.000000000000000000e+00
2.000000000000000000e+00
2.000000000000000000e+00
2.000000000000000000e+00
2.000000000000000000e+00
2.000000000000000000e+00
2.000000000000000000e+00
2.000000000000000000e+00
2.000000000000000000e+00
2.000000000000000000e+00
2.000000000000000000e+00
2.000000000000000000e+00
2.000000000000000000e+00
2.000000000000000000e+00
2.000000000000000000e+00
2.000000000000000000e+00
3.000000000000000000e+00
3.000000000000000000e+00
3.000000000000000000e+00
3.000000000000000000e+00
3.000000000000000000e+00
3.000000000000000000e+00
3.000000000000000000e+00
3.000000000000000000e+00
3.000000000000000000e+00
3.000000000000000000e+00
3.000000000000000000e+00
3.000000000000000000e+00
3.000000000000000000e+00
3.000000000000000000e+00
3.000000000000000000e+00
3.000000000000000000e+00
3.000000000000000000e+00
3.000000000000000000e+00
3.000000000000000000e+00
3.000000000000000000e+00
3.000000000000000000e+00
3.000000000000000000e+00
3.000000000000000000e+00
3.000000000000000000e+00
3.000000000000000000e+00
3.000000000000000000e+00
3.000000000000000000e+00
3.000000000000000000e+00
3.000000000000000000e+00
3.000000000000000000e+00
3.000000000000000000e+00
3.000000000000000000e+00
3.000000000000000000e+00
3.000000000000000000e+00
3.000000000000000000e+00
3.000000000000000000e+00
3.000000000000000000e+00
3.000000000000000000e+00
3.000000000000000000e+00
3.000000000000000000e+00
3.000000000000000000e+00
3.000000000000000000e+00
3.000000000000000000e+00
3.000000000000000000e+00
3.000000000000000000e+00
3.000000000000000000e+00
3.000000000000000000e+00
3.000000000000000000e+00
3.000000000000000000e+00
3.000000000000000000e+00
3.000000000000000000e+00
3.000000000000000000e+00
3.000000000000000000e+00
3.000000000000000000e+00
3.000000000000000000e+00
3.000000000000000000e+00
3.000000000000000000e+00
3.000000000000000000e+00
3.000000000000000000e+00
3.000000000000000000e+00
3.000000000000000000e+00
3.000000000000000000e+00
3.000000000000000000e+00
3.000000000000000000e+00
3.000000000000000000e+00
3.000000000000000000e+00
3.000000000000000000e+00
3.000000000000000000e+00
3.000000000000000000e+00
3.000000000000000000e+00
3.000000000000000000e+00
3.000000000000000000e+00
3.000000000000000000e+00
3.000000000000000000e+00
3.000000000000000000e+00
3.000000000000000000e+00
3.000000000000000000e+00
3.000000000000000000e+00
3.000000000000000000e+00
3.000000000000000000e+00
3.000000000000000000e+00
3.000000000000000000e+00
3.000000000000000000e+00
3.000000000000000000e+00
4.000000000000000000e+00
4.000000000000000000e+00
4.000000000000000000e+00
4.000000000000000000e+00
4.000000000000000000e+00
4.000000000000000000e+00
4.000000000000000000e+00
4.000000000000000000e+00
4.000000000000000000e+00
4.000000000000000000e+00
4.000000000000000000e+00
4.000000000000000000e+00
4.000000000000000000e+00
4.000000000000000000e+00
4.000000000000000000e+00
4.000000000000000000e+00
4.000000000000000000e+00
4.000000000000000000e+00
4.000000000000000000e+00
4.000000000000000000e+00
4.000000000000000000e+00
5.000000000000000000e+00
5.000000000000000000e+00
5.000000000000000000e+00
5.000000000000000000e+00
5.000000000000000000e+00
5.000000000000000000e+00
5.000000000000000000e+00
5.000000000000000000e+00
5.000000000000000000e+00
5.000000000000000000e+00
5.000000000000000000e+00
5.000000000000000000e+00
5.000000000000000000e+00
5.000000000000000000e+00
5.000000000000000000e+00
5.000000000000000000e+00
5.000000000000000000e+00
5.000000000000000000e+00
5.000000000000000000e+00
5.000000000000000000e+00
5.000000000000000000e+00
5.000000000000000000e+00
5.000000000000000000e+00
5.000000000000000000e+00
5.000000000000000000e+00
5.000000000000000000e+00
5.000000000000000000e+00
5.000000000000000000e+00
5.000000000000000000e+00
5.000000000000000000e+00
5.000000000000000000e+00
5.000000000000000000e+00
5.000000000000000000e+00
6.000000000000000000e+00
6.000000000000000000e+00
6.000000000000000000e+00
6.000000000000000000e+00
6.000000000000000000e+00
6.000000000000000000e+00
6.000000000000000000e+00
6.000000000000000000e+00
6.000000000000000000e+00
6.000000000000000000e+00
6.000000000000000000e+00
6.000000000000000000e+00
6.000000000000000000e+00
6.000000000000000000e+00
6.000000000000000000e+00
6.000000000000000000e+00
6.000000000000000000e+00
6.000000000000000000e+00
6.000000000000000000e+00
6.000000000000000000e+00
6.000000000000000000e+00
6.000000000000000000e+00
6.000000000000000000e+00
6.000000000000000000e+00
6.000000000000000000e+00
6.000000000000000000e+00
6.000000000000000000e+00
6.000000000000000000e+00
6.000000000000000000e+00
6.000000000000000000e+00
6.000000000000000000e+00
6.000000000000000000e+00
6.000000000000000000e+00
6.000000000000000000e+00
6.000000000000000000e+00
6.000000000000000000e+00
6.000000000000000000e+00
6.000000000000000000e+00
6.000000000000000000e+00
6.000000000000000000e+00
7.000000000000000000e+00
7.000000000000000000e+00
7.000000000000000000e+00
8.000000000000000000e+00
8.000000000000000000e+00
8.000000000000000000e+00
8.000000000000000000e+00
8.000000000000000000e+00
8.000000000000000000e+00
8.000000000000000000e+00
8.000000000000000000e+00
8.000000000000000000e+00
8.000000000000000000e+00
8.000000000000000000e+00
8.000000000000000000e+00
8.000000000000000000e+00
8.000000000000000000e+00
9.000000000000000000e+00
9.000000000000000000e+00
9.000000000000000000e+00
9.000000000000000000e+00
9.000000000000000000e+00
9.000000000000000000e+00
9.000000000000000000e+00
9.000000000000000000e+00
9.000000000000000000e+00
9.000000000000000000e+00
9.000000000000000000e+00
9.000000000000000000e+00
9.000000000000000000e+00
9.000000000000000000e+00
9.000000000000000000e+00
9.000000000000000000e+00
9.000000000000000000e+00
9.000000000000000000e+00
9.000000000000000000e+00
9.000000000000000000e+00
9.000000000000000000e+00
9.000000000000000000e+00
9.000000000000000000e+00
9.000000000000000000e+00
9.000000000000000000e+00
9.000000000000000000e+00
9.000000000000000000e+00
9.000000000000000000e+00
9.000000000000000000e+00
9.000000000000000000e+00
9.000000000000000000e+00
9.000000000000000000e+00
9.000000000000000000e+00
9.000000000000000000e+00
9.000000000000000000e+00
9.000000000000000000e+00
1.000000000000000000e+01
1.000000000000000000e+01
1.000000000000000000e+01
1.000000000000000000e+01
1.000000000000000000e+01
1.000000000000000000e+01
1.000000000000000000e+01
1.000000000000000000e+01
1.000000000000000000e+01
1.000000000000000000e+01
1.000000000000000000e+01
1.000000000000000000e+01
1.000000000000000000e+01
1.000000000000000000e+01
1.000000000000000000e+01
1.000000000000000000e+01
1.000000000000000000e+01
1.000000000000000000e+01
1.000000000000000000e+01
1.000000000000000000e+01
1.000000000000000000e+01
1.000000000000000000e+01
1.000000000000000000e+01
1.000000000000000000e+01
1.100000000000000000e+01
1.100000000000000000e+01
1.100000000000000000e+01
1.100000000000000000e+01
1.100000000000000000e+01
1.100000000000000000e+01
1.100000000000000000e+01
1.100000000000000000e+01
1.100000000000000000e+01
1.100000000000000000e+01
1.100000000000000000e+01
1.100000000000000000e+01
1.100000000000000000e+01
1.100000000000000000e+01
1.100000000000000000e+01
1.100000000000000000e+01
1.100000000000000000e+01
1.200000000000000000e+01
1.200000000000000000e+01
1.300000000000000000e+01
1.300000000000000000e+01
1.300000000000000000e+01
1.400000000000000000e+01
1.400000000000000000e+01
1.400000000000000000e+01
1.400000000000000000e+01
1.400000000000000000e+01
1.400000000000000000e+01
1.400000000000000000e+01
1.400000000000000000e+01
1.400000000000000000e+01
1.500000000000000000e+01
1.500000000000000000e+01
1.500000000000000000e+01
1.500000000000000000e+01
1.500000000000000000e+01
1.500000000000000000e+01
1.500000000000000000e+01
1.500000000000000000e+01
1.500000000000000000e+01
1.500000000000000000e+01
1.600000000000000000e+01
1.600000000000000000e+01
1.700000000000000000e+01
1.700000000000000000e+01
1.700000000000000000e+01
1.700000000000000000e+01
1.700000000000000000e+01
1.700000000000000000e+01
1.800000000000000000e+01
1.800000000000000000e+01
1.800000000000000000e+01
1.800000000000000000e+01
1.800000000000000000e+01
1.800000000000000000e+01
1.800000000000000000e+01
1.800000000000000000e+01
1.800000000000000000e+01
1.800000000000000000e+01
1.800000000000000000e+01
1.800000000000000000e+01
1.800000000000000000e+01
1.800000000000000000e+01
1.800000000000000000e+01
1.800000000000000000e+01
1.800000000000000000e+01
1.800000000000000000e+01
1.800000000000000000e+01
1.800000000000000000e+01
1.800000000000000000e+01
1.800000000000000000e+01
1.800000000000000000e+01
1.800000000000000000e+01
1.800000000000000000e+01
1.800000000000000000e+01
1.900000000000000000e+01
1.900000000000000000e+01
1.900000000000000000e+01
1.900000000000000000e+01
1.900000000000000000e+01
1.900000000000000000e+01
1.900000000000000000e+01
1.900000000000000000e+01
1.900000000000000000e+01
1.900000000000000000e+01
1.900000000000000000e+01
1.900000000000000000e+01
1.900000000000000000e+01
1.900000000000000000e+01
1.900000000000000000e+01
1.900000000000000000e+01
1.900000000000000000e+01
1.900000000000000000e+01
1.900000000000000000e+01
1.900000000000000000e+01
1.900000000000000000e+01
1.900000000000000000e+01
1.900000000000000000e+01
1.900000000000000000e+01
1.900000000000000000e+01
1.900000000000000000e+01
1.900000000000000000e+01
1.900000000000000000e+01
1.900000000000000000e+01
1.900000000000000000e+01
1.900000000000000000e+01
1.900000000000000000e+01
1.900000000000000000e+01
1.900000000000000000e+01
1.900000000000000000e+01
1.900000000000000000e+01
1.900000000000000000e+01
1.900000000000000000e+01
1.900000000000000000e+01
2.000000000000000000e+01
2.000000000000000000e+01
2.000000000000000000e+01
2.000000000000000000e+01
2.000000000000000000e+01
2.100000000000000000e+01
2.100000000000000000e+01
2.100000000000000000e+01
2.100000000000000000e+01
2.100000000000000000e+01
2.100000000000000000e+01
2.300000000000000000e+01
2.300000000000000000e+01
2.300000000000000000e+01
2.300000000000000000e+01
2.300000000000000000e+01
2.400000000000000000e+01
2.400000000000000000e+01
2.400000000000000000e+01
2.500000000000000000e+01
2.500000000000000000e+01
2.600000000000000000e+01
2.600000000000000000e+01
2.600000000000000000e+01
2.600000000000000000e+01
2.600000000000000000e+01
2.600000000000000000e+01
2.700000000000000000e+01
2.800000000000000000e+01
2.800000000000000000e+01
2.800000000000000000e+01
2.800000000000000000e+01
2.900000000000000000e+01
2.900000000000000000e+01
3.000000000000000000e+01
3.000000000000000000e+01
3.000000000000000000e+01
3.100000000000000000e+01
3.200000000000000000e+01
3.200000000000000000e+01
3.500000000000000000e+01
3.500000000000000000e+01
3.500000000000000000e+01
3.500000000000000000e+01
3.500000000000000000e+01
3.600000000000000000e+01
3.600000000000000000e+01
3.600000000000000000e+01
3.700000000000000000e+01
3.700000000000000000e+01
3.700000000000000000e+01
3.700000000000000000e+01
3.700000000000000000e+01
3.700000000000000000e+01
3.700000000000000000e+01
3.900000000000000000e+01
3.900000000000000000e+01
3.900000000000000000e+01
3.900000000000000000e+01
3.900000000000000000e+01
3.900000000000000000e+01
3.900000000000000000e+01
3.900000000000000000e+01
3.900000000000000000e+01
4.000000000000000000e+01
4.000000000000000000e+01
4.000000000000000000e+01
4.000000000000000000e+01
4.000000000000000000e+01
4.000000000000000000e+01
4.000000000000000000e+01
4.000000000000000000e+01
4.200000000000000000e+01
4.200000000000000000e+01
4.300000000000000000e+01
4.300000000000000000e+01
4.300000000000000000e+01
4.300000000000000000e+01
4.300000000000000000e+01
4.300000000000000000e+01
4.300000000000000000e+01
4.300000000000000000e+01
4.300000000000000000e+01
4.300000000000000000e+01
4.300000000000000000e+01
4.400000000000000000e+01
4.400000000000000000e+01
4.400000000000000000e+01
4.400000000000000000e+01
4.400000000000000000e+01
4.400000000000000000e+01
4.500000000000000000e+01
4.500000000000000000e+01
4.500000000000000000e+01
4.500000000000000000e+01
4.500000000000000000e+01
4.500000000000000000e+01
4.500000000000000000e+01
4.600000000000000000e+01
4.700000000000000000e+01
4.700000000000000000e+01
4.700000000000000000e+01
4.700000000000000000e+01
4.700000000000000000e+01
4.700000000000000000e+01
4.800000000000000000e+01
4.800000000000000000e+01
4.800000000000000000e+01
4.800000000000000000e+01
4.800000000000000000e+01
4.800000000000000000e+01
4.900000000000000000e+01
4.900000000000000000e+01
5.100000000000000000e+01
5.200000000000000000e+01
5.200000000000000000e+01
5.200000000000000000e+01
5.300000000000000000e+01
5.300000000000000000e+01
5.300000000000000000e+01
5.300000000000000000e+01
5.300000000000000000e+01
5.300000000000000000e+01
5.400000000000000000e+01
5.500000000000000000e+01
5.600000000000000000e+01
5.600000000000000000e+01
5.600000000000000000e+01
5.600000000000000000e+01
5.700000000000000000e+01
5.700000000000000000e+01
5.700000000000000000e+01
5.800000000000000000e+01
5.800000000000000000e+01
6.000000000000000000e+01
6.000000000000000000e+01
6.000000000000000000e+01
6.000000000000000000e+01
6.300000000000000000e+01
6.300000000000000000e+01
6.300000000000000000e+01
6.300000000000000000e+01
6.400000000000000000e+01
6.700000000000000000e+01
6.700000000000000000e+01
6.700000000000000000e+01
6.800000000000000000e+01
6.800000000000000000e+01
6.800000000000000000e+01
6.800000000000000000e+01
6.800000000000000000e+01
6.900000000000000000e+01
7.100000000000000000e+01
7.100000000000000000e+01
7.300000000000000000e+01
7.300000000000000000e+01
7.400000000000000000e+01
7.400000000000000000e+01
7.400000000000000000e+01
7.700000000000000000e+01
7.800000000000000000e+01
7.800000000000000000e+01
7.800000000000000000e+01
7.800000000000000000e+01
7.800000000000000000e+01
7.900000000000000000e+01
7.900000000000000000e+01
7.900000000000000000e+01
8.000000000000000000e+01
8.100000000000000000e+01
8.100000000000000000e+01
8.100000000000000000e+01
8.100000000000000000e+01
8.300000000000000000e+01
8.500000000000000000e+01
8.600000000000000000e+01
8.600000000000000000e+01
8.600000000000000000e+01
8.600000000000000000e+01
8.600000000000000000e+01
8.600000000000000000e+01
8.700000000000000000e+01
8.700000000000000000e+01
8.700000000000000000e+01
8.800000000000000000e+01
8.800000000000000000e+01
8.900000000000000000e+01
9.000000000000000000e+01
9.000000000000000000e+01
9.000000000000000000e+01
9.100000000000000000e+01
9.300000000000000000e+01
9.500000000000000000e+01
9.500000000000000000e+01
9.500000000000000000e+01
9.500000000000000000e+01
9.500000000000000000e+01
9.600000000000000000e+01
9.700000000000000000e+01
9.700000000000000000e+01
9.700000000000000000e+01
9.700000000000000000e+01
9.700000000000000000e+01
9.800000000000000000e+01
9.800000000000000000e+01
9.900000000000000000e+01
1.000000000000000000e+02
1.020000000000000000e+02
1.040000000000000000e+02
1.040000000000000000e+02
1.050000000000000000e+02
1.070000000000000000e+02
1.080000000000000000e+02
1.080000000000000000e+02
1.080000000000000000e+02
1.080000000000000000e+02
1.080000000000000000e+02
1.080000000000000000e+02
1.100000000000000000e+02
1.110000000000000000e+02
1.120000000000000000e+02
1.130000000000000000e+02
1.130000000000000000e+02
1.130000000000000000e+02
1.130000000000000000e+02
1.130000000000000000e+02
1.150000000000000000e+02
1.150000000000000000e+02
1.160000000000000000e+02
1.170000000000000000e+02
1.190000000000000000e+02
1.210000000000000000e+02
1.230000000000000000e+02
1.240000000000000000e+02
1.250000000000000000e+02
1.270000000000000000e+02
1.270000000000000000e+02
1.280000000000000000e+02
1.290000000000000000e+02
1.300000000000000000e+02
1.330000000000000000e+02
1.350000000000000000e+02
1.350000000000000000e+02
1.370000000000000000e+02
1.380000000000000000e+02
1.390000000000000000e+02
1.400000000000000000e+02
1.400000000000000000e+02
1.410000000000000000e+02
1.430000000000000000e+02
1.430000000000000000e+02
1.430000000000000000e+02
1.440000000000000000e+02
1.440000000000000000e+02
1.460000000000000000e+02
1.460000000000000000e+02
1.470000000000000000e+02
1.480000000000000000e+02
1.500000000000000000e+02
1.510000000000000000e+02
1.510000000000000000e+02
1.520000000000000000e+02
1.520000000000000000e+02
1.540000000000000000e+02
1.550000000000000000e+02
1.570000000000000000e+02
1.570000000000000000e+02
1.570000000000000000e+02
1.570000000000000000e+02
1.570000000000000000e+02
1.580000000000000000e+02
1.630000000000000000e+02
1.630000000000000000e+02
1.630000000000000000e+02
1.640000000000000000e+02
1.640000000000000000e+02
1.650000000000000000e+02
1.650000000000000000e+02
1.660000000000000000e+02
1.660000000000000000e+02
1.670000000000000000e+02
1.680000000000000000e+02
1.700000000000000000e+02
1.730000000000000000e+02
1.740000000000000000e+02
1.760000000000000000e+02
1.760000000000000000e+02
1.790000000000000000e+02
1.810000000000000000e+02
1.840000000000000000e+02
1.850000000000000000e+02
1.880000000000000000e+02
1.890000000000000000e+02
1.900000000000000000e+02
1.930000000000000000e+02
1.930000000000000000e+02
1.940000000000000000e+02
1.970000000000000000e+02
2.000000000000000000e+02
2.060000000000000000e+02
2.090000000000000000e+02
2.100000000000000000e+02
2.110000000000000000e+02
2.120000000000000000e+02
2.140000000000000000e+02
2.150000000000000000e+02
2.190000000000000000e+02
2.230000000000000000e+02
2.240000000000000000e+02
2.240000000000000000e+02
2.250000000000000000e+02
2.280000000000000000e+02
2.300000000000000000e+02
2.320000000000000000e+02
2.340000000000000000e+02
2.360000000000000000e+02
2.380000000000000000e+02
2.400000000000000000e+02
2.400000000000000000e+02
2.420000000000000000e+02
2.440000000000000000e+02
2.480000000000000000e+02
2.480000000000000000e+02
2.480000000000000000e+02
2.490000000000000000e+02
2.500000000000000000e+02
2.510000000000000000e+02
2.530000000000000000e+02
2.530000000000000000e+02
2.540000000000000000e+02
2.540000000000000000e+02
2.550000000000000000e+02
2.560000000000000000e+02
2.570000000000000000e+02
2.570000000000000000e+02
2.570000000000000000e+02
2.580000000000000000e+02
2.600000000000000000e+02
2.610000000000000000e+02
2.650000000000000000e+02
2.680000000000000000e+02
2.710000000000000000e+02
2.730000000000000000e+02
2.750000000000000000e+02
2.800000000000000000e+02
2.820000000000000000e+02
2.850000000000000000e+02
2.860000000000000000e+02
2.880000000000000000e+02
2.890000000000000000e+02
2.900000000000000000e+02
2.900000000000000000e+02
2.930000000000000000e+02
2.930000000000000000e+02
2.940000000000000000e+02
2.940000000000000000e+02
2.940000000000000000e+02
2.970000000000000000e+02
2.990000000000000000e+02
3.030000000000000000e+02
3.050000000000000000e+02
3.050000000000000000e+02
3.070000000000000000e+02
3.110000000000000000e+02
3.140000000000000000e+02
3.160000000000000000e+02
3.180000000000000000e+02
3.230000000000000000e+02
3.250000000000000000e+02
3.290000000000000000e+02
3.320000000000000000e+02
3.360000000000000000e+02
3.360000000000000000e+02
3.430000000000000000e+02
3.440000000000000000e+02
3.470000000000000000e+02
3.520000000000000000e+02
3.550000000000000000e+02
3.570000000000000000e+02
3.590000000000000000e+02
3.600000000000000000e+02
3.620000000000000000e+02
3.640000000000000000e+02
3.660000000000000000e+02
3.740000000000000000e+02
3.780000000000000000e+02
3.790000000000000000e+02
3.810000000000000000e+02
3.840000000000000000e+02
3.880000000000000000e+02
3.900000000000000000e+02
3.920000000000000000e+02
3.950000000000000000e+02
3.990000000000000000e+02
4.040000000000000000e+02
4.050000000000000000e+02
4.060000000000000000e+02
4.090000000000000000e+02
4.150000000000000000e+02
4.180000000000000000e+02
4.190000000000000000e+02
4.230000000000000000e+02
4.270000000000000000e+02
4.310000000000000000e+02
4.350000000000000000e+02
4.370000000000000000e+02
4.400000000000000000e+02
4.430000000000000000e+02
4.460000000000000000e+02
4.470000000000000000e+02
4.500000000000000000e+02
4.530000000000000000e+02
4.590000000000000000e+02
4.660000000000000000e+02
4.700000000000000000e+02
4.750000000000000000e+02
4.780000000000000000e+02
4.790000000000000000e+02
4.810000000000000000e+02
4.850000000000000000e+02
4.860000000000000000e+02
4.880000000000000000e+02
4.900000000000000000e+02
4.930000000000000000e+02
4.930000000000000000e+02
4.960000000000000000e+02
4.990000000000000000e+02
5.060000000000000000e+02
5.100000000000000000e+02
5.140000000000000000e+02
5.190000000000000000e+02
5.220000000000000000e+02
5.250000000000000000e+02
5.330000000000000000e+02
5.400000000000000000e+02
5.440000000000000000e+02
5.490000000000000000e+02
5.510000000000000000e+02
5.540000000000000000e+02
5.590000000000000000e+02
5.630000000000000000e+02
5.660000000000000000e+02
5.700000000000000000e+02
5.740000000000000000e+02
5.750000000000000000e+02
5.780000000000000000e+02
5.820000000000000000e+02
5.880000000000000000e+02
5.920000000000000000e+02
5.930000000000000000e+02
5.980000000000000000e+02
6.020000000000000000e+02
6.120000000000000000e+02
6.200000000000000000e+02
6.260000000000000000e+02
6.330000000000000000e+02
6.390000000000000000e+02
6.400000000000000000e+02
6.440000000000000000e+02
6.480000000000000000e+02
6.540000000000000000e+02
6.570000000000000000e+02
6.620000000000000000e+02
6.650000000000000000e+02
6.680000000000000000e+02
6.710000000000000000e+02
6.770000000000000000e+02
6.800000000000000000e+02
6.820000000000000000e+02
6.870000000000000000e+02
6.950000000000000000e+02
7.000000000000000000e+02
7.020000000000000000e+02
7.080000000000000000e+02
7.130000000000000000e+02
7.210000000000000000e+02
7.240000000000000000e+02
7.280000000000000000e+02
7.340000000000000000e+02
7.390000000000000000e+02
7.430000000000000000e+02
7.480000000000000000e+02
7.520000000000000000e+02
7.610000000000000000e+02
7.750000000000000000e+02
7.790000000000000000e+02
7.880000000000000000e+02
7.950000000000000000e+02
8.040000000000000000e+02
8.100000000000000000e+02
8.110000000000000000e+02
8.150000000000000000e+02
8.190000000000000000e+02
8.240000000000000000e+02
8.280000000000000000e+02
8.330000000000000000e+02
8.370000000000000000e+02
8.420000000000000000e+02
8.470000000000000000e+02
8.500000000000000000e+02
8.620000000000000000e+02
8.670000000000000000e+02
8.730000000000000000e+02
8.820000000000000000e+02
8.900000000000000000e+02
8.970000000000000000e+02
9.030000000000000000e+02
9.110000000000000000e+02
9.180000000000000000e+02
9.230000000000000000e+02
9.270000000000000000e+02
9.330000000000000000e+02
9.410000000000000000e+02
9.470000000000000000e+02
9.530000000000000000e+02
9.590000000000000000e+02
9.710000000000000000e+02
9.800000000000000000e+02
9.890000000000000000e+02
9.990000000000000000e+02
1.008000000000000000e+03
1.022000000000000000e+03
1.031000000000000000e+03
1.036000000000000000e+03
1.041000000000000000e+03
1.048000000000000000e+03
1.055000000000000000e+03
1.061000000000000000e+03
1.068000000000000000e+03
1.080000000000000000e+03
1.091000000000000000e+03
1.107000000000000000e+03
1.117000000000000000e+03
1.124000000000000000e+03
1.133000000000000000e+03
1.145000000000000000e+03
1.158000000000000000e+03
1.166000000000000000e+03
1.175000000000000000e+03
1.185000000000000000e+03
1.195000000000000000e+03
1.202000000000000000e+03
1.211000000000000000e+03
1.219000000000000000e+03
1.230000000000000000e+03
1.234000000000000000e+03
1.237000000000000000e+03
1.246000000000000000e+03
1.248000000000000000e+03
1.257000000000000000e+03
1.259000000000000000e+03
1.264000000000000000e+03
1.271000000000000000e+03
1.276000000000000000e+03
1.282000000000000000e+03
1.300000000000000000e+03
1.312000000000000000e+03
1.327000000000000000e+03
1.334000000000000000e+03
1.343000000000000000e+03
1.351000000000000000e+03
1.363000000000000000e+03
1.371000000000000000e+03
1.376000000000000000e+03
1.383000000000000000e+03
1.386000000000000000e+03
1.396000000000000000e+03
1.407000000000000000e+03
1.416000000000000000e+03
1.429000000000000000e+03
1.437000000000000000e+03
1.442000000000000000e+03
1.447000000000000000e+03
1.462000000000000000e+03
1.469000000000000000e+03
1.480000000000000000e+03
1.488000000000000000e+03
1.502000000000000000e+03
1.518000000000000000e+03
1.525000000000000000e+03
1.535000000000000000e+03
1.543000000000000000e+03
1.552000000000000000e+03
1.572000000000000000e+03
1.581000000000000000e+03
1.594000000000000000e+03
1.607000000000000000e+03
1.618000000000000000e+03
1.629000000000000000e+03
1.640000000000000000e+03
1.647000000000000000e+03
1.659000000000000000e+03
1.679000000000000000e+03
1.692000000000000000e+03
1.712000000000000000e+03
1.726000000000000000e+03
1.742000000000000000e+03
1.753000000000000000e+03
1.763000000000000000e+03
1.776000000000000000e+03
1.785000000000000000e+03
1.801000000000000000e+03
1.817000000000000000e+03
1.831000000000000000e+03
1.846000000000000000e+03
1.862000000000000000e+03
1.877000000000000000e+03
1.891000000000000000e+03
1.904000000000000000e+03
1.918000000000000000e+03
1.932000000000000000e+03
1.951000000000000000e+03
1.968000000000000000e+03
1.978000000000000000e+03
2.000000000000000000e+03
2.017000000000000000e+03
2.035000000000000000e+03
2.051000000000000000e+03
2.066000000000000000e+03
2.082000000000000000e+03
2.097000000000000000e+03
2.116000000000000000e+03
2.132000000000000000e+03
2.146000000000000000e+03
2.161000000000000000e+03
2.172000000000000000e+03
2.185000000000000000e+03
2.193000000000000000e+03
2.209000000000000000e+03
2.221000000000000000e+03
2.238000000000000000e+03
2.252000000000000000e+03
2.271000000000000000e+03
2.287000000000000000e+03
2.298000000000000000e+03
2.318000000000000000e+03
2.334000000000000000e+03
2.346000000000000000e+03
2.366000000000000000e+03
2.381000000000000000e+03
2.400000000000000000e+03
2.423000000000000000e+03
2.437000000000000000e+03
2.455000000000000000e+03
2.478000000000000000e+03
2.495000000000000000e+03
2.511000000000000000e+03
2.522000000000000000e+03
2.540000000000000000e+03
2.563000000000000000e+03
2.575000000000000000e+03
2.595000000000000000e+03
2.611000000000000000e+03
2.629000000000000000e+03
2.644000000000000000e+03
2.659000000000000000e+03
2.670000000000000000e+03
2.689000000000000000e+03
2.706000000000000000e+03
2.725000000000000000e+03
2.743000000000000000e+03
2.765000000000000000e+03
2.783000000000000000e+03
2.805000000000000000e+03
2.827000000000000000e+03
2.849000000000000000e+03
2.873000000000000000e+03
2.895000000000000000e+03
2.921000000000000000e+03
2.949000000000000000e+03
2.977000000000000000e+03
2.999000000000000000e+03
3.019000000000000000e+03
3.047000000000000000e+03
3.068000000000000000e+03
3.089000000000000000e+03
3.113000000000000000e+03
3.143000000000000000e+03
3.160000000000000000e+03
3.188000000000000000e+03
3.209000000000000000e+03
3.228000000000000000e+03
3.255000000000000000e+03
3.273000000000000000e+03
3.301000000000000000e+03
3.327000000000000000e+03
3.356000000000000000e+03
3.383000000000000000e+03
3.402000000000000000e+03
3.420000000000000000e+03
3.436000000000000000e+03
3.452000000000000000e+03
3.476000000000000000e+03
3.509000000000000000e+03
3.536000000000000000e+03
3.561000000000000000e+03
3.588000000000000000e+03
3.617000000000000000e+03
3.639000000000000000e+03
3.667000000000000000e+03
3.700000000000000000e+03
3.730000000000000000e+03
3.750000000000000000e+03
3.782000000000000000e+03
3.805000000000000000e+03
3.836000000000000000e+03
3.870000000000000000e+03
3.896000000000000000e+03
3.929000000000000000e+03
3.955000000000000000e+03
3.983000000000000000e+03
4.016000000000000000e+03
4.048000000000000000e+03
4.066000000000000000e+03
4.094000000000000000e+03
4.130000000000000000e+03
4.166000000000000000e+03
4.202000000000000000e+03
4.244000000000000000e+03
4.280000000000000000e+03
4.301000000000000000e+03
4.325000000000000000e+03
4.346000000000000000e+03
4.376000000000000000e+03
4.407000000000000000e+03
4.435000000000000000e+03
4.470000000000000000e+03
4.506000000000000000e+03
4.533000000000000000e+03
4.571000000000000000e+03
4.594000000000000000e+03
4.634000000000000000e+03
4.669000000000000000e+03
4.707000000000000000e+03
4.742000000000000000e+03
4.776000000000000000e+03
4.820000000000000000e+03
4.863000000000000000e+03
4.902000000000000000e+03
4.941000000000000000e+03
4.975000000000000000e+03
5.010000000000000000e+03
5.046000000000000000e+03
5.075000000000000000e+03
5.115000000000000000e+03
5.140000000000000000e+03
5.186000000000000000e+03
5.222000000000000000e+03
5.268000000000000000e+03
5.308000000000000000e+03
5.347000000000000000e+03
5.379000000000000000e+03
5.411000000000000000e+03
5.449000000000000000e+03
5.487000000000000000e+03
5.530000000000000000e+03
5.576000000000000000e+03
5.619000000000000000e+03
5.659000000000000000e+03
5.698000000000000000e+03
5.738000000000000000e+03
5.787000000000000000e+03
5.833000000000000000e+03
5.876000000000000000e+03
5.923000000000000000e+03
5.965000000000000000e+03
6.009000000000000000e+03
6.056000000000000000e+03
6.100000000000000000e+03
6.140000000000000000e+03
6.178000000000000000e+03
6.217000000000000000e+03
6.264000000000000000e+03
6.315000000000000000e+03
6.371000000000000000e+03
6.410000000000000000e+03
6.460000000000000000e+03
6.506000000000000000e+03
6.560000000000000000e+03
6.600000000000000000e+03
6.647000000000000000e+03
6.697000000000000000e+03
6.753000000000000000e+03
6.803000000000000000e+03
6.852000000000000000e+03
6.915000000000000000e+03
6.959000000000000000e+03
7.020000000000000000e+03
7.071000000000000000e+03
7.117000000000000000e+03
7.174000000000000000e+03
7.221000000000000000e+03
7.283000000000000000e+03
7.339000000000000000e+03
7.394000000000000000e+03
7.449000000000000000e+03
7.501000000000000000e+03
7.548000000000000000e+03
7.593000000000000000e+03
7.649000000000000000e+03
7.695000000000000000e+03
7.747000000000000000e+03
7.798000000000000000e+03
7.852000000000000000e+03
7.924000000000000000e+03
7.963000000000000000e+03
8.011000000000000000e+03
8.077000000000000000e+03
8.131000000000000000e+03
8.180000000000000000e+03
8.228000000000000000e+03
8.292000000000000000e+03
8.343000000000000000e+03
8.394000000000000000e+03
8.462000000000000000e+03
8.527000000000000000e+03
8.584000000000000000e+03
8.649000000000000000e+03
8.719000000000000000e+03
8.788000000000000000e+03
8.841000000000000000e+03
8.912000000000000000e+03
8.980000000000000000e+03
9.030000000000000000e+03
9.109000000000000000e+03
9.165000000000000000e+03
9.223000000000000000e+03
9.289000000000000000e+03
9.369000000000000000e+03
9.430000000000000000e+03
9.494000000000000000e+03
9.572000000000000000e+03
9.644000000000000000e+03
9.704000000000000000e+03
9.781000000000000000e+03
9.840000000000000000e+03
9.908000000000000000e+03
9.986000000000000000e+03
1.005600000000000000e+04
1.013000000000000000e+04
1.021300000000000000e+04
1.030100000000000000e+04
1.037800000000000000e+04
1.044900000000000000e+04
1.051800000000000000e+04
1.061600000000000000e+04
1.067200000000000000e+04
1.075500000000000000e+04
1.082500000000000000e+04
1.090600000000000000e+04
1.098900000000000000e+04
1.106400000000000000e+04
1.113700000000000000e+04
1.122200000000000000e+04
1.131400000000000000e+04
1.139500000000000000e+04
1.148500000000000000e+04
1.157900000000000000e+04
1.167400000000000000e+04
1.177200000000000000e+04
1.185600000000000000e+04
1.195400000000000000e+04
1.205000000000000000e+04
1.215300000000000000e+04
1.225400000000000000e+04
1.234200000000000000e+04
1.241900000000000000e+04
1.250600000000000000e+04
1.260300000000000000e+04
1.270800000000000000e+04
1.280000000000000000e+04
1.290000000000000000e+04
1.300400000000000000e+04
1.309900000000000000e+04
1.321400000000000000e+04
1.332500000000000000e+04
1.343000000000000000e+04
1.351800000000000000e+04
1.361400000000000000e+04
1.371300000000000000e+04
1.382300000000000000e+04
1.391200000000000000e+04
1.400200000000000000e+04
1.411900000000000000e+04
1.421200000000000000e+04
1.430400000000000000e+04
1.439400000000000000e+04
1.449600000000000000e+04
1.458900000000000000e+04
1.469800000000000000e+04
1.480700000000000000e+04
1.492500000000000000e+04
1.501900000000000000e+04
1.511000000000000000e+04
1.521600000000000000e+04
1.532300000000000000e+04
1.543600000000000000e+04
1.553800000000000000e+04
1.565900000000000000e+04
1.578700000000000000e+04
1.591600000000000000e+04
1.603400000000000000e+04
1.614800000000000000e+04
1.625600000000000000e+04
1.638400000000000000e+04
1.650300000000000000e+04
1.663400000000000000e+04
1.674500000000000000e+04
1.688600000000000000e+04
1.701100000000000000e+04
1.713400000000000000e+04
1.725400000000000000e+04
1.739000000000000000e+04
1.754500000000000000e+04
1.767500000000000000e+04
1.778600000000000000e+04
1.792100000000000000e+04
1.807600000000000000e+04
1.822100000000000000e+04
1.836100000000000000e+04
1.851600000000000000e+04
1.865100000000000000e+04
1.878400000000000000e+04
1.891800000000000000e+04
1.904000000000000000e+04
1.918000000000000000e+04
1.929500000000000000e+04
1.944700000000000000e+04
1.959300000000000000e+04
1.974300000000000000e+04
1.989800000000000000e+04
2.003200000000000000e+04
2.017300000000000000e+04
2.031600000000000000e+04
