1.000000000000000000e+00
2.000000000000000000e+00
3.000000000000000000e+00
5.000000000000000000e+00
8.000000000000000000e+00
9.000000000000000000e+00
1.200000000000000000e+01
1.600000000000000000e+01
1.900000000000000000e+01
2.400000000000000000e+01
2.800000000000000000e+01
3.100000000000000000e+01
3.800000000000000000e+01
4.400000000000000000e+01
5.400000000000000000e+01
6.300000000000000000e+01
7.200000000000000000e+01
8.400000000000000000e+01
9.900000000000000000e+01
1.190000000000000000e+02
1.340000000000000000e+02
1.590000000000000000e+02
1.820000000000000000e+02
2.140000000000000000e+02
2.490000000000000000e+02
2.780000000000000000e+02
3.340000000000000000e+02
3.780000000000000000e+02
4.410000000000000000e+02
5.140000000000000000e+02
5.940000000000000000e+02
6.750000000000000000e+02
7.870000000000000000e+02
9.160000000000000000e+02
1.069000000000000000e+03
1.245000000000000000e+03
1.455000000000000000e+03
1.653000000000000000e+03
1.896000000000000000e+03
2.219000000000000000e+03
2.609000000000000000e+03
3.029000000000000000e+03
3.466000000000000000e+03
3.971000000000000000e+03
4.620000000000000000e+03
