1.000000000000000000e+00
2.000000000000000000e+00
3.000000000000000000e+00
5.000000000000000000e+00
6.000000000000000000e+00
7.000000000000000000e+00
8.000000000000000000e+00
1.200000000000000000e+01
1.300000000000000000e+01
1.400000000000000000e+01
1.900000000000000000e+01
2.400000000000000000e+01
2.800000000000000000e+01
3.500000000000000000e+01
4.400000000000000000e+01
5.100000000000000000e+01
5.600000000000000000e+01
7.100000000000000000e+01
8.200000000000000000e+01
1.000000000000000000e+02
1.170000000000000000e+02
1.350000000000000000e+02
1.620000000000000000e+02
1.800000000000000000e+02
2.130000000000000000e+02
2.410000000000000000e+02
2.830000000000000000e+02
3.320000000000000000e+02
3.920000000000000000e+02
4.490000000000000000e+02
5.050000000000000000e+02
5.890000000000000000e+02
6.800000000000000000e+02
7.980000000000000000e+02
9.310000000000000000e+02
1.068000000000000000e+03
1.228000000000000000e+03
1.416000000000000000e+03
1.655000000000000000e+03
1.918000000000000000e+03
2.252000000000000000e+03
2.587000000000000000e+03
2.990000000000000000e+03
3.432000000000000000e+03
3.981000000000000000e+03
4.585000000000000000e+03
