1.000000000000000000e+00
2.000000000000000000e+00
3.000000000000000000e+00
5.000000000000000000e+00
6.000000000000000000e+00
7.000000000000000000e+00
9.000000000000000000e+00
1.300000000000000000e+01
1.500000000000000000e+01
1.700000000000000000e+01
2.300000000000000000e+01
2.700000000000000000e+01
3.200000000000000000e+01
3.800000000000000000e+01
4.800000000000000000e+01
5.200000000000000000e+01
6.300000000000000000e+01
7.000000000000000000e+01
8.300000000000000000e+01
9.800000000000000000e+01
1.130000000000000000e+02
1.300000000000000000e+02
1.460000000000000000e+02
1.700000000000000000e+02
1.970000000000000000e+02
2.340000000000000000e+02
2.690000000000000000e+02
3.120000000000000000e+02
3.670000000000000000e+02
4.230000000000000000e+02
4.900000000000000000e+02
5.790000000000000000e+02
6.780000000000000000e+02
7.750000000000000000e+02
9.180000000000000000e+02
1.066000000000000000e+03
1.220000000000000000e+03
1.399000000000000000e+03
1.640000000000000000e+03
1.908000000000000000e+03
2.187000000000000000e+03
2.529000000000000000e+03
2.933000000000000000e+03
3.403000000000000000e+03
3.972000000000000000e+03
4.567000000000000000e+03
5.262000000000000000e+03
6.082000000000000000e+03
