1.000000000000000000e+00
2.000000000000000000e+00
2.000000000000000000e+00
2.000000000000000000e+00
2.000000000000000000e+00
2.000000000000000000e+00
2.000000000000000000e+00
2.000000000000000000e+00
2.000000000000000000e+00
2.000000000000000000e+00
2.000000000000000000e+00
2.000000000000000000e+00
2.000000000000000000e+00
2.000000000000000000e+00
2.000000000000000000e+00
2.000000000000000000e+00
2.000000000000000000e+00
2.000000000000000000e+00
2.000000000000000000e+00
2.000000000000000000e+00
2.000000000000000000e+00
2.000000000000000000e+00
2.000000000000000000e+00
2.000000000000000000e+00
2.000000000000000000e+00
2.000000000000000000e+00
2.000000000000000000e+00
2.000000000000000000e+00
2.000000000000000000e+00
2.000000000000000000e+00
2.000000000000000000e+00
2.000000000000000000e+00
2.000000000000000000e+00
2.000000000000000000e+00
2.000000000000000000e+00
2.000000000000000000e+00
2.000000000000000000e+00
2.000000000000000000e+00
2.000000000000000000e+00
2.000000000000000000e+00
2.000000000000000000e+00
2.000000000000000000e+00
2.000000000000000000e+00
2.000000000000000000e+00
2.000000000000000000e+00
2.000000000000000000e+00
2.000000000000000000e+00
2.000000000000000000e+00
2.000000000000000000e+00
2.000000000000000000e+00
2.000000000000000000e+00
2.000000000000000000e+00
2.000000000000000000e+00
2.000000000000000000e+00
2.000000000000000000e+00
2.000000000000000000e+00
2.000000000000000000e+00
2.000000000000000000e+00
2.000000000000000000e+00
2.000000000000000000e+00
2.000000000000000000e+00
2.000000000000000000e+00
2.000000000000000000e+00
2.000000000000000000e+00
2.000000000000000000e+00
2.000000000000000000e+00
2.000000000000000000e+00
2.000000000000000000e+00
2.000000000000000000e+00
2.000000000000000000e+00
2.000000000000000000e+00
2.000000000000000000e+00
2.000000000000000000e+00
2.000000000000000000e+00
2.000000000000000000e+00
2.000000000000000000e+00
2.000000000000000000e+00
2.000000000000000000e+00
2.000000000000000000e+00
2.000000000000000000e+00
2.000000000000000000e+00
2.000000000000000000e+00
2.000000000000000000e+00
2.000000000000000000e+00
2.000000000000000000e+00
2.000000000000000000e+00
2.000000000000000000e+00
2.000000000000000000e+00
2.000000000000000000e+00
2.000000000000000000e+00
2.000000000000000000e+00
2.000000000000000000e+00
2.000000000000000000e+00
2.000000000000000000e+00
2.000000000000000000e+00
2.000000000000000000e+00
2.000000000000000000e+00
2.000000000000000000e+00
2.000000000000000000e+00
2.000000000000000000e+00
2.000000000000000000e+00
2.000000000000000000e+00
2.000000000000000000e+00
2.000000000000000000e+00
2.000000000000000000e+00
2.000000000000000000e+00
2.000000000000000000e+00
2.000000000000000000e+00
2.000000000000000000e+00
2.000000000000000000e+00
2.000000000000000000e+00
2.000000000000000000e+00
2.000000000000000000e+00
3.000000000000000000e+00
3.000000000000000000e+00
3.000000000000000000e+00
3.000000000000000000e+00
3.000000000000000000e+00
3.000000000000000000e+00
3.000000000000000000e+00
3.000000000000000000e+00
3.000000000000000000e+00
3.000000000000000000e+00
3.000000000000000000e+00
3.000000000000000000e+00
3.000000000000000000e+00
3.000000000000000000e+00
3.000000000000000000e+00
3.000000000000000000e+00
3.000000000000000000e+00
3.000000000000000000e+00
3.000000000000000000e+00
3.000000000000000000e+00
3.000000000000000000e+00
3.000000000000000000e+00
3.000000000000000000e+00
3.000000000000000000e+00
3.000000000000000000e+00
3.000000000000000000e+00
3.000000000000000000e+00
3.000000000000000000e+00
3.000000000000000000e+00
3.000000000000000000e+00
3.000000000000000000e+00
3.000000000000000000e+00
3.000000000000000000e+00
3.000000000000000000e+00
3.000000000000000000e+00
3.000000000000000000e+00
3.000000000000000000e+00
3.000000000000000000e+00
3.000000000000000000e+00
3.000000000000000000e+00
3.000000000000000000e+00
3.000000000000000000e+00
3.000000000000000000e+00
3.000000000000000000e+00
3.000000000000000000e+00
3.000000000000000000e+00
3.000000000000000000e+00
3.000000000000000000e+00
3.000000000000000000e+00
3.000000000000000000e+00
3.000000000000000000e+00
3.000000000000000000e+00
3.000000000000000000e+00
3.000000000000000000e+00
3.000000000000000000e+00
3.000000000000000000e+00
3.000000000000000000e+00
3.000000000000000000e+00
3.000000000000000000e+00
3.000000000000000000e+00
3.000000000000000000e+00
3.000000000000000000e+00
3.000000000000000000e+00
3.000000000000000000e+00
3.000000000000000000e+00
3.000000000000000000e+00
3.000000000000000000e+00
3.000000000000000000e+00
4.000000000000000000e+00
4.000000000000000000e+00
4.000000000000000000e+00
4.000000000000000000e+00
4.000000000000000000e+00
4.000000000000000000e+00
4.000000000000000000e+00
4.000000000000000000e+00
4.000000000000000000e+00
4.000000000000000000e+00
4.000000000000000000e+00
4.000000000000000000e+00
4.000000000000000000e+00
4.000000000000000000e+00
4.000000000000000000e+00
4.000000000000000000e+00
4.000000000000000000e+00
4.000000000000000000e+00
4.000000000000000000e+00
4.000000000000000000e+00
4.000000000000000000e+00
4.000000000000000000e+00
4.000000000000000000e+00
4.000000000000000000e+00
4.000000000000000000e+00
4.000000000000000000e+00
4.000000000000000000e+00
4.000000000000000000e+00
4.000000000000000000e+00
4.000000000000000000e+00
4.000000000000000000e+00
4.000000000000000000e+00
4.000000000000000000e+00
4.000000000000000000e+00
4.000000000000000000e+00
4.000000000000000000e+00
4.000000000000000000e+00
4.000000000000000000e+00
4.000000000000000000e+00
4.000000000000000000e+00
4.000000000000000000e+00
4.000000000000000000e+00
4.000000000000000000e+00
4.000000000000000000e+00
4.000000000000000000e+00
4.000000000000000000e+00
4.000000000000000000e+00
4.000000000000000000e+00
4.000000000000000000e+00
4.000000000000000000e+00
4.000000000000000000e+00
4.000000000000000000e+00
4.000000000000000000e+00
4.000000000000000000e+00
4.000000000000000000e+00
4.000000000000000000e+00
4.000000000000000000e+00
5.000000000000000000e+00
5.000000000000000000e+00
5.000000000000000000e+00
5.000000000000000000e+00
5.000000000000000000e+00
5.000000000000000000e+00
5.000000000000000000e+00
5.000000000000000000e+00
5.000000000000000000e+00
5.000000000000000000e+00
5.000000000000000000e+00
5.000000000000000000e+00
5.000000000000000000e+00
5.000000000000000000e+00
5.000000000000000000e+00
5.000000000000000000e+00
5.000000000000000000e+00
5.000000000000000000e+00
5.000000000000000000e+00
5.000000000000000000e+00
5.000000000000000000e+00
5.000000000000000000e+00
5.000000000000000000e+00
6.000000000000000000e+00
6.000000000000000000e+00
6.000000000000000000e+00
6.000000000000000000e+00
6.000000000000000000e+00
6.000000000000000000e+00
6.000000000000000000e+00
6.000000000000000000e+00
6.000000000000000000e+00
6.000000000000000000e+00
6.000000000000000000e+00
6.000000000000000000e+00
6.000000000000000000e+00
6.000000000000000000e+00
6.000000000000000000e+00
6.000000000000000000e+00
6.000000000000000000e+00
6.000000000000000000e+00
6.000000000000000000e+00
6.000000000000000000e+00
6.000000000000000000e+00
6.000000000000000000e+00
6.000000000000000000e+00
6.000000000000000000e+00
6.000000000000000000e+00
6.000000000000000000e+00
6.000000000000000000e+00
6.000000000000000000e+00
6.000000000000000000e+00
6.000000000000000000e+00
6.000000000000000000e+00
6.000000000000000000e+00
6.000000000000000000e+00
6.000000000000000000e+00
6.000000000000000000e+00
6.000000000000000000e+00
6.000000000000000000e+00
6.000000000000000000e+00
6.000000000000000000e+00
6.000000000000000000e+00
6.000000000000000000e+00
6.000000000000000000e+00
6.000000000000000000e+00
6.000000000000000000e+00
6.000000000000000000e+00
6.000000000000000000e+00
6.000000000000000000e+00
6.000000000000000000e+00
6.000000000000000000e+00
6.000000000000000000e+00
6.000000000000000000e+00
6.000000000000000000e+00
6.000000000000000000e+00
6.000000000000000000e+00
6.000000000000000000e+00
6.000000000000000000e+00
6.000000000000000000e+00
6.000000000000000000e+00
6.000000000000000000e+00
6.000000000000000000e+00
6.000000000000000000e+00
7.000000000000000000e+00
7.000000000000000000e+00
7.000000000000000000e+00
7.000000000000000000e+00
7.000000000000000000e+00
7.000000000000000000e+00
7.000000000000000000e+00
7.000000000000000000e+00
7.000000000000000000e+00
7.000000000000000000e+00
7.000000000000000000e+00
7.000000000000000000e+00
7.000000000000000000e+00
7.000000000000000000e+00
7.000000000000000000e+00
7.000000000000000000e+00
7.000000000000000000e+00
7.000000000000000000e+00
7.000000000000000000e+00
7.000000000000000000e+00
7.000000000000000000e+00
7.000000000000000000e+00
7.000000000000000000e+00
7.000000000000000000e+00
7.000000000000000000e+00
7.000000000000000000e+00
7.000000000000000000e+00
7.000000000000000000e+00
7.000000000000000000e+00
7.000000000000000000e+00
7.000000000000000000e+00
7.000000000000000000e+00
7.000000000000000000e+00
7.000000000000000000e+00
7.000000000000000000e+00
7.000000000000000000e+00
7.000000000000000000e+00
7.000000000000000000e+00
7.000000000000000000e+00
7.000000000000000000e+00
8.000000000000000000e+00
8.000000000000000000e+00
8.000000000000000000e+00
8.000000000000000000e+00
8.000000000000000000e+00
8.000000000000000000e+00
1.000000000000000000e+01
1.000000000000000000e+01
1.000000000000000000e+01
1.000000000000000000e+01
1.000000000000000000e+01
1.100000000000000000e+01
1.100000000000000000e+01
1.100000000000000000e+01
1.100000000000000000e+01
1.100000000000000000e+01
1.100000000000000000e+01
1.100000000000000000e+01
1.200000000000000000e+01
1.200000000000000000e+01
1.200000000000000000e+01
1.200000000000000000e+01
1.200000000000000000e+01
1.200000000000000000e+01
1.200000000000000000e+01
1.200000000000000000e+01
1.200000000000000000e+01
1.200000000000000000e+01
1.200000000000000000e+01
1.200000000000000000e+01
1.200000000000000000e+01
1.200000000000000000e+01
1.200000000000000000e+01
1.200000000000000000e+01
1.200000000000000000e+01
1.200000000000000000e+01
1.200000000000000000e+01
1.200000000000000000e+01
1.200000000000000000e+01
1.200000000000000000e+01
1.200000000000000000e+01
1.200000000000000000e+01
1.200000000000000000e+01
1.200000000000000000e+01
1.200000000000000000e+01
1.200000000000000000e+01
1.200000000000000000e+01
1.200000000000000000e+01
1.200000000000000000e+01
1.200000000000000000e+01
1.200000000000000000e+01
1.200000000000000000e+01
1.200000000000000000e+01
1.200000000000000000e+01
1.200000000000000000e+01
1.200000000000000000e+01
1.200000000000000000e+01
1.200000000000000000e+01
1.200000000000000000e+01
1.200000000000000000e+01
1.200000000000000000e+01
1.200000000000000000e+01
1.200000000000000000e+01
1.200000000000000000e+01
1.200000000000000000e+01
1.200000000000000000e+01
1.200000000000000000e+01
1.200000000000000000e+01
1.200000000000000000e+01
1.200000000000000000e+01
1.200000000000000000e+01
1.200000000000000000e+01
1.200000000000000000e+01
1.200000000000000000e+01
1.200000000000000000e+01
1.300000000000000000e+01
1.300000000000000000e+01
1.300000000000000000e+01
1.300000000000000000e+01
1.300000000000000000e+01
1.300000000000000000e+01
1.300000000000000000e+01
1.300000000000000000e+01
1.300000000000000000e+01
1.400000000000000000e+01
1.400000000000000000e+01
1.400000000000000000e+01
1.400000000000000000e+01
1.400000000000000000e+01
1.400000000000000000e+01
1.400000000000000000e+01
1.400000000000000000e+01
1.500000000000000000e+01
1.500000000000000000e+01
1.500000000000000000e+01
1.500000000000000000e+01
1.500000000000000000e+01
1.500000000000000000e+01
1.500000000000000000e+01
1.500000000000000000e+01
1.500000000000000000e+01
1.600000000000000000e+01
1.600000000000000000e+01
1.600000000000000000e+01
1.600000000000000000e+01
1.600000000000000000e+01
1.600000000000000000e+01
1.600000000000000000e+01
1.700000000000000000e+01
1.700000000000000000e+01
1.700000000000000000e+01
1.700000000000000000e+01
1.700000000000000000e+01
1.700000000000000000e+01
1.700000000000000000e+01
1.800000000000000000e+01
1.800000000000000000e+01
1.800000000000000000e+01
1.800000000000000000e+01
1.800000000000000000e+01
1.900000000000000000e+01
2.000000000000000000e+01
2.100000000000000000e+01
2.100000000000000000e+01
2.100000000000000000e+01
2.200000000000000000e+01
2.200000000000000000e+01
2.200000000000000000e+01
2.200000000000000000e+01
2.200000000000000000e+01
2.200000000000000000e+01
2.300000000000000000e+01
2.300000000000000000e+01
2.300000000000000000e+01
2.300000000000000000e+01
2.300000000000000000e+01
2.300000000000000000e+01
2.300000000000000000e+01
2.300000000000000000e+01
2.300000000000000000e+01
2.300000000000000000e+01
2.300000000000000000e+01
2.400000000000000000e+01
2.400000000000000000e+01
2.400000000000000000e+01
2.400000000000000000e+01
2.400000000000000000e+01
2.400000000000000000e+01
2.400000000000000000e+01
2.400000000000000000e+01
2.400000000000000000e+01
2.500000000000000000e+01
2.500000000000000000e+01
2.500000000000000000e+01
2.500000000000000000e+01
2.500000000000000000e+01
2.500000000000000000e+01
2.500000000000000000e+01
2.500000000000000000e+01
2.500000000000000000e+01
2.600000000000000000e+01
2.600000000000000000e+01
2.600000000000000000e+01
2.600000000000000000e+01
2.700000000000000000e+01
2.700000000000000000e+01
2.700000000000000000e+01
2.700000000000000000e+01
2.800000000000000000e+01
2.800000000000000000e+01
2.800000000000000000e+01
2.800000000000000000e+01
2.800000000000000000e+01
2.800000000000000000e+01
2.800000000000000000e+01
2.800000000000000000e+01
2.800000000000000000e+01
2.800000000000000000e+01
2.800000000000000000e+01
2.800000000000000000e+01
2.800000000000000000e+01
2.900000000000000000e+01
3.000000000000000000e+01
3.000000000000000000e+01
3.000000000000000000e+01
3.000000000000000000e+01
3.000000000000000000e+01
3.000000000000000000e+01
3.000000000000000000e+01
3.000000000000000000e+01
3.000000000000000000e+01
3.000000000000000000e+01
3.000000000000000000e+01
3.000000000000000000e+01
3.100000000000000000e+01
3.100000000000000000e+01
3.100000000000000000e+01
3.100000000000000000e+01
3.100000000000000000e+01
3.100000000000000000e+01
3.200000000000000000e+01
3.200000000000000000e+01
3.200000000000000000e+01
3.200000000000000000e+01
3.200000000000000000e+01
3.200000000000000000e+01
3.300000000000000000e+01
3.500000000000000000e+01
3.500000000000000000e+01
3.600000000000000000e+01
3.700000000000000000e+01
3.700000000000000000e+01
3.700000000000000000e+01
3.700000000000000000e+01
3.700000000000000000e+01
3.700000000000000000e+01
3.800000000000000000e+01
3.900000000000000000e+01
3.900000000000000000e+01
3.900000000000000000e+01
3.900000000000000000e+01
3.900000000000000000e+01
3.900000000000000000e+01
3.900000000000000000e+01
3.900000000000000000e+01
3.900000000000000000e+01
3.900000000000000000e+01
3.900000000000000000e+01
3.900000000000000000e+01
3.900000000000000000e+01
3.900000000000000000e+01
4.000000000000000000e+01
4.000000000000000000e+01
4.100000000000000000e+01
4.200000000000000000e+01
4.400000000000000000e+01
4.400000000000000000e+01
4.400000000000000000e+01
4.400000000000000000e+01
4.400000000000000000e+01
4.400000000000000000e+01
4.400000000000000000e+01
4.400000000000000000e+01
4.400000000000000000e+01
4.400000000000000000e+01
4.400000000000000000e+01
4.400000000000000000e+01
4.400000000000000000e+01
4.400000000000000000e+01
4.500000000000000000e+01
4.600000000000000000e+01
4.600000000000000000e+01
4.800000000000000000e+01
4.800000000000000000e+01
4.900000000000000000e+01
5.000000000000000000e+01
5.100000000000000000e+01
5.100000000000000000e+01
5.200000000000000000e+01
5.300000000000000000e+01
5.300000000000000000e+01
5.300000000000000000e+01
5.300000000000000000e+01
5.300000000000000000e+01
5.300000000000000000e+01
5.300000000000000000e+01
5.300000000000000000e+01
5.300000000000000000e+01
5.500000000000000000e+01
5.500000000000000000e+01
5.500000000000000000e+01
5.700000000000000000e+01
5.800000000000000000e+01
5.800000000000000000e+01
5.900000000000000000e+01
5.900000000000000000e+01
5.900000000000000000e+01
5.900000000000000000e+01
5.900000000000000000e+01
5.900000000000000000e+01
5.900000000000000000e+01
5.900000000000000000e+01
5.900000000000000000e+01
5.900000000000000000e+01
6.000000000000000000e+01
6.000000000000000000e+01
6.100000000000000000e+01
6.200000000000000000e+01
6.300000000000000000e+01
6.300000000000000000e+01
6.300000000000000000e+01
6.300000000000000000e+01
6.300000000000000000e+01
6.400000000000000000e+01
6.400000000000000000e+01
6.600000000000000000e+01
6.600000000000000000e+01
6.600000000000000000e+01
6.600000000000000000e+01
6.600000000000000000e+01
6.600000000000000000e+01
6.600000000000000000e+01
6.600000000000000000e+01
6.800000000000000000e+01
6.900000000000000000e+01
7.000000000000000000e+01
7.100000000000000000e+01
7.200000000000000000e+01
7.400000000000000000e+01
7.400000000000000000e+01
7.400000000000000000e+01
7.400000000000000000e+01
7.400000000000000000e+01
7.500000000000000000e+01
7.500000000000000000e+01
7.500000000000000000e+01
7.500000000000000000e+01
7.600000000000000000e+01
7.600000000000000000e+01
7.600000000000000000e+01
7.600000000000000000e+01
7.800000000000000000e+01
7.800000000000000000e+01
7.900000000000000000e+01
7.900000000000000000e+01
7.900000000000000000e+01
7.900000000000000000e+01
7.900000000000000000e+01
8.000000000000000000e+01
8.300000000000000000e+01
8.300000000000000000e+01
8.300000000000000000e+01
8.500000000000000000e+01
8.600000000000000000e+01
8.700000000000000000e+01
8.700000000000000000e+01
8.700000000000000000e+01
8.800000000000000000e+01
8.800000000000000000e+01
8.800000000000000000e+01
8.900000000000000000e+01
9.000000000000000000e+01
9.100000000000000000e+01
9.200000000000000000e+01
9.300000000000000000e+01
9.300000000000000000e+01
9.300000000000000000e+01
9.500000000000000000e+01
9.600000000000000000e+01
9.700000000000000000e+01
9.700000000000000000e+01
9.800000000000000000e+01
1.000000000000000000e+02
1.010000000000000000e+02
1.020000000000000000e+02
1.030000000000000000e+02
1.030000000000000000e+02
1.030000000000000000e+02
1.030000000000000000e+02
1.040000000000000000e+02
1.050000000000000000e+02
1.050000000000000000e+02
1.070000000000000000e+02
1.070000000000000000e+02
1.080000000000000000e+02
1.090000000000000000e+02
1.100000000000000000e+02
1.100000000000000000e+02
1.100000000000000000e+02
1.150000000000000000e+02
1.160000000000000000e+02
1.160000000000000000e+02
1.170000000000000000e+02
1.180000000000000000e+02
1.190000000000000000e+02
1.190000000000000000e+02
1.200000000000000000e+02
1.200000000000000000e+02
1.200000000000000000e+02
1.210000000000000000e+02
1.210000000000000000e+02
1.240000000000000000e+02
1.240000000000000000e+02
1.240000000000000000e+02
1.240000000000000000e+02
1.250000000000000000e+02
1.260000000000000000e+02
1.260000000000000000e+02
1.270000000000000000e+02
1.280000000000000000e+02
1.280000000000000000e+02
1.280000000000000000e+02
1.300000000000000000e+02
1.300000000000000000e+02
1.320000000000000000e+02
1.330000000000000000e+02
1.340000000000000000e+02
1.340000000000000000e+02
1.360000000000000000e+02
1.380000000000000000e+02
1.380000000000000000e+02
1.410000000000000000e+02
1.410000000000000000e+02
1.410000000000000000e+02
1.430000000000000000e+02
1.430000000000000000e+02
1.440000000000000000e+02
1.440000000000000000e+02
1.440000000000000000e+02
1.440000000000000000e+02
1.460000000000000000e+02
1.480000000000000000e+02
1.480000000000000000e+02
1.490000000000000000e+02
1.490000000000000000e+02
1.500000000000000000e+02
1.510000000000000000e+02
1.540000000000000000e+02
1.590000000000000000e+02
1.600000000000000000e+02
1.600000000000000000e+02
1.620000000000000000e+02
1.640000000000000000e+02
1.650000000000000000e+02
1.670000000000000000e+02
1.680000000000000000e+02
1.680000000000000000e+02
1.730000000000000000e+02
1.740000000000000000e+02
1.740000000000000000e+02
1.770000000000000000e+02
1.770000000000000000e+02
1.790000000000000000e+02
1.810000000000000000e+02
1.820000000000000000e+02
1.830000000000000000e+02
1.850000000000000000e+02
1.870000000000000000e+02
1.900000000000000000e+02
1.930000000000000000e+02
1.930000000000000000e+02
1.950000000000000000e+02
1.960000000000000000e+02
1.960000000000000000e+02
1.980000000000000000e+02
1.990000000000000000e+02
2.000000000000000000e+02
2.040000000000000000e+02
2.040000000000000000e+02
2.050000000000000000e+02
2.060000000000000000e+02
2.080000000000000000e+02
2.100000000000000000e+02
2.110000000000000000e+02
2.160000000000000000e+02
2.160000000000000000e+02
2.180000000000000000e+02
2.180000000000000000e+02
2.190000000000000000e+02
2.210000000000000000e+02
2.220000000000000000e+02
2.250000000000000000e+02
2.260000000000000000e+02
2.280000000000000000e+02
2.280000000000000000e+02
2.300000000000000000e+02
2.310000000000000000e+02
2.340000000000000000e+02
2.360000000000000000e+02
2.360000000000000000e+02
2.360000000000000000e+02
2.380000000000000000e+02
2.400000000000000000e+02
2.400000000000000000e+02
2.440000000000000000e+02
2.470000000000000000e+02
2.470000000000000000e+02
2.480000000000000000e+02
2.490000000000000000e+02
2.500000000000000000e+02
2.520000000000000000e+02
2.530000000000000000e+02
2.550000000000000000e+02
2.570000000000000000e+02
2.590000000000000000e+02
2.620000000000000000e+02
2.620000000000000000e+02
2.620000000000000000e+02
2.640000000000000000e+02
2.680000000000000000e+02
2.700000000000000000e+02
2.710000000000000000e+02
2.760000000000000000e+02
2.790000000000000000e+02
2.790000000000000000e+02
2.830000000000000000e+02
2.860000000000000000e+02
2.870000000000000000e+02
2.890000000000000000e+02
2.920000000000000000e+02
2.960000000000000000e+02
2.980000000000000000e+02
2.990000000000000000e+02
2.990000000000000000e+02
2.990000000000000000e+02
3.040000000000000000e+02
3.050000000000000000e+02
3.070000000000000000e+02
3.080000000000000000e+02
3.100000000000000000e+02
3.120000000000000000e+02
3.140000000000000000e+02
3.160000000000000000e+02
3.180000000000000000e+02
3.180000000000000000e+02
3.240000000000000000e+02
3.250000000000000000e+02
3.290000000000000000e+02
3.320000000000000000e+02
3.340000000000000000e+02
3.360000000000000000e+02
3.390000000000000000e+02
3.430000000000000000e+02
3.450000000000000000e+02
3.450000000000000000e+02
3.460000000000000000e+02
3.480000000000000000e+02
3.490000000000000000e+02
3.510000000000000000e+02
3.530000000000000000e+02
3.580000000000000000e+02
3.590000000000000000e+02
3.600000000000000000e+02
3.640000000000000000e+02
3.650000000000000000e+02
3.670000000000000000e+02
3.700000000000000000e+02
3.720000000000000000e+02
3.740000000000000000e+02
3.760000000000000000e+02
3.810000000000000000e+02
3.880000000000000000e+02
3.940000000000000000e+02
3.960000000000000000e+02
4.010000000000000000e+02
4.030000000000000000e+02
4.040000000000000000e+02
4.040000000000000000e+02
4.060000000000000000e+02
4.080000000000000000e+02
4.120000000000000000e+02
4.150000000000000000e+02
4.220000000000000000e+02
4.260000000000000000e+02
4.310000000000000000e+02
4.330000000000000000e+02
4.370000000000000000e+02
4.440000000000000000e+02
4.460000000000000000e+02
4.500000000000000000e+02
4.520000000000000000e+02
4.520000000000000000e+02
4.550000000000000000e+02
4.590000000000000000e+02
4.600000000000000000e+02
4.690000000000000000e+02
4.710000000000000000e+02
4.720000000000000000e+02
4.760000000000000000e+02
4.790000000000000000e+02
4.830000000000000000e+02
4.860000000000000000e+02
4.880000000000000000e+02
4.940000000000000000e+02
4.980000000000000000e+02
5.020000000000000000e+02
5.080000000000000000e+02
5.120000000000000000e+02
5.160000000000000000e+02
5.200000000000000000e+02
5.230000000000000000e+02
5.270000000000000000e+02
5.300000000000000000e+02
5.330000000000000000e+02
5.390000000000000000e+02
5.450000000000000000e+02
5.480000000000000000e+02
5.520000000000000000e+02
5.570000000000000000e+02
5.600000000000000000e+02
5.610000000000000000e+02
5.650000000000000000e+02
5.700000000000000000e+02
5.740000000000000000e+02
5.780000000000000000e+02
5.780000000000000000e+02
5.830000000000000000e+02
5.910000000000000000e+02
5.940000000000000000e+02
5.980000000000000000e+02
6.020000000000000000e+02
6.060000000000000000e+02
6.110000000000000000e+02
6.160000000000000000e+02
6.210000000000000000e+02
6.250000000000000000e+02
6.260000000000000000e+02
6.310000000000000000e+02
6.350000000000000000e+02
6.400000000000000000e+02
6.430000000000000000e+02
6.470000000000000000e+02
6.520000000000000000e+02
6.550000000000000000e+02
6.590000000000000000e+02
6.640000000000000000e+02
6.730000000000000000e+02
6.750000000000000000e+02
6.800000000000000000e+02
6.850000000000000000e+02
6.920000000000000000e+02
6.940000000000000000e+02
6.970000000000000000e+02
7.000000000000000000e+02
7.060000000000000000e+02
7.080000000000000000e+02
7.130000000000000000e+02
7.190000000000000000e+02
7.210000000000000000e+02
7.260000000000000000e+02
7.310000000000000000e+02
7.390000000000000000e+02
7.470000000000000000e+02
7.520000000000000000e+02
7.560000000000000000e+02
7.650000000000000000e+02
7.680000000000000000e+02
7.720000000000000000e+02
7.790000000000000000e+02
7.810000000000000000e+02
7.870000000000000000e+02
7.910000000000000000e+02
7.960000000000000000e+02
8.050000000000000000e+02
8.110000000000000000e+02
8.200000000000000000e+02
8.240000000000000000e+02
8.310000000000000000e+02
8.350000000000000000e+02
8.480000000000000000e+02
8.490000000000000000e+02
8.540000000000000000e+02
8.620000000000000000e+02
8.680000000000000000e+02
8.730000000000000000e+02
8.810000000000000000e+02
8.850000000000000000e+02
8.950000000000000000e+02
9.010000000000000000e+02
9.040000000000000000e+02
9.110000000000000000e+02
9.160000000000000000e+02
9.210000000000000000e+02
9.270000000000000000e+02
9.310000000000000000e+02
9.410000000000000000e+02
9.540000000000000000e+02
9.620000000000000000e+02
9.660000000000000000e+02
9.730000000000000000e+02
9.840000000000000000e+02
9.900000000000000000e+02
9.960000000000000000e+02
1.007000000000000000e+03
1.013000000000000000e+03
1.017000000000000000e+03
1.023000000000000000e+03
1.026000000000000000e+03
1.036000000000000000e+03
1.043000000000000000e+03
1.048000000000000000e+03
1.055000000000000000e+03
1.064000000000000000e+03
1.067000000000000000e+03
1.074000000000000000e+03
1.080000000000000000e+03
1.093000000000000000e+03
1.104000000000000000e+03
1.114000000000000000e+03
1.118000000000000000e+03
1.124000000000000000e+03
1.131000000000000000e+03
1.144000000000000000e+03
1.153000000000000000e+03
1.156000000000000000e+03
1.162000000000000000e+03
1.168000000000000000e+03
1.183000000000000000e+03
1.194000000000000000e+03
1.211000000000000000e+03
1.222000000000000000e+03
1.233000000000000000e+03
1.242000000000000000e+03
1.252000000000000000e+03
1.262000000000000000e+03
1.274000000000000000e+03
1.284000000000000000e+03
1.295000000000000000e+03
1.302000000000000000e+03
1.309000000000000000e+03
1.320000000000000000e+03
1.325000000000000000e+03
1.333000000000000000e+03
1.346000000000000000e+03
1.355000000000000000e+03
1.366000000000000000e+03
1.381000000000000000e+03
1.395000000000000000e+03
1.401000000000000000e+03
1.412000000000000000e+03
1.425000000000000000e+03
1.433000000000000000e+03
1.444000000000000000e+03
1.454000000000000000e+03
1.465000000000000000e+03
1.470000000000000000e+03
1.476000000000000000e+03
1.485000000000000000e+03
1.494000000000000000e+03
1.508000000000000000e+03
1.519000000000000000e+03
1.532000000000000000e+03
1.540000000000000000e+03
1.553000000000000000e+03
1.565000000000000000e+03
1.579000000000000000e+03
1.590000000000000000e+03
1.595000000000000000e+03
1.609000000000000000e+03
1.619000000000000000e+03
1.633000000000000000e+03
1.643000000000000000e+03
1.658000000000000000e+03
1.672000000000000000e+03
1.684000000000000000e+03
1.695000000000000000e+03
1.705000000000000000e+03
1.719000000000000000e+03
1.728000000000000000e+03
1.740000000000000000e+03
1.750000000000000000e+03
1.765000000000000000e+03
1.775000000000000000e+03
1.789000000000000000e+03
1.799000000000000000e+03
1.812000000000000000e+03
1.830000000000000000e+03
1.837000000000000000e+03
1.843000000000000000e+03
1.858000000000000000e+03
1.867000000000000000e+03
1.880000000000000000e+03
1.894000000000000000e+03
1.909000000000000000e+03
1.926000000000000000e+03
1.937000000000000000e+03
1.956000000000000000e+03
1.968000000000000000e+03
1.983000000000000000e+03
1.998000000000000000e+03
2.019000000000000000e+03
2.032000000000000000e+03
2.043000000000000000e+03
2.057000000000000000e+03
2.070000000000000000e+03
2.081000000000000000e+03
2.096000000000000000e+03
2.113000000000000000e+03
2.125000000000000000e+03
2.142000000000000000e+03
2.162000000000000000e+03
2.175000000000000000e+03
2.194000000000000000e+03
2.207000000000000000e+03
2.219000000000000000e+03
2.230000000000000000e+03
2.249000000000000000e+03
2.276000000000000000e+03
2.287000000000000000e+03
2.301000000000000000e+03
2.326000000000000000e+03
2.345000000000000000e+03
2.361000000000000000e+03
2.377000000000000000e+03
2.400000000000000000e+03
2.420000000000000000e+03
2.437000000000000000e+03
2.463000000000000000e+03
2.478000000000000000e+03
2.494000000000000000e+03
2.515000000000000000e+03
2.534000000000000000e+03
2.549000000000000000e+03
2.559000000000000000e+03
2.579000000000000000e+03
2.601000000000000000e+03
2.627000000000000000e+03
2.646000000000000000e+03
2.669000000000000000e+03
2.694000000000000000e+03
2.709000000000000000e+03
2.720000000000000000e+03
2.733000000000000000e+03
2.748000000000000000e+03
2.765000000000000000e+03
2.786000000000000000e+03
2.805000000000000000e+03
2.818000000000000000e+03
2.829000000000000000e+03
2.852000000000000000e+03
2.876000000000000000e+03
2.887000000000000000e+03
2.921000000000000000e+03
2.944000000000000000e+03
2.970000000000000000e+03
2.992000000000000000e+03
3.014000000000000000e+03
3.051000000000000000e+03
3.064000000000000000e+03
3.093000000000000000e+03
3.117000000000000000e+03
3.142000000000000000e+03
3.165000000000000000e+03
3.189000000000000000e+03
3.215000000000000000e+03
3.242000000000000000e+03
3.270000000000000000e+03
3.293000000000000000e+03
3.309000000000000000e+03
3.338000000000000000e+03
3.358000000000000000e+03
3.389000000000000000e+03
3.414000000000000000e+03
3.435000000000000000e+03
3.456000000000000000e+03
3.476000000000000000e+03
3.506000000000000000e+03
3.533000000000000000e+03
3.563000000000000000e+03
3.602000000000000000e+03
3.630000000000000000e+03
3.658000000000000000e+03
3.682000000000000000e+03
3.707000000000000000e+03
3.729000000000000000e+03
3.749000000000000000e+03
3.776000000000000000e+03
3.810000000000000000e+03
3.838000000000000000e+03
3.866000000000000000e+03
3.890000000000000000e+03
3.919000000000000000e+03
3.948000000000000000e+03
3.987000000000000000e+03
4.017000000000000000e+03
4.038000000000000000e+03
4.063000000000000000e+03
4.093000000000000000e+03
4.127000000000000000e+03
4.157000000000000000e+03
4.189000000000000000e+03
4.213000000000000000e+03
4.237000000000000000e+03
4.269000000000000000e+03
4.306000000000000000e+03
4.335000000000000000e+03
4.367000000000000000e+03
4.399000000000000000e+03
4.423000000000000000e+03
4.451000000000000000e+03
4.486000000000000000e+03
4.517000000000000000e+03
4.551000000000000000e+03
4.581000000000000000e+03
4.606000000000000000e+03
4.638000000000000000e+03
4.670000000000000000e+03
4.707000000000000000e+03
4.739000000000000000e+03
4.768000000000000000e+03
4.803000000000000000e+03
4.857000000000000000e+03
4.897000000000000000e+03
4.930000000000000000e+03
4.966000000000000000e+03
5.000000000000000000e+03
5.033000000000000000e+03
5.071000000000000000e+03
5.109000000000000000e+03
5.158000000000000000e+03
5.187000000000000000e+03
5.230000000000000000e+03
5.271000000000000000e+03
5.300000000000000000e+03
5.342000000000000000e+03
5.398000000000000000e+03
5.450000000000000000e+03
5.487000000000000000e+03
5.536000000000000000e+03
5.570000000000000000e+03
5.616000000000000000e+03
5.653000000000000000e+03
5.686000000000000000e+03
5.735000000000000000e+03
5.765000000000000000e+03
5.806000000000000000e+03
5.853000000000000000e+03
5.882000000000000000e+03
5.917000000000000000e+03
5.968000000000000000e+03
5.996000000000000000e+03
6.044000000000000000e+03
6.081000000000000000e+03
6.139000000000000000e+03
6.188000000000000000e+03
6.235000000000000000e+03
6.278000000000000000e+03
6.325000000000000000e+03
6.367000000000000000e+03
6.407000000000000000e+03
6.461000000000000000e+03
6.499000000000000000e+03
6.545000000000000000e+03
6.597000000000000000e+03
6.638000000000000000e+03
6.675000000000000000e+03
6.738000000000000000e+03
6.788000000000000000e+03
6.831000000000000000e+03
6.869000000000000000e+03
6.924000000000000000e+03
6.979000000000000000e+03
7.024000000000000000e+03
7.079000000000000000e+03
7.127000000000000000e+03
7.189000000000000000e+03
7.252000000000000000e+03
7.310000000000000000e+03
7.371000000000000000e+03
7.416000000000000000e+03
7.484000000000000000e+03
7.532000000000000000e+03
7.598000000000000000e+03
7.667000000000000000e+03
7.711000000000000000e+03
7.767000000000000000e+03
7.822000000000000000e+03
7.874000000000000000e+03
7.941000000000000000e+03
7.996000000000000000e+03
8.055000000000000000e+03
8.110000000000000000e+03
8.172000000000000000e+03
8.234000000000000000e+03
8.306000000000000000e+03
8.363000000000000000e+03
8.410000000000000000e+03
8.461000000000000000e+03
8.535000000000000000e+03
8.599000000000000000e+03
8.666000000000000000e+03
8.729000000000000000e+03
8.785000000000000000e+03
8.835000000000000000e+03
8.914000000000000000e+03
8.981000000000000000e+03
9.055000000000000000e+03
9.113000000000000000e+03
9.193000000000000000e+03
9.265000000000000000e+03
9.336000000000000000e+03
9.393000000000000000e+03
9.454000000000000000e+03
9.522000000000000000e+03
9.596000000000000000e+03
9.655000000000000000e+03
9.731000000000000000e+03
9.804000000000000000e+03
9.879000000000000000e+03
9.943000000000000000e+03
1.000600000000000000e+04
1.007000000000000000e+04
1.013500000000000000e+04
1.021000000000000000e+04
1.029400000000000000e+04
1.037200000000000000e+04
1.044500000000000000e+04
1.052500000000000000e+04
1.060100000000000000e+04
1.067100000000000000e+04
1.076700000000000000e+04
1.084500000000000000e+04
1.092900000000000000e+04
1.100500000000000000e+04
1.108200000000000000e+04
1.116800000000000000e+04
1.123300000000000000e+04
1.132000000000000000e+04
1.142600000000000000e+04
1.150200000000000000e+04
1.158000000000000000e+04
1.167400000000000000e+04
1.176600000000000000e+04
1.186000000000000000e+04
1.195000000000000000e+04
1.203200000000000000e+04
1.210100000000000000e+04
1.218000000000000000e+04
1.227100000000000000e+04
1.235300000000000000e+04
1.244200000000000000e+04
1.252900000000000000e+04
1.262300000000000000e+04
1.272700000000000000e+04
1.281600000000000000e+04
1.291600000000000000e+04
1.301100000000000000e+04
1.311200000000000000e+04
1.320300000000000000e+04
1.328300000000000000e+04
1.339500000000000000e+04
1.348100000000000000e+04
1.357400000000000000e+04
1.367500000000000000e+04
1.377800000000000000e+04
1.387200000000000000e+04
1.397300000000000000e+04
1.408200000000000000e+04
1.418700000000000000e+04
