1.000000000000000000e+00
2.000000000000000000e+00
3.000000000000000000e+00
4.000000000000000000e+00
5.000000000000000000e+00
7.000000000000000000e+00
8.000000000000000000e+00
1.000000000000000000e+01
1.300000000000000000e+01
1.600000000000000000e+01
1.900000000000000000e+01
2.300000000000000000e+01
2.600000000000000000e+01
3.400000000000000000e+01
4.100000000000000000e+01
4.800000000000000000e+01
5.500000000000000000e+01
6.600000000000000000e+01
7.700000000000000000e+01
8.500000000000000000e+01
1.050000000000000000e+02
1.180000000000000000e+02
1.370000000000000000e+02
1.640000000000000000e+02
1.890000000000000000e+02
2.160000000000000000e+02
2.420000000000000000e+02
2.860000000000000000e+02
3.340000000000000000e+02
3.920000000000000000e+02
4.540000000000000000e+02
5.200000000000000000e+02
6.050000000000000000e+02
6.980000000000000000e+02
8.160000000000000000e+02
9.550000000000000000e+02
1.108000000000000000e+03
1.281000000000000000e+03
1.463000000000000000e+03
1.703000000000000000e+03
1.975000000000000000e+03
2.303000000000000000e+03
2.664000000000000000e+03
