1.000000000000000000e+00
2.000000000000000000e+00
3.000000000000000000e+00
4.000000000000000000e+00
5.000000000000000000e+00
6.000000000000000000e+00
9.000000000000000000e+00
1.100000000000000000e+01
1.500000000000000000e+01
1.700000000000000000e+01
2.200000000000000000e+01
2.500000000000000000e+01
3.000000000000000000e+01
3.600000000000000000e+01
4.500000000000000000e+01
5.000000000000000000e+01
5.600000000000000000e+01
7.000000000000000000e+01
7.900000000000000000e+01
9.500000000000000000e+01
1.080000000000000000e+02
1.240000000000000000e+02
1.460000000000000000e+02
1.740000000000000000e+02
2.080000000000000000e+02
2.330000000000000000e+02
2.730000000000000000e+02
3.150000000000000000e+02
3.670000000000000000e+02
4.400000000000000000e+02
5.070000000000000000e+02
5.760000000000000000e+02
6.660000000000000000e+02
7.770000000000000000e+02
9.030000000000000000e+02
1.048000000000000000e+03
1.207000000000000000e+03
1.395000000000000000e+03
1.605000000000000000e+03
1.862000000000000000e+03
2.161000000000000000e+03
2.528000000000000000e+03
2.889000000000000000e+03
3.357000000000000000e+03
3.879000000000000000e+03
4.478000000000000000e+03
5.174000000000000000e+03
6.005000000000000000e+03
