1.000000000000000000e+00
2.000000000000000000e+00
3.000000000000000000e+00
4.000000000000000000e+00
5.000000000000000000e+00
7.000000000000000000e+00
9.000000000000000000e+00
1.000000000000000000e+01
1.300000000000000000e+01
1.600000000000000000e+01
1.800000000000000000e+01
2.400000000000000000e+01
2.700000000000000000e+01
3.100000000000000000e+01
4.000000000000000000e+01
4.800000000000000000e+01
6.000000000000000000e+01
6.700000000000000000e+01
7.600000000000000000e+01
9.100000000000000000e+01
1.030000000000000000e+02
1.240000000000000000e+02
1.440000000000000000e+02
1.680000000000000000e+02
1.970000000000000000e+02
2.280000000000000000e+02
2.630000000000000000e+02
3.080000000000000000e+02
3.540000000000000000e+02
4.140000000000000000e+02
4.790000000000000000e+02
5.470000000000000000e+02
6.410000000000000000e+02
7.320000000000000000e+02
8.580000000000000000e+02
9.920000000000000000e+02
1.146000000000000000e+03
1.331000000000000000e+03
1.526000000000000000e+03
1.772000000000000000e+03
2.068000000000000000e+03
2.401000000000000000e+03
2.763000000000000000e+03
3.180000000000000000e+03
3.684000000000000000e+03
4.293000000000000000e+03
