1.000000000000000000e+00
2.000000000000000000e+00
3.000000000000000000e+00
4.000000000000000000e+00
6.000000000000000000e+00
8.000000000000000000e+00
9.000000000000000000e+00
1.100000000000000000e+01
1.400000000000000000e+01
1.800000000000000000e+01
2.300000000000000000e+01
3.100000000000000000e+01
3.600000000000000000e+01
4.300000000000000000e+01
5.300000000000000000e+01
6.400000000000000000e+01
7.400000000000000000e+01
8.300000000000000000e+01
1.040000000000000000e+02
1.260000000000000000e+02
1.410000000000000000e+02
1.650000000000000000e+02
1.910000000000000000e+02
2.300000000000000000e+02
2.690000000000000000e+02
3.110000000000000000e+02
3.620000000000000000e+02
4.230000000000000000e+02
4.830000000000000000e+02
5.610000000000000000e+02
6.500000000000000000e+02
7.640000000000000000e+02
8.700000000000000000e+02
1.008000000000000000e+03
1.172000000000000000e+03
1.368000000000000000e+03
1.566000000000000000e+03
1.818000000000000000e+03
2.092000000000000000e+03
2.423000000000000000e+03
2.805000000000000000e+03
3.267000000000000000e+03
3.755000000000000000e+03
4.343000000000000000e+03
5.019000000000000000e+03
5.835000000000000000e+03
6.726000000000000000e+03
