1.000000000000000000e+00
2.000000000000000000e+00
3.000000000000000000e+00
5.000000000000000000e+00
6.000000000000000000e+00
7.000000000000000000e+00
9.000000000000000000e+00
1.100000000000000000e+01
1.300000000000000000e+01
1.500000000000000000e+01
2.400000000000000000e+01
2.600000000000000000e+01
2.800000000000000000e+01
3.500000000000000000e+01
4.100000000000000000e+01
4.800000000000000000e+01
5.400000000000000000e+01
6.400000000000000000e+01
7.600000000000000000e+01
8.900000000000000000e+01
1.000000000000000000e+02
1.180000000000000000e+02
1.300000000000000000e+02
1.540000000000000000e+02
1.790000000000000000e+02
2.080000000000000000e+02
2.460000000000000000e+02
2.900000000000000000e+02
3.320000000000000000e+02
3.830000000000000000e+02
4.420000000000000000e+02
5.120000000000000000e+02
6.010000000000000000e+02
7.010000000000000000e+02
8.040000000000000000e+02
9.330000000000000000e+02
1.078000000000000000e+03
1.248000000000000000e+03
1.452000000000000000e+03
1.684000000000000000e+03
1.944000000000000000e+03
2.254000000000000000e+03
