1.000000000000000000e+00
2.000000000000000000e+00
3.000000000000000000e+00
5.000000000000000000e+00
6.000000000000000000e+00
7.000000000000000000e+00
9.000000000000000000e+00
1.100000000000000000e+01
1.500000000000000000e+01
2.100000000000000000e+01
2.300000000000000000e+01
2.700000000000000000e+01
3.300000000000000000e+01
4.100000000000000000e+01
4.800000000000000000e+01
6.000000000000000000e+01
6.400000000000000000e+01
7.700000000000000000e+01
9.100000000000000000e+01
1.060000000000000000e+02
1.210000000000000000e+02
1.420000000000000000e+02
1.680000000000000000e+02
1.860000000000000000e+02
2.210000000000000000e+02
2.600000000000000000e+02
3.000000000000000000e+02
3.440000000000000000e+02
3.940000000000000000e+02
4.630000000000000000e+02
5.370000000000000000e+02
6.330000000000000000e+02
7.390000000000000000e+02
8.450000000000000000e+02
9.750000000000000000e+02
1.112000000000000000e+03
1.302000000000000000e+03
1.496000000000000000e+03
1.757000000000000000e+03
2.026000000000000000e+03
2.335000000000000000e+03
2.706000000000000000e+03
3.086000000000000000e+03
3.588000000000000000e+03
4.182000000000000000e+03
4.821000000000000000e+03
