1.000000000000000000e+00
2.000000000000000000e+00
3.000000000000000000e+00
5.000000000000000000e+00
6.000000000000000000e+00
8.000000000000000000e+00
1.000000000000000000e+01
1.200000000000000000e+01
1.400000000000000000e+01
1.700000000000000000e+01
2.000000000000000000e+01
2.600000000000000000e+01
2.900000000000000000e+01
3.500000000000000000e+01
4.100000000000000000e+01
5.200000000000000000e+01
5.900000000000000000e+01
7.000000000000000000e+01
8.000000000000000000e+01
9.100000000000000000e+01
1.130000000000000000e+02
1.400000000000000000e+02
1.500000000000000000e+02
1.790000000000000000e+02
2.050000000000000000e+02
2.400000000000000000e+02
2.850000000000000000e+02
3.330000000000000000e+02
3.790000000000000000e+02
4.490000000000000000e+02
5.200000000000000000e+02
6.030000000000000000e+02
6.950000000000000000e+02
8.160000000000000000e+02
9.470000000000000000e+02
1.096000000000000000e+03
1.288000000000000000e+03
1.480000000000000000e+03
1.709000000000000000e+03
1.990000000000000000e+03
2.282000000000000000e+03
2.646000000000000000e+03
3.073000000000000000e+03
