1.000000000000000000e+00
2.000000000000000000e+00
3.000000000000000000e+00
5.000000000000000000e+00
8.000000000000000000e+00
1.000000000000000000e+01
1.200000000000000000e+01
1.700000000000000000e+01
1.900000000000000000e+01
2.500000000000000000e+01
2.800000000000000000e+01
3.300000000000000000e+01
4.000000000000000000e+01
5.100000000000000000e+01
5.800000000000000000e+01
6.800000000000000000e+01
7.600000000000000000e+01
8.900000000000000000e+01
1.040000000000000000e+02
1.170000000000000000e+02
1.440000000000000000e+02
1.620000000000000000e+02
1.890000000000000000e+02
2.270000000000000000e+02
2.610000000000000000e+02
3.010000000000000000e+02
3.550000000000000000e+02
4.070000000000000000e+02
4.600000000000000000e+02
5.490000000000000000e+02
6.430000000000000000e+02
7.550000000000000000e+02
8.770000000000000000e+02
1.018000000000000000e+03
1.175000000000000000e+03
1.346000000000000000e+03
1.568000000000000000e+03
1.829000000000000000e+03
2.122000000000000000e+03
2.438000000000000000e+03
2.821000000000000000e+03
3.263000000000000000e+03
3.761000000000000000e+03
4.359000000000000000e+03
5.017000000000000000e+03
5.825000000000000000e+03
6.753000000000000000e+03
