1.000000000000000000e+00
2.000000000000000000e+00
3.000000000000000000e+00
4.000000000000000000e+00
5.000000000000000000e+00
7.000000000000000000e+00
9.000000000000000000e+00
1.100000000000000000e+01
1.200000000000000000e+01
1.400000000000000000e+01
1.600000000000000000e+01
2.000000000000000000e+01
2.400000000000000000e+01
2.800000000000000000e+01
3.000000000000000000e+01
3.200000000000000000e+01
4.100000000000000000e+01
5.100000000000000000e+01
5.700000000000000000e+01
6.200000000000000000e+01
7.000000000000000000e+01
8.800000000000000000e+01
1.030000000000000000e+02
1.190000000000000000e+02
1.350000000000000000e+02
1.570000000000000000e+02
1.870000000000000000e+02
2.120000000000000000e+02
2.570000000000000000e+02
2.920000000000000000e+02
3.370000000000000000e+02
3.930000000000000000e+02
4.630000000000000000e+02
5.350000000000000000e+02
6.310000000000000000e+02
7.240000000000000000e+02
8.300000000000000000e+02
9.590000000000000000e+02
1.112000000000000000e+03
1.292000000000000000e+03
1.475000000000000000e+03
1.701000000000000000e+03
1.974000000000000000e+03
2.270000000000000000e+03
2.645000000000000000e+03
3.030000000000000000e+03
