1.000000000000000000e+00
2.000000000000000000e+00
3.000000000000000000e+00
5.000000000000000000e+00
6.000000000000000000e+00
9.000000000000000000e+00
1.100000000000000000e+01
1.500000000000000000e+01
2.000000000000000000e+01
2.100000000000000000e+01
2.900000000000000000e+01
3.300000000000000000e+01
4.000000000000000000e+01
4.400000000000000000e+01
5.100000000000000000e+01
6.000000000000000000e+01
7.100000000000000000e+01
8.200000000000000000e+01
9.200000000000000000e+01
1.090000000000000000e+02
1.280000000000000000e+02
1.500000000000000000e+02
1.730000000000000000e+02
2.050000000000000000e+02
2.340000000000000000e+02
2.680000000000000000e+02
3.090000000000000000e+02
3.700000000000000000e+02
4.240000000000000000e+02
4.880000000000000000e+02
5.630000000000000000e+02
6.560000000000000000e+02
7.620000000000000000e+02
8.920000000000000000e+02
1.030000000000000000e+03
1.181000000000000000e+03
1.383000000000000000e+03
1.605000000000000000e+03
1.858000000000000000e+03
2.170000000000000000e+03
2.485000000000000000e+03
2.889000000000000000e+03
3.349000000000000000e+03
3.877000000000000000e+03
