1.000000000000000000e+00
2.000000000000000000e+00
3.000000000000000000e+00
5.000000000000000000e+00
6.000000000000000000e+00
8.000000000000000000e+00
9.000000000000000000e+00
1.200000000000000000e+01
1.600000000000000000e+01
1.700000000000000000e+01
2.200000000000000000e+01
2.700000000000000000e+01
3.100000000000000000e+01
3.600000000000000000e+01
4.200000000000000000e+01
4.600000000000000000e+01
5.600000000000000000e+01
6.800000000000000000e+01
7.700000000000000000e+01
8.900000000000000000e+01
1.050000000000000000e+02
1.280000000000000000e+02
1.440000000000000000e+02
1.710000000000000000e+02
1.980000000000000000e+02
2.250000000000000000e+02
2.700000000000000000e+02
3.090000000000000000e+02
3.560000000000000000e+02
4.180000000000000000e+02
4.850000000000000000e+02
5.610000000000000000e+02
6.460000000000000000e+02
7.370000000000000000e+02
8.590000000000000000e+02
9.850000000000000000e+02
1.166000000000000000e+03
1.355000000000000000e+03
1.546000000000000000e+03
1.791000000000000000e+03
2.071000000000000000e+03
2.402000000000000000e+03
2.794000000000000000e+03
