1.000000000000000000e+00
2.000000000000000000e+00
3.000000000000000000e+00
4.000000000000000000e+00
6.000000000000000000e+00
7.000000000000000000e+00
1.100000000000000000e+01
1.200000000000000000e+01
1.400000000000000000e+01
1.700000000000000000e+01
1.900000000000000000e+01
2.500000000000000000e+01
2.800000000000000000e+01
3.500000000000000000e+01
4.200000000000000000e+01
4.600000000000000000e+01
6.000000000000000000e+01
6.800000000000000000e+01
8.000000000000000000e+01
9.400000000000000000e+01
1.100000000000000000e+02
1.290000000000000000e+02
1.500000000000000000e+02
1.690000000000000000e+02
2.010000000000000000e+02
2.340000000000000000e+02
2.840000000000000000e+02
3.190000000000000000e+02
3.750000000000000000e+02
4.370000000000000000e+02
4.970000000000000000e+02
5.760000000000000000e+02
6.770000000000000000e+02
7.870000000000000000e+02
9.010000000000000000e+02
1.041000000000000000e+03
1.212000000000000000e+03
1.392000000000000000e+03
1.624000000000000000e+03
1.886000000000000000e+03
2.169000000000000000e+03
2.510000000000000000e+03
2.856000000000000000e+03
