1.000000000000000000e+00
2.000000000000000000e+00
3.000000000000000000e+00
5.000000000000000000e+00
7.000000000000000000e+00
9.000000000000000000e+00
1.100000000000000000e+01
1.500000000000000000e+01
1.600000000000000000e+01
2.000000000000000000e+01
2.500000000000000000e+01
3.300000000000000000e+01
3.700000000000000000e+01
4.000000000000000000e+01
5.000000000000000000e+01
6.200000000000000000e+01
6.700000000000000000e+01
8.000000000000000000e+01
9.100000000000000000e+01
1.040000000000000000e+02
1.270000000000000000e+02
1.460000000000000000e+02
1.700000000000000000e+02
1.990000000000000000e+02
2.290000000000000000e+02
2.720000000000000000e+02
3.160000000000000000e+02
3.700000000000000000e+02
4.370000000000000000e+02
4.860000000000000000e+02
5.670000000000000000e+02
6.750000000000000000e+02
7.810000000000000000e+02
8.980000000000000000e+02
1.048000000000000000e+03
1.208000000000000000e+03
1.397000000000000000e+03
1.617000000000000000e+03
1.888000000000000000e+03
2.164000000000000000e+03
2.512000000000000000e+03
2.884000000000000000e+03
3.374000000000000000e+03
3.900000000000000000e+03
4.501000000000000000e+03
5.223000000000000000e+03
6.021000000000000000e+03
6.999000000000000000e+03
8.046000000000000000e+03
