1.000000000000000000e+00
2.000000000000000000e+00
2.000000000000000000e+00
2.000000000000000000e+00
2.000000000000000000e+00
2.000000000000000000e+00
2.000000000000000000e+00
2.000000000000000000e+00
2.000000000000000000e+00
2.000000000000000000e+00
2.000000000000000000e+00
2.000000000000000000e+00
2.000000000000000000e+00
2.000000000000000000e+00
2.000000000000000000e+00
2.000000000000000000e+00
2.000000000000000000e+00
2.000000000000000000e+00
2.000000000000000000e+00
2.000000000000000000e+00
2.000000000000000000e+00
2.000000000000000000e+00
2.000000000000000000e+00
2.000000000000000000e+00
2.000000000000000000e+00
2.000000000000000000e+00
2.000000000000000000e+00
2.000000000000000000e+00
2.000000000000000000e+00
2.000000000000000000e+00
2.000000000000000000e+00
2.000000000000000000e+00
2.000000000000000000e+00
2.000000000000000000e+00
2.000000000000000000e+00
2.000000000000000000e+00
2.000000000000000000e+00
2.000000000000000000e+00
2.000000000000000000e+00
2.000000000000000000e+00
2.000000000000000000e+00
2.000000000000000000e+00
2.000000000000000000e+00
2.000000000000000000e+00
2.000000000000000000e+00
2.000000000000000000e+00
2.000000000000000000e+00
2.000000000000000000e+00
2.000000000000000000e+00
2.000000000000000000e+00
2.000000000000000000e+00
2.000000000000000000e+00
2.000000000000000000e+00
2.000000000000000000e+00
2.000000000000000000e+00
2.000000000000000000e+00
2.000000000000000000e+00
2.000000000000000000e+00
2.000000000000000000e+00
2.000000000000000000e+00
2.000000000000000000e+00
2.000000000000000000e+00
2.000000000000000000e+00
2.000000000000000000e+00
2.000000000000000000e+00
2.000000000000000000e+00
2.000000000000000000e+00
2.000000000000000000e+00
2.000000000000000000e+00
2.000000000000000000e+00
2.000000000000000000e+00
2.000000000000000000e+00
2.000000000000000000e+00
2.000000000000000000e+00
2.000000000000000000e+00
2.000000000000000000e+00
2.000000000000000000e+00
2.000000000000000000e+00
2.000000000000000000e+00
2.000000000000000000e+00
2.000000000000000000e+00
2.000000000000000000e+00
2.000000000000000000e+00
2.000000000000000000e+00
2.000000000000000000e+00
2.000000000000000000e+00
2.000000000000000000e+00
2.000000000000000000e+00
2.000000000000000000e+00
2.000000000000000000e+00
2.000000000000000000e+00
2.000000000000000000e+00
2.000000000000000000e+00
2.000000000000000000e+00
2.000000000000000000e+00
2.000000000000000000e+00
2.000000000000000000e+00
2.000000000000000000e+00
2.000000000000000000e+00
2.000000000000000000e+00
3.000000000000000000e+00
3.000000000000000000e+00
3.000000000000000000e+00
3.000000000000000000e+00
3.000000000000000000e+00
3.000000000000000000e+00
3.000000000000000000e+00
3.000000000000000000e+00
3.000000000000000000e+00
3.000000000000000000e+00
3.000000000000000000e+00
3.000000000000000000e+00
3.000000000000000000e+00
3.000000000000000000e+00
3.000000000000000000e+00
3.000000000000000000e+00
3.000000000000000000e+00
3.000000000000000000e+00
3.000000000000000000e+00
3.000000000000000000e+00
3.000000000000000000e+00
3.000000000000000000e+00
3.000000000000000000e+00
3.000000000000000000e+00
3.000000000000000000e+00
3.000000000000000000e+00
3.000000000000000000e+00
3.000000000000000000e+00
3.000000000000000000e+00
3.000000000000000000e+00
3.000000000000000000e+00
3.000000000000000000e+00
3.000000000000000000e+00
3.000000000000000000e+00
3.000000000000000000e+00
3.000000000000000000e+00
3.000000000000000000e+00
3.000000000000000000e+00
3.000000000000000000e+00
3.000000000000000000e+00
3.000000000000000000e+00
3.000000000000000000e+00
3.000000000000000000e+00
3.000000000000000000e+00
3.000000000000000000e+00
3.000000000000000000e+00
3.000000000000000000e+00
3.000000000000000000e+00
3.000000000000000000e+00
3.000000000000000000e+00
3.000000000000000000e+00
3.000000000000000000e+00
3.000000000000000000e+00
3.000000000000000000e+00
3.000000000000000000e+00
3.000000000000000000e+00
3.000000000000000000e+00
3.000000000000000000e+00
3.000000000000000000e+00
3.000000000000000000e+00
3.000000000000000000e+00
3.000000000000000000e+00
3.000000000000000000e+00
3.000000000000000000e+00
3.000000000000000000e+00
3.000000000000000000e+00
3.000000000000000000e+00
3.000000000000000000e+00
4.000000000000000000e+00
4.000000000000000000e+00
4.000000000000000000e+00
4.000000000000000000e+00
4.000000000000000000e+00
5.000000000000000000e+00
5.000000000000000000e+00
5.000000000000000000e+00
5.000000000000000000e+00
5.000000000000000000e+00
5.000000000000000000e+00
5.000000000000000000e+00
5.000000000000000000e+00
5.000000000000000000e+00
5.000000000000000000e+00
5.000000000000000000e+00
5.000000000000000000e+00
5.000000000000000000e+00
5.000000000000000000e+00
5.000000000000000000e+00
5.000000000000000000e+00
5.000000000000000000e+00
5.000000000000000000e+00
5.000000000000000000e+00
5.000000000000000000e+00
5.000000000000000000e+00
5.000000000000000000e+00
5.000000000000000000e+00
5.000000000000000000e+00
5.000000000000000000e+00
5.000000000000000000e+00
5.000000000000000000e+00
5.000000000000000000e+00
5.000000000000000000e+00
5.000000000000000000e+00
5.000000000000000000e+00
5.000000000000000000e+00
5.000000000000000000e+00
6.000000000000000000e+00
6.000000000000000000e+00
6.000000000000000000e+00
6.000000000000000000e+00
6.000000000000000000e+00
6.000000000000000000e+00
6.000000000000000000e+00
6.000000000000000000e+00
6.000000000000000000e+00
6.000000000000000000e+00
6.000000000000000000e+00
6.000000000000000000e+00
6.000000000000000000e+00
6.000000000000000000e+00
6.000000000000000000e+00
6.000000000000000000e+00
6.000000000000000000e+00
6.000000000000000000e+00
6.000000000000000000e+00
6.000000000000000000e+00
7.000000000000000000e+00
7.000000000000000000e+00
7.000000000000000000e+00
7.000000000000000000e+00
7.000000000000000000e+00
7.000000000000000000e+00
7.000000000000000000e+00
7.000000000000000000e+00
7.000000000000000000e+00
7.000000000000000000e+00
7.000000000000000000e+00
7.000000000000000000e+00
8.000000000000000000e+00
8.000000000000000000e+00
8.000000000000000000e+00
8.000000000000000000e+00
9.000000000000000000e+00
9.000000000000000000e+00
9.000000000000000000e+00
9.000000000000000000e+00
9.000000000000000000e+00
9.000000000000000000e+00
9.000000000000000000e+00
9.000000000000000000e+00
9.000000000000000000e+00
9.000000000000000000e+00
9.000000000000000000e+00
9.000000000000000000e+00
9.000000000000000000e+00
9.000000000000000000e+00
9.000000000000000000e+00
9.000000000000000000e+00
9.000000000000000000e+00
9.000000000000000000e+00
9.000000000000000000e+00
9.000000000000000000e+00
9.000000000000000000e+00
9.000000000000000000e+00
9.000000000000000000e+00
9.000000000000000000e+00
9.000000000000000000e+00
9.000000000000000000e+00
9.000000000000000000e+00
9.000000000000000000e+00
9.000000000000000000e+00
1.000000000000000000e+01
1.000000000000000000e+01
1.100000000000000000e+01
1.100000000000000000e+01
1.100000000000000000e+01
1.100000000000000000e+01
1.100000000000000000e+01
1.100000000000000000e+01
1.100000000000000000e+01
1.100000000000000000e+01
1.100000000000000000e+01
1.100000000000000000e+01
1.100000000000000000e+01
1.100000000000000000e+01
1.100000000000000000e+01
1.100000000000000000e+01
1.100000000000000000e+01
1.100000000000000000e+01
1.200000000000000000e+01
1.200000000000000000e+01
1.200000000000000000e+01
1.200000000000000000e+01
1.200000000000000000e+01
1.200000000000000000e+01
1.200000000000000000e+01
1.200000000000000000e+01
1.200000000000000000e+01
1.200000000000000000e+01
1.200000000000000000e+01
1.200000000000000000e+01
1.200000000000000000e+01
1.200000000000000000e+01
1.300000000000000000e+01
1.300000000000000000e+01
1.300000000000000000e+01
1.300000000000000000e+01
1.300000000000000000e+01
1.400000000000000000e+01
1.400000000000000000e+01
1.400000000000000000e+01
1.400000000000000000e+01
1.400000000000000000e+01
1.400000000000000000e+01
1.400000000000000000e+01
1.400000000000000000e+01
1.400000000000000000e+01
1.500000000000000000e+01
1.500000000000000000e+01
1.500000000000000000e+01
1.500000000000000000e+01
1.500000000000000000e+01
1.500000000000000000e+01
1.500000000000000000e+01
1.500000000000000000e+01
1.500000000000000000e+01
1.500000000000000000e+01
1.600000000000000000e+01
1.600000000000000000e+01
1.600000000000000000e+01
1.600000000000000000e+01
1.600000000000000000e+01
1.600000000000000000e+01
1.600000000000000000e+01
1.700000000000000000e+01
1.700000000000000000e+01
1.700000000000000000e+01
1.700000000000000000e+01
1.700000000000000000e+01
1.700000000000000000e+01
1.700000000000000000e+01
1.700000000000000000e+01
1.700000000000000000e+01
1.700000000000000000e+01
1.700000000000000000e+01
1.700000000000000000e+01
1.800000000000000000e+01
1.800000000000000000e+01
1.800000000000000000e+01
1.800000000000000000e+01
1.900000000000000000e+01
1.900000000000000000e+01
1.900000000000000000e+01
1.900000000000000000e+01
1.900000000000000000e+01
1.900000000000000000e+01
2.000000000000000000e+01
2.000000000000000000e+01
2.000000000000000000e+01
2.000000000000000000e+01
2.000000000000000000e+01
2.000000000000000000e+01
2.000000000000000000e+01
2.000000000000000000e+01
2.000000000000000000e+01
2.000000000000000000e+01
2.000000000000000000e+01
2.100000000000000000e+01
2.100000000000000000e+01
2.100000000000000000e+01
2.100000000000000000e+01
2.100000000000000000e+01
2.100000000000000000e+01
2.100000000000000000e+01
2.100000000000000000e+01
2.100000000000000000e+01
2.100000000000000000e+01
2.100000000000000000e+01
2.100000000000000000e+01
2.100000000000000000e+01
2.100000000000000000e+01
2.100000000000000000e+01
2.100000000000000000e+01
2.100000000000000000e+01
2.200000000000000000e+01
2.200000000000000000e+01
2.200000000000000000e+01
2.200000000000000000e+01
2.300000000000000000e+01
2.300000000000000000e+01
2.300000000000000000e+01
2.300000000000000000e+01
2.300000000000000000e+01
2.300000000000000000e+01
2.300000000000000000e+01
2.600000000000000000e+01
2.600000000000000000e+01
2.700000000000000000e+01
2.700000000000000000e+01
2.700000000000000000e+01
2.700000000000000000e+01
2.700000000000000000e+01
2.700000000000000000e+01
2.700000000000000000e+01
2.700000000000000000e+01
2.700000000000000000e+01
2.700000000000000000e+01
2.800000000000000000e+01
2.800000000000000000e+01
2.800000000000000000e+01
2.900000000000000000e+01
2.900000000000000000e+01
2.900000000000000000e+01
2.900000000000000000e+01
2.900000000000000000e+01
2.900000000000000000e+01
3.000000000000000000e+01
3.000000000000000000e+01
3.000000000000000000e+01
3.000000000000000000e+01
3.000000000000000000e+01
3.100000000000000000e+01
3.100000000000000000e+01
3.100000000000000000e+01
3.100000000000000000e+01
3.100000000000000000e+01
3.100000000000000000e+01
3.100000000000000000e+01
3.100000000000000000e+01
3.100000000000000000e+01
3.100000000000000000e+01
3.100000000000000000e+01
3.100000000000000000e+01
3.100000000000000000e+01
3.100000000000000000e+01
3.200000000000000000e+01
3.300000000000000000e+01
3.300000000000000000e+01
3.300000000000000000e+01
3.300000000000000000e+01
3.300000000000000000e+01
3.400000000000000000e+01
3.500000000000000000e+01
3.500000000000000000e+01
3.500000000000000000e+01
3.500000000000000000e+01
3.500000000000000000e+01
3.500000000000000000e+01
3.500000000000000000e+01
3.500000000000000000e+01
3.500000000000000000e+01
3.500000000000000000e+01
3.500000000000000000e+01
3.600000000000000000e+01
3.600000000000000000e+01
3.800000000000000000e+01
3.800000000000000000e+01
3.800000000000000000e+01
3.800000000000000000e+01
4.100000000000000000e+01
4.100000000000000000e+01
4.100000000000000000e+01
4.100000000000000000e+01
4.100000000000000000e+01
4.100000000000000000e+01
4.100000000000000000e+01
4.100000000000000000e+01
4.100000000000000000e+01
4.100000000000000000e+01
4.200000000000000000e+01
4.200000000000000000e+01
4.400000000000000000e+01
4.400000000000000000e+01
4.400000000000000000e+01
4.400000000000000000e+01
4.400000000000000000e+01
4.400000000000000000e+01
4.400000000000000000e+01
4.500000000000000000e+01
4.500000000000000000e+01
4.500000000000000000e+01
4.500000000000000000e+01
4.500000000000000000e+01
4.500000000000000000e+01
4.500000000000000000e+01
4.700000000000000000e+01
4.700000000000000000e+01
4.700000000000000000e+01
4.700000000000000000e+01
4.800000000000000000e+01
4.800000000000000000e+01
4.800000000000000000e+01
4.800000000000000000e+01
4.900000000000000000e+01
5.000000000000000000e+01
5.000000000000000000e+01
5.000000000000000000e+01
5.100000000000000000e+01
5.100000000000000000e+01
5.100000000000000000e+01
5.100000000000000000e+01
5.200000000000000000e+01
5.300000000000000000e+01
5.300000000000000000e+01
5.300000000000000000e+01
5.300000000000000000e+01
5.400000000000000000e+01
5.500000000000000000e+01
5.500000000000000000e+01
5.700000000000000000e+01
5.800000000000000000e+01
5.800000000000000000e+01
5.800000000000000000e+01
5.900000000000000000e+01
5.900000000000000000e+01
5.900000000000000000e+01
5.900000000000000000e+01
5.900000000000000000e+01
6.000000000000000000e+01
6.000000000000000000e+01
6.000000000000000000e+01
6.100000000000000000e+01
6.100000000000000000e+01
6.200000000000000000e+01
6.200000000000000000e+01
6.200000000000000000e+01
6.300000000000000000e+01
6.300000000000000000e+01
6.400000000000000000e+01
6.500000000000000000e+01
6.500000000000000000e+01
6.500000000000000000e+01
6.500000000000000000e+01
6.500000000000000000e+01
6.500000000000000000e+01
6.500000000000000000e+01
6.500000000000000000e+01
6.600000000000000000e+01
6.700000000000000000e+01
6.700000000000000000e+01
6.900000000000000000e+01
6.900000000000000000e+01
7.100000000000000000e+01
7.200000000000000000e+01
7.200000000000000000e+01
7.200000000000000000e+01
7.200000000000000000e+01
7.200000000000000000e+01
7.200000000000000000e+01
7.200000000000000000e+01
7.300000000000000000e+01
7.500000000000000000e+01
7.500000000000000000e+01
7.600000000000000000e+01
7.800000000000000000e+01
7.900000000000000000e+01
8.000000000000000000e+01
8.000000000000000000e+01
8.300000000000000000e+01
8.500000000000000000e+01
8.600000000000000000e+01
8.600000000000000000e+01
8.600000000000000000e+01
8.700000000000000000e+01
8.700000000000000000e+01
8.900000000000000000e+01
8.900000000000000000e+01
8.900000000000000000e+01
9.000000000000000000e+01
9.000000000000000000e+01
9.000000000000000000e+01
9.000000000000000000e+01
9.100000000000000000e+01
9.100000000000000000e+01
9.200000000000000000e+01
9.300000000000000000e+01
9.300000000000000000e+01
9.300000000000000000e+01
9.300000000000000000e+01
9.300000000000000000e+01
9.300000000000000000e+01
9.400000000000000000e+01
9.400000000000000000e+01
9.400000000000000000e+01
9.500000000000000000e+01
9.600000000000000000e+01
9.700000000000000000e+01
9.700000000000000000e+01
9.700000000000000000e+01
9.800000000000000000e+01
9.900000000000000000e+01
1.010000000000000000e+02
1.010000000000000000e+02
1.020000000000000000e+02
1.040000000000000000e+02
1.050000000000000000e+02
1.050000000000000000e+02
1.050000000000000000e+02
1.060000000000000000e+02
1.060000000000000000e+02
1.080000000000000000e+02
1.090000000000000000e+02
1.090000000000000000e+02
1.100000000000000000e+02
1.100000000000000000e+02
1.110000000000000000e+02
1.130000000000000000e+02
1.130000000000000000e+02
1.130000000000000000e+02
1.130000000000000000e+02
1.140000000000000000e+02
1.150000000000000000e+02
1.160000000000000000e+02
1.170000000000000000e+02
1.170000000000000000e+02
1.190000000000000000e+02
1.210000000000000000e+02
1.220000000000000000e+02
1.240000000000000000e+02
1.250000000000000000e+02
1.250000000000000000e+02
1.250000000000000000e+02
1.270000000000000000e+02
1.280000000000000000e+02
1.300000000000000000e+02
1.300000000000000000e+02
1.300000000000000000e+02
1.310000000000000000e+02
1.320000000000000000e+02
1.340000000000000000e+02
1.340000000000000000e+02
1.340000000000000000e+02
1.340000000000000000e+02
1.350000000000000000e+02
1.390000000000000000e+02
1.390000000000000000e+02
1.400000000000000000e+02
1.410000000000000000e+02
1.410000000000000000e+02
1.420000000000000000e+02
1.440000000000000000e+02
1.440000000000000000e+02
1.460000000000000000e+02
1.470000000000000000e+02
1.480000000000000000e+02
1.480000000000000000e+02
1.510000000000000000e+02
1.560000000000000000e+02
1.590000000000000000e+02
1.600000000000000000e+02
1.620000000000000000e+02
1.620000000000000000e+02
1.630000000000000000e+02
1.650000000000000000e+02
1.660000000000000000e+02
1.680000000000000000e+02
1.680000000000000000e+02
1.690000000000000000e+02
1.690000000000000000e+02
1.700000000000000000e+02
1.710000000000000000e+02
1.720000000000000000e+02
1.740000000000000000e+02
1.760000000000000000e+02
1.770000000000000000e+02
1.800000000000000000e+02
1.820000000000000000e+02
1.820000000000000000e+02
1.820000000000000000e+02
1.830000000000000000e+02
1.840000000000000000e+02
1.850000000000000000e+02
1.850000000000000000e+02
1.850000000000000000e+02
1.850000000000000000e+02
1.860000000000000000e+02
1.890000000000000000e+02
1.920000000000000000e+02
1.930000000000000000e+02
1.940000000000000000e+02
1.950000000000000000e+02
1.960000000000000000e+02
1.960000000000000000e+02
1.970000000000000000e+02
1.980000000000000000e+02
1.980000000000000000e+02
2.050000000000000000e+02
2.060000000000000000e+02
2.070000000000000000e+02
2.110000000000000000e+02
2.120000000000000000e+02
2.120000000000000000e+02
2.120000000000000000e+02
2.140000000000000000e+02
2.160000000000000000e+02
2.180000000000000000e+02
2.200000000000000000e+02
2.210000000000000000e+02
2.220000000000000000e+02
2.230000000000000000e+02
2.260000000000000000e+02
2.270000000000000000e+02
2.280000000000000000e+02
2.300000000000000000e+02
2.320000000000000000e+02
2.330000000000000000e+02
2.350000000000000000e+02
2.360000000000000000e+02
2.390000000000000000e+02
2.400000000000000000e+02
2.420000000000000000e+02
2.450000000000000000e+02
2.470000000000000000e+02
2.500000000000000000e+02
2.520000000000000000e+02
2.530000000000000000e+02
2.560000000000000000e+02
2.570000000000000000e+02
2.590000000000000000e+02
2.590000000000000000e+02
2.620000000000000000e+02
2.670000000000000000e+02
2.680000000000000000e+02
2.710000000000000000e+02
2.720000000000000000e+02
2.720000000000000000e+02
2.730000000000000000e+02
2.740000000000000000e+02
2.800000000000000000e+02
2.830000000000000000e+02
2.850000000000000000e+02
2.870000000000000000e+02
2.870000000000000000e+02
2.900000000000000000e+02
2.910000000000000000e+02
2.920000000000000000e+02
2.930000000000000000e+02
2.960000000000000000e+02
2.990000000000000000e+02
3.020000000000000000e+02
3.040000000000000000e+02
3.050000000000000000e+02
3.080000000000000000e+02
3.110000000000000000e+02
3.150000000000000000e+02
3.170000000000000000e+02
3.200000000000000000e+02
3.230000000000000000e+02
3.240000000000000000e+02
3.260000000000000000e+02
3.290000000000000000e+02
3.330000000000000000e+02
3.340000000000000000e+02
3.350000000000000000e+02
3.370000000000000000e+02
3.400000000000000000e+02
3.420000000000000000e+02
3.430000000000000000e+02
3.440000000000000000e+02
3.490000000000000000e+02
3.510000000000000000e+02
3.550000000000000000e+02
3.570000000000000000e+02
3.590000000000000000e+02
3.630000000000000000e+02
3.660000000000000000e+02
3.660000000000000000e+02
3.690000000000000000e+02
3.720000000000000000e+02
3.770000000000000000e+02
3.780000000000000000e+02
3.810000000000000000e+02
3.840000000000000000e+02
3.860000000000000000e+02
3.870000000000000000e+02
3.890000000000000000e+02
3.940000000000000000e+02
3.990000000000000000e+02
4.040000000000000000e+02
4.100000000000000000e+02
4.130000000000000000e+02
4.180000000000000000e+02
4.210000000000000000e+02
4.210000000000000000e+02
4.260000000000000000e+02
4.310000000000000000e+02
4.320000000000000000e+02
4.350000000000000000e+02
4.380000000000000000e+02
4.400000000000000000e+02
4.400000000000000000e+02
4.420000000000000000e+02
4.460000000000000000e+02
4.470000000000000000e+02
4.500000000000000000e+02
4.540000000000000000e+02
4.570000000000000000e+02
4.600000000000000000e+02
4.630000000000000000e+02
4.680000000000000000e+02
4.710000000000000000e+02
4.760000000000000000e+02
4.800000000000000000e+02
4.830000000000000000e+02
4.920000000000000000e+02
4.970000000000000000e+02
5.010000000000000000e+02
5.030000000000000000e+02
5.080000000000000000e+02
5.110000000000000000e+02
5.150000000000000000e+02
5.190000000000000000e+02
5.230000000000000000e+02
5.280000000000000000e+02
5.320000000000000000e+02
5.370000000000000000e+02
5.430000000000000000e+02
5.480000000000000000e+02
5.540000000000000000e+02
5.590000000000000000e+02
5.610000000000000000e+02
5.650000000000000000e+02
5.670000000000000000e+02
5.720000000000000000e+02
5.750000000000000000e+02
5.790000000000000000e+02
5.820000000000000000e+02
5.850000000000000000e+02
5.900000000000000000e+02
5.980000000000000000e+02
6.020000000000000000e+02
6.080000000000000000e+02
6.130000000000000000e+02
6.160000000000000000e+02
6.200000000000000000e+02
6.220000000000000000e+02
6.250000000000000000e+02
6.280000000000000000e+02
6.360000000000000000e+02
6.410000000000000000e+02
6.450000000000000000e+02
6.450000000000000000e+02
6.470000000000000000e+02
6.560000000000000000e+02
6.600000000000000000e+02
6.640000000000000000e+02
6.680000000000000000e+02
6.740000000000000000e+02
6.740000000000000000e+02
6.800000000000000000e+02
6.810000000000000000e+02
6.830000000000000000e+02
6.880000000000000000e+02
6.940000000000000000e+02
6.990000000000000000e+02
7.050000000000000000e+02
7.080000000000000000e+02
7.150000000000000000e+02
7.190000000000000000e+02
7.250000000000000000e+02
7.320000000000000000e+02
7.340000000000000000e+02
7.420000000000000000e+02
7.450000000000000000e+02
7.480000000000000000e+02
7.560000000000000000e+02
7.600000000000000000e+02
7.670000000000000000e+02
7.770000000000000000e+02
7.860000000000000000e+02
7.900000000000000000e+02
7.970000000000000000e+02
7.970000000000000000e+02
8.060000000000000000e+02
8.090000000000000000e+02
8.150000000000000000e+02
8.230000000000000000e+02
8.290000000000000000e+02
8.330000000000000000e+02
8.370000000000000000e+02
8.450000000000000000e+02
8.520000000000000000e+02
8.560000000000000000e+02
8.610000000000000000e+02
8.690000000000000000e+02
8.760000000000000000e+02
8.830000000000000000e+02
8.890000000000000000e+02
8.940000000000000000e+02
9.030000000000000000e+02
9.100000000000000000e+02
9.140000000000000000e+02
9.160000000000000000e+02
9.260000000000000000e+02
9.300000000000000000e+02
9.370000000000000000e+02
9.410000000000000000e+02
9.470000000000000000e+02
9.620000000000000000e+02
9.710000000000000000e+02
9.820000000000000000e+02
9.900000000000000000e+02
9.990000000000000000e+02
1.010000000000000000e+03
1.022000000000000000e+03
1.033000000000000000e+03
1.040000000000000000e+03
1.043000000000000000e+03
1.054000000000000000e+03
1.058000000000000000e+03
1.067000000000000000e+03
1.071000000000000000e+03
1.079000000000000000e+03
1.091000000000000000e+03
1.105000000000000000e+03
1.112000000000000000e+03
1.121000000000000000e+03
1.132000000000000000e+03
1.139000000000000000e+03
1.146000000000000000e+03
1.155000000000000000e+03
1.164000000000000000e+03
1.174000000000000000e+03
1.186000000000000000e+03
1.191000000000000000e+03
1.202000000000000000e+03
1.211000000000000000e+03
1.219000000000000000e+03
1.233000000000000000e+03
1.237000000000000000e+03
1.241000000000000000e+03
1.252000000000000000e+03
1.265000000000000000e+03
1.274000000000000000e+03
1.287000000000000000e+03
1.297000000000000000e+03
1.310000000000000000e+03
1.318000000000000000e+03
1.322000000000000000e+03
1.335000000000000000e+03
1.345000000000000000e+03
1.355000000000000000e+03
1.363000000000000000e+03
1.372000000000000000e+03
1.381000000000000000e+03
1.395000000000000000e+03
1.401000000000000000e+03
1.414000000000000000e+03
1.424000000000000000e+03
1.433000000000000000e+03
1.444000000000000000e+03
1.456000000000000000e+03
1.466000000000000000e+03
1.471000000000000000e+03
1.481000000000000000e+03
1.494000000000000000e+03
1.506000000000000000e+03
1.518000000000000000e+03
1.529000000000000000e+03
1.541000000000000000e+03
1.547000000000000000e+03
1.556000000000000000e+03
1.568000000000000000e+03
1.583000000000000000e+03
1.593000000000000000e+03
1.607000000000000000e+03
1.619000000000000000e+03
1.629000000000000000e+03
1.646000000000000000e+03
1.652000000000000000e+03
1.666000000000000000e+03
1.673000000000000000e+03
1.688000000000000000e+03
1.696000000000000000e+03
1.714000000000000000e+03
1.724000000000000000e+03
1.740000000000000000e+03
1.755000000000000000e+03
1.768000000000000000e+03
1.781000000000000000e+03
1.794000000000000000e+03
1.806000000000000000e+03
1.815000000000000000e+03
1.831000000000000000e+03
1.850000000000000000e+03
1.860000000000000000e+03
1.881000000000000000e+03
1.891000000000000000e+03
1.908000000000000000e+03
1.917000000000000000e+03
1.932000000000000000e+03
1.946000000000000000e+03
1.956000000000000000e+03
1.977000000000000000e+03
1.993000000000000000e+03
2.006000000000000000e+03
2.018000000000000000e+03
2.035000000000000000e+03
2.047000000000000000e+03
2.062000000000000000e+03
2.074000000000000000e+03
2.093000000000000000e+03
2.106000000000000000e+03
2.121000000000000000e+03
2.142000000000000000e+03
2.158000000000000000e+03
2.173000000000000000e+03
2.192000000000000000e+03
2.210000000000000000e+03
2.228000000000000000e+03
2.248000000000000000e+03
2.265000000000000000e+03
2.285000000000000000e+03
2.296000000000000000e+03
2.317000000000000000e+03
2.328000000000000000e+03
2.346000000000000000e+03
2.367000000000000000e+03
2.382000000000000000e+03
2.397000000000000000e+03
2.417000000000000000e+03
2.434000000000000000e+03
2.449000000000000000e+03
2.466000000000000000e+03
2.477000000000000000e+03
2.507000000000000000e+03
2.526000000000000000e+03
2.546000000000000000e+03
2.564000000000000000e+03
2.574000000000000000e+03
2.593000000000000000e+03
2.617000000000000000e+03
2.635000000000000000e+03
2.647000000000000000e+03
2.662000000000000000e+03
2.684000000000000000e+03
2.700000000000000000e+03
2.719000000000000000e+03
2.746000000000000000e+03
2.768000000000000000e+03
2.783000000000000000e+03
2.796000000000000000e+03
2.818000000000000000e+03
2.845000000000000000e+03
2.862000000000000000e+03
2.887000000000000000e+03
2.905000000000000000e+03
2.935000000000000000e+03
2.957000000000000000e+03
2.985000000000000000e+03
3.002000000000000000e+03
3.020000000000000000e+03
3.047000000000000000e+03
3.073000000000000000e+03
3.096000000000000000e+03
3.121000000000000000e+03
3.156000000000000000e+03
3.176000000000000000e+03
3.198000000000000000e+03
3.227000000000000000e+03
3.246000000000000000e+03
3.262000000000000000e+03
3.291000000000000000e+03
3.318000000000000000e+03
3.336000000000000000e+03
3.357000000000000000e+03
3.378000000000000000e+03
3.401000000000000000e+03
3.417000000000000000e+03
3.439000000000000000e+03
3.461000000000000000e+03
3.482000000000000000e+03
3.509000000000000000e+03
3.530000000000000000e+03
3.562000000000000000e+03
3.592000000000000000e+03
3.625000000000000000e+03
3.644000000000000000e+03
3.663000000000000000e+03
3.693000000000000000e+03
3.707000000000000000e+03
3.729000000000000000e+03
3.758000000000000000e+03
3.792000000000000000e+03
3.832000000000000000e+03
3.853000000000000000e+03
3.890000000000000000e+03
3.923000000000000000e+03
3.951000000000000000e+03
3.977000000000000000e+03
4.017000000000000000e+03
4.050000000000000000e+03
4.071000000000000000e+03
4.100000000000000000e+03
4.131000000000000000e+03
4.162000000000000000e+03
4.193000000000000000e+03
4.229000000000000000e+03
4.249000000000000000e+03
4.287000000000000000e+03
4.323000000000000000e+03
4.362000000000000000e+03
4.397000000000000000e+03
4.423000000000000000e+03
4.456000000000000000e+03
4.489000000000000000e+03
4.517000000000000000e+03
4.553000000000000000e+03
4.577000000000000000e+03
4.605000000000000000e+03
4.638000000000000000e+03
4.664000000000000000e+03
4.711000000000000000e+03
4.741000000000000000e+03
4.772000000000000000e+03
4.800000000000000000e+03
4.841000000000000000e+03
4.881000000000000000e+03
4.921000000000000000e+03
4.961000000000000000e+03
4.993000000000000000e+03
5.024000000000000000e+03
5.060000000000000000e+03
5.105000000000000000e+03
5.130000000000000000e+03
5.163000000000000000e+03
5.208000000000000000e+03
5.246000000000000000e+03
5.287000000000000000e+03
5.340000000000000000e+03
5.379000000000000000e+03
5.401000000000000000e+03
5.435000000000000000e+03
5.474000000000000000e+03
5.520000000000000000e+03
5.575000000000000000e+03
5.604000000000000000e+03
5.636000000000000000e+03
5.686000000000000000e+03
5.720000000000000000e+03
5.758000000000000000e+03
5.798000000000000000e+03
5.839000000000000000e+03
5.884000000000000000e+03
5.933000000000000000e+03
5.991000000000000000e+03
6.046000000000000000e+03
6.091000000000000000e+03
6.141000000000000000e+03
6.196000000000000000e+03
6.237000000000000000e+03
6.285000000000000000e+03
6.333000000000000000e+03
6.393000000000000000e+03
6.422000000000000000e+03
6.470000000000000000e+03
6.515000000000000000e+03
6.564000000000000000e+03
6.618000000000000000e+03
6.661000000000000000e+03
6.718000000000000000e+03
6.768000000000000000e+03
6.817000000000000000e+03
6.877000000000000000e+03
6.930000000000000000e+03
6.984000000000000000e+03
7.031000000000000000e+03
7.089000000000000000e+03
7.130000000000000000e+03
7.180000000000000000e+03
7.235000000000000000e+03
7.284000000000000000e+03
7.343000000000000000e+03
7.404000000000000000e+03
7.461000000000000000e+03
7.516000000000000000e+03
7.577000000000000000e+03
7.628000000000000000e+03
7.689000000000000000e+03
7.750000000000000000e+03
7.799000000000000000e+03
7.862000000000000000e+03
7.925000000000000000e+03
7.975000000000000000e+03
8.032000000000000000e+03
8.083000000000000000e+03
8.146000000000000000e+03
8.205000000000000000e+03
8.277000000000000000e+03
8.327000000000000000e+03
8.376000000000000000e+03
8.442000000000000000e+03
8.492000000000000000e+03
8.552000000000000000e+03
8.614000000000000000e+03
8.668000000000000000e+03
8.737000000000000000e+03
8.803000000000000000e+03
8.879000000000000000e+03
8.940000000000000000e+03
9.001000000000000000e+03
9.057000000000000000e+03
9.122000000000000000e+03
9.186000000000000000e+03
9.258000000000000000e+03
9.325000000000000000e+03
9.394000000000000000e+03
9.448000000000000000e+03
9.497000000000000000e+03
9.571000000000000000e+03
9.637000000000000000e+03
9.701000000000000000e+03
9.783000000000000000e+03
9.852000000000000000e+03
9.928000000000000000e+03
1.000600000000000000e+04
1.008200000000000000e+04
1.015200000000000000e+04
1.022300000000000000e+04
1.027700000000000000e+04
1.037000000000000000e+04
1.044200000000000000e+04
1.051800000000000000e+04
1.059700000000000000e+04
1.067600000000000000e+04
1.076100000000000000e+04
1.084300000000000000e+04
1.091500000000000000e+04
1.098600000000000000e+04
1.105800000000000000e+04
1.113400000000000000e+04
1.122500000000000000e+04
1.132000000000000000e+04
1.139400000000000000e+04
1.148600000000000000e+04
1.157500000000000000e+04
1.166100000000000000e+04
1.175400000000000000e+04
1.183600000000000000e+04
1.192400000000000000e+04
1.200700000000000000e+04
1.208600000000000000e+04
1.217400000000000000e+04
1.225100000000000000e+04
1.234100000000000000e+04
1.242600000000000000e+04
1.252900000000000000e+04
1.262900000000000000e+04
1.271200000000000000e+04
1.280700000000000000e+04
1.289800000000000000e+04
1.299700000000000000e+04
1.310200000000000000e+04
1.321100000000000000e+04
1.329900000000000000e+04
1.339000000000000000e+04
1.350300000000000000e+04
1.360700000000000000e+04
1.372400000000000000e+04
1.385200000000000000e+04
1.397500000000000000e+04
1.407700000000000000e+04
1.417900000000000000e+04
1.428900000000000000e+04
1.438800000000000000e+04
1.449700000000000000e+04
1.459100000000000000e+04
1.469000000000000000e+04
1.481300000000000000e+04
1.490700000000000000e+04
1.501200000000000000e+04
1.511200000000000000e+04
1.520700000000000000e+04
1.531100000000000000e+04
1.543400000000000000e+04
1.555000000000000000e+04
1.567000000000000000e+04
1.578200000000000000e+04
1.591000000000000000e+04
1.604000000000000000e+04
1.614800000000000000e+04
1.626200000000000000e+04
1.637400000000000000e+04
1.649600000000000000e+04
1.662500000000000000e+04
1.673200000000000000e+04
1.686800000000000000e+04
1.698900000000000000e+04
1.712100000000000000e+04
1.724000000000000000e+04
1.736400000000000000e+04
1.748700000000000000e+04
1.761100000000000000e+04
1.773800000000000000e+04
1.786100000000000000e+04
1.798700000000000000e+04
1.813300000000000000e+04
1.824900000000000000e+04
1.838300000000000000e+04
1.851200000000000000e+04
1.864900000000000000e+04
1.879100000000000000e+04
1.891900000000000000e+04
1.908000000000000000e+04
1.921300000000000000e+04
1.936800000000000000e+04
1.951200000000000000e+04
1.964200000000000000e+04
1.977200000000000000e+04
1.990700000000000000e+04
2.005000000000000000e+04
2.020300000000000000e+04
2.036300000000000000e+04
2.052200000000000000e+04
2.065300000000000000e+04
2.080900000000000000e+04
2.096300000000000000e+04
2.112300000000000000e+04
2.128100000000000000e+04
2.142400000000000000e+04
2.157900000000000000e+04
2.172800000000000000e+04
2.188000000000000000e+04
2.205400000000000000e+04
2.223100000000000000e+04
2.237400000000000000e+04
2.255300000000000000e+04
2.274000000000000000e+04
2.291400000000000000e+04
2.307200000000000000e+04
2.323900000000000000e+04
2.341700000000000000e+04
2.357800000000000000e+04
2.374800000000000000e+04
2.393400000000000000e+04
2.410000000000000000e+04
2.428700000000000000e+04
2.448500000000000000e+04
2.465800000000000000e+04
2.485400000000000000e+04
2.503000000000000000e+04
2.519400000000000000e+04
2.536900000000000000e+04
2.552500000000000000e+04
2.569700000000000000e+04
2.588300000000000000e+04
2.608000000000000000e+04
2.625600000000000000e+04
2.644800000000000000e+04
2.664900000000000000e+04
2.686600000000000000e+04
2.707600000000000000e+04
2.726900000000000000e+04
2.748900000000000000e+04
2.770500000000000000e+04
2.791300000000000000e+04
2.811100000000000000e+04
2.831500000000000000e+04
2.854100000000000000e+04
2.875300000000000000e+04
2.894500000000000000e+04
2.914000000000000000e+04
2.933800000000000000e+04
2.955300000000000000e+04
2.976600000000000000e+04
2.995500000000000000e+04
3.020200000000000000e+04
3.044800000000000000e+04
3.069700000000000000e+04
3.091100000000000000e+04
3.112700000000000000e+04
3.137000000000000000e+04
3.159300000000000000e+04
3.183200000000000000e+04
3.203100000000000000e+04
3.227500000000000000e+04
3.248100000000000000e+04
3.271400000000000000e+04
3.296000000000000000e+04
3.322200000000000000e+04
3.347900000000000000e+04
3.373600000000000000e+04
3.398000000000000000e+04
3.423600000000000000e+04
3.447000000000000000e+04
3.472400000000000000e+04
3.498100000000000000e+04
3.521700000000000000e+04
3.544100000000000000e+04
3.567800000000000000e+04
3.593600000000000000e+04
3.618700000000000000e+04
3.643400000000000000e+04
3.671100000000000000e+04
3.698400000000000000e+04
3.727500000000000000e+04
3.754700000000000000e+04
3.782800000000000000e+04
3.811400000000000000e+04
3.842200000000000000e+04
3.871300000000000000e+04
