1.000000000000000000e+00
2.000000000000000000e+00
3.000000000000000000e+00
4.000000000000000000e+00
5.000000000000000000e+00
7.000000000000000000e+00
9.000000000000000000e+00
1.200000000000000000e+01
1.400000000000000000e+01
1.900000000000000000e+01
2.300000000000000000e+01
2.400000000000000000e+01
3.200000000000000000e+01
3.700000000000000000e+01
4.300000000000000000e+01
5.100000000000000000e+01
6.200000000000000000e+01
7.500000000000000000e+01
8.500000000000000000e+01
1.010000000000000000e+02
1.180000000000000000e+02
1.360000000000000000e+02
1.590000000000000000e+02
1.820000000000000000e+02
2.030000000000000000e+02
2.400000000000000000e+02
2.930000000000000000e+02
3.310000000000000000e+02
3.890000000000000000e+02
4.390000000000000000e+02
5.010000000000000000e+02
5.850000000000000000e+02
6.840000000000000000e+02
7.900000000000000000e+02
9.150000000000000000e+02
1.044000000000000000e+03
1.204000000000000000e+03
1.397000000000000000e+03
1.612000000000000000e+03
1.883000000000000000e+03
2.171000000000000000e+03
2.530000000000000000e+03
2.914000000000000000e+03
