1.000000000000000000e+00
2.000000000000000000e+00
2.000000000000000000e+00
2.000000000000000000e+00
2.000000000000000000e+00
2.000000000000000000e+00
2.000000000000000000e+00
2.000000000000000000e+00
2.000000000000000000e+00
2.000000000000000000e+00
2.000000000000000000e+00
2.000000000000000000e+00
2.000000000000000000e+00
2.000000000000000000e+00
2.000000000000000000e+00
2.000000000000000000e+00
2.000000000000000000e+00
2.000000000000000000e+00
2.000000000000000000e+00
2.000000000000000000e+00
2.000000000000000000e+00
2.000000000000000000e+00
2.000000000000000000e+00
2.000000000000000000e+00
2.000000000000000000e+00
2.000000000000000000e+00
2.000000000000000000e+00
2.000000000000000000e+00
2.000000000000000000e+00
2.000000000000000000e+00
2.000000000000000000e+00
2.000000000000000000e+00
2.000000000000000000e+00
2.000000000000000000e+00
2.000000000000000000e+00
2.000000000000000000e+00
2.000000000000000000e+00
2.000000000000000000e+00
2.000000000000000000e+00
2.000000000000000000e+00
2.000000000000000000e+00
2.000000000000000000e+00
2.000000000000000000e+00
2.000000000000000000e+00
2.000000000000000000e+00
2.000000000000000000e+00
2.000000000000000000e+00
2.000000000000000000e+00
2.000000000000000000e+00
2.000000000000000000e+00
2.000000000000000000e+00
2.000000000000000000e+00
2.000000000000000000e+00
2.000000000000000000e+00
2.000000000000000000e+00
2.000000000000000000e+00
2.000000000000000000e+00
2.000000000000000000e+00
2.000000000000000000e+00
2.000000000000000000e+00
2.000000000000000000e+00
2.000000000000000000e+00
2.000000000000000000e+00
2.000000000000000000e+00
2.000000000000000000e+00
2.000000000000000000e+00
2.000000000000000000e+00
2.000000000000000000e+00
2.000000000000000000e+00
2.000000000000000000e+00
2.000000000000000000e+00
2.000000000000000000e+00
2.000000000000000000e+00
2.000000000000000000e+00
2.000000000000000000e+00
2.000000000000000000e+00
2.000000000000000000e+00
2.000000000000000000e+00
2.000000000000000000e+00
2.000000000000000000e+00
2.000000000000000000e+00
2.000000000000000000e+00
2.000000000000000000e+00
2.000000000000000000e+00
2.000000000000000000e+00
2.000000000000000000e+00
2.000000000000000000e+00
2.000000000000000000e+00
2.000000000000000000e+00
2.000000000000000000e+00
2.000000000000000000e+00
2.000000000000000000e+00
2.000000000000000000e+00
2.000000000000000000e+00
2.000000000000000000e+00
2.000000000000000000e+00
2.000000000000000000e+00
2.000000000000000000e+00
2.000000000000000000e+00
2.000000000000000000e+00
2.000000000000000000e+00
2.000000000000000000e+00
2.000000000000000000e+00
2.000000000000000000e+00
2.000000000000000000e+00
2.000000000000000000e+00
2.000000000000000000e+00
2.000000000000000000e+00
3.000000000000000000e+00
3.000000000000000000e+00
3.000000000000000000e+00
3.000000000000000000e+00
3.000000000000000000e+00
3.000000000000000000e+00
3.000000000000000000e+00
3.000000000000000000e+00
3.000000000000000000e+00
3.000000000000000000e+00
3.000000000000000000e+00
3.000000000000000000e+00
3.000000000000000000e+00
3.000000000000000000e+00
3.000000000000000000e+00
3.000000000000000000e+00
3.000000000000000000e+00
3.000000000000000000e+00
3.000000000000000000e+00
3.000000000000000000e+00
3.000000000000000000e+00
3.000000000000000000e+00
3.000000000000000000e+00
3.000000000000000000e+00
3.000000000000000000e+00
3.000000000000000000e+00
3.000000000000000000e+00
3.000000000000000000e+00
3.000000000000000000e+00
3.000000000000000000e+00
3.000000000000000000e+00
3.000000000000000000e+00
3.000000000000000000e+00
3.000000000000000000e+00
3.000000000000000000e+00
3.000000000000000000e+00
3.000000000000000000e+00
3.000000000000000000e+00
3.000000000000000000e+00
3.000000000000000000e+00
3.000000000000000000e+00
3.000000000000000000e+00
3.000000000000000000e+00
3.000000000000000000e+00
3.000000000000000000e+00
3.000000000000000000e+00
3.000000000000000000e+00
3.000000000000000000e+00
3.000000000000000000e+00
3.000000000000000000e+00
3.000000000000000000e+00
3.000000000000000000e+00
3.000000000000000000e+00
3.000000000000000000e+00
3.000000000000000000e+00
3.000000000000000000e+00
3.000000000000000000e+00
3.000000000000000000e+00
3.000000000000000000e+00
3.000000000000000000e+00
3.000000000000000000e+00
3.000000000000000000e+00
3.000000000000000000e+00
3.000000000000000000e+00
3.000000000000000000e+00
3.000000000000000000e+00
3.000000000000000000e+00
3.000000000000000000e+00
3.000000000000000000e+00
3.000000000000000000e+00
3.000000000000000000e+00
3.000000000000000000e+00
3.000000000000000000e+00
3.000000000000000000e+00
3.000000000000000000e+00
3.000000000000000000e+00
3.000000000000000000e+00
3.000000000000000000e+00
3.000000000000000000e+00
3.000000000000000000e+00
3.000000000000000000e+00
3.000000000000000000e+00
3.000000000000000000e+00
3.000000000000000000e+00
3.000000000000000000e+00
3.000000000000000000e+00
3.000000000000000000e+00
3.000000000000000000e+00
3.000000000000000000e+00
3.000000000000000000e+00
3.000000000000000000e+00
3.000000000000000000e+00
3.000000000000000000e+00
3.000000000000000000e+00
3.000000000000000000e+00
3.000000000000000000e+00
3.000000000000000000e+00
3.000000000000000000e+00
3.000000000000000000e+00
3.000000000000000000e+00
4.000000000000000000e+00
4.000000000000000000e+00
5.000000000000000000e+00
5.000000000000000000e+00
5.000000000000000000e+00
5.000000000000000000e+00
5.000000000000000000e+00
5.000000000000000000e+00
5.000000000000000000e+00
5.000000000000000000e+00
5.000000000000000000e+00
5.000000000000000000e+00
5.000000000000000000e+00
5.000000000000000000e+00
5.000000000000000000e+00
5.000000000000000000e+00
5.000000000000000000e+00
5.000000000000000000e+00
5.000000000000000000e+00
5.000000000000000000e+00
5.000000000000000000e+00
5.000000000000000000e+00
5.000000000000000000e+00
5.000000000000000000e+00
5.000000000000000000e+00
5.000000000000000000e+00
5.000000000000000000e+00
5.000000000000000000e+00
5.000000000000000000e+00
5.000000000000000000e+00
5.000000000000000000e+00
5.000000000000000000e+00
5.000000000000000000e+00
5.000000000000000000e+00
5.000000000000000000e+00
5.000000000000000000e+00
5.000000000000000000e+00
5.000000000000000000e+00
5.000000000000000000e+00
5.000000000000000000e+00
5.000000000000000000e+00
5.000000000000000000e+00
5.000000000000000000e+00
5.000000000000000000e+00
5.000000000000000000e+00
5.000000000000000000e+00
6.000000000000000000e+00
6.000000000000000000e+00
6.000000000000000000e+00
6.000000000000000000e+00
6.000000000000000000e+00
6.000000000000000000e+00
6.000000000000000000e+00
6.000000000000000000e+00
6.000000000000000000e+00
6.000000000000000000e+00
6.000000000000000000e+00
6.000000000000000000e+00
6.000000000000000000e+00
6.000000000000000000e+00
6.000000000000000000e+00
6.000000000000000000e+00
6.000000000000000000e+00
6.000000000000000000e+00
6.000000000000000000e+00
6.000000000000000000e+00
6.000000000000000000e+00
6.000000000000000000e+00
6.000000000000000000e+00
6.000000000000000000e+00
6.000000000000000000e+00
6.000000000000000000e+00
6.000000000000000000e+00
6.000000000000000000e+00
6.000000000000000000e+00
6.000000000000000000e+00
6.000000000000000000e+00
6.000000000000000000e+00
6.000000000000000000e+00
6.000000000000000000e+00
6.000000000000000000e+00
6.000000000000000000e+00
6.000000000000000000e+00
6.000000000000000000e+00
6.000000000000000000e+00
6.000000000000000000e+00
6.000000000000000000e+00
6.000000000000000000e+00
6.000000000000000000e+00
6.000000000000000000e+00
6.000000000000000000e+00
6.000000000000000000e+00
6.000000000000000000e+00
6.000000000000000000e+00
6.000000000000000000e+00
6.000000000000000000e+00
7.000000000000000000e+00
7.000000000000000000e+00
7.000000000000000000e+00
7.000000000000000000e+00
7.000000000000000000e+00
7.000000000000000000e+00
7.000000000000000000e+00
7.000000000000000000e+00
7.000000000000000000e+00
7.000000000000000000e+00
7.000000000000000000e+00
7.000000000000000000e+00
7.000000000000000000e+00
7.000000000000000000e+00
7.000000000000000000e+00
7.000000000000000000e+00
7.000000000000000000e+00
9.000000000000000000e+00
9.000000000000000000e+00
9.000000000000000000e+00
1.000000000000000000e+01
1.000000000000000000e+01
1.000000000000000000e+01
1.000000000000000000e+01
1.000000000000000000e+01
1.000000000000000000e+01
1.000000000000000000e+01
1.000000000000000000e+01
1.000000000000000000e+01
1.000000000000000000e+01
1.000000000000000000e+01
1.000000000000000000e+01
1.000000000000000000e+01
1.100000000000000000e+01
1.100000000000000000e+01
1.100000000000000000e+01
1.100000000000000000e+01
1.100000000000000000e+01
1.100000000000000000e+01
1.100000000000000000e+01
1.100000000000000000e+01
1.100000000000000000e+01
1.100000000000000000e+01
1.100000000000000000e+01
1.100000000000000000e+01
1.100000000000000000e+01
1.100000000000000000e+01
1.100000000000000000e+01
1.100000000000000000e+01
1.100000000000000000e+01
1.100000000000000000e+01
1.100000000000000000e+01
1.100000000000000000e+01
1.100000000000000000e+01
1.100000000000000000e+01
1.100000000000000000e+01
1.100000000000000000e+01
1.100000000000000000e+01
1.100000000000000000e+01
1.100000000000000000e+01
1.100000000000000000e+01
1.100000000000000000e+01
1.100000000000000000e+01
1.100000000000000000e+01
1.100000000000000000e+01
1.100000000000000000e+01
1.100000000000000000e+01
1.100000000000000000e+01
1.100000000000000000e+01
1.100000000000000000e+01
1.100000000000000000e+01
1.100000000000000000e+01
1.100000000000000000e+01
1.100000000000000000e+01
1.100000000000000000e+01
1.100000000000000000e+01
1.100000000000000000e+01
1.100000000000000000e+01
1.100000000000000000e+01
1.100000000000000000e+01
1.100000000000000000e+01
1.100000000000000000e+01
1.100000000000000000e+01
1.100000000000000000e+01
1.100000000000000000e+01
1.100000000000000000e+01
1.100000000000000000e+01
1.100000000000000000e+01
1.100000000000000000e+01
1.100000000000000000e+01
1.100000000000000000e+01
1.100000000000000000e+01
1.100000000000000000e+01
1.100000000000000000e+01
1.100000000000000000e+01
1.100000000000000000e+01
1.200000000000000000e+01
1.200000000000000000e+01
1.200000000000000000e+01
1.200000000000000000e+01
1.200000000000000000e+01
1.200000000000000000e+01
1.200000000000000000e+01
1.200000000000000000e+01
1.200000000000000000e+01
1.200000000000000000e+01
1.200000000000000000e+01
1.300000000000000000e+01
1.300000000000000000e+01
1.300000000000000000e+01
1.400000000000000000e+01
1.400000000000000000e+01
1.400000000000000000e+01
1.500000000000000000e+01
1.600000000000000000e+01
1.600000000000000000e+01
1.600000000000000000e+01
1.600000000000000000e+01
1.600000000000000000e+01
1.600000000000000000e+01
1.600000000000000000e+01
1.600000000000000000e+01
1.600000000000000000e+01
1.600000000000000000e+01
1.600000000000000000e+01
1.600000000000000000e+01
1.600000000000000000e+01
1.600000000000000000e+01
1.600000000000000000e+01
1.600000000000000000e+01
1.600000000000000000e+01
1.700000000000000000e+01
1.700000000000000000e+01
1.700000000000000000e+01
1.700000000000000000e+01
1.700000000000000000e+01
1.700000000000000000e+01
1.700000000000000000e+01
1.700000000000000000e+01
1.700000000000000000e+01
1.800000000000000000e+01
1.800000000000000000e+01
1.800000000000000000e+01
2.000000000000000000e+01
2.000000000000000000e+01
2.100000000000000000e+01
2.100000000000000000e+01
2.100000000000000000e+01
2.100000000000000000e+01
2.100000000000000000e+01
2.200000000000000000e+01
2.200000000000000000e+01
2.200000000000000000e+01
2.200000000000000000e+01
2.200000000000000000e+01
2.200000000000000000e+01
2.200000000000000000e+01
2.200000000000000000e+01
2.200000000000000000e+01
2.200000000000000000e+01
2.200000000000000000e+01
2.200000000000000000e+01
2.200000000000000000e+01
2.200000000000000000e+01
2.200000000000000000e+01
2.200000000000000000e+01
2.200000000000000000e+01
2.200000000000000000e+01
2.200000000000000000e+01
2.200000000000000000e+01
2.200000000000000000e+01
2.200000000000000000e+01
2.200000000000000000e+01
2.200000000000000000e+01
2.300000000000000000e+01
2.300000000000000000e+01
2.400000000000000000e+01
2.400000000000000000e+01
2.400000000000000000e+01
2.400000000000000000e+01
2.400000000000000000e+01
2.400000000000000000e+01
2.500000000000000000e+01
2.600000000000000000e+01
2.600000000000000000e+01
2.700000000000000000e+01
2.700000000000000000e+01
2.700000000000000000e+01
2.700000000000000000e+01
2.700000000000000000e+01
2.700000000000000000e+01
2.700000000000000000e+01
2.700000000000000000e+01
2.800000000000000000e+01
2.800000000000000000e+01
2.800000000000000000e+01
2.800000000000000000e+01
2.800000000000000000e+01
2.800000000000000000e+01
2.800000000000000000e+01
2.800000000000000000e+01
2.800000000000000000e+01
2.800000000000000000e+01
2.900000000000000000e+01
2.900000000000000000e+01
2.900000000000000000e+01
2.900000000000000000e+01
3.000000000000000000e+01
3.000000000000000000e+01
3.000000000000000000e+01
3.000000000000000000e+01
3.000000000000000000e+01
3.000000000000000000e+01
3.000000000000000000e+01
3.000000000000000000e+01
3.000000000000000000e+01
3.100000000000000000e+01
3.100000000000000000e+01
3.100000000000000000e+01
3.100000000000000000e+01
3.100000000000000000e+01
3.100000000000000000e+01
3.100000000000000000e+01
3.200000000000000000e+01
3.200000000000000000e+01
3.200000000000000000e+01
3.200000000000000000e+01
3.200000000000000000e+01
3.200000000000000000e+01
3.200000000000000000e+01
3.200000000000000000e+01
3.200000000000000000e+01
3.200000000000000000e+01
3.400000000000000000e+01
3.400000000000000000e+01
3.400000000000000000e+01
3.400000000000000000e+01
3.500000000000000000e+01
3.500000000000000000e+01
3.500000000000000000e+01
3.500000000000000000e+01
3.600000000000000000e+01
3.600000000000000000e+01
3.700000000000000000e+01
3.700000000000000000e+01
3.800000000000000000e+01
3.800000000000000000e+01
3.800000000000000000e+01
3.800000000000000000e+01
3.800000000000000000e+01
3.800000000000000000e+01
3.800000000000000000e+01
3.800000000000000000e+01
3.800000000000000000e+01
3.800000000000000000e+01
3.800000000000000000e+01
3.800000000000000000e+01
3.800000000000000000e+01
4.000000000000000000e+01
4.000000000000000000e+01
4.100000000000000000e+01
4.100000000000000000e+01
4.100000000000000000e+01
4.100000000000000000e+01
4.200000000000000000e+01
4.400000000000000000e+01
4.500000000000000000e+01
4.500000000000000000e+01
4.500000000000000000e+01
4.500000000000000000e+01
4.500000000000000000e+01
4.500000000000000000e+01
4.500000000000000000e+01
4.500000000000000000e+01
4.500000000000000000e+01
4.600000000000000000e+01
4.700000000000000000e+01
4.800000000000000000e+01
4.800000000000000000e+01
4.800000000000000000e+01
4.900000000000000000e+01
4.900000000000000000e+01
4.900000000000000000e+01
5.100000000000000000e+01
5.200000000000000000e+01
5.200000000000000000e+01
5.300000000000000000e+01
5.300000000000000000e+01
5.300000000000000000e+01
5.400000000000000000e+01
5.500000000000000000e+01
5.500000000000000000e+01
5.600000000000000000e+01
5.600000000000000000e+01
5.600000000000000000e+01
5.700000000000000000e+01
5.800000000000000000e+01
5.800000000000000000e+01
5.900000000000000000e+01
6.000000000000000000e+01
6.000000000000000000e+01
6.000000000000000000e+01
6.000000000000000000e+01
6.000000000000000000e+01
6.000000000000000000e+01
6.000000000000000000e+01
6.100000000000000000e+01
6.200000000000000000e+01
6.200000000000000000e+01
6.200000000000000000e+01
6.200000000000000000e+01
6.200000000000000000e+01
6.300000000000000000e+01
6.300000000000000000e+01
6.300000000000000000e+01
6.300000000000000000e+01
6.400000000000000000e+01
6.700000000000000000e+01
6.700000000000000000e+01
6.800000000000000000e+01
6.800000000000000000e+01
6.900000000000000000e+01
6.900000000000000000e+01
7.000000000000000000e+01
7.000000000000000000e+01
7.000000000000000000e+01
7.000000000000000000e+01
7.000000000000000000e+01
7.000000000000000000e+01
7.000000000000000000e+01
7.000000000000000000e+01
7.000000000000000000e+01
7.000000000000000000e+01
7.000000000000000000e+01
7.000000000000000000e+01
7.100000000000000000e+01
7.200000000000000000e+01
7.200000000000000000e+01
7.200000000000000000e+01
7.300000000000000000e+01
7.300000000000000000e+01
7.400000000000000000e+01
7.400000000000000000e+01
7.400000000000000000e+01
7.400000000000000000e+01
7.400000000000000000e+01
7.400000000000000000e+01
7.400000000000000000e+01
7.400000000000000000e+01
7.500000000000000000e+01
7.700000000000000000e+01
7.800000000000000000e+01
7.900000000000000000e+01
7.900000000000000000e+01
8.100000000000000000e+01
8.100000000000000000e+01
8.200000000000000000e+01
8.300000000000000000e+01
8.300000000000000000e+01
8.600000000000000000e+01
8.600000000000000000e+01
8.700000000000000000e+01
8.900000000000000000e+01
8.900000000000000000e+01
9.000000000000000000e+01
9.100000000000000000e+01
9.300000000000000000e+01
9.300000000000000000e+01
9.400000000000000000e+01
9.400000000000000000e+01
9.500000000000000000e+01
9.600000000000000000e+01
9.600000000000000000e+01
9.700000000000000000e+01
9.800000000000000000e+01
9.800000000000000000e+01
9.800000000000000000e+01
9.800000000000000000e+01
9.900000000000000000e+01
1.010000000000000000e+02
1.020000000000000000e+02
1.030000000000000000e+02
1.040000000000000000e+02
1.060000000000000000e+02
1.070000000000000000e+02
1.090000000000000000e+02
1.100000000000000000e+02
1.100000000000000000e+02
1.110000000000000000e+02
1.110000000000000000e+02
1.110000000000000000e+02
1.120000000000000000e+02
1.130000000000000000e+02
1.130000000000000000e+02
1.140000000000000000e+02
1.140000000000000000e+02
1.150000000000000000e+02
1.170000000000000000e+02
1.180000000000000000e+02
1.180000000000000000e+02
1.220000000000000000e+02
1.220000000000000000e+02
1.220000000000000000e+02
1.220000000000000000e+02
1.220000000000000000e+02
1.230000000000000000e+02
1.240000000000000000e+02
1.240000000000000000e+02
1.240000000000000000e+02
1.240000000000000000e+02
1.240000000000000000e+02
1.250000000000000000e+02
1.250000000000000000e+02
1.250000000000000000e+02
1.260000000000000000e+02
1.260000000000000000e+02
1.310000000000000000e+02
1.320000000000000000e+02
1.330000000000000000e+02
1.340000000000000000e+02
1.340000000000000000e+02
1.340000000000000000e+02
1.350000000000000000e+02
1.350000000000000000e+02
1.380000000000000000e+02
1.400000000000000000e+02
1.410000000000000000e+02
1.410000000000000000e+02
1.420000000000000000e+02
1.460000000000000000e+02
1.470000000000000000e+02
1.480000000000000000e+02
1.480000000000000000e+02
1.490000000000000000e+02
1.490000000000000000e+02
1.500000000000000000e+02
1.500000000000000000e+02
1.520000000000000000e+02
1.530000000000000000e+02
1.530000000000000000e+02
1.560000000000000000e+02
1.590000000000000000e+02
1.620000000000000000e+02
1.620000000000000000e+02
1.630000000000000000e+02
1.630000000000000000e+02
1.630000000000000000e+02
1.650000000000000000e+02
1.660000000000000000e+02
1.680000000000000000e+02
1.680000000000000000e+02
1.690000000000000000e+02
1.700000000000000000e+02
1.720000000000000000e+02
1.720000000000000000e+02
1.730000000000000000e+02
1.730000000000000000e+02
1.730000000000000000e+02
1.760000000000000000e+02
1.780000000000000000e+02
1.790000000000000000e+02
1.790000000000000000e+02
1.810000000000000000e+02
1.850000000000000000e+02
1.880000000000000000e+02
1.890000000000000000e+02
1.920000000000000000e+02
1.920000000000000000e+02
1.920000000000000000e+02
1.950000000000000000e+02
1.980000000000000000e+02
2.000000000000000000e+02
2.000000000000000000e+02
2.010000000000000000e+02
2.020000000000000000e+02
2.030000000000000000e+02
2.030000000000000000e+02
2.070000000000000000e+02
2.080000000000000000e+02
2.090000000000000000e+02
2.100000000000000000e+02
2.100000000000000000e+02
2.130000000000000000e+02
2.140000000000000000e+02
2.160000000000000000e+02
2.170000000000000000e+02
2.210000000000000000e+02
2.210000000000000000e+02
2.220000000000000000e+02
2.220000000000000000e+02
2.260000000000000000e+02
2.310000000000000000e+02
2.320000000000000000e+02
2.330000000000000000e+02
2.350000000000000000e+02
2.360000000000000000e+02
2.380000000000000000e+02
2.390000000000000000e+02
2.400000000000000000e+02
2.410000000000000000e+02
2.430000000000000000e+02
2.430000000000000000e+02
2.450000000000000000e+02
2.460000000000000000e+02
2.460000000000000000e+02
2.480000000000000000e+02
2.510000000000000000e+02
2.530000000000000000e+02
2.560000000000000000e+02
2.580000000000000000e+02
2.600000000000000000e+02
2.610000000000000000e+02
2.620000000000000000e+02
2.670000000000000000e+02
2.680000000000000000e+02
2.700000000000000000e+02
2.700000000000000000e+02
2.700000000000000000e+02
2.720000000000000000e+02
2.730000000000000000e+02
2.740000000000000000e+02
2.770000000000000000e+02
2.800000000000000000e+02
2.820000000000000000e+02
2.850000000000000000e+02
2.890000000000000000e+02
2.890000000000000000e+02
2.900000000000000000e+02
2.920000000000000000e+02
2.940000000000000000e+02
2.970000000000000000e+02
2.970000000000000000e+02
3.010000000000000000e+02
3.030000000000000000e+02
3.060000000000000000e+02
3.100000000000000000e+02
3.130000000000000000e+02
3.140000000000000000e+02
3.180000000000000000e+02
3.200000000000000000e+02
3.220000000000000000e+02
3.250000000000000000e+02
3.290000000000000000e+02
3.330000000000000000e+02
3.360000000000000000e+02
3.390000000000000000e+02
3.420000000000000000e+02
3.440000000000000000e+02
3.440000000000000000e+02
3.440000000000000000e+02
3.460000000000000000e+02
3.480000000000000000e+02
3.530000000000000000e+02
3.560000000000000000e+02
3.580000000000000000e+02
3.580000000000000000e+02
3.620000000000000000e+02
3.660000000000000000e+02
3.670000000000000000e+02
3.700000000000000000e+02
3.720000000000000000e+02
3.760000000000000000e+02
3.810000000000000000e+02
3.820000000000000000e+02
3.830000000000000000e+02
3.850000000000000000e+02
3.880000000000000000e+02
3.930000000000000000e+02
3.970000000000000000e+02
3.980000000000000000e+02
3.990000000000000000e+02
4.010000000000000000e+02
4.030000000000000000e+02
4.090000000000000000e+02
4.110000000000000000e+02
4.160000000000000000e+02
4.170000000000000000e+02
4.170000000000000000e+02
4.180000000000000000e+02
4.210000000000000000e+02
4.230000000000000000e+02
4.230000000000000000e+02
4.280000000000000000e+02
4.310000000000000000e+02
4.350000000000000000e+02
4.400000000000000000e+02
4.470000000000000000e+02
4.530000000000000000e+02
4.560000000000000000e+02
4.560000000000000000e+02
4.590000000000000000e+02
4.620000000000000000e+02
4.630000000000000000e+02
4.640000000000000000e+02
4.710000000000000000e+02
4.750000000000000000e+02
4.830000000000000000e+02
4.870000000000000000e+02
4.900000000000000000e+02
4.960000000000000000e+02
4.980000000000000000e+02
5.020000000000000000e+02
5.070000000000000000e+02
5.100000000000000000e+02
5.160000000000000000e+02
5.210000000000000000e+02
5.220000000000000000e+02
5.240000000000000000e+02
5.250000000000000000e+02
5.260000000000000000e+02
5.290000000000000000e+02
5.370000000000000000e+02
5.410000000000000000e+02
5.480000000000000000e+02
5.510000000000000000e+02
5.540000000000000000e+02
5.560000000000000000e+02
5.590000000000000000e+02
5.640000000000000000e+02
5.700000000000000000e+02
5.720000000000000000e+02
5.760000000000000000e+02
5.810000000000000000e+02
5.840000000000000000e+02
5.870000000000000000e+02
5.900000000000000000e+02
5.920000000000000000e+02
5.950000000000000000e+02
5.960000000000000000e+02
5.990000000000000000e+02
6.010000000000000000e+02
6.070000000000000000e+02
6.130000000000000000e+02
6.190000000000000000e+02
6.220000000000000000e+02
6.280000000000000000e+02
6.320000000000000000e+02
6.390000000000000000e+02
6.400000000000000000e+02
6.450000000000000000e+02
6.500000000000000000e+02
6.540000000000000000e+02
6.600000000000000000e+02
6.640000000000000000e+02
6.680000000000000000e+02
6.750000000000000000e+02
6.800000000000000000e+02
6.870000000000000000e+02
6.970000000000000000e+02
6.980000000000000000e+02
7.050000000000000000e+02
7.080000000000000000e+02
7.130000000000000000e+02
7.200000000000000000e+02
7.290000000000000000e+02
7.330000000000000000e+02
7.360000000000000000e+02
7.430000000000000000e+02
7.480000000000000000e+02
7.550000000000000000e+02
7.600000000000000000e+02
7.650000000000000000e+02
7.720000000000000000e+02
7.750000000000000000e+02
7.780000000000000000e+02
7.870000000000000000e+02
7.890000000000000000e+02
7.990000000000000000e+02
8.030000000000000000e+02
8.060000000000000000e+02
8.140000000000000000e+02
8.210000000000000000e+02
8.280000000000000000e+02
8.390000000000000000e+02
8.460000000000000000e+02
8.490000000000000000e+02
8.550000000000000000e+02
8.610000000000000000e+02
8.690000000000000000e+02
8.760000000000000000e+02
8.840000000000000000e+02
8.920000000000000000e+02
8.980000000000000000e+02
9.020000000000000000e+02
9.100000000000000000e+02
9.160000000000000000e+02
9.330000000000000000e+02
9.380000000000000000e+02
9.450000000000000000e+02
9.500000000000000000e+02
9.580000000000000000e+02
9.650000000000000000e+02
9.730000000000000000e+02
9.810000000000000000e+02
9.910000000000000000e+02
1.000000000000000000e+03
1.006000000000000000e+03
1.009000000000000000e+03
1.016000000000000000e+03
1.023000000000000000e+03
1.034000000000000000e+03
1.042000000000000000e+03
1.049000000000000000e+03
1.055000000000000000e+03
1.062000000000000000e+03
1.065000000000000000e+03
1.074000000000000000e+03
1.079000000000000000e+03
1.084000000000000000e+03
1.090000000000000000e+03
1.097000000000000000e+03
1.109000000000000000e+03
1.112000000000000000e+03
1.122000000000000000e+03
1.128000000000000000e+03
1.134000000000000000e+03
1.147000000000000000e+03
1.156000000000000000e+03
1.167000000000000000e+03
1.173000000000000000e+03
1.179000000000000000e+03
1.189000000000000000e+03
1.198000000000000000e+03
1.207000000000000000e+03
1.213000000000000000e+03
1.223000000000000000e+03
1.232000000000000000e+03
1.239000000000000000e+03
1.246000000000000000e+03
1.259000000000000000e+03
1.271000000000000000e+03
1.279000000000000000e+03
1.285000000000000000e+03
1.296000000000000000e+03
1.306000000000000000e+03
1.311000000000000000e+03
1.324000000000000000e+03
1.335000000000000000e+03
1.343000000000000000e+03
1.358000000000000000e+03
1.366000000000000000e+03
1.376000000000000000e+03
1.382000000000000000e+03
1.392000000000000000e+03
1.407000000000000000e+03
1.424000000000000000e+03
1.439000000000000000e+03
1.449000000000000000e+03
1.459000000000000000e+03
1.468000000000000000e+03
1.477000000000000000e+03
1.486000000000000000e+03
1.495000000000000000e+03
1.508000000000000000e+03
1.519000000000000000e+03
1.529000000000000000e+03
1.541000000000000000e+03
1.553000000000000000e+03
1.566000000000000000e+03
1.572000000000000000e+03
1.589000000000000000e+03
1.605000000000000000e+03
1.620000000000000000e+03
1.632000000000000000e+03
1.640000000000000000e+03
1.659000000000000000e+03
1.669000000000000000e+03
1.687000000000000000e+03
1.703000000000000000e+03
1.715000000000000000e+03
1.731000000000000000e+03
1.747000000000000000e+03
1.754000000000000000e+03
1.764000000000000000e+03
1.778000000000000000e+03
1.787000000000000000e+03
1.802000000000000000e+03
1.817000000000000000e+03
1.826000000000000000e+03
1.846000000000000000e+03
1.861000000000000000e+03
1.878000000000000000e+03
1.893000000000000000e+03
1.904000000000000000e+03
1.917000000000000000e+03
1.935000000000000000e+03
1.950000000000000000e+03
1.966000000000000000e+03
1.982000000000000000e+03
1.998000000000000000e+03
2.009000000000000000e+03
2.028000000000000000e+03
2.041000000000000000e+03
2.062000000000000000e+03
2.074000000000000000e+03
2.092000000000000000e+03
2.111000000000000000e+03
2.130000000000000000e+03
2.152000000000000000e+03
2.166000000000000000e+03
2.177000000000000000e+03
2.192000000000000000e+03
2.208000000000000000e+03
2.221000000000000000e+03
2.235000000000000000e+03
2.247000000000000000e+03
2.264000000000000000e+03
2.280000000000000000e+03
2.300000000000000000e+03
2.315000000000000000e+03
2.328000000000000000e+03
2.345000000000000000e+03
2.367000000000000000e+03
2.387000000000000000e+03
2.405000000000000000e+03
2.427000000000000000e+03
2.447000000000000000e+03
2.467000000000000000e+03
2.489000000000000000e+03
2.497000000000000000e+03
2.518000000000000000e+03
2.541000000000000000e+03
2.566000000000000000e+03
2.592000000000000000e+03
2.606000000000000000e+03
2.628000000000000000e+03
2.643000000000000000e+03
2.666000000000000000e+03
2.684000000000000000e+03
2.703000000000000000e+03
2.718000000000000000e+03
2.731000000000000000e+03
2.747000000000000000e+03
2.755000000000000000e+03
2.777000000000000000e+03
2.795000000000000000e+03
2.824000000000000000e+03
2.842000000000000000e+03
2.866000000000000000e+03
2.906000000000000000e+03
2.927000000000000000e+03
2.946000000000000000e+03
2.961000000000000000e+03
2.987000000000000000e+03
3.016000000000000000e+03
3.033000000000000000e+03
3.054000000000000000e+03
3.073000000000000000e+03
3.096000000000000000e+03
3.121000000000000000e+03
3.144000000000000000e+03
3.162000000000000000e+03
3.184000000000000000e+03
3.201000000000000000e+03
3.215000000000000000e+03
3.242000000000000000e+03
3.264000000000000000e+03
3.293000000000000000e+03
3.317000000000000000e+03
3.340000000000000000e+03
3.356000000000000000e+03
3.377000000000000000e+03
3.404000000000000000e+03
3.426000000000000000e+03
3.458000000000000000e+03
3.477000000000000000e+03
3.505000000000000000e+03
3.542000000000000000e+03
3.573000000000000000e+03
3.598000000000000000e+03
3.627000000000000000e+03
3.647000000000000000e+03
3.686000000000000000e+03
3.722000000000000000e+03
3.747000000000000000e+03
3.782000000000000000e+03
3.819000000000000000e+03
3.847000000000000000e+03
3.868000000000000000e+03
3.894000000000000000e+03
3.910000000000000000e+03
3.943000000000000000e+03
3.973000000000000000e+03
4.001000000000000000e+03
4.028000000000000000e+03
4.068000000000000000e+03
4.093000000000000000e+03
4.124000000000000000e+03
4.163000000000000000e+03
4.200000000000000000e+03
4.242000000000000000e+03
4.265000000000000000e+03
4.297000000000000000e+03
4.323000000000000000e+03
4.351000000000000000e+03
4.378000000000000000e+03
4.401000000000000000e+03
4.434000000000000000e+03
4.470000000000000000e+03
4.491000000000000000e+03
4.530000000000000000e+03
4.565000000000000000e+03
4.595000000000000000e+03
4.635000000000000000e+03
4.677000000000000000e+03
4.706000000000000000e+03
4.738000000000000000e+03
4.774000000000000000e+03
4.807000000000000000e+03
4.842000000000000000e+03
4.863000000000000000e+03
4.895000000000000000e+03
4.935000000000000000e+03
4.976000000000000000e+03
5.005000000000000000e+03
5.039000000000000000e+03
5.081000000000000000e+03
5.134000000000000000e+03
5.169000000000000000e+03
5.205000000000000000e+03
5.241000000000000000e+03
5.286000000000000000e+03
5.321000000000000000e+03
5.366000000000000000e+03
5.414000000000000000e+03
5.462000000000000000e+03
5.498000000000000000e+03
5.545000000000000000e+03
5.593000000000000000e+03
5.629000000000000000e+03
5.669000000000000000e+03
5.707000000000000000e+03
5.756000000000000000e+03
5.791000000000000000e+03
5.828000000000000000e+03
5.874000000000000000e+03
5.912000000000000000e+03
5.954000000000000000e+03
5.992000000000000000e+03
6.037000000000000000e+03
6.082000000000000000e+03
6.138000000000000000e+03
6.182000000000000000e+03
6.231000000000000000e+03
6.267000000000000000e+03
6.308000000000000000e+03
6.358000000000000000e+03
6.391000000000000000e+03
6.449000000000000000e+03
6.491000000000000000e+03
6.520000000000000000e+03
6.563000000000000000e+03
6.611000000000000000e+03
6.649000000000000000e+03
6.700000000000000000e+03
6.752000000000000000e+03
6.794000000000000000e+03
6.848000000000000000e+03
6.907000000000000000e+03
6.952000000000000000e+03
6.996000000000000000e+03
7.043000000000000000e+03
7.086000000000000000e+03
7.128000000000000000e+03
7.177000000000000000e+03
7.225000000000000000e+03
7.285000000000000000e+03
7.348000000000000000e+03
7.405000000000000000e+03
7.458000000000000000e+03
7.515000000000000000e+03
7.579000000000000000e+03
7.637000000000000000e+03
7.704000000000000000e+03
7.753000000000000000e+03
7.822000000000000000e+03
7.859000000000000000e+03
7.920000000000000000e+03
7.968000000000000000e+03
8.036000000000000000e+03
8.098000000000000000e+03
8.160000000000000000e+03
8.214000000000000000e+03
8.277000000000000000e+03
8.334000000000000000e+03
8.408000000000000000e+03
8.444000000000000000e+03
8.508000000000000000e+03
8.583000000000000000e+03
8.643000000000000000e+03
8.686000000000000000e+03
8.748000000000000000e+03
8.822000000000000000e+03
8.890000000000000000e+03
8.959000000000000000e+03
9.045000000000000000e+03
9.123000000000000000e+03
9.196000000000000000e+03
9.268000000000000000e+03
9.347000000000000000e+03
9.412000000000000000e+03
9.496000000000000000e+03
9.560000000000000000e+03
9.618000000000000000e+03
9.696000000000000000e+03
9.763000000000000000e+03
9.829000000000000000e+03
9.911000000000000000e+03
9.976000000000000000e+03
1.005000000000000000e+04
1.011400000000000000e+04
1.019300000000000000e+04
1.027600000000000000e+04
1.036900000000000000e+04
1.043500000000000000e+04
1.050300000000000000e+04
1.058900000000000000e+04
1.066400000000000000e+04
1.074100000000000000e+04
1.080600000000000000e+04
1.087700000000000000e+04
1.096500000000000000e+04
1.104700000000000000e+04
1.112900000000000000e+04
1.121400000000000000e+04
1.129700000000000000e+04
1.139200000000000000e+04
1.149200000000000000e+04
1.157600000000000000e+04
1.165300000000000000e+04
1.172000000000000000e+04
1.180200000000000000e+04
1.188400000000000000e+04
1.197700000000000000e+04
1.204700000000000000e+04
1.213500000000000000e+04
1.222800000000000000e+04
1.231500000000000000e+04
1.240000000000000000e+04
1.250000000000000000e+04
1.259900000000000000e+04
1.267500000000000000e+04
1.276200000000000000e+04
1.284900000000000000e+04
1.292500000000000000e+04
1.302200000000000000e+04
1.310400000000000000e+04
1.320300000000000000e+04
1.330300000000000000e+04
1.339700000000000000e+04
1.350000000000000000e+04
1.360800000000000000e+04
1.370600000000000000e+04
1.380400000000000000e+04
1.390400000000000000e+04
1.401100000000000000e+04
1.409500000000000000e+04
1.418000000000000000e+04
1.428900000000000000e+04
1.439500000000000000e+04
1.449700000000000000e+04
1.459300000000000000e+04
1.471600000000000000e+04
1.482300000000000000e+04
1.493000000000000000e+04
1.504100000000000000e+04
1.516000000000000000e+04
1.525800000000000000e+04
1.536500000000000000e+04
1.547600000000000000e+04
1.558300000000000000e+04
1.570500000000000000e+04
1.582300000000000000e+04
1.594600000000000000e+04
1.605500000000000000e+04
1.619100000000000000e+04
1.630400000000000000e+04
1.643900000000000000e+04
1.656400000000000000e+04
1.668500000000000000e+04
1.681300000000000000e+04
1.694700000000000000e+04
1.706900000000000000e+04
1.721000000000000000e+04
1.733100000000000000e+04
1.745100000000000000e+04
1.757300000000000000e+04
1.769200000000000000e+04
1.783100000000000000e+04
1.795900000000000000e+04
1.809400000000000000e+04
1.822500000000000000e+04
1.836100000000000000e+04
1.849200000000000000e+04
1.862500000000000000e+04
1.877400000000000000e+04
1.889700000000000000e+04
