1.000000000000000000e+00
2.000000000000000000e+00
3.000000000000000000e+00
4.000000000000000000e+00
5.000000000000000000e+00
8.000000000000000000e+00
1.000000000000000000e+01
1.300000000000000000e+01
1.400000000000000000e+01
1.700000000000000000e+01
2.000000000000000000e+01
2.500000000000000000e+01
2.600000000000000000e+01
3.300000000000000000e+01
4.000000000000000000e+01
4.700000000000000000e+01
5.300000000000000000e+01
6.800000000000000000e+01
7.700000000000000000e+01
9.000000000000000000e+01
1.030000000000000000e+02
1.190000000000000000e+02
1.370000000000000000e+02
1.650000000000000000e+02
1.920000000000000000e+02
2.290000000000000000e+02
2.590000000000000000e+02
3.030000000000000000e+02
3.440000000000000000e+02
3.930000000000000000e+02
4.580000000000000000e+02
5.300000000000000000e+02
6.240000000000000000e+02
7.210000000000000000e+02
8.320000000000000000e+02
9.500000000000000000e+02
1.112000000000000000e+03
1.299000000000000000e+03
1.491000000000000000e+03
1.714000000000000000e+03
1.992000000000000000e+03
2.296000000000000000e+03
2.668000000000000000e+03
3.104000000000000000e+03
3.587000000000000000e+03
4.111000000000000000e+03
4.767000000000000000e+03
5.512000000000000000e+03
6.426000000000000000e+03
