1.000000000000000000e+00
2.000000000000000000e+00
3.000000000000000000e+00
4.000000000000000000e+00
5.000000000000000000e+00
7.000000000000000000e+00
8.000000000000000000e+00
1.100000000000000000e+01
1.200000000000000000e+01
1.900000000000000000e+01
2.400000000000000000e+01
3.000000000000000000e+01
3.300000000000000000e+01
3.800000000000000000e+01
4.700000000000000000e+01
5.400000000000000000e+01
6.000000000000000000e+01
7.000000000000000000e+01
9.000000000000000000e+01
1.040000000000000000e+02
1.200000000000000000e+02
1.400000000000000000e+02
1.610000000000000000e+02
1.920000000000000000e+02
2.230000000000000000e+02
2.580000000000000000e+02
2.900000000000000000e+02
3.340000000000000000e+02
3.930000000000000000e+02
4.680000000000000000e+02
5.390000000000000000e+02
6.110000000000000000e+02
7.110000000000000000e+02
8.240000000000000000e+02
9.640000000000000000e+02
1.104000000000000000e+03
1.292000000000000000e+03
1.487000000000000000e+03
1.704000000000000000e+03
1.989000000000000000e+03
2.306000000000000000e+03
2.643000000000000000e+03
3.076000000000000000e+03
3.555000000000000000e+03
