1.000000000000000000e+00
2.000000000000000000e+00
3.000000000000000000e+00
5.000000000000000000e+00
6.000000000000000000e+00
8.000000000000000000e+00
9.000000000000000000e+00
1.300000000000000000e+01
1.500000000000000000e+01
1.600000000000000000e+01
2.000000000000000000e+01
2.400000000000000000e+01
2.800000000000000000e+01
3.300000000000000000e+01
3.800000000000000000e+01
4.100000000000000000e+01
4.400000000000000000e+01
6.000000000000000000e+01
6.700000000000000000e+01
8.100000000000000000e+01
9.200000000000000000e+01
1.100000000000000000e+02
1.250000000000000000e+02
1.410000000000000000e+02
1.660000000000000000e+02
1.980000000000000000e+02
2.270000000000000000e+02
2.610000000000000000e+02
2.970000000000000000e+02
3.560000000000000000e+02
4.110000000000000000e+02
4.800000000000000000e+02
5.540000000000000000e+02
6.430000000000000000e+02
7.390000000000000000e+02
8.700000000000000000e+02
1.008000000000000000e+03
1.165000000000000000e+03
1.347000000000000000e+03
1.572000000000000000e+03
1.813000000000000000e+03
2.123000000000000000e+03
2.460000000000000000e+03
2.840000000000000000e+03
3.250000000000000000e+03
3.772000000000000000e+03
4.371000000000000000e+03
