1.000000000000000000e+00
2.000000000000000000e+00
3.000000000000000000e+00
5.000000000000000000e+00
6.000000000000000000e+00
7.000000000000000000e+00
9.000000000000000000e+00
1.100000000000000000e+01
1.200000000000000000e+01
1.400000000000000000e+01
1.600000000000000000e+01
2.000000000000000000e+01
2.500000000000000000e+01
2.900000000000000000e+01
3.700000000000000000e+01
4.300000000000000000e+01
4.900000000000000000e+01
5.400000000000000000e+01
6.200000000000000000e+01
7.500000000000000000e+01
8.900000000000000000e+01
1.040000000000000000e+02
1.170000000000000000e+02
1.340000000000000000e+02
1.570000000000000000e+02
1.870000000000000000e+02
2.150000000000000000e+02
2.380000000000000000e+02
2.870000000000000000e+02
3.260000000000000000e+02
3.780000000000000000e+02
4.340000000000000000e+02
5.000000000000000000e+02
5.640000000000000000e+02
6.730000000000000000e+02
7.830000000000000000e+02
9.060000000000000000e+02
1.036000000000000000e+03
1.196000000000000000e+03
1.393000000000000000e+03
1.629000000000000000e+03
1.892000000000000000e+03
2.177000000000000000e+03
2.520000000000000000e+03
2.914000000000000000e+03
3.391000000000000000e+03
3.924000000000000000e+03
