1.000000000000000000e+00
2.000000000000000000e+00
3.000000000000000000e+00
4.000000000000000000e+00
5.000000000000000000e+00
7.000000000000000000e+00
9.000000000000000000e+00
1.000000000000000000e+01
1.100000000000000000e+01
1.500000000000000000e+01
1.800000000000000000e+01
2.100000000000000000e+01
2.700000000000000000e+01
3.100000000000000000e+01
3.600000000000000000e+01
4.100000000000000000e+01
4.900000000000000000e+01
5.600000000000000000e+01
6.500000000000000000e+01
7.700000000000000000e+01
9.000000000000000000e+01
1.080000000000000000e+02
1.270000000000000000e+02
1.440000000000000000e+02
1.670000000000000000e+02
1.980000000000000000e+02
2.260000000000000000e+02
2.640000000000000000e+02
2.930000000000000000e+02
3.460000000000000000e+02
3.960000000000000000e+02
4.570000000000000000e+02
5.380000000000000000e+02
6.290000000000000000e+02
7.410000000000000000e+02
8.400000000000000000e+02
9.800000000000000000e+02
1.126000000000000000e+03
1.312000000000000000e+03
1.523000000000000000e+03
1.779000000000000000e+03
2.052000000000000000e+03
2.394000000000000000e+03
2.753000000000000000e+03
