1.000000000000000000e+00
2.000000000000000000e+00
3.000000000000000000e+00
4.000000000000000000e+00
5.000000000000000000e+00
7.000000000000000000e+00
9.000000000000000000e+00
1.300000000000000000e+01
1.700000000000000000e+01
1.900000000000000000e+01
2.200000000000000000e+01
2.400000000000000000e+01
2.700000000000000000e+01
3.400000000000000000e+01
4.100000000000000000e+01
4.700000000000000000e+01
5.300000000000000000e+01
6.100000000000000000e+01
7.200000000000000000e+01
8.600000000000000000e+01
1.000000000000000000e+02
1.170000000000000000e+02
1.370000000000000000e+02
1.570000000000000000e+02
1.830000000000000000e+02
2.120000000000000000e+02
2.390000000000000000e+02
2.820000000000000000e+02
3.350000000000000000e+02
3.830000000000000000e+02
4.410000000000000000e+02
5.170000000000000000e+02
5.980000000000000000e+02
7.050000000000000000e+02
8.310000000000000000e+02
9.570000000000000000e+02
1.098000000000000000e+03
1.270000000000000000e+03
1.472000000000000000e+03
1.711000000000000000e+03
1.994000000000000000e+03
2.297000000000000000e+03
2.667000000000000000e+03
3.042000000000000000e+03
3.509000000000000000e+03
4.090000000000000000e+03
4.724000000000000000e+03
5.471000000000000000e+03
6.348000000000000000e+03
