1.000000000000000000e+00
2.000000000000000000e+00
3.000000000000000000e+00
4.000000000000000000e+00
5.000000000000000000e+00
6.000000000000000000e+00
8.000000000000000000e+00
1.100000000000000000e+01
1.400000000000000000e+01
1.500000000000000000e+01
2.000000000000000000e+01
2.400000000000000000e+01
3.000000000000000000e+01
3.600000000000000000e+01
4.400000000000000000e+01
5.300000000000000000e+01
6.000000000000000000e+01
6.700000000000000000e+01
7.900000000000000000e+01
9.500000000000000000e+01
1.040000000000000000e+02
1.210000000000000000e+02
1.370000000000000000e+02
1.650000000000000000e+02
1.870000000000000000e+02
2.260000000000000000e+02
2.600000000000000000e+02
3.060000000000000000e+02
3.480000000000000000e+02
4.030000000000000000e+02
4.620000000000000000e+02
5.430000000000000000e+02
6.260000000000000000e+02
7.240000000000000000e+02
8.350000000000000000e+02
9.730000000000000000e+02
1.136000000000000000e+03
1.314000000000000000e+03
1.511000000000000000e+03
1.746000000000000000e+03
2.023000000000000000e+03
2.377000000000000000e+03
