1.000000000000000000e+00
2.000000000000000000e+00
3.000000000000000000e+00
4.000000000000000000e+00
6.000000000000000000e+00
7.000000000000000000e+00
1.000000000000000000e+01
1.200000000000000000e+01
1.400000000000000000e+01
1.900000000000000000e+01
2.300000000000000000e+01
2.600000000000000000e+01
2.900000000000000000e+01
3.400000000000000000e+01
4.300000000000000000e+01
5.100000000000000000e+01
5.700000000000000000e+01
6.500000000000000000e+01
7.500000000000000000e+01
8.500000000000000000e+01
1.020000000000000000e+02
1.170000000000000000e+02
1.450000000000000000e+02
1.730000000000000000e+02
1.910000000000000000e+02
2.190000000000000000e+02
2.610000000000000000e+02
3.050000000000000000e+02
3.480000000000000000e+02
4.010000000000000000e+02
4.630000000000000000e+02
5.260000000000000000e+02
6.130000000000000000e+02
7.180000000000000000e+02
8.430000000000000000e+02
9.790000000000000000e+02
1.142000000000000000e+03
1.323000000000000000e+03
1.531000000000000000e+03
1.791000000000000000e+03
2.038000000000000000e+03
2.372000000000000000e+03
2.783000000000000000e+03
3.210000000000000000e+03
3.688000000000000000e+03
4.245000000000000000e+03
