1.000000000000000000e+00
2.000000000000000000e+00
3.000000000000000000e+00
4.000000000000000000e+00
5.000000000000000000e+00
6.000000000000000000e+00
7.000000000000000000e+00
1.100000000000000000e+01
1.200000000000000000e+01
1.400000000000000000e+01
1.700000000000000000e+01
1.900000000000000000e+01
2.500000000000000000e+01
2.800000000000000000e+01
3.200000000000000000e+01
3.800000000000000000e+01
4.600000000000000000e+01
5.700000000000000000e+01
6.400000000000000000e+01
7.700000000000000000e+01
8.800000000000000000e+01
9.900000000000000000e+01
1.160000000000000000e+02
1.420000000000000000e+02
1.640000000000000000e+02
1.940000000000000000e+02
2.190000000000000000e+02
2.490000000000000000e+02
2.880000000000000000e+02
3.360000000000000000e+02
3.950000000000000000e+02
4.590000000000000000e+02
5.230000000000000000e+02
6.160000000000000000e+02
7.180000000000000000e+02
8.250000000000000000e+02
9.450000000000000000e+02
1.088000000000000000e+03
1.249000000000000000e+03
1.455000000000000000e+03
1.711000000000000000e+03
1.963000000000000000e+03
