1.000000000000000000e+00
2.000000000000000000e+00
2.000000000000000000e+00
2.000000000000000000e+00
2.000000000000000000e+00
2.000000000000000000e+00
2.000000000000000000e+00
2.000000000000000000e+00
2.000000000000000000e+00
2.000000000000000000e+00
2.000000000000000000e+00
2.000000000000000000e+00
2.000000000000000000e+00
2.000000000000000000e+00
2.000000000000000000e+00
2.000000000000000000e+00
2.000000000000000000e+00
2.000000000000000000e+00
2.000000000000000000e+00
2.000000000000000000e+00
2.000000000000000000e+00
2.000000000000000000e+00
2.000000000000000000e+00
2.000000000000000000e+00
2.000000000000000000e+00
2.000000000000000000e+00
2.000000000000000000e+00
2.000000000000000000e+00
2.000000000000000000e+00
2.000000000000000000e+00
2.000000000000000000e+00
2.000000000000000000e+00
2.000000000000000000e+00
2.000000000000000000e+00
2.000000000000000000e+00
2.000000000000000000e+00
2.000000000000000000e+00
2.000000000000000000e+00
2.000000000000000000e+00
2.000000000000000000e+00
2.000000000000000000e+00
2.000000000000000000e+00
2.000000000000000000e+00
2.000000000000000000e+00
2.000000000000000000e+00
2.000000000000000000e+00
2.000000000000000000e+00
3.000000000000000000e+00
3.000000000000000000e+00
3.000000000000000000e+00
3.000000000000000000e+00
3.000000000000000000e+00
3.000000000000000000e+00
3.000000000000000000e+00
3.000000000000000000e+00
3.000000000000000000e+00
3.000000000000000000e+00
3.000000000000000000e+00
3.000000000000000000e+00
3.000000000000000000e+00
3.000000000000000000e+00
3.000000000000000000e+00
3.000000000000000000e+00
3.000000000000000000e+00
3.000000000000000000e+00
3.000000000000000000e+00
3.000000000000000000e+00
3.000000000000000000e+00
3.000000000000000000e+00
3.000000000000000000e+00
3.000000000000000000e+00
3.000000000000000000e+00
3.000000000000000000e+00
3.000000000000000000e+00
3.000000000000000000e+00
3.000000000000000000e+00
3.000000000000000000e+00
3.000000000000000000e+00
3.000000000000000000e+00
3.000000000000000000e+00
3.000000000000000000e+00
3.000000000000000000e+00
3.000000000000000000e+00
3.000000000000000000e+00
3.000000000000000000e+00
3.000000000000000000e+00
3.000000000000000000e+00
3.000000000000000000e+00
3.000000000000000000e+00
3.000000000000000000e+00
3.000000000000000000e+00
3.000000000000000000e+00
3.000000000000000000e+00
3.000000000000000000e+00
3.000000000000000000e+00
3.000000000000000000e+00
3.000000000000000000e+00
3.000000000000000000e+00
3.000000000000000000e+00
3.000000000000000000e+00
3.000000000000000000e+00
3.000000000000000000e+00
3.000000000000000000e+00
3.000000000000000000e+00
3.000000000000000000e+00
3.000000000000000000e+00
3.000000000000000000e+00
3.000000000000000000e+00
3.000000000000000000e+00
3.000000000000000000e+00
3.000000000000000000e+00
3.000000000000000000e+00
3.000000000000000000e+00
3.000000000000000000e+00
3.000000000000000000e+00
3.000000000000000000e+00
3.000000000000000000e+00
3.000000000000000000e+00
3.000000000000000000e+00
3.000000000000000000e+00
3.000000000000000000e+00
3.000000000000000000e+00
3.000000000000000000e+00
3.000000000000000000e+00
3.000000000000000000e+00
3.000000000000000000e+00
3.000000000000000000e+00
3.000000000000000000e+00
3.000000000000000000e+00
3.000000000000000000e+00
3.000000000000000000e+00
3.000000000000000000e+00
3.000000000000000000e+00
3.000000000000000000e+00
3.000000000000000000e+00
3.000000000000000000e+00
3.000000000000000000e+00
3.000000000000000000e+00
4.000000000000000000e+00
4.000000000000000000e+00
4.000000000000000000e+00
5.000000000000000000e+00
5.000000000000000000e+00
5.000000000000000000e+00
5.000000000000000000e+00
5.000000000000000000e+00
5.000000000000000000e+00
5.000000000000000000e+00
5.000000000000000000e+00
5.000000000000000000e+00
5.000000000000000000e+00
5.000000000000000000e+00
5.000000000000000000e+00
5.000000000000000000e+00
5.000000000000000000e+00
5.000000000000000000e+00
5.000000000000000000e+00
5.000000000000000000e+00
5.000000000000000000e+00
5.000000000000000000e+00
5.000000000000000000e+00
5.000000000000000000e+00
5.000000000000000000e+00
5.000000000000000000e+00
5.000000000000000000e+00
5.000000000000000000e+00
5.000000000000000000e+00
5.000000000000000000e+00
5.000000000000000000e+00
5.000000000000000000e+00
5.000000000000000000e+00
5.000000000000000000e+00
5.000000000000000000e+00
5.000000000000000000e+00
5.000000000000000000e+00
5.000000000000000000e+00
5.000000000000000000e+00
5.000000000000000000e+00
5.000000000000000000e+00
5.000000000000000000e+00
5.000000000000000000e+00
5.000000000000000000e+00
5.000000000000000000e+00
5.000000000000000000e+00
5.000000000000000000e+00
5.000000000000000000e+00
5.000000000000000000e+00
5.000000000000000000e+00
5.000000000000000000e+00
5.000000000000000000e+00
5.000000000000000000e+00
5.000000000000000000e+00
5.000000000000000000e+00
5.000000000000000000e+00
5.000000000000000000e+00
5.000000000000000000e+00
5.000000000000000000e+00
5.000000000000000000e+00
5.000000000000000000e+00
5.000000000000000000e+00
5.000000000000000000e+00
5.000000000000000000e+00
5.000000000000000000e+00
5.000000000000000000e+00
5.000000000000000000e+00
5.000000000000000000e+00
5.000000000000000000e+00
5.000000000000000000e+00
5.000000000000000000e+00
5.000000000000000000e+00
5.000000000000000000e+00
5.000000000000000000e+00
5.000000000000000000e+00
5.000000000000000000e+00
5.000000000000000000e+00
5.000000000000000000e+00
5.000000000000000000e+00
5.000000000000000000e+00
5.000000000000000000e+00
5.000000000000000000e+00
5.000000000000000000e+00
5.000000000000000000e+00
6.000000000000000000e+00
6.000000000000000000e+00
6.000000000000000000e+00
6.000000000000000000e+00
6.000000000000000000e+00
6.000000000000000000e+00
6.000000000000000000e+00
6.000000000000000000e+00
6.000000000000000000e+00
6.000000000000000000e+00
6.000000000000000000e+00
6.000000000000000000e+00
6.000000000000000000e+00
6.000000000000000000e+00
6.000000000000000000e+00
6.000000000000000000e+00
6.000000000000000000e+00
6.000000000000000000e+00
6.000000000000000000e+00
6.000000000000000000e+00
6.000000000000000000e+00
6.000000000000000000e+00
6.000000000000000000e+00
6.000000000000000000e+00
6.000000000000000000e+00
6.000000000000000000e+00
6.000000000000000000e+00
6.000000000000000000e+00
6.000000000000000000e+00
6.000000000000000000e+00
6.000000000000000000e+00
6.000000000000000000e+00
6.000000000000000000e+00
6.000000000000000000e+00
6.000000000000000000e+00
6.000000000000000000e+00
6.000000000000000000e+00
6.000000000000000000e+00
6.000000000000000000e+00
6.000000000000000000e+00
6.000000000000000000e+00
6.000000000000000000e+00
6.000000000000000000e+00
7.000000000000000000e+00
7.000000000000000000e+00
7.000000000000000000e+00
7.000000000000000000e+00
7.000000000000000000e+00
7.000000000000000000e+00
7.000000000000000000e+00
8.000000000000000000e+00
8.000000000000000000e+00
8.000000000000000000e+00
8.000000000000000000e+00
8.000000000000000000e+00
9.000000000000000000e+00
9.000000000000000000e+00
9.000000000000000000e+00
9.000000000000000000e+00
9.000000000000000000e+00
9.000000000000000000e+00
9.000000000000000000e+00
9.000000000000000000e+00
9.000000000000000000e+00
9.000000000000000000e+00
9.000000000000000000e+00
9.000000000000000000e+00
9.000000000000000000e+00
9.000000000000000000e+00
9.000000000000000000e+00
9.000000000000000000e+00
9.000000000000000000e+00
9.000000000000000000e+00
9.000000000000000000e+00
9.000000000000000000e+00
9.000000000000000000e+00
9.000000000000000000e+00
9.000000000000000000e+00
9.000000000000000000e+00
9.000000000000000000e+00
9.000000000000000000e+00
9.000000000000000000e+00
9.000000000000000000e+00
9.000000000000000000e+00
9.000000000000000000e+00
9.000000000000000000e+00
9.000000000000000000e+00
9.000000000000000000e+00
9.000000000000000000e+00
9.000000000000000000e+00
9.000000000000000000e+00
9.000000000000000000e+00
9.000000000000000000e+00
9.000000000000000000e+00
9.000000000000000000e+00
9.000000000000000000e+00
9.000000000000000000e+00
9.000000000000000000e+00
9.000000000000000000e+00
9.000000000000000000e+00
9.000000000000000000e+00
9.000000000000000000e+00
9.000000000000000000e+00
9.000000000000000000e+00
9.000000000000000000e+00
9.000000000000000000e+00
9.000000000000000000e+00
9.000000000000000000e+00
9.000000000000000000e+00
9.000000000000000000e+00
9.000000000000000000e+00
9.000000000000000000e+00
9.000000000000000000e+00
1.000000000000000000e+01
1.100000000000000000e+01
1.100000000000000000e+01
1.100000000000000000e+01
1.200000000000000000e+01
1.200000000000000000e+01
1.300000000000000000e+01
1.300000000000000000e+01
1.300000000000000000e+01
1.300000000000000000e+01
1.300000000000000000e+01
1.300000000000000000e+01
1.400000000000000000e+01
1.400000000000000000e+01
1.400000000000000000e+01
1.500000000000000000e+01
1.500000000000000000e+01
1.500000000000000000e+01
1.500000000000000000e+01
1.500000000000000000e+01
1.500000000000000000e+01
1.600000000000000000e+01
1.600000000000000000e+01
1.600000000000000000e+01
1.600000000000000000e+01
1.600000000000000000e+01
1.600000000000000000e+01
1.600000000000000000e+01
1.600000000000000000e+01
1.600000000000000000e+01
1.600000000000000000e+01
1.600000000000000000e+01
1.600000000000000000e+01
1.600000000000000000e+01
1.600000000000000000e+01
1.600000000000000000e+01
1.600000000000000000e+01
1.600000000000000000e+01
1.600000000000000000e+01
1.600000000000000000e+01
1.600000000000000000e+01
1.600000000000000000e+01
1.600000000000000000e+01
1.600000000000000000e+01
1.600000000000000000e+01
1.600000000000000000e+01
1.600000000000000000e+01
1.600000000000000000e+01
1.600000000000000000e+01
1.600000000000000000e+01
1.600000000000000000e+01
1.600000000000000000e+01
1.600000000000000000e+01
1.600000000000000000e+01
1.600000000000000000e+01
1.600000000000000000e+01
1.600000000000000000e+01
1.600000000000000000e+01
1.600000000000000000e+01
1.600000000000000000e+01
1.600000000000000000e+01
1.600000000000000000e+01
1.600000000000000000e+01
1.600000000000000000e+01
1.600000000000000000e+01
1.600000000000000000e+01
1.600000000000000000e+01
1.700000000000000000e+01
1.800000000000000000e+01
1.800000000000000000e+01
1.800000000000000000e+01
1.800000000000000000e+01
1.800000000000000000e+01
1.800000000000000000e+01
1.800000000000000000e+01
1.800000000000000000e+01
1.800000000000000000e+01
1.800000000000000000e+01
1.800000000000000000e+01
1.800000000000000000e+01
2.000000000000000000e+01
2.000000000000000000e+01
2.000000000000000000e+01
2.100000000000000000e+01
2.100000000000000000e+01
2.100000000000000000e+01
2.100000000000000000e+01
2.100000000000000000e+01
2.100000000000000000e+01
2.200000000000000000e+01
2.200000000000000000e+01
2.200000000000000000e+01
2.200000000000000000e+01
2.200000000000000000e+01
2.200000000000000000e+01
2.200000000000000000e+01
2.300000000000000000e+01
2.300000000000000000e+01
2.300000000000000000e+01
2.300000000000000000e+01
2.300000000000000000e+01
2.300000000000000000e+01
2.300000000000000000e+01
2.300000000000000000e+01
2.400000000000000000e+01
2.400000000000000000e+01
2.500000000000000000e+01
2.600000000000000000e+01
2.600000000000000000e+01
2.600000000000000000e+01
2.600000000000000000e+01
2.600000000000000000e+01
2.700000000000000000e+01
2.700000000000000000e+01
2.700000000000000000e+01
2.700000000000000000e+01
2.700000000000000000e+01
2.800000000000000000e+01
2.800000000000000000e+01
2.800000000000000000e+01
2.800000000000000000e+01
2.800000000000000000e+01
2.800000000000000000e+01
2.800000000000000000e+01
2.800000000000000000e+01
2.800000000000000000e+01
2.800000000000000000e+01
2.800000000000000000e+01
2.800000000000000000e+01
2.800000000000000000e+01
2.900000000000000000e+01
2.900000000000000000e+01
2.900000000000000000e+01
2.900000000000000000e+01
2.900000000000000000e+01
2.900000000000000000e+01
2.900000000000000000e+01
3.000000000000000000e+01
3.000000000000000000e+01
3.000000000000000000e+01
3.000000000000000000e+01
3.000000000000000000e+01
3.000000000000000000e+01
3.000000000000000000e+01
3.000000000000000000e+01
3.000000000000000000e+01
3.000000000000000000e+01
3.100000000000000000e+01
3.100000000000000000e+01
3.100000000000000000e+01
3.100000000000000000e+01
3.300000000000000000e+01
3.300000000000000000e+01
3.300000000000000000e+01
3.300000000000000000e+01
3.300000000000000000e+01
3.300000000000000000e+01
3.300000000000000000e+01
3.300000000000000000e+01
3.300000000000000000e+01
3.300000000000000000e+01
3.400000000000000000e+01
3.400000000000000000e+01
3.400000000000000000e+01
3.400000000000000000e+01
3.400000000000000000e+01
3.400000000000000000e+01
3.400000000000000000e+01
3.400000000000000000e+01
3.400000000000000000e+01
3.500000000000000000e+01
3.600000000000000000e+01
3.600000000000000000e+01
3.600000000000000000e+01
3.600000000000000000e+01
3.600000000000000000e+01
3.700000000000000000e+01
3.700000000000000000e+01
3.700000000000000000e+01
3.700000000000000000e+01
3.700000000000000000e+01
3.800000000000000000e+01
4.000000000000000000e+01
4.000000000000000000e+01
4.000000000000000000e+01
4.000000000000000000e+01
4.100000000000000000e+01
4.100000000000000000e+01
4.200000000000000000e+01
4.300000000000000000e+01
4.300000000000000000e+01
4.300000000000000000e+01
4.400000000000000000e+01
4.500000000000000000e+01
4.500000000000000000e+01
4.500000000000000000e+01
4.500000000000000000e+01
4.500000000000000000e+01
4.500000000000000000e+01
4.500000000000000000e+01
4.500000000000000000e+01
4.500000000000000000e+01
4.500000000000000000e+01
4.500000000000000000e+01
4.700000000000000000e+01
4.700000000000000000e+01
4.800000000000000000e+01
4.800000000000000000e+01
4.800000000000000000e+01
4.900000000000000000e+01
5.000000000000000000e+01
5.000000000000000000e+01
5.000000000000000000e+01
5.000000000000000000e+01
5.000000000000000000e+01
5.100000000000000000e+01
5.100000000000000000e+01
5.100000000000000000e+01
5.100000000000000000e+01
5.200000000000000000e+01
5.400000000000000000e+01
5.400000000000000000e+01
5.400000000000000000e+01
5.400000000000000000e+01
5.500000000000000000e+01
5.500000000000000000e+01
5.500000000000000000e+01
5.500000000000000000e+01
5.600000000000000000e+01
5.600000000000000000e+01
5.600000000000000000e+01
5.700000000000000000e+01
5.700000000000000000e+01
5.700000000000000000e+01
5.700000000000000000e+01
5.700000000000000000e+01
5.700000000000000000e+01
5.700000000000000000e+01
5.700000000000000000e+01
5.800000000000000000e+01
5.900000000000000000e+01
5.900000000000000000e+01
5.900000000000000000e+01
5.900000000000000000e+01
5.900000000000000000e+01
6.000000000000000000e+01
6.000000000000000000e+01
6.000000000000000000e+01
6.000000000000000000e+01
6.000000000000000000e+01
6.000000000000000000e+01
6.200000000000000000e+01
6.400000000000000000e+01
6.500000000000000000e+01
6.600000000000000000e+01
6.600000000000000000e+01
6.700000000000000000e+01
6.700000000000000000e+01
6.700000000000000000e+01
6.800000000000000000e+01
6.800000000000000000e+01
6.900000000000000000e+01
6.900000000000000000e+01
6.900000000000000000e+01
6.900000000000000000e+01
6.900000000000000000e+01
6.900000000000000000e+01
7.000000000000000000e+01
7.000000000000000000e+01
7.000000000000000000e+01
7.000000000000000000e+01
7.100000000000000000e+01
7.200000000000000000e+01
7.400000000000000000e+01
7.400000000000000000e+01
7.400000000000000000e+01
7.500000000000000000e+01
7.500000000000000000e+01
7.700000000000000000e+01
7.800000000000000000e+01
7.900000000000000000e+01
7.900000000000000000e+01
7.900000000000000000e+01
8.200000000000000000e+01
8.200000000000000000e+01
8.300000000000000000e+01
8.400000000000000000e+01
8.400000000000000000e+01
8.500000000000000000e+01
8.500000000000000000e+01
8.600000000000000000e+01
8.800000000000000000e+01
8.800000000000000000e+01
8.800000000000000000e+01
8.800000000000000000e+01
8.800000000000000000e+01
9.000000000000000000e+01
9.200000000000000000e+01
9.500000000000000000e+01
9.500000000000000000e+01
9.600000000000000000e+01
9.600000000000000000e+01
9.600000000000000000e+01
9.600000000000000000e+01
9.600000000000000000e+01
9.700000000000000000e+01
9.800000000000000000e+01
9.800000000000000000e+01
9.800000000000000000e+01
9.800000000000000000e+01
1.010000000000000000e+02
1.010000000000000000e+02
1.030000000000000000e+02
1.030000000000000000e+02
1.030000000000000000e+02
1.040000000000000000e+02
1.040000000000000000e+02
1.040000000000000000e+02
1.060000000000000000e+02
1.070000000000000000e+02
1.080000000000000000e+02
1.080000000000000000e+02
1.080000000000000000e+02
1.080000000000000000e+02
1.080000000000000000e+02
1.090000000000000000e+02
1.090000000000000000e+02
1.090000000000000000e+02
1.100000000000000000e+02
1.100000000000000000e+02
1.120000000000000000e+02
1.140000000000000000e+02
1.160000000000000000e+02
1.160000000000000000e+02
1.170000000000000000e+02
1.170000000000000000e+02
1.180000000000000000e+02
1.190000000000000000e+02
1.190000000000000000e+02
1.200000000000000000e+02
1.230000000000000000e+02
1.230000000000000000e+02
1.250000000000000000e+02
1.260000000000000000e+02
1.270000000000000000e+02
1.270000000000000000e+02
1.270000000000000000e+02
1.280000000000000000e+02
1.290000000000000000e+02
1.290000000000000000e+02
1.290000000000000000e+02
1.300000000000000000e+02
1.300000000000000000e+02
1.300000000000000000e+02
1.300000000000000000e+02
1.310000000000000000e+02
1.320000000000000000e+02
1.330000000000000000e+02
1.330000000000000000e+02
1.360000000000000000e+02
1.370000000000000000e+02
1.390000000000000000e+02
1.410000000000000000e+02
1.410000000000000000e+02
1.430000000000000000e+02
1.430000000000000000e+02
1.450000000000000000e+02
1.470000000000000000e+02
1.470000000000000000e+02
1.470000000000000000e+02
1.490000000000000000e+02
1.510000000000000000e+02
1.510000000000000000e+02
1.510000000000000000e+02
1.530000000000000000e+02
1.530000000000000000e+02
1.530000000000000000e+02
1.540000000000000000e+02
1.540000000000000000e+02
1.540000000000000000e+02
1.550000000000000000e+02
1.570000000000000000e+02
1.580000000000000000e+02
1.600000000000000000e+02
1.620000000000000000e+02
1.640000000000000000e+02
1.640000000000000000e+02
1.670000000000000000e+02
1.670000000000000000e+02
1.680000000000000000e+02
1.690000000000000000e+02
1.690000000000000000e+02
1.710000000000000000e+02
1.740000000000000000e+02
1.780000000000000000e+02
1.810000000000000000e+02
1.820000000000000000e+02
1.850000000000000000e+02
1.870000000000000000e+02
1.870000000000000000e+02
1.920000000000000000e+02
1.950000000000000000e+02
1.950000000000000000e+02
1.960000000000000000e+02
1.960000000000000000e+02
1.980000000000000000e+02
1.980000000000000000e+02
2.030000000000000000e+02
2.040000000000000000e+02
2.050000000000000000e+02
2.050000000000000000e+02
2.070000000000000000e+02
2.100000000000000000e+02
2.100000000000000000e+02
2.100000000000000000e+02
2.120000000000000000e+02
2.140000000000000000e+02
2.170000000000000000e+02
2.180000000000000000e+02
2.220000000000000000e+02
2.240000000000000000e+02
2.250000000000000000e+02
2.280000000000000000e+02
2.300000000000000000e+02
2.310000000000000000e+02
2.310000000000000000e+02
2.310000000000000000e+02
2.330000000000000000e+02
2.330000000000000000e+02
2.360000000000000000e+02
2.380000000000000000e+02
2.380000000000000000e+02
2.410000000000000000e+02
2.420000000000000000e+02
2.420000000000000000e+02
2.440000000000000000e+02
2.450000000000000000e+02
2.450000000000000000e+02
2.480000000000000000e+02
2.490000000000000000e+02
2.520000000000000000e+02
2.520000000000000000e+02
2.520000000000000000e+02
2.530000000000000000e+02
2.530000000000000000e+02
2.530000000000000000e+02
2.540000000000000000e+02
2.570000000000000000e+02
2.600000000000000000e+02
2.600000000000000000e+02
2.630000000000000000e+02
2.630000000000000000e+02
2.700000000000000000e+02
2.760000000000000000e+02
2.800000000000000000e+02
2.810000000000000000e+02
2.830000000000000000e+02
2.830000000000000000e+02
2.840000000000000000e+02
2.840000000000000000e+02
2.860000000000000000e+02
2.860000000000000000e+02
2.880000000000000000e+02
2.890000000000000000e+02
2.900000000000000000e+02
2.940000000000000000e+02
2.960000000000000000e+02
2.970000000000000000e+02
3.000000000000000000e+02
3.000000000000000000e+02
3.020000000000000000e+02
3.050000000000000000e+02
3.080000000000000000e+02
3.090000000000000000e+02
3.110000000000000000e+02
3.110000000000000000e+02
3.150000000000000000e+02
3.160000000000000000e+02
3.220000000000000000e+02
3.240000000000000000e+02
3.270000000000000000e+02
3.300000000000000000e+02
3.310000000000000000e+02
3.330000000000000000e+02
3.330000000000000000e+02
3.380000000000000000e+02
3.430000000000000000e+02
3.480000000000000000e+02
3.480000000000000000e+02
3.490000000000000000e+02
3.510000000000000000e+02
3.510000000000000000e+02
3.510000000000000000e+02
3.520000000000000000e+02
3.530000000000000000e+02
3.570000000000000000e+02
3.610000000000000000e+02
3.620000000000000000e+02
3.660000000000000000e+02
3.740000000000000000e+02
3.770000000000000000e+02
3.810000000000000000e+02
3.850000000000000000e+02
3.880000000000000000e+02
3.890000000000000000e+02
3.960000000000000000e+02
3.970000000000000000e+02
4.030000000000000000e+02
4.060000000000000000e+02
4.080000000000000000e+02
4.110000000000000000e+02
4.130000000000000000e+02
4.140000000000000000e+02
4.150000000000000000e+02
4.190000000000000000e+02
4.230000000000000000e+02
4.280000000000000000e+02
4.350000000000000000e+02
4.370000000000000000e+02
4.400000000000000000e+02
4.450000000000000000e+02
4.490000000000000000e+02
4.510000000000000000e+02
4.530000000000000000e+02
4.600000000000000000e+02
4.640000000000000000e+02
4.680000000000000000e+02
4.730000000000000000e+02
4.750000000000000000e+02
4.770000000000000000e+02
4.790000000000000000e+02
4.830000000000000000e+02
4.860000000000000000e+02
4.900000000000000000e+02
4.950000000000000000e+02
5.020000000000000000e+02
5.070000000000000000e+02
5.080000000000000000e+02
5.140000000000000000e+02
5.180000000000000000e+02
5.220000000000000000e+02
5.270000000000000000e+02
5.310000000000000000e+02
5.360000000000000000e+02
5.420000000000000000e+02
5.440000000000000000e+02
5.530000000000000000e+02
5.580000000000000000e+02
5.600000000000000000e+02
5.620000000000000000e+02
5.630000000000000000e+02
5.650000000000000000e+02
5.700000000000000000e+02
5.760000000000000000e+02
5.800000000000000000e+02
5.820000000000000000e+02
5.840000000000000000e+02
5.870000000000000000e+02
5.910000000000000000e+02
5.940000000000000000e+02
5.950000000000000000e+02
6.040000000000000000e+02
6.120000000000000000e+02
6.160000000000000000e+02
6.200000000000000000e+02
6.230000000000000000e+02
6.290000000000000000e+02
6.330000000000000000e+02
6.330000000000000000e+02
6.390000000000000000e+02
6.480000000000000000e+02
6.510000000000000000e+02
6.550000000000000000e+02
6.600000000000000000e+02
6.610000000000000000e+02
6.630000000000000000e+02
6.660000000000000000e+02
6.700000000000000000e+02
6.770000000000000000e+02
6.790000000000000000e+02
6.830000000000000000e+02
6.850000000000000000e+02
6.900000000000000000e+02
6.960000000000000000e+02
7.080000000000000000e+02
7.120000000000000000e+02
7.200000000000000000e+02
7.310000000000000000e+02
7.340000000000000000e+02
7.390000000000000000e+02
7.470000000000000000e+02
7.550000000000000000e+02
7.590000000000000000e+02
7.650000000000000000e+02
7.680000000000000000e+02
7.750000000000000000e+02
7.830000000000000000e+02
7.900000000000000000e+02
7.950000000000000000e+02
8.060000000000000000e+02
8.090000000000000000e+02
8.190000000000000000e+02
8.220000000000000000e+02
8.280000000000000000e+02
8.360000000000000000e+02
8.380000000000000000e+02
8.440000000000000000e+02
8.470000000000000000e+02
8.530000000000000000e+02
8.610000000000000000e+02
8.640000000000000000e+02
8.680000000000000000e+02
8.750000000000000000e+02
8.790000000000000000e+02
8.910000000000000000e+02
8.960000000000000000e+02
9.010000000000000000e+02
9.070000000000000000e+02
9.150000000000000000e+02
9.220000000000000000e+02
9.280000000000000000e+02
9.350000000000000000e+02
9.430000000000000000e+02
9.530000000000000000e+02
9.600000000000000000e+02
9.720000000000000000e+02
9.800000000000000000e+02
9.840000000000000000e+02
9.900000000000000000e+02
9.990000000000000000e+02
1.005000000000000000e+03
1.009000000000000000e+03
1.014000000000000000e+03
1.020000000000000000e+03
1.030000000000000000e+03
1.038000000000000000e+03
1.042000000000000000e+03
1.048000000000000000e+03
1.058000000000000000e+03
1.069000000000000000e+03
1.077000000000000000e+03
1.084000000000000000e+03
1.093000000000000000e+03
1.097000000000000000e+03
1.106000000000000000e+03
1.119000000000000000e+03
1.129000000000000000e+03
1.135000000000000000e+03
1.142000000000000000e+03
1.145000000000000000e+03
1.153000000000000000e+03
1.160000000000000000e+03
1.169000000000000000e+03
1.181000000000000000e+03
1.191000000000000000e+03
1.199000000000000000e+03
1.206000000000000000e+03
1.210000000000000000e+03
1.217000000000000000e+03
1.228000000000000000e+03
1.239000000000000000e+03
1.250000000000000000e+03
1.256000000000000000e+03
1.261000000000000000e+03
1.273000000000000000e+03
1.279000000000000000e+03
1.287000000000000000e+03
1.295000000000000000e+03
1.302000000000000000e+03
1.311000000000000000e+03
1.321000000000000000e+03
1.342000000000000000e+03
1.352000000000000000e+03
1.358000000000000000e+03
1.367000000000000000e+03
1.377000000000000000e+03
1.383000000000000000e+03
1.400000000000000000e+03
1.418000000000000000e+03
1.424000000000000000e+03
1.440000000000000000e+03
1.452000000000000000e+03
1.463000000000000000e+03
1.480000000000000000e+03
1.488000000000000000e+03
1.497000000000000000e+03
1.506000000000000000e+03
1.520000000000000000e+03
1.533000000000000000e+03
1.540000000000000000e+03
1.553000000000000000e+03
1.565000000000000000e+03
1.581000000000000000e+03
1.593000000000000000e+03
1.606000000000000000e+03
1.619000000000000000e+03
1.636000000000000000e+03
1.652000000000000000e+03
1.662000000000000000e+03
1.674000000000000000e+03
1.684000000000000000e+03
1.704000000000000000e+03
1.716000000000000000e+03
1.729000000000000000e+03
1.741000000000000000e+03
1.753000000000000000e+03
1.763000000000000000e+03
1.775000000000000000e+03
1.788000000000000000e+03
1.800000000000000000e+03
1.814000000000000000e+03
1.826000000000000000e+03
1.840000000000000000e+03
1.850000000000000000e+03
1.871000000000000000e+03
1.885000000000000000e+03
1.899000000000000000e+03
1.908000000000000000e+03
1.916000000000000000e+03
1.931000000000000000e+03
1.947000000000000000e+03
1.965000000000000000e+03
1.972000000000000000e+03
1.978000000000000000e+03
1.989000000000000000e+03
1.999000000000000000e+03
2.018000000000000000e+03
2.032000000000000000e+03
2.049000000000000000e+03
2.069000000000000000e+03
2.089000000000000000e+03
2.107000000000000000e+03
2.126000000000000000e+03
2.136000000000000000e+03
2.149000000000000000e+03
2.168000000000000000e+03
2.187000000000000000e+03
2.200000000000000000e+03
2.208000000000000000e+03
2.227000000000000000e+03
2.245000000000000000e+03
2.260000000000000000e+03
2.277000000000000000e+03
2.287000000000000000e+03
2.303000000000000000e+03
2.316000000000000000e+03
2.338000000000000000e+03
2.357000000000000000e+03
2.376000000000000000e+03
2.400000000000000000e+03
2.410000000000000000e+03
2.428000000000000000e+03
2.443000000000000000e+03
2.463000000000000000e+03
2.489000000000000000e+03
2.510000000000000000e+03
2.530000000000000000e+03
2.554000000000000000e+03
2.569000000000000000e+03
2.579000000000000000e+03
2.591000000000000000e+03
2.614000000000000000e+03
2.639000000000000000e+03
2.662000000000000000e+03
2.684000000000000000e+03
2.704000000000000000e+03
2.728000000000000000e+03
2.748000000000000000e+03
2.762000000000000000e+03
2.783000000000000000e+03
2.800000000000000000e+03
2.812000000000000000e+03
2.834000000000000000e+03
2.856000000000000000e+03
2.874000000000000000e+03
2.899000000000000000e+03
2.922000000000000000e+03
2.944000000000000000e+03
2.956000000000000000e+03
2.979000000000000000e+03
3.002000000000000000e+03
3.022000000000000000e+03
3.035000000000000000e+03
3.063000000000000000e+03
3.091000000000000000e+03
3.109000000000000000e+03
3.129000000000000000e+03
3.147000000000000000e+03
3.164000000000000000e+03
3.187000000000000000e+03
3.216000000000000000e+03
3.229000000000000000e+03
3.253000000000000000e+03
3.285000000000000000e+03
3.314000000000000000e+03
3.339000000000000000e+03
3.368000000000000000e+03
3.397000000000000000e+03
3.419000000000000000e+03
3.458000000000000000e+03
3.481000000000000000e+03
3.501000000000000000e+03
3.531000000000000000e+03
3.561000000000000000e+03
3.588000000000000000e+03
3.622000000000000000e+03
3.656000000000000000e+03
3.684000000000000000e+03
3.711000000000000000e+03
3.740000000000000000e+03
3.766000000000000000e+03
3.793000000000000000e+03
3.829000000000000000e+03
3.850000000000000000e+03
3.882000000000000000e+03
3.911000000000000000e+03
3.953000000000000000e+03
3.981000000000000000e+03
4.018000000000000000e+03
4.053000000000000000e+03
4.091000000000000000e+03
4.132000000000000000e+03
4.154000000000000000e+03
4.187000000000000000e+03
4.220000000000000000e+03
4.244000000000000000e+03
4.282000000000000000e+03
4.308000000000000000e+03
4.336000000000000000e+03
4.371000000000000000e+03
4.393000000000000000e+03
4.431000000000000000e+03
4.461000000000000000e+03
4.484000000000000000e+03
4.518000000000000000e+03
4.543000000000000000e+03
4.572000000000000000e+03
4.602000000000000000e+03
4.632000000000000000e+03
4.663000000000000000e+03
4.693000000000000000e+03
4.731000000000000000e+03
4.770000000000000000e+03
4.802000000000000000e+03
4.837000000000000000e+03
4.881000000000000000e+03
4.911000000000000000e+03
4.944000000000000000e+03
4.979000000000000000e+03
5.014000000000000000e+03
5.035000000000000000e+03
5.075000000000000000e+03
5.111000000000000000e+03
5.152000000000000000e+03
5.193000000000000000e+03
5.237000000000000000e+03
5.282000000000000000e+03
5.329000000000000000e+03
5.372000000000000000e+03
5.416000000000000000e+03
5.461000000000000000e+03
5.498000000000000000e+03
5.543000000000000000e+03
5.573000000000000000e+03
5.613000000000000000e+03
5.651000000000000000e+03
5.684000000000000000e+03
5.729000000000000000e+03
5.769000000000000000e+03
5.809000000000000000e+03
5.849000000000000000e+03
5.896000000000000000e+03
5.947000000000000000e+03
5.985000000000000000e+03
6.026000000000000000e+03
6.061000000000000000e+03
6.096000000000000000e+03
6.139000000000000000e+03
6.181000000000000000e+03
6.219000000000000000e+03
6.265000000000000000e+03
6.318000000000000000e+03
6.369000000000000000e+03
6.409000000000000000e+03
6.452000000000000000e+03
6.497000000000000000e+03
6.553000000000000000e+03
6.582000000000000000e+03
6.639000000000000000e+03
6.681000000000000000e+03
6.729000000000000000e+03
6.766000000000000000e+03
6.808000000000000000e+03
6.858000000000000000e+03
6.912000000000000000e+03
6.966000000000000000e+03
7.028000000000000000e+03
7.091000000000000000e+03
7.142000000000000000e+03
7.202000000000000000e+03
7.254000000000000000e+03
7.294000000000000000e+03
7.343000000000000000e+03
7.405000000000000000e+03
7.470000000000000000e+03
7.525000000000000000e+03
7.580000000000000000e+03
7.630000000000000000e+03
7.694000000000000000e+03
7.747000000000000000e+03
7.801000000000000000e+03
7.864000000000000000e+03
7.913000000000000000e+03
7.975000000000000000e+03
8.024000000000000000e+03
8.084000000000000000e+03
8.159000000000000000e+03
8.216000000000000000e+03
8.276000000000000000e+03
8.352000000000000000e+03
8.417000000000000000e+03
8.489000000000000000e+03
8.556000000000000000e+03
8.620000000000000000e+03
8.691000000000000000e+03
8.752000000000000000e+03
8.821000000000000000e+03
8.877000000000000000e+03
8.942000000000000000e+03
9.018000000000000000e+03
9.101000000000000000e+03
9.168000000000000000e+03
9.229000000000000000e+03
9.289000000000000000e+03
9.351000000000000000e+03
9.418000000000000000e+03
9.482000000000000000e+03
9.549000000000000000e+03
9.617000000000000000e+03
9.702000000000000000e+03
9.767000000000000000e+03
9.831000000000000000e+03
9.908000000000000000e+03
9.989000000000000000e+03
1.007200000000000000e+04
1.014600000000000000e+04
1.021300000000000000e+04
1.029400000000000000e+04
1.038200000000000000e+04
1.044600000000000000e+04
1.052700000000000000e+04
1.060000000000000000e+04
1.067300000000000000e+04
1.075000000000000000e+04
1.082500000000000000e+04
1.089300000000000000e+04
1.097000000000000000e+04
1.105400000000000000e+04
1.113800000000000000e+04
1.120300000000000000e+04
1.128600000000000000e+04
1.137700000000000000e+04
1.145300000000000000e+04
1.154500000000000000e+04
1.163200000000000000e+04
1.171500000000000000e+04
1.180200000000000000e+04
1.187200000000000000e+04
1.197700000000000000e+04
1.207000000000000000e+04
1.216700000000000000e+04
1.226800000000000000e+04
1.236300000000000000e+04
1.245200000000000000e+04
1.254300000000000000e+04
1.262300000000000000e+04
1.271400000000000000e+04
1.279700000000000000e+04
1.289200000000000000e+04
1.298800000000000000e+04
1.309400000000000000e+04
1.319800000000000000e+04
1.328900000000000000e+04
1.337800000000000000e+04
1.346900000000000000e+04
1.357000000000000000e+04
1.366100000000000000e+04
1.376600000000000000e+04
1.385600000000000000e+04
1.392800000000000000e+04
1.402200000000000000e+04
1.411400000000000000e+04
1.421900000000000000e+04
1.431800000000000000e+04
1.443400000000000000e+04
1.454000000000000000e+04
1.465100000000000000e+04
1.474600000000000000e+04
1.486200000000000000e+04
1.496900000000000000e+04
1.507400000000000000e+04
1.517800000000000000e+04
1.529600000000000000e+04
1.541600000000000000e+04
1.553100000000000000e+04
1.564600000000000000e+04
1.574700000000000000e+04
1.586800000000000000e+04
1.599500000000000000e+04
1.610400000000000000e+04
1.622900000000000000e+04
1.636800000000000000e+04
1.648400000000000000e+04
1.660300000000000000e+04
1.673100000000000000e+04
1.683500000000000000e+04
1.696200000000000000e+04
1.707300000000000000e+04
1.721500000000000000e+04
1.734500000000000000e+04
1.748800000000000000e+04
1.762200000000000000e+04
1.775600000000000000e+04
1.789800000000000000e+04
1.801700000000000000e+04
1.816300000000000000e+04
1.831900000000000000e+04
1.846200000000000000e+04
1.859800000000000000e+04
1.873000000000000000e+04
1.886900000000000000e+04
1.902200000000000000e+04
1.913300000000000000e+04
1.926800000000000000e+04
1.940600000000000000e+04
1.955000000000000000e+04
1.970200000000000000e+04
1.984300000000000000e+04
1.998600000000000000e+04
2.014700000000000000e+04
2.026200000000000000e+04
2.041700000000000000e+04
2.057400000000000000e+04
2.071500000000000000e+04
2.086400000000000000e+04
2.103500000000000000e+04
2.119400000000000000e+04
2.133000000000000000e+04
2.148600000000000000e+04
2.163400000000000000e+04
2.180400000000000000e+04
2.196900000000000000e+04
2.212800000000000000e+04
2.228500000000000000e+04
2.243300000000000000e+04
2.261300000000000000e+04
2.277600000000000000e+04
2.296100000000000000e+04
2.312100000000000000e+04
2.327400000000000000e+04
2.344100000000000000e+04
2.363500000000000000e+04
2.381300000000000000e+04
2.400200000000000000e+04
2.417800000000000000e+04
2.434800000000000000e+04
