1.000000000000000000e+00
2.000000000000000000e+00
3.000000000000000000e+00
5.000000000000000000e+00
6.000000000000000000e+00
9.000000000000000000e+00
1.000000000000000000e+01
1.300000000000000000e+01
1.700000000000000000e+01
2.000000000000000000e+01
2.300000000000000000e+01
2.800000000000000000e+01
3.100000000000000000e+01
3.900000000000000000e+01
4.600000000000000000e+01
5.500000000000000000e+01
6.300000000000000000e+01
7.600000000000000000e+01
9.100000000000000000e+01
1.090000000000000000e+02
1.250000000000000000e+02
1.420000000000000000e+02
1.710000000000000000e+02
2.040000000000000000e+02
2.240000000000000000e+02
2.680000000000000000e+02
3.140000000000000000e+02
3.500000000000000000e+02
4.020000000000000000e+02
4.730000000000000000e+02
5.530000000000000000e+02
6.290000000000000000e+02
7.150000000000000000e+02
8.470000000000000000e+02
9.940000000000000000e+02
1.147000000000000000e+03
1.319000000000000000e+03
1.514000000000000000e+03
1.778000000000000000e+03
2.078000000000000000e+03
2.393000000000000000e+03
2.775000000000000000e+03
