1.000000000000000000e+00
2.000000000000000000e+00
3.000000000000000000e+00
5.000000000000000000e+00
6.000000000000000000e+00
8.000000000000000000e+00
1.000000000000000000e+01
1.400000000000000000e+01
1.600000000000000000e+01
2.000000000000000000e+01
2.600000000000000000e+01
3.100000000000000000e+01
3.600000000000000000e+01
4.300000000000000000e+01
4.800000000000000000e+01
6.100000000000000000e+01
6.800000000000000000e+01
8.100000000000000000e+01
9.400000000000000000e+01
1.150000000000000000e+02
1.330000000000000000e+02
1.550000000000000000e+02
1.720000000000000000e+02
2.030000000000000000e+02
2.400000000000000000e+02
2.770000000000000000e+02
3.260000000000000000e+02
3.820000000000000000e+02
4.380000000000000000e+02
5.040000000000000000e+02
5.690000000000000000e+02
6.770000000000000000e+02
7.820000000000000000e+02
9.030000000000000000e+02
1.064000000000000000e+03
1.216000000000000000e+03
1.410000000000000000e+03
1.599000000000000000e+03
1.873000000000000000e+03
2.182000000000000000e+03
2.517000000000000000e+03
2.943000000000000000e+03
