1.000000000000000000e+00
2.000000000000000000e+00
2.000000000000000000e+00
2.000000000000000000e+00
2.000000000000000000e+00
2.000000000000000000e+00
2.000000000000000000e+00
2.000000000000000000e+00
2.000000000000000000e+00
2.000000000000000000e+00
2.000000000000000000e+00
2.000000000000000000e+00
2.000000000000000000e+00
2.000000000000000000e+00
2.000000000000000000e+00
2.000000000000000000e+00
2.000000000000000000e+00
2.000000000000000000e+00
2.000000000000000000e+00
2.000000000000000000e+00
2.000000000000000000e+00
2.000000000000000000e+00
2.000000000000000000e+00
2.000000000000000000e+00
2.000000000000000000e+00
2.000000000000000000e+00
2.000000000000000000e+00
2.000000000000000000e+00
2.000000000000000000e+00
2.000000000000000000e+00
2.000000000000000000e+00
2.000000000000000000e+00
2.000000000000000000e+00
2.000000000000000000e+00
2.000000000000000000e+00
2.000000000000000000e+00
2.000000000000000000e+00
2.000000000000000000e+00
2.000000000000000000e+00
2.000000000000000000e+00
2.000000000000000000e+00
2.000000000000000000e+00
2.000000000000000000e+00
2.000000000000000000e+00
2.000000000000000000e+00
2.000000000000000000e+00
2.000000000000000000e+00
2.000000000000000000e+00
2.000000000000000000e+00
2.000000000000000000e+00
2.000000000000000000e+00
2.000000000000000000e+00
2.000000000000000000e+00
2.000000000000000000e+00
2.000000000000000000e+00
2.000000000000000000e+00
2.000000000000000000e+00
2.000000000000000000e+00
2.000000000000000000e+00
2.000000000000000000e+00
2.000000000000000000e+00
2.000000000000000000e+00
2.000000000000000000e+00
2.000000000000000000e+00
2.000000000000000000e+00
2.000000000000000000e+00
2.000000000000000000e+00
2.000000000000000000e+00
2.000000000000000000e+00
2.000000000000000000e+00
2.000000000000000000e+00
2.000000000000000000e+00
2.000000000000000000e+00
2.000000000000000000e+00
2.000000000000000000e+00
2.000000000000000000e+00
2.000000000000000000e+00
2.000000000000000000e+00
2.000000000000000000e+00
2.000000000000000000e+00
2.000000000000000000e+00
2.000000000000000000e+00
2.000000000000000000e+00
2.000000000000000000e+00
2.000000000000000000e+00
2.000000000000000000e+00
2.000000000000000000e+00
2.000000000000000000e+00
2.000000000000000000e+00
2.000000000000000000e+00
2.000000000000000000e+00
2.000000000000000000e+00
2.000000000000000000e+00
2.000000000000000000e+00
2.000000000000000000e+00
2.000000000000000000e+00
2.000000000000000000e+00
2.000000000000000000e+00
2.000000000000000000e+00
2.000000000000000000e+00
2.000000000000000000e+00
2.000000000000000000e+00
2.000000000000000000e+00
2.000000000000000000e+00
2.000000000000000000e+00
3.000000000000000000e+00
3.000000000000000000e+00
3.000000000000000000e+00
3.000000000000000000e+00
3.000000000000000000e+00
3.000000000000000000e+00
3.000000000000000000e+00
3.000000000000000000e+00
3.000000000000000000e+00
3.000000000000000000e+00
3.000000000000000000e+00
3.000000000000000000e+00
3.000000000000000000e+00
3.000000000000000000e+00
3.000000000000000000e+00
3.000000000000000000e+00
3.000000000000000000e+00
3.000000000000000000e+00
3.000000000000000000e+00
3.000000000000000000e+00
3.000000000000000000e+00
3.000000000000000000e+00
3.000000000000000000e+00
3.000000000000000000e+00
3.000000000000000000e+00
3.000000000000000000e+00
3.000000000000000000e+00
3.000000000000000000e+00
3.000000000000000000e+00
3.000000000000000000e+00
3.000000000000000000e+00
3.000000000000000000e+00
3.000000000000000000e+00
3.000000000000000000e+00
3.000000000000000000e+00
3.000000000000000000e+00
3.000000000000000000e+00
3.000000000000000000e+00
3.000000000000000000e+00
3.000000000000000000e+00
3.000000000000000000e+00
3.000000000000000000e+00
3.000000000000000000e+00
3.000000000000000000e+00
3.000000000000000000e+00
3.000000000000000000e+00
3.000000000000000000e+00
3.000000000000000000e+00
3.000000000000000000e+00
3.000000000000000000e+00
3.000000000000000000e+00
3.000000000000000000e+00
3.000000000000000000e+00
3.000000000000000000e+00
3.000000000000000000e+00
3.000000000000000000e+00
3.000000000000000000e+00
3.000000000000000000e+00
3.000000000000000000e+00
3.000000000000000000e+00
3.000000000000000000e+00
3.000000000000000000e+00
4.000000000000000000e+00
4.000000000000000000e+00
4.000000000000000000e+00
4.000000000000000000e+00
4.000000000000000000e+00
4.000000000000000000e+00
4.000000000000000000e+00
4.000000000000000000e+00
4.000000000000000000e+00
4.000000000000000000e+00
4.000000000000000000e+00
4.000000000000000000e+00
4.000000000000000000e+00
4.000000000000000000e+00
4.000000000000000000e+00
4.000000000000000000e+00
4.000000000000000000e+00
4.000000000000000000e+00
4.000000000000000000e+00
4.000000000000000000e+00
4.000000000000000000e+00
4.000000000000000000e+00
4.000000000000000000e+00
4.000000000000000000e+00
4.000000000000000000e+00
4.000000000000000000e+00
4.000000000000000000e+00
4.000000000000000000e+00
4.000000000000000000e+00
4.000000000000000000e+00
4.000000000000000000e+00
4.000000000000000000e+00
5.000000000000000000e+00
5.000000000000000000e+00
5.000000000000000000e+00
5.000000000000000000e+00
5.000000000000000000e+00
5.000000000000000000e+00
5.000000000000000000e+00
5.000000000000000000e+00
5.000000000000000000e+00
5.000000000000000000e+00
5.000000000000000000e+00
5.000000000000000000e+00
5.000000000000000000e+00
5.000000000000000000e+00
5.000000000000000000e+00
5.000000000000000000e+00
5.000000000000000000e+00
5.000000000000000000e+00
5.000000000000000000e+00
5.000000000000000000e+00
5.000000000000000000e+00
5.000000000000000000e+00
5.000000000000000000e+00
5.000000000000000000e+00
5.000000000000000000e+00
5.000000000000000000e+00
5.000000000000000000e+00
5.000000000000000000e+00
5.000000000000000000e+00
5.000000000000000000e+00
5.000000000000000000e+00
5.000000000000000000e+00
5.000000000000000000e+00
5.000000000000000000e+00
5.000000000000000000e+00
5.000000000000000000e+00
5.000000000000000000e+00
5.000000000000000000e+00
5.000000000000000000e+00
5.000000000000000000e+00
5.000000000000000000e+00
5.000000000000000000e+00
5.000000000000000000e+00
6.000000000000000000e+00
6.000000000000000000e+00
6.000000000000000000e+00
6.000000000000000000e+00
6.000000000000000000e+00
6.000000000000000000e+00
6.000000000000000000e+00
6.000000000000000000e+00
6.000000000000000000e+00
6.000000000000000000e+00
6.000000000000000000e+00
6.000000000000000000e+00
6.000000000000000000e+00
6.000000000000000000e+00
6.000000000000000000e+00
6.000000000000000000e+00
6.000000000000000000e+00
6.000000000000000000e+00
6.000000000000000000e+00
6.000000000000000000e+00
6.000000000000000000e+00
6.000000000000000000e+00
6.000000000000000000e+00
6.000000000000000000e+00
6.000000000000000000e+00
6.000000000000000000e+00
6.000000000000000000e+00
6.000000000000000000e+00
6.000000000000000000e+00
6.000000000000000000e+00
6.000000000000000000e+00
6.000000000000000000e+00
6.000000000000000000e+00
6.000000000000000000e+00
6.000000000000000000e+00
6.000000000000000000e+00
6.000000000000000000e+00
6.000000000000000000e+00
6.000000000000000000e+00
6.000000000000000000e+00
6.000000000000000000e+00
6.000000000000000000e+00
6.000000000000000000e+00
6.000000000000000000e+00
6.000000000000000000e+00
6.000000000000000000e+00
6.000000000000000000e+00
6.000000000000000000e+00
6.000000000000000000e+00
7.000000000000000000e+00
7.000000000000000000e+00
7.000000000000000000e+00
7.000000000000000000e+00
7.000000000000000000e+00
7.000000000000000000e+00
7.000000000000000000e+00
7.000000000000000000e+00
7.000000000000000000e+00
7.000000000000000000e+00
7.000000000000000000e+00
7.000000000000000000e+00
7.000000000000000000e+00
7.000000000000000000e+00
7.000000000000000000e+00
7.000000000000000000e+00
7.000000000000000000e+00
7.000000000000000000e+00
7.000000000000000000e+00
7.000000000000000000e+00
7.000000000000000000e+00
7.000000000000000000e+00
7.000000000000000000e+00
8.000000000000000000e+00
8.000000000000000000e+00
8.000000000000000000e+00
8.000000000000000000e+00
8.000000000000000000e+00
8.000000000000000000e+00
8.000000000000000000e+00
9.000000000000000000e+00
9.000000000000000000e+00
9.000000000000000000e+00
9.000000000000000000e+00
9.000000000000000000e+00
9.000000000000000000e+00
9.000000000000000000e+00
1.000000000000000000e+01
1.000000000000000000e+01
1.000000000000000000e+01
1.000000000000000000e+01
1.000000000000000000e+01
1.000000000000000000e+01
1.000000000000000000e+01
1.000000000000000000e+01
1.000000000000000000e+01
1.000000000000000000e+01
1.000000000000000000e+01
1.000000000000000000e+01
1.000000000000000000e+01
1.000000000000000000e+01
1.000000000000000000e+01
1.000000000000000000e+01
1.000000000000000000e+01
1.000000000000000000e+01
1.000000000000000000e+01
1.000000000000000000e+01
1.000000000000000000e+01
1.000000000000000000e+01
1.000000000000000000e+01
1.000000000000000000e+01
1.000000000000000000e+01
1.000000000000000000e+01
1.000000000000000000e+01
1.000000000000000000e+01
1.000000000000000000e+01
1.000000000000000000e+01
1.000000000000000000e+01
1.000000000000000000e+01
1.000000000000000000e+01
1.000000000000000000e+01
1.000000000000000000e+01
1.000000000000000000e+01
1.000000000000000000e+01
1.000000000000000000e+01
1.000000000000000000e+01
1.000000000000000000e+01
1.100000000000000000e+01
1.100000000000000000e+01
1.100000000000000000e+01
1.100000000000000000e+01
1.100000000000000000e+01
1.100000000000000000e+01
1.100000000000000000e+01
1.100000000000000000e+01
1.200000000000000000e+01
1.200000000000000000e+01
1.200000000000000000e+01
1.200000000000000000e+01
1.300000000000000000e+01
1.300000000000000000e+01
1.300000000000000000e+01
1.300000000000000000e+01
1.300000000000000000e+01
1.300000000000000000e+01
1.300000000000000000e+01
1.300000000000000000e+01
1.300000000000000000e+01
1.300000000000000000e+01
1.400000000000000000e+01
1.500000000000000000e+01
1.500000000000000000e+01
1.500000000000000000e+01
1.500000000000000000e+01
1.600000000000000000e+01
1.600000000000000000e+01
1.600000000000000000e+01
1.600000000000000000e+01
1.600000000000000000e+01
1.700000000000000000e+01
1.700000000000000000e+01
1.800000000000000000e+01
1.900000000000000000e+01
1.900000000000000000e+01
1.900000000000000000e+01
1.900000000000000000e+01
1.900000000000000000e+01
1.900000000000000000e+01
1.900000000000000000e+01
1.900000000000000000e+01
1.900000000000000000e+01
1.900000000000000000e+01
1.900000000000000000e+01
1.900000000000000000e+01
1.900000000000000000e+01
1.900000000000000000e+01
1.900000000000000000e+01
1.900000000000000000e+01
1.900000000000000000e+01
1.900000000000000000e+01
2.100000000000000000e+01
2.100000000000000000e+01
2.100000000000000000e+01
2.100000000000000000e+01
2.100000000000000000e+01
2.100000000000000000e+01
2.100000000000000000e+01
2.100000000000000000e+01
2.100000000000000000e+01
2.100000000000000000e+01
2.100000000000000000e+01
2.100000000000000000e+01
2.100000000000000000e+01
2.100000000000000000e+01
2.100000000000000000e+01
2.100000000000000000e+01
2.100000000000000000e+01
2.100000000000000000e+01
2.100000000000000000e+01
2.100000000000000000e+01
2.100000000000000000e+01
2.100000000000000000e+01
2.200000000000000000e+01
2.200000000000000000e+01
2.200000000000000000e+01
2.200000000000000000e+01
2.200000000000000000e+01
2.200000000000000000e+01
2.200000000000000000e+01
2.200000000000000000e+01
2.200000000000000000e+01
2.200000000000000000e+01
2.200000000000000000e+01
2.300000000000000000e+01
2.300000000000000000e+01
2.400000000000000000e+01
2.400000000000000000e+01
2.400000000000000000e+01
2.400000000000000000e+01
2.400000000000000000e+01
2.400000000000000000e+01
2.400000000000000000e+01
2.400000000000000000e+01
2.400000000000000000e+01
2.400000000000000000e+01
2.400000000000000000e+01
2.400000000000000000e+01
2.400000000000000000e+01
2.600000000000000000e+01
2.600000000000000000e+01
2.600000000000000000e+01
2.600000000000000000e+01
2.600000000000000000e+01
2.600000000000000000e+01
2.600000000000000000e+01
2.600000000000000000e+01
2.600000000000000000e+01
2.600000000000000000e+01
2.600000000000000000e+01
2.600000000000000000e+01
2.700000000000000000e+01
2.700000000000000000e+01
2.700000000000000000e+01
2.700000000000000000e+01
2.700000000000000000e+01
2.700000000000000000e+01
2.800000000000000000e+01
2.800000000000000000e+01
2.800000000000000000e+01
2.900000000000000000e+01
3.000000000000000000e+01
3.000000000000000000e+01
3.000000000000000000e+01
3.000000000000000000e+01
3.000000000000000000e+01
3.000000000000000000e+01
3.000000000000000000e+01
3.000000000000000000e+01
3.100000000000000000e+01
3.100000000000000000e+01
3.100000000000000000e+01
3.200000000000000000e+01
3.200000000000000000e+01
3.200000000000000000e+01
3.200000000000000000e+01
3.200000000000000000e+01
3.200000000000000000e+01
3.400000000000000000e+01
3.400000000000000000e+01
3.600000000000000000e+01
3.600000000000000000e+01
3.700000000000000000e+01
3.800000000000000000e+01
3.800000000000000000e+01
3.900000000000000000e+01
3.900000000000000000e+01
3.900000000000000000e+01
3.900000000000000000e+01
3.900000000000000000e+01
3.900000000000000000e+01
4.100000000000000000e+01
4.100000000000000000e+01
4.100000000000000000e+01
4.200000000000000000e+01
4.200000000000000000e+01
4.200000000000000000e+01
4.200000000000000000e+01
4.200000000000000000e+01
4.200000000000000000e+01
4.300000000000000000e+01
4.400000000000000000e+01
4.400000000000000000e+01
4.400000000000000000e+01
4.400000000000000000e+01
4.400000000000000000e+01
4.400000000000000000e+01
4.500000000000000000e+01
4.500000000000000000e+01
4.500000000000000000e+01
4.500000000000000000e+01
4.600000000000000000e+01
4.600000000000000000e+01
4.600000000000000000e+01
4.600000000000000000e+01
4.700000000000000000e+01
4.700000000000000000e+01
4.700000000000000000e+01
4.700000000000000000e+01
4.800000000000000000e+01
4.800000000000000000e+01
4.800000000000000000e+01
4.800000000000000000e+01
4.800000000000000000e+01
4.800000000000000000e+01
4.800000000000000000e+01
4.800000000000000000e+01
4.800000000000000000e+01
4.800000000000000000e+01
4.800000000000000000e+01
4.800000000000000000e+01
4.800000000000000000e+01
4.800000000000000000e+01
4.800000000000000000e+01
5.000000000000000000e+01
5.100000000000000000e+01
5.100000000000000000e+01
5.200000000000000000e+01
5.200000000000000000e+01
5.300000000000000000e+01
5.300000000000000000e+01
5.300000000000000000e+01
5.400000000000000000e+01
5.500000000000000000e+01
5.500000000000000000e+01
5.500000000000000000e+01
5.500000000000000000e+01
5.500000000000000000e+01
5.500000000000000000e+01
5.500000000000000000e+01
5.500000000000000000e+01
5.600000000000000000e+01
5.700000000000000000e+01
5.800000000000000000e+01
5.800000000000000000e+01
5.900000000000000000e+01
5.900000000000000000e+01
5.900000000000000000e+01
5.900000000000000000e+01
6.000000000000000000e+01
6.000000000000000000e+01
6.000000000000000000e+01
6.000000000000000000e+01
6.000000000000000000e+01
6.200000000000000000e+01
6.200000000000000000e+01
6.300000000000000000e+01
6.300000000000000000e+01
6.400000000000000000e+01
6.500000000000000000e+01
6.600000000000000000e+01
6.600000000000000000e+01
6.700000000000000000e+01
6.700000000000000000e+01
6.900000000000000000e+01
7.000000000000000000e+01
7.000000000000000000e+01
7.100000000000000000e+01
7.100000000000000000e+01
7.100000000000000000e+01
7.400000000000000000e+01
7.500000000000000000e+01
7.600000000000000000e+01
7.800000000000000000e+01
7.800000000000000000e+01
7.900000000000000000e+01
7.900000000000000000e+01
7.900000000000000000e+01
7.900000000000000000e+01
7.900000000000000000e+01
7.900000000000000000e+01
7.900000000000000000e+01
8.000000000000000000e+01
8.000000000000000000e+01
8.000000000000000000e+01
8.000000000000000000e+01
8.000000000000000000e+01
8.000000000000000000e+01
8.100000000000000000e+01
8.100000000000000000e+01
8.100000000000000000e+01
8.100000000000000000e+01
8.400000000000000000e+01
8.600000000000000000e+01
8.800000000000000000e+01
8.800000000000000000e+01
8.800000000000000000e+01
8.800000000000000000e+01
8.800000000000000000e+01
8.800000000000000000e+01
8.900000000000000000e+01
8.900000000000000000e+01
9.000000000000000000e+01
9.000000000000000000e+01
9.100000000000000000e+01
9.100000000000000000e+01
9.100000000000000000e+01
9.100000000000000000e+01
9.200000000000000000e+01
9.200000000000000000e+01
9.200000000000000000e+01
9.300000000000000000e+01
9.300000000000000000e+01
9.300000000000000000e+01
9.500000000000000000e+01
9.700000000000000000e+01
1.000000000000000000e+02
1.000000000000000000e+02
1.020000000000000000e+02
1.040000000000000000e+02
1.040000000000000000e+02
1.040000000000000000e+02
1.060000000000000000e+02
1.070000000000000000e+02
1.070000000000000000e+02
1.070000000000000000e+02
1.070000000000000000e+02
1.080000000000000000e+02
1.100000000000000000e+02
1.120000000000000000e+02
1.120000000000000000e+02
1.130000000000000000e+02
1.140000000000000000e+02
1.160000000000000000e+02
1.170000000000000000e+02
1.210000000000000000e+02
1.220000000000000000e+02
1.230000000000000000e+02
1.230000000000000000e+02
1.260000000000000000e+02
1.270000000000000000e+02
1.270000000000000000e+02
1.290000000000000000e+02
1.300000000000000000e+02
1.300000000000000000e+02
1.300000000000000000e+02
1.310000000000000000e+02
1.310000000000000000e+02
1.310000000000000000e+02
1.320000000000000000e+02
1.340000000000000000e+02
1.350000000000000000e+02
1.350000000000000000e+02
1.350000000000000000e+02
1.360000000000000000e+02
1.370000000000000000e+02
1.380000000000000000e+02
1.390000000000000000e+02
1.400000000000000000e+02
1.410000000000000000e+02
1.410000000000000000e+02
1.420000000000000000e+02
1.430000000000000000e+02
1.440000000000000000e+02
1.460000000000000000e+02
1.470000000000000000e+02
1.480000000000000000e+02
1.490000000000000000e+02
1.510000000000000000e+02
1.530000000000000000e+02
1.540000000000000000e+02
1.550000000000000000e+02
1.560000000000000000e+02
1.560000000000000000e+02
1.560000000000000000e+02
1.570000000000000000e+02
1.610000000000000000e+02
1.610000000000000000e+02
1.620000000000000000e+02
1.630000000000000000e+02
1.630000000000000000e+02
1.640000000000000000e+02
1.650000000000000000e+02
1.650000000000000000e+02
1.660000000000000000e+02
1.670000000000000000e+02
1.690000000000000000e+02
1.690000000000000000e+02
1.720000000000000000e+02
1.730000000000000000e+02
1.750000000000000000e+02
1.770000000000000000e+02
1.790000000000000000e+02
1.800000000000000000e+02
1.800000000000000000e+02
1.810000000000000000e+02
1.810000000000000000e+02
1.830000000000000000e+02
1.840000000000000000e+02
1.840000000000000000e+02
1.880000000000000000e+02
1.920000000000000000e+02
1.920000000000000000e+02
1.940000000000000000e+02
1.960000000000000000e+02
1.990000000000000000e+02
1.990000000000000000e+02
2.020000000000000000e+02
2.030000000000000000e+02
2.050000000000000000e+02
2.050000000000000000e+02
2.060000000000000000e+02
2.070000000000000000e+02
2.070000000000000000e+02
2.090000000000000000e+02
2.120000000000000000e+02
2.130000000000000000e+02
2.150000000000000000e+02
2.150000000000000000e+02
2.150000000000000000e+02
2.150000000000000000e+02
2.160000000000000000e+02
2.180000000000000000e+02
2.200000000000000000e+02
2.210000000000000000e+02
2.220000000000000000e+02
2.260000000000000000e+02
2.270000000000000000e+02
2.280000000000000000e+02
2.300000000000000000e+02
2.310000000000000000e+02
2.320000000000000000e+02
2.340000000000000000e+02
2.360000000000000000e+02
2.390000000000000000e+02
2.410000000000000000e+02
2.410000000000000000e+02
2.430000000000000000e+02
2.460000000000000000e+02
2.480000000000000000e+02
2.500000000000000000e+02
2.520000000000000000e+02
2.520000000000000000e+02
2.530000000000000000e+02
2.540000000000000000e+02
2.580000000000000000e+02
2.600000000000000000e+02
2.610000000000000000e+02
2.620000000000000000e+02
2.620000000000000000e+02
2.640000000000000000e+02
2.650000000000000000e+02
2.690000000000000000e+02
2.700000000000000000e+02
2.730000000000000000e+02
2.760000000000000000e+02
2.780000000000000000e+02
2.810000000000000000e+02
2.860000000000000000e+02
2.890000000000000000e+02
2.920000000000000000e+02
2.930000000000000000e+02
2.970000000000000000e+02
3.010000000000000000e+02
3.010000000000000000e+02
3.020000000000000000e+02
3.020000000000000000e+02
3.030000000000000000e+02
3.030000000000000000e+02
3.050000000000000000e+02
3.080000000000000000e+02
3.100000000000000000e+02
3.130000000000000000e+02
3.170000000000000000e+02
3.180000000000000000e+02
3.200000000000000000e+02
3.220000000000000000e+02
3.240000000000000000e+02
3.260000000000000000e+02
3.290000000000000000e+02
3.300000000000000000e+02
3.340000000000000000e+02
3.370000000000000000e+02
3.390000000000000000e+02
3.440000000000000000e+02
3.490000000000000000e+02
3.530000000000000000e+02
3.550000000000000000e+02
3.590000000000000000e+02
3.610000000000000000e+02
3.610000000000000000e+02
3.660000000000000000e+02
3.690000000000000000e+02
3.720000000000000000e+02
3.740000000000000000e+02
3.770000000000000000e+02
3.830000000000000000e+02
3.830000000000000000e+02
3.870000000000000000e+02
3.900000000000000000e+02
3.930000000000000000e+02
3.970000000000000000e+02
4.000000000000000000e+02
4.030000000000000000e+02
4.070000000000000000e+02
4.130000000000000000e+02
4.150000000000000000e+02
4.180000000000000000e+02
4.190000000000000000e+02
4.220000000000000000e+02
4.240000000000000000e+02
4.300000000000000000e+02
4.330000000000000000e+02
4.360000000000000000e+02
4.360000000000000000e+02
4.360000000000000000e+02
4.390000000000000000e+02
4.440000000000000000e+02
4.490000000000000000e+02
4.510000000000000000e+02
4.550000000000000000e+02
4.590000000000000000e+02
4.610000000000000000e+02
4.640000000000000000e+02
4.670000000000000000e+02
4.680000000000000000e+02
4.700000000000000000e+02
4.760000000000000000e+02
4.780000000000000000e+02
4.800000000000000000e+02
4.850000000000000000e+02
4.860000000000000000e+02
4.920000000000000000e+02
4.960000000000000000e+02
5.000000000000000000e+02
5.050000000000000000e+02
5.070000000000000000e+02
5.100000000000000000e+02
5.160000000000000000e+02
5.180000000000000000e+02
5.200000000000000000e+02
5.250000000000000000e+02
5.300000000000000000e+02
5.330000000000000000e+02
5.390000000000000000e+02
5.440000000000000000e+02
5.470000000000000000e+02
5.540000000000000000e+02
5.570000000000000000e+02
5.600000000000000000e+02
5.650000000000000000e+02
5.680000000000000000e+02
5.720000000000000000e+02
5.750000000000000000e+02
5.790000000000000000e+02
5.830000000000000000e+02
5.870000000000000000e+02
5.970000000000000000e+02
6.000000000000000000e+02
6.060000000000000000e+02
6.130000000000000000e+02
6.200000000000000000e+02
6.230000000000000000e+02
6.260000000000000000e+02
6.300000000000000000e+02
6.330000000000000000e+02
6.360000000000000000e+02
6.420000000000000000e+02
6.470000000000000000e+02
6.520000000000000000e+02
6.550000000000000000e+02
6.590000000000000000e+02
6.620000000000000000e+02
6.660000000000000000e+02
6.720000000000000000e+02
6.790000000000000000e+02
6.810000000000000000e+02
6.830000000000000000e+02
6.860000000000000000e+02
6.960000000000000000e+02
7.000000000000000000e+02
7.060000000000000000e+02
7.120000000000000000e+02
7.190000000000000000e+02
7.260000000000000000e+02
7.300000000000000000e+02
7.340000000000000000e+02
7.410000000000000000e+02
7.460000000000000000e+02
7.520000000000000000e+02
7.560000000000000000e+02
7.610000000000000000e+02
7.680000000000000000e+02
7.780000000000000000e+02
7.870000000000000000e+02
7.900000000000000000e+02
7.940000000000000000e+02
8.050000000000000000e+02
8.100000000000000000e+02
8.160000000000000000e+02
8.200000000000000000e+02
8.300000000000000000e+02
8.350000000000000000e+02
8.400000000000000000e+02
8.460000000000000000e+02
8.530000000000000000e+02
8.580000000000000000e+02
8.590000000000000000e+02
8.630000000000000000e+02
8.710000000000000000e+02
8.790000000000000000e+02
8.810000000000000000e+02
8.900000000000000000e+02
8.910000000000000000e+02
9.030000000000000000e+02
9.140000000000000000e+02
9.190000000000000000e+02
9.250000000000000000e+02
9.380000000000000000e+02
9.420000000000000000e+02
9.500000000000000000e+02
9.570000000000000000e+02
9.620000000000000000e+02
9.750000000000000000e+02
9.850000000000000000e+02
9.940000000000000000e+02
1.003000000000000000e+03
1.009000000000000000e+03
1.015000000000000000e+03
1.024000000000000000e+03
1.031000000000000000e+03
1.038000000000000000e+03
1.045000000000000000e+03
1.050000000000000000e+03
1.055000000000000000e+03
1.063000000000000000e+03
1.067000000000000000e+03
1.073000000000000000e+03
1.081000000000000000e+03
1.090000000000000000e+03
1.098000000000000000e+03
1.104000000000000000e+03
1.116000000000000000e+03
1.126000000000000000e+03
1.133000000000000000e+03
1.138000000000000000e+03
1.147000000000000000e+03
1.157000000000000000e+03
1.162000000000000000e+03
1.166000000000000000e+03
1.174000000000000000e+03
1.185000000000000000e+03
1.200000000000000000e+03
1.206000000000000000e+03
1.214000000000000000e+03
1.227000000000000000e+03
1.238000000000000000e+03
1.246000000000000000e+03
1.252000000000000000e+03
1.263000000000000000e+03
1.270000000000000000e+03
1.278000000000000000e+03
1.282000000000000000e+03
1.294000000000000000e+03
1.307000000000000000e+03
1.310000000000000000e+03
1.323000000000000000e+03
1.331000000000000000e+03
1.343000000000000000e+03
1.350000000000000000e+03
1.361000000000000000e+03
1.365000000000000000e+03
1.373000000000000000e+03
1.384000000000000000e+03
1.399000000000000000e+03
1.408000000000000000e+03
1.415000000000000000e+03
1.423000000000000000e+03
1.433000000000000000e+03
1.445000000000000000e+03
1.458000000000000000e+03
1.464000000000000000e+03
1.485000000000000000e+03
1.496000000000000000e+03
1.509000000000000000e+03
1.520000000000000000e+03
1.529000000000000000e+03
1.540000000000000000e+03
1.553000000000000000e+03
1.568000000000000000e+03
1.576000000000000000e+03
1.594000000000000000e+03
1.602000000000000000e+03
1.613000000000000000e+03
1.622000000000000000e+03
1.637000000000000000e+03
1.661000000000000000e+03
1.674000000000000000e+03
1.686000000000000000e+03
1.697000000000000000e+03
1.708000000000000000e+03
1.724000000000000000e+03
1.736000000000000000e+03
1.750000000000000000e+03
1.760000000000000000e+03
1.775000000000000000e+03
1.790000000000000000e+03
1.804000000000000000e+03
1.822000000000000000e+03
1.832000000000000000e+03
1.842000000000000000e+03
1.853000000000000000e+03
1.870000000000000000e+03
1.881000000000000000e+03
1.889000000000000000e+03
1.904000000000000000e+03
1.925000000000000000e+03
1.946000000000000000e+03
1.956000000000000000e+03
1.971000000000000000e+03
1.987000000000000000e+03
2.002000000000000000e+03
2.017000000000000000e+03
2.025000000000000000e+03
2.041000000000000000e+03
2.055000000000000000e+03
2.072000000000000000e+03
2.080000000000000000e+03
2.093000000000000000e+03
2.105000000000000000e+03
2.122000000000000000e+03
2.139000000000000000e+03
2.152000000000000000e+03
2.166000000000000000e+03
2.177000000000000000e+03
2.189000000000000000e+03
2.201000000000000000e+03
2.222000000000000000e+03
2.243000000000000000e+03
2.259000000000000000e+03
2.273000000000000000e+03
2.282000000000000000e+03
2.300000000000000000e+03
2.314000000000000000e+03
2.325000000000000000e+03
2.346000000000000000e+03
2.358000000000000000e+03
2.376000000000000000e+03
2.389000000000000000e+03
2.417000000000000000e+03
2.434000000000000000e+03
2.453000000000000000e+03
2.471000000000000000e+03
2.491000000000000000e+03
2.506000000000000000e+03
2.526000000000000000e+03
2.552000000000000000e+03
2.565000000000000000e+03
2.588000000000000000e+03
2.606000000000000000e+03
2.618000000000000000e+03
2.641000000000000000e+03
2.656000000000000000e+03
2.673000000000000000e+03
2.692000000000000000e+03
2.716000000000000000e+03
2.742000000000000000e+03
2.760000000000000000e+03
2.785000000000000000e+03
2.800000000000000000e+03
2.824000000000000000e+03
2.847000000000000000e+03
2.868000000000000000e+03
2.888000000000000000e+03
2.909000000000000000e+03
2.931000000000000000e+03
2.951000000000000000e+03
2.974000000000000000e+03
2.995000000000000000e+03
3.016000000000000000e+03
3.043000000000000000e+03
3.070000000000000000e+03
3.091000000000000000e+03
3.115000000000000000e+03
3.136000000000000000e+03
3.156000000000000000e+03
3.168000000000000000e+03
3.192000000000000000e+03
3.220000000000000000e+03
3.241000000000000000e+03
3.269000000000000000e+03
3.302000000000000000e+03
3.335000000000000000e+03
3.359000000000000000e+03
3.384000000000000000e+03
3.408000000000000000e+03
3.439000000000000000e+03
3.469000000000000000e+03
3.489000000000000000e+03
3.513000000000000000e+03
3.542000000000000000e+03
3.574000000000000000e+03
3.604000000000000000e+03
3.628000000000000000e+03
3.649000000000000000e+03
3.681000000000000000e+03
3.706000000000000000e+03
3.727000000000000000e+03
3.749000000000000000e+03
3.772000000000000000e+03
3.798000000000000000e+03
3.824000000000000000e+03
3.851000000000000000e+03
3.887000000000000000e+03
3.910000000000000000e+03
3.939000000000000000e+03
3.972000000000000000e+03
3.993000000000000000e+03
4.021000000000000000e+03
4.040000000000000000e+03
4.073000000000000000e+03
4.100000000000000000e+03
4.134000000000000000e+03
4.161000000000000000e+03
4.189000000000000000e+03
4.221000000000000000e+03
4.255000000000000000e+03
4.288000000000000000e+03
4.319000000000000000e+03
4.347000000000000000e+03
4.378000000000000000e+03
4.411000000000000000e+03
4.447000000000000000e+03
4.474000000000000000e+03
4.502000000000000000e+03
4.537000000000000000e+03
4.573000000000000000e+03
4.611000000000000000e+03
4.653000000000000000e+03
4.681000000000000000e+03
4.719000000000000000e+03
4.749000000000000000e+03
4.786000000000000000e+03
4.810000000000000000e+03
4.842000000000000000e+03
4.879000000000000000e+03
4.912000000000000000e+03
4.952000000000000000e+03
4.994000000000000000e+03
5.041000000000000000e+03
5.069000000000000000e+03
5.103000000000000000e+03
5.148000000000000000e+03
5.180000000000000000e+03
5.216000000000000000e+03
5.253000000000000000e+03
5.286000000000000000e+03
5.326000000000000000e+03
5.371000000000000000e+03
5.408000000000000000e+03
5.448000000000000000e+03
5.481000000000000000e+03
5.531000000000000000e+03
5.572000000000000000e+03
5.603000000000000000e+03
5.649000000000000000e+03
5.680000000000000000e+03
5.714000000000000000e+03
5.772000000000000000e+03
5.812000000000000000e+03
5.858000000000000000e+03
5.909000000000000000e+03
5.948000000000000000e+03
5.999000000000000000e+03
6.038000000000000000e+03
6.078000000000000000e+03
6.124000000000000000e+03
6.174000000000000000e+03
6.223000000000000000e+03
6.261000000000000000e+03
6.310000000000000000e+03
6.356000000000000000e+03
6.406000000000000000e+03
6.470000000000000000e+03
6.517000000000000000e+03
6.550000000000000000e+03
6.598000000000000000e+03
6.651000000000000000e+03
6.697000000000000000e+03
6.734000000000000000e+03
6.770000000000000000e+03
6.823000000000000000e+03
6.880000000000000000e+03
6.929000000000000000e+03
6.974000000000000000e+03
7.044000000000000000e+03
7.101000000000000000e+03
7.152000000000000000e+03
7.203000000000000000e+03
7.246000000000000000e+03
7.294000000000000000e+03
7.357000000000000000e+03
7.404000000000000000e+03
7.469000000000000000e+03
7.517000000000000000e+03
7.559000000000000000e+03
7.610000000000000000e+03
7.660000000000000000e+03
7.714000000000000000e+03
7.770000000000000000e+03
7.826000000000000000e+03
7.885000000000000000e+03
7.947000000000000000e+03
8.003000000000000000e+03
8.046000000000000000e+03
8.099000000000000000e+03
8.157000000000000000e+03
8.215000000000000000e+03
8.275000000000000000e+03
8.327000000000000000e+03
8.381000000000000000e+03
8.450000000000000000e+03
8.526000000000000000e+03
8.584000000000000000e+03
8.650000000000000000e+03
8.715000000000000000e+03
8.793000000000000000e+03
8.864000000000000000e+03
8.922000000000000000e+03
8.991000000000000000e+03
9.066000000000000000e+03
9.130000000000000000e+03
9.198000000000000000e+03
9.277000000000000000e+03
9.340000000000000000e+03
9.407000000000000000e+03
9.473000000000000000e+03
9.534000000000000000e+03
9.600000000000000000e+03
9.669000000000000000e+03
9.731000000000000000e+03
9.796000000000000000e+03
9.857000000000000000e+03
9.917000000000000000e+03
1.000100000000000000e+04
1.007100000000000000e+04
1.014800000000000000e+04
1.022300000000000000e+04
1.029000000000000000e+04
1.038100000000000000e+04
1.046400000000000000e+04
1.054900000000000000e+04
1.061800000000000000e+04
1.069100000000000000e+04
1.075900000000000000e+04
1.084700000000000000e+04
1.092400000000000000e+04
1.101900000000000000e+04
1.110100000000000000e+04
1.116600000000000000e+04
1.125200000000000000e+04
1.133300000000000000e+04
1.141900000000000000e+04
1.150200000000000000e+04
1.157700000000000000e+04
1.165800000000000000e+04
1.174700000000000000e+04
1.183900000000000000e+04
1.193400000000000000e+04
1.201800000000000000e+04
1.209900000000000000e+04
1.219800000000000000e+04
1.229000000000000000e+04
1.237200000000000000e+04
1.246100000000000000e+04
1.255200000000000000e+04
1.263200000000000000e+04
1.272000000000000000e+04
1.282100000000000000e+04
1.293500000000000000e+04
1.302100000000000000e+04
1.311500000000000000e+04
1.321900000000000000e+04
1.332200000000000000e+04
1.343100000000000000e+04
1.349900000000000000e+04
1.361300000000000000e+04
1.371100000000000000e+04
1.382900000000000000e+04
1.392100000000000000e+04
1.401600000000000000e+04
1.411800000000000000e+04
1.421200000000000000e+04
1.433300000000000000e+04
1.444800000000000000e+04
1.455500000000000000e+04
1.466200000000000000e+04
1.475900000000000000e+04
1.488000000000000000e+04
1.498100000000000000e+04
1.508500000000000000e+04
1.518900000000000000e+04
1.530700000000000000e+04
1.543100000000000000e+04
1.555800000000000000e+04
1.566400000000000000e+04
1.580300000000000000e+04
1.591300000000000000e+04
1.602600000000000000e+04
1.615300000000000000e+04
1.626100000000000000e+04
1.637800000000000000e+04
1.649900000000000000e+04
1.660500000000000000e+04
1.674900000000000000e+04
1.685900000000000000e+04
1.697200000000000000e+04
1.711000000000000000e+04
1.722800000000000000e+04
1.736300000000000000e+04
1.749900000000000000e+04
1.763700000000000000e+04
1.776800000000000000e+04
1.789700000000000000e+04
1.802800000000000000e+04
1.816000000000000000e+04
1.828900000000000000e+04
1.842000000000000000e+04
1.854400000000000000e+04
1.868600000000000000e+04
1.882300000000000000e+04
1.896800000000000000e+04
1.910600000000000000e+04
1.924300000000000000e+04
1.938900000000000000e+04
1.952700000000000000e+04
1.967100000000000000e+04
1.981800000000000000e+04
1.997300000000000000e+04
2.013300000000000000e+04
2.026000000000000000e+04
2.039800000000000000e+04
2.053400000000000000e+04
2.067100000000000000e+04
2.083000000000000000e+04
2.098000000000000000e+04
2.111600000000000000e+04
2.126800000000000000e+04
2.140600000000000000e+04
2.156100000000000000e+04
2.172700000000000000e+04
2.187300000000000000e+04
2.204700000000000000e+04
2.221400000000000000e+04
2.236500000000000000e+04
2.250900000000000000e+04
2.266000000000000000e+04
2.280900000000000000e+04
2.298800000000000000e+04
2.316700000000000000e+04
2.333000000000000000e+04
