1.000000000000000000e+00
2.000000000000000000e+00
3.000000000000000000e+00
4.000000000000000000e+00
5.000000000000000000e+00
7.000000000000000000e+00
1.000000000000000000e+01
1.100000000000000000e+01
1.300000000000000000e+01
1.500000000000000000e+01
1.800000000000000000e+01
2.100000000000000000e+01
2.600000000000000000e+01
3.100000000000000000e+01
3.400000000000000000e+01
4.300000000000000000e+01
5.100000000000000000e+01
5.600000000000000000e+01
6.500000000000000000e+01
8.000000000000000000e+01
8.800000000000000000e+01
1.080000000000000000e+02
1.210000000000000000e+02
1.410000000000000000e+02
1.740000000000000000e+02
2.010000000000000000e+02
2.280000000000000000e+02
2.610000000000000000e+02
3.130000000000000000e+02
3.700000000000000000e+02
4.350000000000000000e+02
4.850000000000000000e+02
5.640000000000000000e+02
6.690000000000000000e+02
7.870000000000000000e+02
8.940000000000000000e+02
1.039000000000000000e+03
1.199000000000000000e+03
1.391000000000000000e+03
1.615000000000000000e+03
1.869000000000000000e+03
2.164000000000000000e+03
2.521000000000000000e+03
2.911000000000000000e+03
3.350000000000000000e+03
3.879000000000000000e+03
4.464000000000000000e+03
