0.000000000000000000e+00
2.000000000000000111e-01
4.000000000000000222e-01
6.000000000000000888e-01
8.000000000000000444e-01
1.000000000000000000e+00
1.199999999999999956e+00
1.399999999999999911e+00
1.599999999999999867e+00
1.799999999999999822e+00
1.999999999999999778e+00
2.199999999999999734e+00
2.399999999999999911e+00
2.600000000000000089e+00
2.800000000000000266e+00
3.000000000000000444e+00
3.200000000000000622e+00
3.400000000000000799e+00
3.600000000000000977e+00
3.800000000000001155e+00
4.000000000000000888e+00
4.200000000000001066e+00
4.400000000000001243e+00
4.600000000000001421e+00
4.800000000000001599e+00
5.000000000000001776e+00
5.200000000000001954e+00
5.400000000000002132e+00
5.600000000000002309e+00
5.800000000000002487e+00
6.000000000000002665e+00
6.200000000000002842e+00
6.400000000000003020e+00
6.600000000000003197e+00
6.800000000000003375e+00
7.000000000000003553e+00
7.200000000000003730e+00
7.400000000000003908e+00
7.600000000000004086e+00
7.800000000000004263e+00
8.000000000000003553e+00
8.200000000000002842e+00
8.400000000000002132e+00
8.600000000000001421e+00
8.800000000000000711e+00
9.000000000000000000e+00
9.199999999999999289e+00
9.399999999999998579e+00
9.599999999999997868e+00
9.799999999999997158e+00
9.999999999999996447e+00
1.019999999999999574e+01
1.039999999999999503e+01
1.059999999999999432e+01
1.079999999999999361e+01
1.099999999999999289e+01
1.119999999999999218e+01
1.139999999999999147e+01
1.159999999999999076e+01
1.179999999999999005e+01
1.199999999999998934e+01
1.219999999999998863e+01
1.239999999999998792e+01
1.259999999999998721e+01
1.279999999999998650e+01
1.299999999999998579e+01
1.319999999999998508e+01
1.339999999999998437e+01
1.359999999999998366e+01
1.379999999999998295e+01
1.399999999999998224e+01
1.419999999999998153e+01
1.439999999999998082e+01
1.459999999999998010e+01
1.479999999999997939e+01
1.499999999999997868e+01
