0.000000000000000000e+00
4.429792183488872048e-01
1.090992804795666959e+00
1.635485098211323152e+00
2.093591798983641894e+00
2.380489842834782710e+00
2.640622398278714922e+00
2.942002376491494431e+00
3.143632685328710874e+00
3.560395963603685932e+00
3.788656058627860368e+00
3.994351155821540544e+00
4.225050598054459705e+00
4.426845767926389286e+00
4.634046938039677599e+00
4.937500401926135041e+00
5.148481994020989383e+00
5.395108646049800782e+00
5.610296415276712523e+00
5.816051572248580825e+00
6.020103987217495956e+00
6.223007342975908074e+00
6.423633757790636167e+00
6.629952710184949360e+00
6.847988327602367420e+00
7.049005822894967466e+00
7.256204422109469476e+00
7.457213368408494247e+00
7.657909385226149723e+00
7.858675707192881887e+00
8.060392617079180866e+00
8.264772094037295957e+00
8.468196714975446682e+00
8.671286649414920333e+00
8.878387529708298587e+00
9.079490511461715485e+00
9.279606530312227264e+00
9.481076487664328312e+00
9.681518479729907867e+00
9.882110145520321964e+00
1.008266982692003744e+01
1.028371826454372950e+01
1.048428160248690588e+01
1.068433935777251875e+01
1.088531018356763624e+01
1.108544233546141555e+01
1.128598959669300328e+01
1.148643732650191929e+01
1.168733794539316762e+01
1.188777759549195068e+01
