0.000000000000000000e+00
8.927515542449264707e-01
1.154572880421885994e+00
1.635883351708229183e+00
1.919716107997555099e+00
2.350157153657407072e+00
2.805254577551244299e+00
3.116861857795895752e+00
3.338162656303264697e+00
3.788769834655214552e+00
3.991938554479312451e+00
4.442873888587864251e+00
4.700406755344250342e+00
4.930673986787093455e+00
5.144786139410713055e+00
5.471143560594025068e+00
5.685086820686807485e+00
5.912564340641507599e+00
6.115070574052600350e+00
6.329845092136013207e+00
6.532878294305195510e+00
6.759651256382374740e+00
6.968280436642568354e+00
7.188725271917149939e+00
7.394085304694225869e+00
7.595598271732706408e+00
7.796184317512315332e+00
7.996789147133933184e+00
8.197220183808106242e+00
8.401548380343617950e+00
8.601907337736152570e+00
8.808110493467427915e+00
9.011219339243693227e+00
9.212133004250190993e+00
9.414757468215729119e+00
9.616405090923535681e+00
9.817250795993272661e+00
1.001833457326954324e+01
1.021836032409638584e+01
1.041837273569064770e+01
1.061943703123004923e+01
1.081959709036992301e+01
1.102056744575858716e+01
1.122098388814843517e+01
1.142136196689446237e+01
1.162142455776521466e+01
1.182143281596128404e+01
