0.000000000000000000e+00
1.015732601291847059e+00
2.076905308516686866e+00
2.576360103039986527e+00
3.084287684314553246e+00
3.313123545498957601e+00
3.894918340558110703e+00
4.631634348202433138e+00
4.986681447231084974e+00
5.189650788438394891e+00
5.406448933514163002e+00
5.656819496827439231e+00
5.921068777782240389e+00
6.167730856965316200e+00
6.377406972257482209e+00
6.674281237598250094e+00
6.893917171534551080e+00
7.109284792251939322e+00
7.315281338757991136e+00
7.522753968196105312e+00
7.724504163676974677e+00
7.924691434391347045e+00
8.128477525988058616e+00
8.344474444938516200e+00
8.555019531844793690e+00
8.757220103702852754e+00
8.961587225028450732e+00
9.164127499726852477e+00
9.366404565148961581e+00
9.567286733706577451e+00
9.769328750986419507e+00
9.969677412490360879e+00
1.017595456906853180e+01
1.037780473419689287e+01
1.057967151353099133e+01
1.077984757415196704e+01
1.098008977175479473e+01
1.118023507936707084e+01
1.138056777727933877e+01
1.158080309863737156e+01
1.178169862931593848e+01
1.198263325115496158e+01
