0.000000000000000000e+00
5.942950446992909530e-01
1.007429962270194768e+00
1.255684250965847237e+00
1.815167925001877292e+00
2.804658847757281137e+00
3.040479354914292998e+00
3.371663343310638439e+00
3.742370980099058109e+00
4.014165427523447960e+00
4.223037900442577097e+00
4.453254810998949154e+00
4.685684472385867494e+00
4.948180038223566335e+00
5.179057773715762814e+00
5.392287742060554834e+00
5.606432444720372388e+00
5.807816686745236545e+00
6.061690083198593371e+00
6.262004726211566563e+00
6.501891574799506301e+00
6.705306979258145894e+00
6.905338836157532967e+00
7.106669331728450167e+00
7.308500556105895996e+00
7.509381941083816514e+00
7.715729815196665342e+00
7.916214696152287900e+00
8.117185795045370966e+00
8.321077313177813295e+00
8.521894567441577806e+00
8.724536681695102658e+00
8.925748439705817106e+00
9.126134589970375188e+00
9.326417285289970494e+00
9.527488763775636471e+00
9.728112769741210641e+00
9.928939830728472415e+00
1.012930642274888982e+01
1.032950766489492089e+01
1.053303477166813806e+01
1.073372567478003425e+01
1.093392617870888905e+01
1.113421933362655913e+01
1.133513052148126832e+01
1.153527036420896223e+01
1.173559543542715922e+01
1.193565582423116389e+01
