0.000000000000000000e+00
9.247010819430709905e-01
2.193203213343912772e+00
2.913011726492171327e+00
3.362597642181736290e+00
3.663992092231923792e+00
4.020361714456941904e+00
4.293024114828773108e+00
4.532062639249102354e+00
4.878923874067861988e+00
5.153775076873762018e+00
5.391936563146282779e+00
5.594494164479234755e+00
5.916804263435709643e+00
6.142792992641557426e+00
6.343888125834952874e+00
6.633914497029607560e+00
6.844324843198796415e+00
7.047100689392541639e+00
7.248042855790301608e+00
7.460449567352592126e+00
7.666965544504722452e+00
7.875398923096533998e+00
8.075809183501762689e+00
8.286683914931245454e+00
8.487072072272255241e+00
8.691056386770284803e+00
8.900374492668635895e+00
9.101183549159379993e+00
9.302151426682806701e+00
9.505440802837100023e+00
9.709414380900446062e+00
9.910528515404037009e+00
1.011453355125174980e+01
1.031513218524022513e+01
1.051545359260026480e+01
1.071656140049793571e+01
1.092033138499703782e+01
1.112175612641598477e+01
1.132255213665404092e+01
1.152373149376178674e+01
1.172423222584780689e+01
1.192581805271969131e+01
