0.000000000000000000e+00
1.115085837154181192e+00
2.190623032236362455e+00
2.403666333008666278e+00
3.447229170297619660e+00
3.951197314940009253e+00
4.282274297817108000e+00
4.554319267685914774e+00
4.978029173089245418e+00
5.304245915030374015e+00
5.745272478026961060e+00
6.004048696124355544e+00
6.259762263379364811e+00
6.465810394120672377e+00
6.673640590219364732e+00
6.890274394192112517e+00
7.125900353379797991e+00
7.326435307993404145e+00
7.590619499542247794e+00
7.812531837548560176e+00
8.017605790909826169e+00
8.223617472482843027e+00
8.435602990635082676e+00
8.635718719640838259e+00
8.842414061425438732e+00
9.065470025357525330e+00
9.269421603073839222e+00
9.470376280141554304e+00
9.676406936499766687e+00
9.877029554234386666e+00
1.007717704105844270e+01
1.027906691438149345e+01
1.047937047613169348e+01
1.067960324872614919e+01
1.088319879422822645e+01
1.108320352423093524e+01
1.128345728271679071e+01
1.148346178656873562e+01
1.168370530090058779e+01
1.188375023791721574e+01
