0.000000000000000000e+00
6.812433925653518241e-01
9.619175773117979444e-01
1.549220285208496639e+00
1.787504135675291650e+00
2.323749172950170028e+00
2.671334279285473290e+00
2.944009280342578805e+00
3.250647350092393584e+00
3.464042056467759423e+00
3.665771160602184331e+00
3.868725668420602837e+00
4.095187139454372627e+00
4.324520296539374975e+00
4.600210561843167234e+00
4.819294443551134677e+00
5.022450923997648253e+00
5.226761472885840476e+00
5.466854462482992894e+00
5.689395903347380212e+00
5.910013226852209201e+00
6.124650282246597577e+00
6.340074527073669586e+00
6.555012631114129462e+00
6.756146111426756029e+00
6.957265234208716009e+00
7.162885678609518081e+00
7.364770223193433552e+00
7.566185650048872446e+00
7.767548930811266850e+00
7.967630708608571588e+00
8.168633968092056108e+00
8.369181627533087919e+00
8.575460509104978257e+00
8.778129330493971594e+00
8.979305023115138340e+00
9.180647962560062325e+00
9.380865913243109588e+00
9.581092257981529414e+00
9.781671575956915277e+00
9.981686305065952780e+00
1.018198710647780203e+01
1.038199408934789147e+01
1.058228989988644031e+01
1.078248430899232346e+01
1.098303026752790146e+01
1.118347061625286543e+01
1.138351674020102244e+01
1.158396638439283777e+01
1.178398596910097851e+01
1.198402454694909025e+01
