0.000000000000000000e+00
1.254127409987051855e+00
2.306191273899742988e+00
2.739209465838952084e+00
3.441985554529402247e+00
3.656162415449477177e+00
4.064179648665372291e+00
4.453060277322562932e+00
4.734402472476817891e+00
5.035803090443202734e+00
5.237726630471276401e+00
5.455071844090351618e+00
5.696614463538295148e+00
5.901166910425518886e+00
6.120630911711694822e+00
6.323047087697280411e+00
6.523298498891190178e+00
6.745379716295491157e+00
6.947439479112360594e+00
7.158740803184865165e+00
7.365490324405860711e+00
7.576603355967169051e+00
7.777161622453086842e+00
7.981208332285802953e+00
8.185123778364136626e+00
8.395727445866050687e+00
8.596159396411975351e+00
8.798652817439320373e+00
9.002978109861562217e+00
9.204038643080005855e+00
9.405977958080297796e+00
9.606606669206362525e+00
9.807267216626152972e+00
1.001464611677222294e+01
1.021496035590369722e+01
1.041623144020424618e+01
1.061663530314184278e+01
1.081836039651986603e+01
1.102014987952733271e+01
1.122095430176285547e+01
1.142134417788898659e+01
1.162159827996120143e+01
1.182207483408287452e+01
