0.000000000000000000e+00
1.085579223015432637e+00
2.052798693730148560e+00
2.348848707944331871e+00
2.906925446199021490e+00
3.322006765654756055e+00
3.623831823256651319e+00
3.900007964888069889e+00
4.295412697150789327e+00
4.520103943695327864e+00
4.765598455186403015e+00
5.040064642560800223e+00
5.262809592321747942e+00
5.520117188115715834e+00
5.806171574992291973e+00
6.027056743501910674e+00
6.227267328197598317e+00
6.436379471772163186e+00
6.641908711984358504e+00
6.859881964552777767e+00
7.062944964749664933e+00
7.269704446190161207e+00
7.479011829668166911e+00
7.689831887301830093e+00
7.890348211323024330e+00
8.098853309650634102e+00
8.303564775795248210e+00
8.503851354556694275e+00
8.708016459095368589e+00
8.913592650753546565e+00
9.113645060187895552e+00
9.317188251557629641e+00
9.519947039707663095e+00
9.722330400914648507e+00
9.922906333153694192e+00
1.012405306528651394e+01
1.032420269141503155e+01
1.052596840453881022e+01
1.072719169924366689e+01
1.092746302868529362e+01
1.112787080767344428e+01
1.132845261905097800e+01
1.152847790787854620e+01
1.172863589265658923e+01
1.192982388453321541e+01
