0.000000000000000000e+00
1.054484040314670690e+00
2.060870699314552024e+00
2.311909724642386532e+00
3.045177465565148456e+00
3.469624635022843684e+00
4.171767870987749482e+00
4.441111061261945991e+00
4.677408216244409722e+00
4.898963705700460913e+00
5.127985783637178052e+00
5.417073211530271770e+00
5.689790102125519944e+00
5.918589065912404301e+00
6.137954739255814474e+00
6.341415566000639714e+00
6.553565876096969944e+00
6.763685387388729708e+00
6.976824048262361799e+00
7.203795602940924248e+00
7.414919453535169680e+00
7.627476820547948400e+00
7.834298902481041438e+00
8.034343176398722974e+00
8.238849690663045067e+00
8.448696518357436958e+00
8.648726135411294536e+00
8.855016769213445826e+00
9.063310294226653241e+00
9.265590316724733100e+00
9.469568135827522326e+00
9.670705089054941084e+00
9.870721564106609947e+00
1.007360730407789795e+01
1.027669053222792961e+01
1.047807447607763365e+01
1.067847203480566876e+01
1.088068884332456498e+01
1.108078501629517554e+01
1.128106392050165674e+01
1.148202212975063041e+01
1.168230314763471256e+01
1.188236460954794538e+01
