0.000000000000000000e+00
5.414308975713326699e-01
1.812775521460886718e+00
2.585534791784579234e+00
2.870286511966973819e+00
3.243346212892789016e+00
3.742420382604054296e+00
3.945301216813954071e+00
4.256745867011093587e+00
4.501823559850340217e+00
4.817966023600368963e+00
5.071148750646375269e+00
5.275558505488464611e+00
5.477589702191101750e+00
5.709847919161055607e+00
5.910654298873702750e+00
6.128097091907531713e+00
6.339121635107707320e+00
6.550794719534377641e+00
6.757839639243930385e+00
6.961136705438387473e+00
7.177377683177702750e+00
7.396551924527353883e+00
7.609091516035875635e+00
7.817205203020521687e+00
8.017702889413522271e+00
8.219275577615910322e+00
8.419595996845584907e+00
8.620186054540184273e+00
8.820216065410670936e+00
9.023775823022438303e+00
9.234867739950972876e+00
9.436362211789113275e+00
9.636404162761708747e+00
9.837142527595041486e+00
1.003758502566270217e+01
1.024046726616260372e+01
1.044086632124931668e+01
1.064182859411011428e+01
1.084229649585030764e+01
1.104273188334159705e+01
1.124276536842761232e+01
1.144333351328040926e+01
1.164434150493260844e+01
1.184483718717467937e+01
