0.000000000000000000e+00
1.509890874504666192e+00
2.218271569490315009e+00
2.602374290809472690e+00
2.891708174150835475e+00
3.268828664073804013e+00
3.810513491848007916e+00
4.272769054501713626e+00
4.535437655760473419e+00
4.763289880337504556e+00
5.038894854744604856e+00
5.309815378328476498e+00
5.518845720307909986e+00
5.774180329693555436e+00
6.019834219297046651e+00
6.256625946398202132e+00
6.528116127646365285e+00
6.776943571770131847e+00
6.999859843985797525e+00
7.205063781290604652e+00
7.408734890306122089e+00
7.620848366609783930e+00
7.822236535069210461e+00
8.023408059645229073e+00
8.232343318749785865e+00
8.441029742195189201e+00
8.650238706554976176e+00
8.853766876963671706e+00
9.054995184042512690e+00
9.255765574705641541e+00
9.457075967028597319e+00
9.666037746209376280e+00
9.866146624238140816e+00
1.006617638476532228e+01
1.026688849177645402e+01
1.046818062080684086e+01
1.066839632466582088e+01
1.086912536087819525e+01
1.106916200286459961e+01
1.126967628293568957e+01
1.147164608237897099e+01
1.167170717922067347e+01
1.187264459736753430e+01
