0.000000000000000000e+00
1.095287955285987769e+00
2.144742690969030363e+00
2.417559773209546847e+00
2.948855083702463631e+00
3.167950507610635569e+00
3.452113446587422363e+00
3.745781026742927455e+00
3.966903154973316248e+00
4.400496988565013368e+00
4.614640129531084156e+00
4.895252230702494600e+00
5.112266471667295420e+00
5.403739228381507331e+00
5.656461052140711487e+00
5.867943414741988661e+00
6.080201982745389699e+00
6.329880865813596102e+00
6.546134310617241603e+00
6.776874525307352570e+00
6.985002148867570426e+00
7.192938256012069154e+00
7.393704492406408590e+00
7.602014523273970426e+00
7.810484845612968741e+00
8.010946688023693696e+00
8.219681955369543047e+00
8.424204142449859489e+00
8.629488755145205303e+00
8.833698286598416161e+00
9.034899798025271878e+00
9.237803693409254890e+00
9.439805375724157344e+00
9.643821883956233521e+00
9.845847874774129593e+00
1.004649341492847547e+01
1.024797329627480735e+01
1.044921424999656878e+01
1.064986757832456554e+01
1.085059056495595087e+01
1.105579320542920208e+01
1.125626756519336347e+01
1.145657723899276448e+01
1.165667463623844036e+01
1.185669222642060738e+01
