0.000000000000000000e+00
1.008623097121377210e+00
1.884117886755733773e+00
2.872245753991442996e+00
3.113269893380619990e+00
3.812867847118553311e+00
4.031050279963080740e+00
4.292470270993828052e+00
4.566083515446402785e+00
4.802490159676152892e+00
5.069044042495962188e+00
5.306598462598826949e+00
5.554687755787295345e+00
5.757951190156274102e+00
5.966857712775422762e+00
6.176334009071978492e+00
6.403684829071575102e+00
6.628962229120297422e+00
6.845408352250624162e+00
7.051093694404989343e+00
7.274953336231560819e+00
7.487674298825671926e+00
7.694275426758887981e+00
7.914574713628226732e+00
8.126139081035988809e+00
8.327189568019315757e+00
8.530608210007882164e+00
8.730952877436671145e+00
8.931584268413928385e+00
9.132535718493654642e+00
9.338169399091492906e+00
9.542113016111150259e+00
9.745116562644751568e+00
9.945612242510895484e+00
1.014638427463061099e+01
1.034660292015919936e+01
1.054722493566974073e+01
1.074921523471966900e+01
1.094975890301531685e+01
1.115264573910686785e+01
1.135269821853699135e+01
1.155271582934793528e+01
1.175333049481059966e+01
1.195353683218490382e+01
