0.000000000000000000e+00
8.856399526374856279e-01
1.215692661729561586e+00
1.875671678627863992e+00
2.139385917580541197e+00
2.420653899263775166e+00
2.772397979082552588e+00
3.044846298130006623e+00
3.504435340828996548e+00
3.814385204242863203e+00
4.100506771917656224e+00
4.461650772235377538e+00
4.758833702521918063e+00
5.069019508008949515e+00
5.273484369164235019e+00
5.530919959157667876e+00
5.731557262003062370e+00
5.934417394410586688e+00
6.153241537801419803e+00
6.361466019087107959e+00
6.572212065533488357e+00
6.789246931920193795e+00
6.990178256276224467e+00
7.192266560885885340e+00
7.394198391877672805e+00
7.597021902204225796e+00
7.797696862415655517e+00
8.002608033587788938e+00
8.205966398125166705e+00
8.410282660047519343e+00
8.612032102240384290e+00
8.818444885828126800e+00
9.019502022809968267e+00
9.220692114080497603e+00
9.421832981071025515e+00
9.623718791983623788e+00
9.823914723963033779e+00
1.002400478502362802e+01
1.022453193588185272e+01
1.042562515186707373e+01
1.062588996741183145e+01
1.082672874332602220e+01
1.102725714510864563e+01
1.122743711806156774e+01
1.142794149719648722e+01
1.162806208990084933e+01
1.182806415891784013e+01
