0.000000000000000000e+00
6.036981676697799060e-01
1.700255963754872646e+00
2.539878291590638604e+00
2.970266407668984421e+00
3.243615041632988749e+00
3.472213619383600403e+00
3.749660748432561252e+00
4.046972707158105642e+00
4.301985860696253994e+00
4.629381853298697891e+00
4.937917150497855623e+00
5.154754876447848133e+00
5.396046026981586863e+00
5.652050718084424830e+00
5.870773417570198660e+00
6.075956597424321259e+00
6.278950673770339108e+00
6.479008873035186689e+00
6.698077143208525541e+00
6.911597987410445398e+00
7.122126131874409793e+00
7.333570463206863010e+00
7.534452717952683010e+00
7.748480984927707205e+00
7.968846476176706162e+00
8.169453779084253853e+00
8.372035893628208214e+00
8.572728880637313864e+00
8.772781971771888010e+00
8.973778645369531404e+00
9.173948192181235584e+00
9.374610036067263508e+00
9.576053535373102221e+00
9.777059121828573396e+00
9.977573093799252391e+00
1.017758931992224980e+01
1.037848931508850292e+01
1.057859001567745239e+01
1.077910185135605659e+01
1.097912418268783874e+01
1.118013833006870250e+01
1.138031984803905416e+01
1.158066136496122844e+01
1.178113434078095523e+01
1.198258957697292537e+01
