0.000000000000000000e+00
1.034536731889570182e+00
1.698018863609134677e+00
2.370978683594021863e+00
2.730475774768399866e+00
3.078373312059923261e+00
3.288227619161983917e+00
3.489546994129743673e+00
3.867318617808414238e+00
4.129752953020188855e+00
4.586861549217490008e+00
4.909630334500625359e+00
5.158213163033615878e+00
5.367168148091305824e+00
5.568419087507461285e+00
5.773190949182719578e+00
5.973533657810272679e+00
6.176471341149686545e+00
6.419913179072210596e+00
6.648702874520172834e+00
6.866487728520716871e+00
7.085995955658509260e+00
7.296554866917608351e+00
7.510946237559706695e+00
7.711426785468933787e+00
7.912278160078524358e+00
8.112933545467020835e+00
8.312973518779902093e+00
8.513790836968150089e+00
8.714549365818319515e+00
8.916179781936097726e+00
9.121771323771461937e+00
9.321776230542834440e+00
9.522519141998547099e+00
9.723305559521387309e+00
9.923583881826163022e+00
1.012566008474787260e+01
1.032631533827147585e+01
1.052680809229471315e+01
1.072723875713510644e+01
1.092839632754592039e+01
1.112865039291625990e+01
1.132895073551745391e+01
1.152962110219148251e+01
1.173000090375860616e+01
1.193006065681900374e+01
