0.000000000000000000e+00
8.019659579900384472e-01
1.710656710545816583e+00
2.001604035276825844e+00
2.847994970696332562e+00
3.076462362789852190e+00
3.581844914131422364e+00
3.931497489520337396e+00
4.167573621878918999e+00
4.440168645884427612e+00
4.958102486962686406e+00
5.261179821190416384e+00
5.466168400252801263e+00
5.722363172691254718e+00
5.930169862924929980e+00
6.145102609852127529e+00
6.363891739527842262e+00
6.586558631420245113e+00
6.790664578568271104e+00
7.000581205170677279e+00
7.201325824597381242e+00
7.414954808357101967e+00
7.631953798848265969e+00
7.846430206081251413e+00
8.052866938050486922e+00
8.258758503084838054e+00
8.467720395364983332e+00
8.671420300953950999e+00
8.874762141271119731e+00
9.074941533978099883e+00
9.275153251720050562e+00
9.478990294220356105e+00
9.686896523799493508e+00
9.888611030283366077e+00
1.008985299187536278e+01
1.029467750726533914e+01
1.049612878232098545e+01
1.069781762574290873e+01
1.089837036772000012e+01
1.109911559144176074e+01
1.130118049169597150e+01
1.150124341064982758e+01
1.170171920638102314e+01
1.190469671831797527e+01
