0.000000000000000000e+00
1.042939839983681116e+00
2.131814189376660451e+00
2.694012884557184684e+00
3.122566260293562213e+00
3.435403219353428739e+00
4.095616537638638199e+00
4.308171880841122459e+00
4.562821865041848390e+00
5.138812392741177959e+00
5.364513968385248077e+00
5.606579148910006971e+00
5.849562752021913781e+00
6.237874515838004008e+00
6.439930546855804572e+00
6.655365478123189682e+00
6.917480015965452367e+00
7.134598388940190716e+00
7.347359486913078719e+00
7.551202773212209785e+00
7.753544687007108749e+00
7.954325242166612853e+00
8.162628626231860807e+00
8.365002392869978820e+00
8.565791850345206626e+00
8.773241056446410724e+00
8.973566165387206084e+00
9.174261821825318464e+00
9.374927523005078811e+00
9.577377850585476082e+00
9.779230293308673438e+00
9.979684401196045940e+00
1.018026804125734053e+01
1.038462606248169351e+01
1.058533300432984348e+01
1.078606014821412273e+01
1.098740360814378292e+01
1.118992016474439133e+01
1.139022900528561877e+01
1.159159555713469736e+01
1.179260029034190893e+01
1.199310011967901701e+01
