0.000000000000000000e+00
8.110553961284159286e-01
1.599949311547255615e+00
2.267596075624016549e+00
2.548468266286393558e+00
2.823099192999610096e+00
3.028306179384667285e+00
3.255909835761596316e+00
3.579252808418398324e+00
3.898357516852107629e+00
4.192119147006990509e+00
4.405651590471913792e+00
4.651326431059321642e+00
4.893610838877578750e+00
5.208144308092987451e+00
5.477851680412053170e+00
5.707247987312467075e+00
5.908057740282973036e+00
6.120540866588056517e+00
6.321712474005559912e+00
6.523867277745935667e+00
6.762883776140437675e+00
6.981175076838386673e+00
7.181795840794599428e+00
7.384535907223738427e+00
7.589919983784709778e+00
7.794035952008602663e+00
7.995204695732669897e+00
8.201888882105322409e+00
8.403224557374663561e+00
8.605405465224880146e+00
8.806173311835930662e+00
9.007540074142811548e+00
9.207948377115878102e+00
9.409388166138514364e+00
9.609686662994725737e+00
9.812631789228245083e+00
1.001278830271790099e+01
1.021279757416110279e+01
1.041608108882835815e+01
1.061634152935736708e+01
1.081654778757053492e+01
1.101912216366474517e+01
1.121932192544431217e+01
1.141944393435279181e+01
1.161971423401954695e+01
1.181977288259419012e+01
