0.000000000000000000e+00
1.538432669113602547e+00
2.713898025386185076e+00
3.016535915103535359e+00
3.405992178230329959e+00
3.647518753091835819e+00
4.033357441258011100e+00
4.257241086009640796e+00
4.587093573675849356e+00
4.812012928591190786e+00
5.028829054404075904e+00
5.281693339215206784e+00
5.545205761151412283e+00
5.883557271244349351e+00
6.087969302190490595e+00
6.297718116011370881e+00
6.504364854989785449e+00
6.708576921927141612e+00
6.916597485253414668e+00
7.129999741032068350e+00
7.331592891569653325e+00
7.557568308851261740e+00
7.760699279065304879e+00
7.969303764322326344e+00
8.172671506103952765e+00
8.377368370570703604e+00
8.592719808840520557e+00
8.797145989017959522e+00
8.999578644634032898e+00
9.199735125314713713e+00
9.401200294798634616e+00
9.604541302393574398e+00
9.808446189863422759e+00
1.001047923335836032e+01
1.021119221517382236e+01
1.041231521409569361e+01
1.061444822671465893e+01
1.081486174503657693e+01
1.101493359354877022e+01
1.121495372812194624e+01
1.141497455210686418e+01
1.161499629044224413e+01
1.181540304363037386e+01
