0.000000000000000000e+00
1.311485380579195059e+00
2.302012520145386709e+00
3.327398295104807335e+00
3.587665091951174112e+00
3.897444763545205859e+00
4.148719373548104272e+00
4.616924155661296325e+00
4.882359936016532842e+00
5.212221646074832293e+00
5.474714715175956314e+00
5.713556893264352787e+00
5.946584343942233453e+00
6.177506095237841777e+00
6.399817324516055450e+00
6.633516162219658341e+00
6.843063008362843647e+00
7.063637516127181826e+00
7.289349653475827751e+00
7.489997473191790434e+00
7.691954320014655622e+00
7.894109381900997313e+00
8.094547999124714011e+00
8.294962120183198451e+00
8.503632197281493887e+00
8.704295535556440200e+00
8.911346750562417540e+00
9.114699322434386630e+00
9.316194240816777494e+00
9.518071471262324224e+00
9.720557888432084681e+00
9.922115401730252415e+00
1.012241379398845709e+01
1.032300234530627492e+01
1.052301865269198267e+01
1.072320612866040435e+01
1.092474305311936078e+01
1.112559416214729424e+01
1.132614538631545287e+01
1.152627867386454596e+01
1.172666555899723129e+01
1.192668523074153342e+01
