0.000000000000000000e+00
1.196475936229442372e+00
2.230826040745141903e+00
3.234779164639668192e+00
3.599710665299611811e+00
3.820139954528732229e+00
4.083216439756725435e+00
4.368432438391151251e+00
4.724049384931483075e+00
5.049567989683313662e+00
5.270524991918071223e+00
5.491890639295164966e+00
5.712338960477061356e+00
5.942310142675454543e+00
6.145305568677981611e+00
6.380173744304574512e+00
6.599469646578715043e+00
6.800181048481229062e+00
7.013211280506034484e+00
7.224715903646578674e+00
7.427802307162808759e+00
7.630632041730209814e+00
7.832670850078840452e+00
8.036192522809075811e+00
8.246815622864165363e+00
8.451439221657661705e+00
8.655239318933819703e+00
8.858921144049077157e+00
9.061778555331773788e+00
9.263157167932043023e+00
9.463682814440369739e+00
9.665868253957047074e+00
9.866733364218235991e+00
1.006755788709399191e+01
1.026865668351174854e+01
1.046952687094825052e+01
1.066976790400111419e+01
1.087020430738981425e+01
1.107045999894747546e+01
1.127095826328730510e+01
1.147144302020691065e+01
1.167149890893052167e+01
1.187159862433644264e+01
