0.000000000000000000e+00
2.775881772531314517e-01
9.647872749050581120e-01
1.566618653477219514e+00
1.974976483645904946e+00
2.272103771435522113e+00
2.837971508849574054e+00
3.212727427592888763e+00
3.433358128193804149e+00
3.635086931470398852e+00
3.913889822557878873e+00
4.142626670594213856e+00
4.358720519124291926e+00
4.559885391196425886e+00
4.775233454247670650e+00
4.985325047244540286e+00
5.316073044969289896e+00
5.564536488197253661e+00
5.796542895518838279e+00
5.998899778308701691e+00
6.217697040513732176e+00
6.455869020646634482e+00
6.655874241538319858e+00
6.863168431457952856e+00
7.083795314361594819e+00
7.326170988447189281e+00
7.527703310577816609e+00
7.736486498348267737e+00
7.945482670365242583e+00
8.145643039094329296e+00
8.346822596442150299e+00
8.553602873486550351e+00
8.759986901800388637e+00
8.960858114453627010e+00
9.164744673120122087e+00
9.365789726038224572e+00
9.571463078908909239e+00
9.774020208160928647e+00
9.974035896662911682e+00
1.017456056682075882e+01
1.037727822806291833e+01
1.057729405949510593e+01
1.077733312857609960e+01
1.098063418378344558e+01
1.118197786722487663e+01
1.138205963186430481e+01
1.158278182669911338e+01
1.178306688548221004e+01
1.198358312975955187e+01
