0.000000000000000000e+00
1.235016057114737276e+00
1.750986254433280376e+00
2.508046631831197359e+00
3.044311395941885490e+00
3.282371231445256665e+00
3.510421653507210138e+00
3.822297957549488867e+00
4.193899018888888719e+00
4.439272435068115641e+00
4.640651885116616526e+00
4.842094432700069895e+00
5.045443285967859737e+00
5.324837697164316985e+00
5.543471890100482469e+00
5.755531813371559835e+00
5.957014843957567862e+00
6.172595375064561907e+00
6.382070143377220006e+00
6.593371263122191905e+00
6.805777139658235164e+00
7.013634121002400690e+00
7.226833270975719259e+00
7.447106299652239692e+00
7.649223366839735583e+00
7.864662458642686538e+00
8.074682528232324685e+00
8.275325719227483390e+00
8.475863471030892882e+00
8.677664935327941365e+00
8.878792566849599055e+00
9.080188928386910163e+00
9.289687306560658442e+00
9.492848406416070972e+00
9.693146652204699620e+00
9.896779411041251251e+00
1.009694503016408262e+01
1.030017742819269166e+01
1.050082449464982481e+01
1.070143457401525033e+01
1.090165280221112987e+01
1.110203739597951866e+01
1.130212866547021910e+01
1.150322876121907356e+01
1.170346415082303082e+01
1.190376296900878472e+01
