0.000000000000000000e+00
1.185023784023347959e+00
2.344339987377285439e+00
3.370525402393895753e+00
3.910236551070489064e+00
4.149415191373773126e+00
4.420834660090221746e+00
4.694685227890641244e+00
4.919969003613104519e+00
5.123361227640563342e+00
5.344556584595791193e+00
5.639057563108668347e+00
5.850246661589033614e+00
6.052968216272835988e+00
6.294212186622588412e+00
6.516513663901953635e+00
6.733951089797397316e+00
6.941809049207432913e+00
7.149901362830040519e+00
7.364545067063137829e+00
7.569440269493939333e+00
7.771628635804845864e+00
7.974378522915986700e+00
8.175588159851432835e+00
8.383272638803909160e+00
8.592663519506231751e+00
8.795001671435061397e+00
8.995765268188945285e+00
9.197524071464268758e+00
9.408486373418757154e+00
9.612771241549454615e+00
9.817049048580344106e+00
1.002183621502560129e+01
1.022669153359824179e+01
1.042816855124405784e+01
1.062888360877184546e+01
1.082925730617174231e+01
1.103028600078421562e+01
1.123031163234103325e+01
1.143121930988614920e+01
1.163162495559392440e+01
1.183188286211147044e+01
