0.000000000000000000e+00
6.398382066167740412e-01
1.189605948699102189e+00
1.458061934659381720e+00
2.111569556172372852e+00
2.343079471822851811e+00
2.714694654155608511e+00
3.104185707178137577e+00
3.435493236824298968e+00
3.677212125043532343e+00
3.900468965786141773e+00
4.232752020782019287e+00
4.475010823405257021e+00
4.684969497794030602e+00
4.939245803213548669e+00
5.148557278324199515e+00
5.366776643582706896e+00
5.580430488029399783e+00
5.796948342504292917e+00
5.999435884755945914e+00
6.203198481404045950e+00
6.424115988573728231e+00
6.636374535213272807e+00
6.840528346325653430e+00
7.046305287845808785e+00
7.249544207978715349e+00
7.465305490892026441e+00
7.670417817695017071e+00
7.871414724449879330e+00
8.074580539469147666e+00
8.282219323143369394e+00
8.483824194396124341e+00
8.690701385364716813e+00
8.890708663546076806e+00
9.090953678841730223e+00
9.291076760387891653e+00
9.493481448163139547e+00
9.693922600811401225e+00
9.894642683267786509e+00
1.009522213874175733e+01
1.029531563924656012e+01
1.049534434481953760e+01
1.069609456106282863e+01
1.089660884117620121e+01
1.109689186491393009e+01
1.129724252534020756e+01
1.149739711538048326e+01
1.169744047717631474e+01
1.189790852256125042e+01
