0.000000000000000000e+00
1.104545553463100571e+00
1.575277982768823914e+00
2.052934232755440291e+00
2.276139756889990817e+00
2.579003806719272429e+00
3.237405021661230897e+00
3.906274669644036024e+00
4.119561476248276399e+00
4.404784465882674027e+00
4.639013255359948573e+00
4.856643357597547173e+00
5.062548013916789102e+00
5.287146907249486993e+00
5.518355408276790719e+00
5.741464898948486884e+00
6.012261823672224281e+00
6.229178906476862565e+00
6.439126865453840942e+00
6.651549544812799475e+00
6.860980436819139605e+00
7.073237606648183018e+00
7.283488189553318115e+00
7.499088116572982798e+00
7.702632040221233822e+00
7.910550040991425114e+00
8.111283987628244319e+00
8.321199865424539155e+00
8.521318286635274575e+00
8.724568474623904279e+00
8.926077263985352062e+00
9.127397089994836676e+00
9.328276263006335611e+00
9.529317246525613072e+00
9.730227239329831690e+00
9.930606510708622992e+00
1.013128211711085314e+01
1.033460529770285241e+01
1.053563497538489102e+01
1.073585149432309471e+01
1.093631960820365379e+01
1.113642379809391869e+01
1.133661661620850936e+01
1.153701102710237159e+01
1.173800159718724068e+01
1.193848502192812155e+01
