0.000000000000000000e+00
7.623650375187958073e-01
1.674261133491734110e+00
2.009158788314461042e+00
2.385633155860492405e+00
2.597760609173323409e+00
2.834370514990531831e+00
3.206273786241021995e+00
3.427755994227048575e+00
3.936253750156873732e+00
4.181202856160219916e+00
4.405615804977099259e+00
4.605731556432086649e+00
4.833078354562710288e+00
5.043956417401314951e+00
5.260702400189151362e+00
5.462966359252401816e+00
5.664153247658759049e+00
5.872108026234554856e+00
6.103477317996734541e+00
6.313011449417103016e+00
6.536766619870379991e+00
6.743156550873876220e+00
6.946783381906947774e+00
7.160365241422871563e+00
7.363443087998224890e+00
7.574362126821259089e+00
7.789858083336568484e+00
7.991926301509414188e+00
8.194523133915895485e+00
8.398385910906826624e+00
8.598908200029470095e+00
8.800294096342010874e+00
9.001359132838597787e+00
9.201712535883171284e+00
9.404409793616277824e+00
9.604900317737330440e+00
9.806273050543016012e+00
1.000644763343588295e+01
1.020665119336232962e+01
1.040810129553917740e+01
1.060810831664485399e+01
1.080827657056858193e+01
1.100852468203245138e+01
1.120853205354886484e+01
1.140864198423488318e+01
1.160865364215059969e+01
1.180924223221766134e+01
