0.000000000000000000e+00
9.961690758301948723e-01
2.136978464243742160e+00
3.000762483348143661e+00
3.799316309569137129e+00
4.050830073309692025e+00
4.258573476109891232e+00
4.604184289390412133e+00
4.941053152755012334e+00
5.200476315395780702e+00
5.413508162768596144e+00
5.630609693159140505e+00
5.908911442931469971e+00
6.187026922964976805e+00
6.449504807038055176e+00
6.670434681425539303e+00
6.874383868792953045e+00
7.082548611311050735e+00
7.283235276464697705e+00
7.485784696594769194e+00
7.688279507035972848e+00
7.902382317857597371e+00
8.108922820927094932e+00
8.312354812844866103e+00
8.514364228435097104e+00
8.717226786775057690e+00
8.920969109487359106e+00
9.122420300351341993e+00
9.325198807056072070e+00
9.527448812404953671e+00
9.728403183790021558e+00
9.938162165514974333e+00
1.014006336706903078e+01
1.034211837704707015e+01
1.054233035680950969e+01
1.074304420135800875e+01
1.094307429112467567e+01
1.114389281283483513e+01
1.134499798396712222e+01
1.154574301886525944e+01
1.174630476087563125e+01
1.194651441129239444e+01
