0.000000000000000000e+00
8.138672847286441137e-01
1.447603623566221076e+00
1.712857306515370936e+00
2.125598120668464652e+00
2.638751233147115904e+00
3.117516705468717397e+00
3.494116510185439672e+00
3.695526385483101972e+00
4.122400959997690961e+00
4.402950504871583348e+00
4.667343244148917769e+00
4.880228349732610660e+00
5.125575515804795756e+00
5.330283082569288844e+00
5.542275092849753726e+00
5.775561252557249503e+00
5.981528319379711078e+00
6.186319221988089367e+00
6.410044390424652683e+00
6.628255054464063711e+00
6.829927204717925804e+00
7.034173876954149307e+00
7.238023894826038251e+00
7.462242660480323586e+00
7.670343242218383928e+00
7.872427647981254495e+00
8.080884651188339873e+00
8.281966221275164131e+00
8.482010139755194800e+00
8.682660252549428748e+00
8.883954019718256490e+00
9.090487667032776997e+00
9.291039481708812886e+00
9.492202795403153814e+00
9.692843316396947628e+00
9.894460244120747205e+00
1.009482848703613378e+01
1.029515715884648586e+01
1.049590570671522016e+01
1.069886260125978872e+01
1.089889747764307515e+01
1.110050248417011787e+01
1.130058598262090896e+01
1.150059906934473197e+01
1.170092503211100166e+01
1.190116833090707438e+01
