0.000000000000000000e+00
8.536320172205685841e-01
1.210035745827046538e+00
2.054235579694964731e+00
2.371479062969299889e+00
2.965962629836197184e+00
3.195475682615511293e+00
3.512632106440020330e+00
3.986327764964702425e+00
4.248655724863059646e+00
4.497327853050077096e+00
4.855651801712433269e+00
5.116423287938781428e+00
5.363384248484364569e+00
5.578740748208528721e+00
5.780758123561308359e+00
5.994645930273453160e+00
6.212538625962425343e+00
6.421180935578859383e+00
6.626541068888407437e+00
6.830470181475541303e+00
7.039296726789165071e+00
7.240972756296792490e+00
7.453885144391936279e+00
7.654436905419792936e+00
7.855396819184418788e+00
8.055400221739397182e+00
8.256153596292904240e+00
8.459054580036907467e+00
8.661229017750287085e+00
8.861338750399044173e+00
9.068094734583295846e+00
9.268503815520176659e+00
9.470371698079727452e+00
9.675020001665547653e+00
9.878375232315319110e+00
1.007844503588957430e+01
1.028042666443629649e+01
1.048054670986897285e+01
1.068145741188477871e+01
1.088196611552610626e+01
1.108207492356996937e+01
1.128236828028464345e+01
1.148237162097670883e+01
1.168245301720971518e+01
1.188287149152976596e+01
