0.000000000000000000e+00
1.246116824050073291e+00
2.207646986855778870e+00
2.500416831849634036e+00
3.243078867700628365e+00
3.444089659354688138e+00
3.849439992185576642e+00
4.239611493598423486e+00
4.590321248324183756e+00
4.791732597955681960e+00
5.201562740668202345e+00
5.596256530687910846e+00
5.864015260393627749e+00
6.079796683260511259e+00
6.282684341075666978e+00
6.515828357318964592e+00
6.740175192817144278e+00
6.947335175476526459e+00
7.148991145189241614e+00
7.392921585859129507e+00
7.595008485937089660e+00
7.804274776474434461e+00
8.013851866255699008e+00
8.231385660204535881e+00
8.435342799989047791e+00
8.639589343048157843e+00
8.843241319865503769e+00
9.046261815442651510e+00
9.250020720127494656e+00
9.455614004150323382e+00
9.657632339308165115e+00
9.861047108392817506e+00
1.006603830105146891e+01
1.026768836867815793e+01
1.046864827827294420e+01
1.066876152057428584e+01
1.086934683190306039e+01
1.107082686032876317e+01
1.127159343230425748e+01
1.147306910888700315e+01
1.167380074813068624e+01
1.187600634100793862e+01
