0.000000000000000000e+00
9.362591108353425229e-01
1.927544335417050281e+00
2.407938977952603921e+00
3.038457429746749039e+00
3.296422816794769783e+00
3.587281325731361825e+00
3.831422502325759538e+00
4.235714576829987976e+00
4.585861578700548336e+00
4.787752959499425032e+00
5.021007965276867324e+00
5.315355347106323514e+00
5.538894938799791667e+00
5.773241061307169630e+00
5.988887595619449833e+00
6.194102161024764186e+00
6.460406558956233170e+00
6.695559330654121233e+00
6.896856094278138727e+00
7.098206819398849454e+00
7.309505813206103042e+00
7.525641254880053310e+00
7.731186714704972651e+00
7.943521503221114166e+00
8.147606470388609523e+00
8.350314428339103756e+00
8.556530541478977625e+00
8.761927767269529710e+00
8.965001653899586032e+00
9.165135058529253698e+00
9.370965760684255130e+00
9.573079061227689479e+00
9.774255838360463855e+00
9.977281612099083929e+00
1.017860062754373374e+01
1.038149606946698711e+01
1.058182747209930064e+01
1.078192006356563937e+01
1.098491552537580596e+01
1.118497764936743977e+01
1.138502716700057427e+01
1.158532433193446565e+01
1.178539049857972465e+01
1.198540362150755278e+01
