0.000000000000000000e+00
1.522049523296969298e+00
1.810602556075407765e+00
2.579462418576710547e+00
3.053948357924760160e+00
3.419706182150566320e+00
3.663120605511206218e+00
4.022046378867562666e+00
4.320225016933768813e+00
4.595844605603038424e+00
4.912334171976665331e+00
5.161331329136542578e+00
5.362077840102024595e+00
5.575169442733679759e+00
5.777866251694771194e+00
6.044971601633572611e+00
6.347480547461633371e+00
6.557703035126801083e+00
6.763419565186237215e+00
6.968231600528078218e+00
7.214612241043421470e+00
7.426345507575100591e+00
7.653820991809419994e+00
7.856785074157829563e+00
8.064988294121935297e+00
8.270659955619619197e+00
8.479717173062439883e+00
8.681301761332177236e+00
8.882038552858038116e+00
9.084984059412848367e+00
9.287472753942385140e+00
9.489455834754451757e+00
9.691621282371361445e+00
9.891633217982146675e+00
1.009467407920943316e+01
1.029531142462215598e+01
1.049644002921557906e+01
1.069697554894705327e+01
1.089744682250892183e+01
1.109755383015574992e+01
1.129800635074734494e+01
1.149812973554622175e+01
1.169840008873081771e+01
1.189882278390146197e+01
